0,0,0,-5.470000e+00,-2.600000e-01,-6.260000e+00,2.000000e+00,10,2.000000e+00
0,0,0,-5.210000e+00,-2.600000e-01,-6.260000e+00,3.333333e+00,10,3.333333e+00
0,0,0,-5.210000e+00,-2.600000e-01,-6.260000e+00,4.000000e+00,10,4.000000e+00
-3.370000e+00,1.050000e+00,8.740000e+00,7.800000e-01,-1.820000e+00,1.040000e+00,5.333333e+00,10,5.333333e+00
-2.970000e+00,-3.000000e-02,9.450000e+00,1.040000e+00,-1.560000e+00,1.560000e+00,6.000000e+00,10,6.000000e+00
-2.660000e+00,-9.000000e-02,9.690000e+00,1.300000e+00,-1.560000e+00,1.040000e+00,6.666667e+00,10,6.666667e+00
-2.600000e+00,-1.800000e-01,9.820000e+00,2.090000e+00,-1.560000e+00,1.820000e+00,7.333333e+00,10,7.333333e+00
-2.180000e+00,-2.800000e-01,1.007000e+01,2.090000e+00,-1.560000e+00,2.610000e+00,8.000000e+00,10,8.000000e+00
-2.240000e+00,-6.700000e-01,1.027000e+01,3.130000e+00,-1.560000e+00,2.610000e+00,8.666667e+00,10,8.666667e+00
-2,-8.600000e-01,1.050000e+01,3.650000e+00,-1.560000e+00,3.650000e+00,9.333333e+00,10,9.333333e+00
-1.870000e+00,-1.210000e+00,1.070000e+01,3.650000e+00,-1.560000e+00,3.390000e+00,10,10,10
-1.740000e+00,-1.300000e+00,1.076000e+01,4.950000e+00,-1.560000e+00,4.170000e+00,1.066667e+01,10,1.066667e+01
-1.500000e+00,-1.690000e+00,1.106000e+01,5.990000e+00,-1.560000e+00,5.730000e+00,1.133333e+01,10,1.133333e+01
-1.300000e+00,-2.220000e+00,1.133000e+01,5.730000e+00,-1.560000e+00,5.730000e+00,1.200000e+01,10,1.200000e+01
-1.290000e+00,-2.310000e+00,1.133000e+01,6.780000e+00,-1.560000e+00,6.260000e+00,1.266667e+01,10,1.266667e+01
-8.300000e-01,-2.620000e+00,1.152000e+01,6.780000e+00,-1.560000e+00,6.260000e+00,1.333333e+01,10,1.333333e+01
-9.100000e-01,-2.790000e+00,1.161000e+01,7.560000e+00,-1.820000e+00,7.040000e+00,1.400000e+01,10,1.400000e+01
-6.000000e-01,-2.950000e+00,1.172000e+01,7.560000e+00,-1.560000e+00,7.560000e+00,1.466667e+01,10,1.466667e+01
-5.600000e-01,-3.330000e+00,1.182000e+01,8.860000e+00,-1.560000e+00,8.860000e+00,1.533333e+01,10,1.533333e+01
-3.900000e-01,-3.740000e+00,1.200000e+01,8.860000e+00,-1.560000e+00,8.600000e+00,1.600000e+01,10,1.600000e+01
-3.000000e-01,-3.770000e+00,1.207000e+01,9.900000e+00,-1.300000e+00,9.640000e+00,1.666667e+01,10,1.666667e+01
-9.000000e-02,-4.260000e+00,1.218000e+01,9.900000e+00,-1.560000e+00,9.900000e+00,1.733333e+01,10,1.733333e+01
-2.000000e-02,-4.390000e+00,1.219000e+01,1.069000e+01,-1.300000e+00,1.095000e+01,1.800000e+01,10,1.800000e+01
1.000000e-01,-4.710000e+00,1.234000e+01,1.095000e+01,-1.820000e+00,1.069000e+01,1.866667e+01,10,1.866667e+01
1.900000e-01,-4.780000e+00,1.238000e+01,1.199000e+01,-1.820000e+00,1.173000e+01,1.933333e+01,10,1.933333e+01
4.100000e-01,-5.200000e+00,1.244000e+01,1.199000e+01,-1.560000e+00,1.225000e+01,20,10,20
4.900000e-01,-5.280000e+00,1.249000e+01,1.199000e+01,-1.300000e+00,1.173000e+01,1.933333e+01,10,1.933333e+01
4.500000e-01,-5.260000e+00,1.252000e+01,1.173000e+01,-1.560000e+00,1.043000e+01,1.866667e+01,10,1.866667e+01
6.000000e-01,-4.970000e+00,1.247000e+01,1.147000e+01,-1.560000e+00,1.043000e+01,1.800000e+01,10,1.800000e+01
5.800000e-01,-5,1.245000e+01,9.900000e+00,-1.560000e+00,9.900000e+00,1.733333e+01,10,1.733333e+01
1.000000e-02,-4.690000e+00,1.238000e+01,9.640000e+00,-1.300000e+00,9.640000e+00,1.666667e+01,10,1.666667e+01
-2.000000e-02,-4.540000e+00,1.237000e+01,9.380000e+00,-1.300000e+00,8.860000e+00,1.600000e+01,10,1.600000e+01
1.000000e-01,-4.300000e+00,1.230000e+01,8.860000e+00,-1.820000e+00,8.600000e+00,1.533333e+01,10,1.533333e+01
-1.200000e-01,-4.220000e+00,1.223000e+01,7.820000e+00,-1.300000e+00,7.300000e+00,1.466667e+01,10,1.466667e+01
-4.300000e-01,-3.750000e+00,1.216000e+01,7.560000e+00,-1.300000e+00,7.300000e+00,1.400000e+01,10,1.400000e+01
-5.200000e-01,-3.610000e+00,1.216000e+01,6.780000e+00,-1.300000e+00,6.260000e+00,1.333333e+01,10,1.333333e+01
-6.800000e-01,-3.230000e+00,1.203000e+01,6.520000e+00,-1.560000e+00,6.520000e+00,1.266667e+01,10,1.266667e+01
-7.000000e-01,-3.290000e+00,1.197000e+01,5.730000e+00,-1.560000e+00,5.990000e+00,1.200000e+01,10,1.200000e+01
-1.040000e+00,-3.090000e+00,1.183000e+01,5.470000e+00,-1.300000e+00,5.470000e+00,1.133333e+01,10,1.133333e+01
-1.090000e+00,-2.770000e+00,1.182000e+01,5.210000e+00,-1.300000e+00,4.170000e+00,1.066667e+01,10,1.066667e+01
-9.300000e-01,-2.270000e+00,1.175000e+01,4.430000e+00,-1.040000e+00,4.430000e+00,10,10,10
-1.390000e+00,-2.150000e+00,1.159000e+01,3.390000e+00,-1.560000e+00,3.130000e+00,9.333333e+00,10,9.333333e+00
-1.620000e+00,-1.770000e+00,1.135000e+01,3.130000e+00,-1.820000e+00,3.390000e+00,8.666667e+00,10,8.666667e+00
-1.640000e+00,-1.730000e+00,1.129000e+01,2.350000e+00,-1.560000e+00,2.350000e+00,8.000000e+00,10,8.000000e+00
-2,-1.160000e+00,1.108000e+01,2.090000e+00,-1.560000e+00,2.090000e+00,7.333333e+00,10,7.333333e+00
-2.070000e+00,-1.130000e+00,1.103000e+01,1.300000e+00,-1.560000e+00,1.300000e+00,6.666667e+00,10,6.666667e+00
-2.280000e+00,-6.800000e-01,1.075000e+01,1.300000e+00,-1.300000e+00,1.040000e+00,6.000000e+00,10,6.000000e+00
-2.720000e+00,2.000000e-02,1.036000e+01,-5.200000e-01,-1.300000e+00,-1.040000e+00,4.666667e+00,10,4.666667e+00
-3.190000e+00,6.300000e-01,9.910000e+00,-5.200000e-01,-1.560000e+00,-1.300000e+00,4.000000e+00,10,4.000000e+00
-3.240000e+00,6.700000e-01,9.840000e+00,-7.800000e-01,-1.560000e+00,-1.040000e+00,3.333333e+00,10,3.333333e+00
-3.240000e+00,7.000000e-01,9.780000e+00,-2.090000e+00,-1.820000e+00,-2.350000e+00,2.666667e+00,10,2.666667e+00
-3.700000e+00,1.250000e+00,9.210000e+00,-1.820000e+00,-1.300000e+00,-1.820000e+00,2.000000e+00,10,2.000000e+00
-3.860000e+00,1.410000e+00,9.130000e+00,-3.390000e+00,-1.300000e+00,-7.820000e+00,1.333333e+00,10,1.333333e+00
-1.830000e+00,4.820000e+00,6.080000e+00,-4.430000e+00,-1.300000e+00,-7.560000e+00,6.666667e-01,10,6.666667e-01
-2.270000e+00,5.030000e+00,5.020000e+00,-4.430000e+00,-1.560000e+00,-7.820000e+00,1.333333e+00,10,1.333333e+00
-2.720000e+00,5.040000e+00,4.430000e+00,-4.950000e+00,-1.300000e+00,-8.080000e+00,2.000000e+00,10,2.000000e+00
-3.120000e+00,5.070000e+00,4.030000e+00,-5.210000e+00,-1.560000e+00,-7.820000e+00,2.666667e+00,10,2.666667e+00
-3.360000e+00,5.090000e+00,3.680000e+00,-7.800000e-01,-1.560000e+00,-1.560000e+00,3.333333e+00,10,3.333333e+00
-3.820000e+00,1.100000e+00,9.360000e+00,-7.800000e-01,-1.560000e+00,-1.040000e+00,4.666667e+00,10,4.666667e+00
-3.590000e+00,1.320000e+00,9.300000e+00,-2.600000e-01,-1.300000e+00,2.600000e-01,5.333333e+00,10,5.333333e+00
-3.930000e+00,9.800000e-01,9.510000e+00,1.300000e+00,-1.040000e+00,1.300000e+00,6.000000e+00,10,6.000000e+00
-2.940000e+00,3.600000e-01,1.030000e+01,1.560000e+00,-1.040000e+00,1.040000e+00,6.666667e+00,10,6.666667e+00
-2.920000e+00,3.200000e-01,1.033000e+01,1.560000e+00,-1.560000e+00,1.820000e+00,7.333333e+00,10,7.333333e+00
-2.920000e+00,7.000000e-02,1.034000e+01,1.040000e+00,-1.820000e+00,2.350000e+00,8.000000e+00,10,8.000000e+00
-3.060000e+00,-3.200000e-01,1.045000e+01,3.650000e+00,-1.300000e+00,2.870000e+00,8.666667e+00,10,8.666667e+00
-1.970000e+00,-6.200000e-01,1.095000e+01,3.130000e+00,-1.560000e+00,3.390000e+00,9.333333e+00,10,9.333333e+00
-2.160000e+00,-9.000000e-01,1.104000e+01,3.650000e+00,-1.300000e+00,3.650000e+00,10,10,10
-2.040000e+00,-1.010000e+00,1.108000e+01,5.210000e+00,-1.560000e+00,4.690000e+00,1.066667e+01,10,1.066667e+01
-1.640000e+00,-1.480000e+00,1.135000e+01,5.730000e+00,-1.560000e+00,5.470000e+00,1.133333e+01,10,1.133333e+01
-1.520000e+00,-1.960000e+00,1.161000e+01,5.210000e+00,-1.560000e+00,5.470000e+00,1.200000e+01,10,1.200000e+01
-1.580000e+00,-1.980000e+00,1.163000e+01,6.780000e+00,-1.560000e+00,5.990000e+00,1.266667e+01,10,1.266667e+01
-1.100000e+00,-2.270000e+00,1.180000e+01,6.780000e+00,-1.820000e+00,6.260000e+00,1.333333e+01,10,1.333333e+01
-1.110000e+00,-2.580000e+00,1.185000e+01,7.560000e+00,-1.560000e+00,6.780000e+00,1.400000e+01,10,1.400000e+01
-8.600000e-01,-2.700000e+00,1.198000e+01,7.820000e+00,-1.300000e+00,7.820000e+00,1.466667e+01,10,1.466667e+01
-8.700000e-01,-3,1.210000e+01,9.380000e+00,-1.040000e+00,8.600000e+00,1.533333e+01,10,1.533333e+01
-6.100000e-01,-3.510000e+00,1.225000e+01,9.380000e+00,-1.300000e+00,8.600000e+00,1.600000e+01,10,1.600000e+01
-4.400000e-01,-3.630000e+00,1.227000e+01,1.016000e+01,-2.090000e+00,9.380000e+00,1.666667e+01,10,1.666667e+01
-3.000000e-01,-4.020000e+00,1.241000e+01,9.640000e+00,-1.560000e+00,9.640000e+00,1.733333e+01,10,1.733333e+01
-3.200000e-01,-4.040000e+00,1.247000e+01,1.095000e+01,-1.560000e+00,1.095000e+01,1.800000e+01,10,1.800000e+01
-1.000000e-01,-4.460000e+00,1.256000e+01,1.121000e+01,-1.300000e+00,1.095000e+01,1.866667e+01,10,1.866667e+01
2.000000e-02,-4.590000e+00,1.257000e+01,1.173000e+01,-1.560000e+00,1.147000e+01,1.933333e+01,10,1.933333e+01
1.700000e-01,-4.950000e+00,1.266000e+01,1.199000e+01,-1.560000e+00,1.199000e+01,20,10,20
2.600000e-01,-5,1.272000e+01,1.199000e+01,-1.560000e+00,1.147000e+01,1.933333e+01,10,1.933333e+01
2.600000e-01,-5.040000e+00,1.271000e+01,1.173000e+01,-1.820000e+00,1.095000e+01,1.866667e+01,10,1.866667e+01
4.300000e-01,-4.780000e+00,1.266000e+01,1.173000e+01,-1.820000e+00,1.069000e+01,1.800000e+01,10,1.800000e+01
3.700000e-01,-4.770000e+00,1.265000e+01,9.900000e+00,-1.300000e+00,9.900000e+00,1.733333e+01,10,1.733333e+01
-1.000000e-01,-4.430000e+00,1.256000e+01,9.900000e+00,-1.560000e+00,9.900000e+00,1.666667e+01,10,1.666667e+01
-1.800000e-01,-4.370000e+00,1.255000e+01,9.640000e+00,-2.090000e+00,9.380000e+00,1.600000e+01,10,1.600000e+01
-1.200000e-01,-4.250000e+00,1.249000e+01,8.600000e+00,-1.560000e+00,8.340000e+00,1.533333e+01,10,1.533333e+01
-2.800000e-01,-4,1.239000e+01,7.560000e+00,-1.300000e+00,7.300000e+00,1.466667e+01,10,1.466667e+01
-5.500000e-01,-3.570000e+00,1.230000e+01,8.080000e+00,-1.560000e+00,7.560000e+00,1.400000e+01,10,1.400000e+01
-6.600000e-01,-3.500000e+00,1.230000e+01,6.520000e+00,-1.560000e+00,6.520000e+00,1.333333e+01,10,1.333333e+01
-8.400000e-01,-3.150000e+00,1.214000e+01,6.520000e+00,-2.090000e+00,6.260000e+00,1.266667e+01,10,1.266667e+01
-8.600000e-01,-3.120000e+00,1.209000e+01,5.470000e+00,-1.560000e+00,5.210000e+00,1.200000e+01,10,1.200000e+01
-1.100000e+00,-2.710000e+00,1.194000e+01,5.470000e+00,-1.560000e+00,5.210000e+00,1.133333e+01,10,1.133333e+01
-1.220000e+00,-2.620000e+00,1.194000e+01,4.430000e+00,-1.560000e+00,4.430000e+00,1.066667e+01,10,1.066667e+01
-1.400000e+00,-2.200000e+00,1.174000e+01,4.430000e+00,-1.300000e+00,3.910000e+00,10,10,10
-1.360000e+00,-2.050000e+00,1.168000e+01,3.650000e+00,-1.820000e+00,3.130000e+00,9.333333e+00,10,9.333333e+00
-1.700000e+00,-1.620000e+00,1.147000e+01,3.130000e+00,-1.560000e+00,2.870000e+00,8.666667e+00,10,8.666667e+00
-1.810000e+00,-1.540000e+00,1.145000e+01,2.350000e+00,-1.560000e+00,2.090000e+00,8.000000e+00,10,8.000000e+00
-2.110000e+00,-1.040000e+00,1.118000e+01,2.350000e+00,-1.560000e+00,2.090000e+00,7.333333e+00,10,7.333333e+00
-2.140000e+00,-1.030000e+00,1.113000e+01,1.560000e+00,-1.820000e+00,1.040000e+00,6.666667e+00,10,6.666667e+00
-2.450000e+00,-5.600000e-01,1.083000e+01,1.300000e+00,-1.560000e+00,7.800000e-01,6.000000e+00,10,6.000000e+00
-2.910000e+00,1.400000e-01,1.043000e+01,-7.800000e-01,-1.560000e+00,-1.040000e+00,4.666667e+00,10,4.666667e+00
-3.290000e+00,6.800000e-01,9.980000e+00,-1.040000e+00,-1.820000e+00,-1.560000e+00,4.000000e+00,10,4.000000e+00
-3.330000e+00,7.100000e-01,9.900000e+00,-1.040000e+00,-1.560000e+00,-1.300000e+00,3.333333e+00,10,3.333333e+00
-3.360000e+00,7.700000e-01,9.850000e+00,-2.090000e+00,-1.560000e+00,-2.090000e+00,2.666667e+00,10,2.666667e+00
-3.800000e+00,1.410000e+00,9.320000e+00,-2.090000e+00,-1.560000e+00,-2.350000e+00,2.000000e+00,10,2.000000e+00
-4.060000e+00,1.490000e+00,9.170000e+00,-3.130000e+00,-1.560000e+00,-7.820000e+00,1.333333e+00,10,1.333333e+00
-1.600000e+00,4.810000e+00,6.430000e+00,-3.910000e+00,-1.560000e+00,-8.080000e+00,6.666667e-01,10,6.666667e-01
-1.930000e+00,5.020000e+00,5.510000e+00,-4.430000e+00,-1.560000e+00,-7.820000e+00,1.333333e+00,10,1.333333e+00
-2.410000e+00,5.070000e+00,5.050000e+00,-4.690000e+00,-1.300000e+00,-8.080000e+00,2.000000e+00,10,2.000000e+00
-2.750000e+00,5.150000e+00,4.600000e+00,-4.950000e+00,-1.560000e+00,-8.080000e+00,2.666667e+00,10,2.666667e+00
-3.030000e+00,5.160000e+00,4.290000e+00,-1.040000e+00,-1.820000e+00,-1.040000e+00,3.333333e+00,10,3.333333e+00
-3.640000e+00,1.870000e+00,9.030000e+00,-5.200000e-01,-1.560000e+00,-7.800000e-01,4.000000e+00,10,4.000000e+00
-3.590000e+00,1.210000e+00,9.510000e+00,-2.600000e-01,-1.820000e+00,-1.300000e+00,4.666667e+00,10,4.666667e+00
-3.750000e+00,9.400000e-01,9.670000e+00,1.560000e+00,-1.560000e+00,1.040000e+00,6.000000e+00,10,6.000000e+00
-2.880000e+00,2.600000e-01,1.033000e+01,1.560000e+00,-1.300000e+00,1.300000e+00,6.666667e+00,10,6.666667e+00
-2.880000e+00,2.400000e-01,1.035000e+01,1.300000e+00,-1.560000e+00,1.560000e+00,7.333333e+00,10,7.333333e+00
-2.970000e+00,1.600000e-01,1.040000e+01,2.610000e+00,-1.820000e+00,2.090000e+00,8.000000e+00,10,8.000000e+00
-2.550000e+00,-2.600000e-01,1.076000e+01,3.910000e+00,-1.560000e+00,2.870000e+00,8.666667e+00,10,8.666667e+00
-2.020000e+00,-5.800000e-01,1.102000e+01,3.390000e+00,-1.560000e+00,3.650000e+00,9.333333e+00,10,9.333333e+00
-2.140000e+00,-8.900000e-01,1.110000e+01,3.910000e+00,-1.560000e+00,3.650000e+00,10,10,10
-1.980000e+00,-9.800000e-01,1.122000e+01,4.950000e+00,-1.560000e+00,4.170000e+00,1.066667e+01,10,1.066667e+01
-1.780000e+00,-1.330000e+00,1.145000e+01,5.730000e+00,-1.300000e+00,5.470000e+00,1.133333e+01,10,1.133333e+01
-1.600000e+00,-1.870000e+00,1.171000e+01,5.210000e+00,-1.560000e+00,5.470000e+00,1.200000e+01,10,1.200000e+01
-1.590000e+00,-2.040000e+00,1.173000e+01,6.260000e+00,-1.560000e+00,6.260000e+00,1.266667e+01,10,1.266667e+01
-1.480000e+00,-2.290000e+00,1.180000e+01,6.780000e+00,-1.820000e+00,6.520000e+00,1.333333e+01,10,1.333333e+01
-1.200000e+00,-2.460000e+00,1.195000e+01,7.820000e+00,-1.300000e+00,7.300000e+00,1.400000e+01,10,1.400000e+01
-9.200000e-01,-2.670000e+00,1.215000e+01,7.560000e+00,-1.300000e+00,7.820000e+00,1.466667e+01,10,1.466667e+01
-1.020000e+00,-2.860000e+00,1.223000e+01,8.600000e+00,-1.040000e+00,8.600000e+00,1.533333e+01,10,1.533333e+01
-7.900000e-01,-3.310000e+00,1.235000e+01,9.640000e+00,-1.560000e+00,8.860000e+00,1.600000e+01,10,1.600000e+01
-5.800000e-01,-3.520000e+00,1.238000e+01,9.900000e+00,-1.820000e+00,9.640000e+00,1.666667e+01,10,1.666667e+01
-3.400000e-01,-3.970000e+00,1.248000e+01,9.900000e+00,-1.560000e+00,1.016000e+01,1.733333e+01,10,1.733333e+01
-3.500000e-01,-4.040000e+00,1.252000e+01,1.069000e+01,-1.560000e+00,1.069000e+01,1.800000e+01,10,1.800000e+01
-2.100000e-01,-4.340000e+00,1.265000e+01,1.121000e+01,-1.300000e+00,1.069000e+01,1.866667e+01,10,1.866667e+01
-8.000000e-02,-4.490000e+00,1.267000e+01,1.173000e+01,-1.820000e+00,1.147000e+01,1.933333e+01,10,1.933333e+01
1.500000e-01,-4.830000e+00,1.272000e+01,1.199000e+01,-1.560000e+00,1.199000e+01,20,10,20
1.900000e-01,-4.930000e+00,1.280000e+01,1.199000e+01,-1.300000e+00,1.173000e+01,1.933333e+01,10,1.933333e+01
1.200000e-01,-4.890000e+00,1.283000e+01,1.173000e+01,-1.040000e+00,1.095000e+01,1.866667e+01,10,1.866667e+01
2.100000e-01,-4.590000e+00,1.281000e+01,1.121000e+01,-1.300000e+00,1.069000e+01,1.800000e+01,10,1.800000e+01
2.300000e-01,-4.570000e+00,1.278000e+01,1.016000e+01,-1.560000e+00,9.640000e+00,1.733333e+01,10,1.733333e+01
-1.700000e-01,-4.300000e+00,1.262000e+01,9.640000e+00,-1.820000e+00,9.640000e+00,1.666667e+01,10,1.666667e+01
-2.200000e-01,-4.340000e+00,1.258000e+01,9.640000e+00,-1.820000e+00,9.380000e+00,1.600000e+01,10,1.600000e+01
-2.800000e-01,-4.200000e+00,1.259000e+01,8.860000e+00,-1.560000e+00,8.860000e+00,1.533333e+01,10,1.533333e+01
-4.700000e-01,-3.820000e+00,1.251000e+01,7.560000e+00,-1.560000e+00,7.560000e+00,1.466667e+01,10,1.466667e+01
-6.600000e-01,-3.480000e+00,1.237000e+01,7.560000e+00,-1.560000e+00,7.560000e+00,1.400000e+01,10,1.400000e+01
-6.900000e-01,-3.480000e+00,1.233000e+01,6.780000e+00,-1.820000e+00,6.520000e+00,1.333333e+01,10,1.333333e+01
-8.800000e-01,-3.080000e+00,1.219000e+01,6.520000e+00,-1.560000e+00,6.260000e+00,1.266667e+01,10,1.266667e+01
-9.900000e-01,-2.970000e+00,1.219000e+01,5.990000e+00,-1.560000e+00,5.470000e+00,1.200000e+01,10,1.200000e+01
-1.210000e+00,-2.570000e+00,1.204000e+01,5.730000e+00,-1.820000e+00,5.470000e+00,1.133333e+01,10,1.133333e+01
-1.260000e+00,-2.550000e+00,1.200000e+01,5.210000e+00,-1.560000e+00,4.950000e+00,1.066667e+01,10,1.066667e+01
-1.240000e+00,-2.430000e+00,1.192000e+01,3.910000e+00,-1.560000e+00,3.910000e+00,10,10,10
-1.640000e+00,-1.960000e+00,1.168000e+01,3.390000e+00,-1.560000e+00,3.130000e+00,9.333333e+00,10,9.333333e+00
-1.910000e+00,-1.500000e+00,1.151000e+01,3.130000e+00,-1.560000e+00,3.130000e+00,8.666667e+00,10,8.666667e+00
-1.980000e+00,-1.450000e+00,1.148000e+01,2.350000e+00,-1.820000e+00,2.350000e+00,8.000000e+00,10,8.000000e+00
-2.190000e+00,-1.010000e+00,1.122000e+01,2.350000e+00,-1.820000e+00,2.350000e+00,7.333333e+00,10,7.333333e+00
-2.220000e+00,-1,1.117000e+01,1.300000e+00,-1.300000e+00,1.300000e+00,6.666667e+00,10,6.666667e+00
-2.490000e+00,-4.600000e-01,1.090000e+01,1.040000e+00,-1.560000e+00,1.040000e+00,6.000000e+00,10,6.000000e+00
-2.950000e+00,1.900000e-01,1.046000e+01,-5.200000e-01,-1.820000e+00,-1.300000e+00,4.666667e+00,10,4.666667e+00
-3.270000e+00,7.100000e-01,1.003000e+01,-1.040000e+00,-1.820000e+00,-1.040000e+00,4.000000e+00,10,4.000000e+00
-3.360000e+00,7.800000e-01,9.950000e+00,-7.800000e-01,-1.560000e+00,-1.300000e+00,3.333333e+00,10,3.333333e+00
-3.460000e+00,9.100000e-01,9.910000e+00,-1.820000e+00,-1.300000e+00,-1.820000e+00,2.666667e+00,10,2.666667e+00
-3.980000e+00,1.550000e+00,9.330000e+00,-1.820000e+00,-1.300000e+00,-2.090000e+00,2.000000e+00,10,2.000000e+00
-4.100000e+00,1.640000e+00,9.230000e+00,-3.130000e+00,-1.560000e+00,-7.300000e+00,1.333333e+00,10,1.333333e+00
-1.680000e+00,4.860000e+00,6.550000e+00,-4.170000e+00,-1.560000e+00,-7.820000e+00,6.666667e-01,10,6.666667e-01
-1.990000e+00,5.100000e+00,5.620000e+00,-4.170000e+00,-1.560000e+00,-7.820000e+00,1.333333e+00,10,1.333333e+00
-2.410000e+00,5.120000e+00,5.140000e+00,-4.690000e+00,-1.560000e+00,-7.820000e+00,2.000000e+00,10,2.000000e+00
-2.790000e+00,5.170000e+00,4.750000e+00,-4.430000e+00,-1.560000e+00,-7.560000e+00,2.666667e+00,10,2.666667e+00
-3.060000e+00,5.180000e+00,4.430000e+00,-5.200000e-01,-1.820000e+00,-7.800000e-01,3.333333e+00,10,3.333333e+00
-3.690000e+00,1.870000e+00,9.090000e+00,-5.200000e-01,-1.820000e+00,-5.200000e-01,4.000000e+00,10,4.000000e+00
-3.570000e+00,1.350000e+00,9.540000e+00,-5.200000e-01,-1.300000e+00,-1.040000e+00,4.666667e+00,10,4.666667e+00
-3.710000e+00,1,9.760000e+00,1.560000e+00,-1.560000e+00,1.300000e+00,6.000000e+00,10,6.000000e+00
-3.010000e+00,3.400000e-01,1.035000e+01,1.300000e+00,-1.560000e+00,1.040000e+00,6.666667e+00,10,6.666667e+00
-2.980000e+00,2.800000e-01,1.038000e+01,2.090000e+00,-1.560000e+00,1.300000e+00,7.333333e+00,10,7.333333e+00
-2.510000e+00,1.700000e-01,1.065000e+01,2.090000e+00,-1.300000e+00,2.090000e+00,8.000000e+00,10,8.000000e+00
-2.680000e+00,-1.400000e-01,1.080000e+01,2.870000e+00,-1.300000e+00,2.610000e+00,8.666667e+00,10,8.666667e+00
-2.530000e+00,-3.800000e-01,1.097000e+01,3.390000e+00,-1.560000e+00,3.130000e+00,9.333333e+00,10,9.333333e+00
-2.260000e+00,-7.800000e-01,1.117000e+01,3.910000e+00,-1.560000e+00,3.390000e+00,10,10,10
-1.990000e+00,-9.000000e-01,1.125000e+01,4.430000e+00,-1.560000e+00,4.170000e+00,1.066667e+01,10,1.066667e+01
-1.840000e+00,-1.340000e+00,1.147000e+01,5.730000e+00,-1.300000e+00,5.730000e+00,1.133333e+01,10,1.133333e+01
-1.650000e+00,-1.830000e+00,1.175000e+01,5.470000e+00,-1.560000e+00,5.470000e+00,1.200000e+01,10,1.200000e+01
-1.590000e+00,-1.910000e+00,1.176000e+01,6.520000e+00,-1.300000e+00,5.730000e+00,1.266667e+01,10,1.266667e+01
-1.360000e+00,-2.190000e+00,1.187000e+01,6.780000e+00,-1.820000e+00,6.520000e+00,1.333333e+01,10,1.333333e+01
-1.230000e+00,-2.460000e+00,1.198000e+01,7.300000e+00,-1.560000e+00,6.520000e+00,1.400000e+01,10,1.400000e+01
-1,-2.620000e+00,1.212000e+01,7.820000e+00,-1.560000e+00,7.300000e+00,1.466667e+01,10,1.466667e+01
-9.900000e-01,-2.930000e+00,1.222000e+01,9.120000e+00,-1.300000e+00,8.600000e+00,1.533333e+01,10,1.533333e+01
-7.600000e-01,-3.420000e+00,1.235000e+01,8.860000e+00,-1.820000e+00,8.860000e+00,1.600000e+01,10,1.600000e+01
-6.500000e-01,-3.540000e+00,1.237000e+01,9.900000e+00,-1.820000e+00,9.380000e+00,1.666667e+01,10,1.666667e+01
-4.600000e-01,-3.900000e+00,1.252000e+01,1.043000e+01,-1.560000e+00,9.640000e+00,1.733333e+01,10,1.733333e+01
-4.400000e-01,-3.950000e+00,1.259000e+01,1.095000e+01,-1.560000e+00,1.043000e+01,1.800000e+01,10,1.800000e+01
-2.200000e-01,-4.310000e+00,1.270000e+01,1.095000e+01,-1.820000e+00,1.069000e+01,1.866667e+01,10,1.866667e+01
-1.300000e-01,-4.460000e+00,1.271000e+01,1.147000e+01,-1.820000e+00,1.173000e+01,1.933333e+01,10,1.933333e+01
7.000000e-02,-4.820000e+00,1.276000e+01,1.173000e+01,-1.820000e+00,1.173000e+01,20,10,20
1.400000e-01,-4.910000e+00,1.283000e+01,1.147000e+01,-1.300000e+00,1.147000e+01,1.933333e+01,10,1.933333e+01
8.000000e-02,-4.870000e+00,1.285000e+01,1.173000e+01,-1.300000e+00,1.069000e+01,1.866667e+01,10,1.866667e+01
2.400000e-01,-4.600000e+00,1.280000e+01,1.199000e+01,-1.560000e+00,1.069000e+01,1.800000e+01,10,1.800000e+01
2.200000e-01,-4.650000e+00,1.277000e+01,9.640000e+00,-1.300000e+00,9.640000e+00,1.733333e+01,10,1.733333e+01
-1.900000e-01,-4.330000e+00,1.263000e+01,9.640000e+00,-1.820000e+00,9.380000e+00,1.666667e+01,10,1.666667e+01
-3.000000e-01,-4.300000e+00,1.264000e+01,9.640000e+00,-1.560000e+00,9.120000e+00,1.600000e+01,10,1.600000e+01
-2.900000e-01,-4.130000e+00,1.261000e+01,8.600000e+00,-1.820000e+00,8.080000e+00,1.533333e+01,10,1.533333e+01
-4.400000e-01,-3.870000e+00,1.252000e+01,7.820000e+00,-1.820000e+00,7.300000e+00,1.466667e+01,10,1.466667e+01
-6.500000e-01,-3.510000e+00,1.238000e+01,7.560000e+00,-1.560000e+00,7.560000e+00,1.400000e+01,10,1.400000e+01
-7.100000e-01,-3.490000e+00,1.235000e+01,6.780000e+00,-1.560000e+00,5.990000e+00,1.333333e+01,10,1.333333e+01
-9.300000e-01,-2.990000e+00,1.225000e+01,6.520000e+00,-1.300000e+00,6.520000e+00,1.266667e+01,10,1.266667e+01
-1.090000e+00,-2.880000e+00,1.226000e+01,5.730000e+00,-1.300000e+00,5.990000e+00,1.200000e+01,10,1.200000e+01
-1.420000e+00,-2.640000e+00,1.211000e+01,5.470000e+00,-2.090000e+00,4.950000e+00,1.133333e+01,10,1.133333e+01
-1.320000e+00,-2.510000e+00,1.203000e+01,4.690000e+00,-1.560000e+00,4.430000e+00,1.066667e+01,10,1.066667e+01
-1.380000e+00,-2.080000e+00,1.185000e+01,4.690000e+00,-1.820000e+00,3.910000e+00,10,10,10
-1.490000e+00,-2,1.178000e+01,3.130000e+00,-1.560000e+00,3.130000e+00,9.333333e+00,10,9.333333e+00
-1.920000e+00,-1.450000e+00,1.156000e+01,3.390000e+00,-1.560000e+00,3.390000e+00,8.666667e+00,10,8.666667e+00
-1.990000e+00,-1.420000e+00,1.152000e+01,2.610000e+00,-1.560000e+00,2.350000e+00,8.000000e+00,10,8.000000e+00
-2.200000e+00,-1,1.126000e+01,2.350000e+00,-1.820000e+00,2.090000e+00,7.333333e+00,10,7.333333e+00
-2.230000e+00,-9.600000e-01,1.121000e+01,1.040000e+00,-1.560000e+00,1.300000e+00,6.666667e+00,10,6.666667e+00
-2.580000e+00,-4.000000e-01,1.093000e+01,1.040000e+00,-1.560000e+00,7.800000e-01,6.000000e+00,10,6.000000e+00
-2.710000e+00,-2.900000e-01,1.089000e+01,2.600000e-01,-1.560000e+00,-2.600000e-01,5.333333e+00,10,5.333333e+00
-3.060000e+00,2.900000e-01,1.051000e+01,-7.800000e-01,-1.560000e+00,-1.040000e+00,4.666667e+00,10,4.666667e+00
-3.390000e+00,8.000000e-01,1.007000e+01,-7.800000e-01,-1.560000e+00,-1.040000e+00,4.000000e+00,10,4.000000e+00
-3.420000e+00,8.300000e-01,9.990000e+00,-1.040000e+00,-1.560000e+00,-1.300000e+00,3.333333e+00,10,3.333333e+00
-3.420000e+00,8.500000e-01,9.940000e+00,-1.820000e+00,-1.560000e+00,-2.090000e+00,2.666667e+00,10,2.666667e+00
-3.980000e+00,1.490000e+00,9.340000e+00,-1.560000e+00,-1.560000e+00,-2.350000e+00,2.000000e+00,10,2.000000e+00
-4.060000e+00,1.600000e+00,9.260000e+00,-3.910000e+00,-1.560000e+00,-7.820000e+00,1.333333e+00,10,1.333333e+00
-2.060000e+00,4.930000e+00,6.300000e+00,-4.430000e+00,-2.090000e+00,-7.820000e+00,6.666667e-01,10,6.666667e-01
-2.450000e+00,5.160000e+00,5.260000e+00,-4.950000e+00,-1.820000e+00,-7.820000e+00,1.333333e+00,10,1.333333e+00
-2.890000e+00,5.190000e+00,4.710000e+00,-4.950000e+00,-1.820000e+00,-7.820000e+00,2.000000e+00,10,2.000000e+00
-3.230000e+00,5.240000e+00,4.290000e+00,-5.470000e+00,-1.560000e+00,-8.080000e+00,2.666667e+00,10,2.666667e+00
-3.490000e+00,5.240000e+00,3.990000e+00,-7.800000e-01,-1.820000e+00,-1.300000e+00,3.333333e+00,10,3.333333e+00
-3.530000e+00,1.950000e+00,9.170000e+00,-2.600000e-01,-1.560000e+00,-2.600000e-01,4.000000e+00,10,4.000000e+00
-3.760000e+00,1.250000e+00,9.570000e+00,-5.200000e-01,-1.820000e+00,-1.040000e+00,4.666667e+00,10,4.666667e+00
-4.030000e+00,1.090000e+00,9.690000e+00,1.300000e+00,-1.560000e+00,1.040000e+00,6.000000e+00,10,6.000000e+00
-3.020000e+00,4.200000e-01,1.044000e+01,1.560000e+00,-1.560000e+00,1.040000e+00,6.666667e+00,10,6.666667e+00
-2.950000e+00,3.400000e-01,1.046000e+01,1.300000e+00,-2.090000e+00,1.300000e+00,7.333333e+00,10,7.333333e+00
-3.020000e+00,1.700000e-01,1.049000e+01,2.610000e+00,-1.820000e+00,2.350000e+00,8.000000e+00,10,8.000000e+00
-2.700000e+00,-2.300000e-01,1.079000e+01,3.650000e+00,-1.560000e+00,2.870000e+00,8.666667e+00,10,8.666667e+00
-2.150000e+00,-4.400000e-01,1.113000e+01,3.650000e+00,-1.040000e+00,3.390000e+00,9.333333e+00,10,9.333333e+00
-2.360000e+00,-6.900000e-01,1.121000e+01,3.910000e+00,-1.820000e+00,3.130000e+00,10,10,10
-2.070000e+00,-7.900000e-01,1.131000e+01,4.690000e+00,-1.560000e+00,4.430000e+00,1.066667e+01,10,1.066667e+01
-1.840000e+00,-1.280000e+00,1.152000e+01,5.470000e+00,-1.820000e+00,5.470000e+00,1.133333e+01,10,1.133333e+01
-1.620000e+00,-1.890000e+00,1.175000e+01,5.990000e+00,-1.560000e+00,5.470000e+00,1.200000e+01,10,1.200000e+01
-1.600000e+00,-1.880000e+00,1.179000e+01,5.990000e+00,-1.820000e+00,5.990000e+00,1.266667e+01,10,1.266667e+01
-1.500000e+00,-2.120000e+00,1.193000e+01,6.780000e+00,-1.560000e+00,6.520000e+00,1.333333e+01,10,1.333333e+01
-1.290000e+00,-2.410000e+00,1.203000e+01,7.560000e+00,-1.820000e+00,6.780000e+00,1.400000e+01,10,1.400000e+01
-8.500000e-01,-2.620000e+00,1.214000e+01,8.340000e+00,-1.300000e+00,7.560000e+00,1.466667e+01,10,1.466667e+01
-9.500000e-01,-2.920000e+00,1.224000e+01,8.600000e+00,-1.560000e+00,8.340000e+00,1.533333e+01,10,1.533333e+01
-8.200000e-01,-3.350000e+00,1.241000e+01,9.120000e+00,-1.300000e+00,8.340000e+00,1.600000e+01,10,1.600000e+01
-6.600000e-01,-3.450000e+00,1.245000e+01,9.640000e+00,-1.820000e+00,9.640000e+00,1.666667e+01,10,1.666667e+01
-4.400000e-01,-3.910000e+00,1.256000e+01,1.016000e+01,-1.820000e+00,9.640000e+00,1.733333e+01,10,1.733333e+01
-4.000000e-01,-4,1.258000e+01,1.069000e+01,-1.560000e+00,1.095000e+01,1.800000e+01,10,1.800000e+01
-2.600000e-01,-4.300000e+00,1.272000e+01,1.121000e+01,-1.300000e+00,1.069000e+01,1.866667e+01,10,1.866667e+01
-2.000000e-01,-4.360000e+00,1.277000e+01,1.199000e+01,-1.300000e+00,1.147000e+01,1.933333e+01,10,1.933333e+01
-2.000000e-02,-4.640000e+00,1.287000e+01,1.199000e+01,-1.300000e+00,1.199000e+01,20,10,20
8.000000e-02,-4.830000e+00,1.289000e+01,1.199000e+01,-1.560000e+00,1.147000e+01,1.933333e+01,10,1.933333e+01
1.000000e-01,-4.880000e+00,1.286000e+01,1.173000e+01,-1.560000e+00,1.069000e+01,1.866667e+01,10,1.866667e+01
2.600000e-01,-4.640000e+00,1.281000e+01,1.147000e+01,-1.560000e+00,1.095000e+01,1.800000e+01,10,1.800000e+01
1.600000e-01,-4.570000e+00,1.283000e+01,1.016000e+01,-1.560000e+00,9.380000e+00,1.733333e+01,10,1.733333e+01
-3.000000e-01,-4.220000e+00,1.272000e+01,9.640000e+00,-1.820000e+00,9.640000e+00,1.666667e+01,10,1.666667e+01
-3.300000e-01,-4.210000e+00,1.267000e+01,9.640000e+00,-1.560000e+00,9.120000e+00,1.600000e+01,10,1.600000e+01
-3.100000e-01,-4.150000e+00,1.263000e+01,8.600000e+00,-1.560000e+00,8.340000e+00,1.533333e+01,10,1.533333e+01
-4.500000e-01,-3.850000e+00,1.254000e+01,7.820000e+00,-1.300000e+00,7.560000e+00,1.466667e+01,10,1.466667e+01
-7.300000e-01,-3.430000e+00,1.243000e+01,7.560000e+00,-1.560000e+00,7.300000e+00,1.400000e+01,10,1.400000e+01
-8.000000e-01,-3.380000e+00,1.241000e+01,6.780000e+00,-1.560000e+00,6.260000e+00,1.333333e+01,10,1.333333e+01
-9.500000e-01,-3.030000e+00,1.225000e+01,7.040000e+00,-1.560000e+00,6.260000e+00,1.266667e+01,10,1.266667e+01
-9.900000e-01,-3.010000e+00,1.222000e+01,5.470000e+00,-1.300000e+00,5.470000e+00,1.200000e+01,10,1.200000e+01
-1.280000e+00,-2.570000e+00,1.208000e+01,5.210000e+00,-1.040000e+00,5.210000e+00,1.133333e+01,10,1.133333e+01
-1.370000e+00,-2.450000e+00,1.207000e+01,4.690000e+00,-1.560000e+00,4.690000e+00,1.066667e+01,10,1.066667e+01
-1.640000e+00,-2.080000e+00,1.187000e+01,4.430000e+00,-1.560000e+00,4.170000e+00,10,10,10
-1.550000e+00,-1.880000e+00,1.179000e+01,3.390000e+00,-1.560000e+00,3.130000e+00,9.333333e+00,10,9.333333e+00
-1.790000e+00,-1.510000e+00,1.159000e+01,3.650000e+00,-1.560000e+00,3.130000e+00,8.666667e+00,10,8.666667e+00
-1.900000e+00,-1.370000e+00,1.156000e+01,2.350000e+00,-1.300000e+00,2.090000e+00,8.000000e+00,10,8.000000e+00
-2.280000e+00,-9.000000e-01,1.130000e+01,2.350000e+00,-1.560000e+00,2.090000e+00,7.333333e+00,10,7.333333e+00
-2.360000e+00,-8.400000e-01,1.126000e+01,1.300000e+00,-1.560000e+00,7.800000e-01,6.666667e+00,10,6.666667e+00
-2.620000e+00,-3.800000e-01,1.095000e+01,1.040000e+00,-1.820000e+00,1.040000e+00,6.000000e+00,10,6.000000e+00
-2.950000e+00,1.500000e-01,1.051000e+01,-7.800000e-01,-1.560000e+00,-7.800000e-01,4.666667e+00,10,4.666667e+00
-3.390000e+00,8.000000e-01,1.009000e+01,-7.800000e-01,-1.560000e+00,-1.300000e+00,4.000000e+00,10,4.000000e+00
-3.510000e+00,9.300000e-01,1.003000e+01,-7.800000e-01,-1.300000e+00,-1.040000e+00,3.333333e+00,10,3.333333e+00
-3.540000e+00,1.040000e+00,9.970000e+00,-1.820000e+00,-1.040000e+00,-2.090000e+00,2.666667e+00,10,2.666667e+00
-4.030000e+00,1.570000e+00,9.390000e+00,-2.090000e+00,-1.300000e+00,-2.090000e+00,2.000000e+00,10,2.000000e+00
-4.080000e+00,1.590000e+00,9.280000e+00,-3.130000e+00,-1.300000e+00,-7.820000e+00,1.333333e+00,10,1.333333e+00
-1.660000e+00,4.860000e+00,6.630000e+00,-3.650000e+00,-1.820000e+00,-7.560000e+00,6.666667e-01,10,6.666667e-01
-2.030000e+00,5.120000e+00,5.730000e+00,-3.910000e+00,-1.300000e+00,-7.820000e+00,1.333333e+00,10,1.333333e+00
-2.510000e+00,5.210000e+00,5.250000e+00,-4.690000e+00,-1.820000e+00,-7.820000e+00,2.000000e+00,10,2.000000e+00
-2.800000e+00,5.220000e+00,4.870000e+00,-4.950000e+00,-1.820000e+00,-7.820000e+00,2.666667e+00,10,2.666667e+00
-3.030000e+00,5.210000e+00,4.550000e+00,-7.800000e-01,-1.560000e+00,-1.300000e+00,3.333333e+00,10,3.333333e+00
-3.690000e+00,1.140000e+00,9.930000e+00,1.560000e+00,-1.300000e+00,1.040000e+00,6.000000e+00,10,6.000000e+00
-3.040000e+00,3.900000e-01,1.045000e+01,1.040000e+00,-1.820000e+00,1.040000e+00,6.666667e+00,10,6.666667e+00
-2.990000e+00,3.100000e-01,1.046000e+01,1.560000e+00,-1.560000e+00,1.040000e+00,7.333333e+00,10,7.333333e+00
-2.910000e+00,2.000000e-01,1.057000e+01,2.610000e+00,-1.560000e+00,2.090000e+00,8.000000e+00,10,8.000000e+00
-2.670000e+00,-1.400000e-01,1.088000e+01,3.390000e+00,-1.300000e+00,2.870000e+00,8.666667e+00,10,8.666667e+00
-2.230000e+00,-4.100000e-01,1.115000e+01,3.130000e+00,-1.560000e+00,3.130000e+00,9.333333e+00,10,9.333333e+00
-2.310000e+00,-7.400000e-01,1.124000e+01,3.910000e+00,-1.300000e+00,3.390000e+00,10,10,10
-2.110000e+00,-8.300000e-01,1.129000e+01,4.950000e+00,-1.820000e+00,4.430000e+00,1.066667e+01,10,1.066667e+01
-1.830000e+00,-1.340000e+00,1.153000e+01,6.260000e+00,-1.820000e+00,5.210000e+00,1.133333e+01,10,1.133333e+01
-1.650000e+00,-1.840000e+00,1.180000e+01,5.470000e+00,-1.560000e+00,5.730000e+00,1.200000e+01,10,1.200000e+01
-1.650000e+00,-1.850000e+00,1.183000e+01,6.260000e+00,-1.560000e+00,5.730000e+00,1.266667e+01,10,1.266667e+01
-1.540000e+00,-2.170000e+00,1.193000e+01,6.520000e+00,-2.090000e+00,6.260000e+00,1.333333e+01,10,1.333333e+01
-1.290000e+00,-2.460000e+00,1.204000e+01,7.560000e+00,-1.560000e+00,6.520000e+00,1.400000e+01,10,1.400000e+01
-9.600000e-01,-2.580000e+00,1.219000e+01,8.080000e+00,-1.300000e+00,7.820000e+00,1.466667e+01,10,1.466667e+01
-1.060000e+00,-2.860000e+00,1.228000e+01,8.860000e+00,-1.560000e+00,8.860000e+00,1.533333e+01,10,1.533333e+01
-9.100000e-01,-3.320000e+00,1.244000e+01,8.860000e+00,-1.300000e+00,8.860000e+00,1.600000e+01,10,1.600000e+01
-7.800000e-01,-3.420000e+00,1.247000e+01,9.900000e+00,-1.820000e+00,9.900000e+00,1.666667e+01,10,1.666667e+01
-5.200000e-01,-3.880000e+00,1.259000e+01,1.043000e+01,-1.820000e+00,9.640000e+00,1.733333e+01,10,1.733333e+01
-4.300000e-01,-4.010000e+00,1.260000e+01,1.069000e+01,-1.820000e+00,1.043000e+01,1.800000e+01,10,1.800000e+01
-2.700000e-01,-4.340000e+00,1.273000e+01,1.095000e+01,-1.560000e+00,1.069000e+01,1.866667e+01,10,1.866667e+01
-2.200000e-01,-4.400000e+00,1.277000e+01,1.173000e+01,-1.820000e+00,1.121000e+01,1.933333e+01,10,1.933333e+01
-4.000000e-02,-4.710000e+00,1.285000e+01,1.199000e+01,-1.820000e+00,1.173000e+01,20,10,20
1.100000e-01,-4.900000e+00,1.287000e+01,1.199000e+01,-1.560000e+00,1.173000e+01,1.933333e+01,10,1.933333e+01
9.000000e-02,-4.920000e+00,1.286000e+01,1.173000e+01,-1.300000e+00,1.043000e+01,1.866667e+01,10,1.866667e+01
1.600000e-01,-4.560000e+00,1.287000e+01,1.147000e+01,-1.560000e+00,1.069000e+01,1.800000e+01,10,1.800000e+01
5.000000e-02,-4.480000e+00,1.290000e+01,9.640000e+00,-1.560000e+00,9.900000e+00,1.733333e+01,10,1.733333e+01
-3.600000e-01,-4.220000e+00,1.276000e+01,9.640000e+00,-1.820000e+00,9.380000e+00,1.666667e+01,10,1.666667e+01
-3.700000e-01,-4.210000e+00,1.271000e+01,9.120000e+00,-1.560000e+00,8.600000e+00,1.600000e+01,10,1.600000e+01
-4.600000e-01,-3.940000e+00,1.260000e+01,8.600000e+00,-2.090000e+00,8.600000e+00,1.533333e+01,10,1.533333e+01
-5.500000e-01,-3.880000e+00,1.255000e+01,7.820000e+00,-1.300000e+00,7.300000e+00,1.466667e+01,10,1.466667e+01
-7.700000e-01,-3.390000e+00,1.249000e+01,7.820000e+00,-1.560000e+00,7.300000e+00,1.400000e+01,10,1.400000e+01
-8.400000e-01,-3.320000e+00,1.247000e+01,6.780000e+00,-1.560000e+00,6.520000e+00,1.333333e+01,10,1.333333e+01
-1.030000e+00,-2.970000e+00,1.230000e+01,6.520000e+00,-1.820000e+00,6.260000e+00,1.266667e+01,10,1.266667e+01
-1.060000e+00,-2.950000e+00,1.225000e+01,5.470000e+00,-1.560000e+00,5.470000e+00,1.200000e+01,10,1.200000e+01
-1.230000e+00,-2.580000e+00,1.210000e+01,5.470000e+00,-1.560000e+00,5.210000e+00,1.133333e+01,10,1.133333e+01
-1.380000e+00,-2.460000e+00,1.210000e+01,4.430000e+00,-1.820000e+00,4.170000e+00,1.066667e+01,10,1.066667e+01
-1.660000e+00,-2,1.192000e+01,4.430000e+00,-1.300000e+00,3.910000e+00,10,10,10
-1.610000e+00,-1.800000e+00,1.184000e+01,3.650000e+00,-2.090000e+00,2.870000e+00,9.333333e+00,10,9.333333e+00
-1.850000e+00,-1.450000e+00,1.162000e+01,3.130000e+00,-1.820000e+00,3.130000e+00,8.666667e+00,10,8.666667e+00
-1.850000e+00,-1.410000e+00,1.157000e+01,2.350000e+00,-1.300000e+00,2.090000e+00,8.000000e+00,10,8.000000e+00
-2.290000e+00,-9.100000e-01,1.131000e+01,2.090000e+00,-1.300000e+00,2.090000e+00,7.333333e+00,10,7.333333e+00
-2.400000e+00,-8.000000e-01,1.128000e+01,1.300000e+00,-1.560000e+00,1.040000e+00,6.666667e+00,10,6.666667e+00
-2.710000e+00,-3.100000e-01,1.099000e+01,1.300000e+00,-1.560000e+00,7.800000e-01,6.000000e+00,10,6.000000e+00
-2.930000e+00,2.100000e-01,1.059000e+01,-7.800000e-01,-1.560000e+00,-7.800000e-01,4.666667e+00,10,4.666667e+00
-3.350000e+00,7.400000e-01,1.011000e+01,-7.800000e-01,-1.820000e+00,-1.040000e+00,4.000000e+00,10,4.000000e+00
-3.430000e+00,8.200000e-01,1.004000e+01,-7.800000e-01,-1.560000e+00,-1.300000e+00,3.333333e+00,10,3.333333e+00
-3.530000e+00,9.900000e-01,9.990000e+00,-2.090000e+00,-1.560000e+00,-2.090000e+00,2.666667e+00,10,2.666667e+00
-4.100000e+00,1.610000e+00,9.400000e+00,-2.090000e+00,-1.560000e+00,-2.350000e+00,2.000000e+00,10,2.000000e+00
-4.140000e+00,1.670000e+00,9.330000e+00,-4.170000e+00,-1.560000e+00,-7.820000e+00,1.333333e+00,10,1.333333e+00
-2.610000e+00,4.950000e+00,6.120000e+00,-4.950000e+00,-1.820000e+00,-8.340000e+00,6.666667e-01,10,6.666667e-01
-3.030000e+00,5.190000e+00,4.950000e+00,-5.470000e+00,-1.820000e+00,-7.820000e+00,1.333333e+00,10,1.333333e+00
-3.370000e+00,5.230000e+00,4.360000e+00,-5.470000e+00,-1.560000e+00,-7.560000e+00,2.000000e+00,10,2.000000e+00
-3.670000e+00,5.270000e+00,3.990000e+00,-5.730000e+00,-1.820000e+00,-7.560000e+00,2.666667e+00,10,2.666667e+00
-3.820000e+00,5.260000e+00,3.750000e+00,-5.200000e-01,-1.820000e+00,-1.040000e+00,3.333333e+00,10,3.333333e+00
-3.800000e+00,1.980000e+00,9.130000e+00,-5.200000e-01,-1.820000e+00,-7.800000e-01,4.000000e+00,10,4.000000e+00
-3.890000e+00,1.390000e+00,9.530000e+00,-7.800000e-01,-1.560000e+00,-1.040000e+00,4.666667e+00,10,4.666667e+00
-3.800000e+00,1.580000e+00,9.520000e+00,-5.200000e-01,-1.300000e+00,-5.200000e-01,5.333333e+00,10,5.333333e+00
-4.170000e+00,1.160000e+00,9.680000e+00,1.300000e+00,-1.820000e+00,1.300000e+00,6.000000e+00,10,6.000000e+00
-3.170000e+00,4.000000e-01,1.046000e+01,1.300000e+00,-1.300000e+00,1.040000e+00,6.666667e+00,10,6.666667e+00
-3.070000e+00,3.500000e-01,1.046000e+01,1.560000e+00,-1.560000e+00,1.040000e+00,7.333333e+00,10,7.333333e+00
-3.090000e+00,1.800000e-01,1.051000e+01,2.350000e+00,-1.820000e+00,2.350000e+00,8.000000e+00,10,8.000000e+00
-2.730000e+00,-1.600000e-01,1.087000e+01,3.390000e+00,-1.300000e+00,2.610000e+00,8.666667e+00,10,8.666667e+00
-2.340000e+00,-3.800000e-01,1.114000e+01,3.650000e+00,-1.560000e+00,3.130000e+00,9.333333e+00,10,9.333333e+00
-2.400000e+00,-6.600000e-01,1.126000e+01,3.650000e+00,-1.820000e+00,3.390000e+00,10,10,10
-2.160000e+00,-7.700000e-01,1.133000e+01,4.690000e+00,-1.820000e+00,4.170000e+00,1.066667e+01,10,1.066667e+01
-1.930000e+00,-1.280000e+00,1.155000e+01,5.730000e+00,-1.560000e+00,5.210000e+00,1.133333e+01,10,1.133333e+01
-1.680000e+00,-1.870000e+00,1.179000e+01,5.730000e+00,-1.300000e+00,5.470000e+00,1.200000e+01,10,1.200000e+01
-1.730000e+00,-1.820000e+00,1.184000e+01,6.780000e+00,-1.560000e+00,5.730000e+00,1.266667e+01,10,1.266667e+01
-1.570000e+00,-2.020000e+00,1.198000e+01,6.780000e+00,-1.560000e+00,5.990000e+00,1.333333e+01,10,1.333333e+01
-1.410000e+00,-2.310000e+00,1.210000e+01,7.560000e+00,-1.820000e+00,7.300000e+00,1.400000e+01,10,1.400000e+01
-1.170000e+00,-2.730000e+00,1.223000e+01,7.820000e+00,-2.090000e+00,7.300000e+00,1.466667e+01,10,1.466667e+01
-1.040000e+00,-2.950000e+00,1.227000e+01,9.120000e+00,-1.560000e+00,8.340000e+00,1.533333e+01,10,1.533333e+01
-8.100000e-01,-3.250000e+00,1.242000e+01,8.860000e+00,-1.560000e+00,8.600000e+00,1.600000e+01,10,1.600000e+01
-8.300000e-01,-3.380000e+00,1.250000e+01,9.900000e+00,-1.820000e+00,1.016000e+01,1.666667e+01,10,1.666667e+01
-5.800000e-01,-3.840000e+00,1.262000e+01,1.016000e+01,-1.820000e+00,9.900000e+00,1.733333e+01,10,1.733333e+01
-4.900000e-01,-3.980000e+00,1.263000e+01,1.069000e+01,-2.090000e+00,1.069000e+01,1.800000e+01,10,1.800000e+01
-2.800000e-01,-4.300000e+00,1.275000e+01,1.095000e+01,-1.560000e+00,1.069000e+01,1.866667e+01,10,1.866667e+01
-2.700000e-01,-4.340000e+00,1.281000e+01,1.147000e+01,-1.820000e+00,1.121000e+01,1.933333e+01,10,1.933333e+01
-9.000000e-02,-4.580000e+00,1.291000e+01,1.173000e+01,-1.560000e+00,1.225000e+01,20,10,20
-1.000000e-02,-4.750000e+00,1.295000e+01,1.199000e+01,-1.820000e+00,1.173000e+01,1.933333e+01,10,1.933333e+01
1.000000e-02,-4.820000e+00,1.293000e+01,1.173000e+01,-1.820000e+00,1.095000e+01,1.866667e+01,10,1.866667e+01
1.900000e-01,-4.560000e+00,1.287000e+01,1.147000e+01,-1.560000e+00,1.069000e+01,1.800000e+01,10,1.800000e+01
1.500000e-01,-4.570000e+00,1.285000e+01,1.016000e+01,-1.560000e+00,9.640000e+00,1.733333e+01,10,1.733333e+01
-3.000000e-01,-4.210000e+00,1.275000e+01,9.380000e+00,-1.300000e+00,9.640000e+00,1.666667e+01,10,1.666667e+01
-3.800000e-01,-4.200000e+00,1.273000e+01,9.380000e+00,-2.090000e+00,9.120000e+00,1.600000e+01,10,1.600000e+01
-3.300000e-01,-4.080000e+00,1.267000e+01,8.600000e+00,-1.820000e+00,8.340000e+00,1.533333e+01,10,1.533333e+01
-4.900000e-01,-3.850000e+00,1.258000e+01,7.560000e+00,-1.560000e+00,7.820000e+00,1.466667e+01,10,1.466667e+01
-7.700000e-01,-3.400000e+00,1.247000e+01,7.560000e+00,-1.300000e+00,7.560000e+00,1.400000e+01,10,1.400000e+01
-8.800000e-01,-3.320000e+00,1.246000e+01,6.260000e+00,-1.820000e+00,6.260000e+00,1.333333e+01,10,1.333333e+01
-1.030000e+00,-2.940000e+00,1.232000e+01,6.780000e+00,-1.560000e+00,6.260000e+00,1.266667e+01,10,1.266667e+01
-1.060000e+00,-2.940000e+00,1.228000e+01,5.470000e+00,-2.090000e+00,5.470000e+00,1.200000e+01,10,1.200000e+01
-1.330000e+00,-2.690000e+00,1.211000e+01,5.730000e+00,-1.820000e+00,5.470000e+00,1.133333e+01,10,1.133333e+01
-1.360000e+00,-2.490000e+00,1.209000e+01,4.690000e+00,-1.820000e+00,4.170000e+00,1.066667e+01,10,1.066667e+01
-1.600000e+00,-1.960000e+00,1.190000e+01,4.690000e+00,-1.820000e+00,3.650000e+00,10,10,10
-1.640000e+00,-1.890000e+00,1.186000e+01,3.390000e+00,-1.820000e+00,3.130000e+00,9.333333e+00,10,9.333333e+00
-1.850000e+00,-1.470000e+00,1.163000e+01,3.650000e+00,-1.820000e+00,3.390000e+00,8.666667e+00,10,8.666667e+00
-1.900000e+00,-1.420000e+00,1.159000e+01,2.090000e+00,-1.820000e+00,2.350000e+00,8.000000e+00,10,8.000000e+00
-2.280000e+00,-9.300000e-01,1.132000e+01,2.610000e+00,-1.820000e+00,1.820000e+00,7.333333e+00,10,7.333333e+00
-2.370000e+00,-8.600000e-01,1.129000e+01,1.300000e+00,-1.300000e+00,1.040000e+00,6.666667e+00,10,6.666667e+00
-2.660000e+00,-4.000000e-01,1.098000e+01,1.300000e+00,-1.820000e+00,1.040000e+00,6.000000e+00,10,6.000000e+00
-3,1.700000e-01,1.055000e+01,-5.200000e-01,-1.560000e+00,-1.040000e+00,4.666667e+00,10,4.666667e+00
-3.390000e+00,7.800000e-01,1.012000e+01,-7.800000e-01,-1.820000e+00,-1.040000e+00,4.000000e+00,10,4.000000e+00
-3.490000e+00,8.800000e-01,1.006000e+01,-5.200000e-01,-1.560000e+00,-1.300000e+00,3.333333e+00,10,3.333333e+00
-3.520000e+00,9.400000e-01,1.000000e+01,-2.090000e+00,-1.820000e+00,-2.350000e+00,2.666667e+00,10,2.666667e+00
-4.040000e+00,1.510000e+00,9.400000e+00,-2.350000e+00,-1.560000e+00,-2.350000e+00,2.000000e+00,10,2.000000e+00
-4.070000e+00,1.540000e+00,9.330000e+00,-3.910000e+00,-1.040000e+00,-7.820000e+00,1.333333e+00,10,1.333333e+00
-2.530000e+00,4.930000e+00,6.240000e+00,-4.950000e+00,-1.820000e+00,-7.820000e+00,6.666667e-01,10,6.666667e-01
-2.990000e+00,5.220000e+00,5.110000e+00,-5.210000e+00,-1.820000e+00,-7.560000e+00,1.333333e+00,10,1.333333e+00
-3.330000e+00,5.260000e+00,4.510000e+00,-5.210000e+00,-1.560000e+00,-7.560000e+00,2.000000e+00,10,2.000000e+00
-3.560000e+00,5.250000e+00,4.130000e+00,-5.470000e+00,-1.820000e+00,-7.560000e+00,2.666667e+00,10,2.666667e+00
-3.730000e+00,5.250000e+00,3.860000e+00,-7.800000e-01,-1.820000e+00,-1.040000e+00,3.333333e+00,10,3.333333e+00
-3.840000e+00,1.980000e+00,9.150000e+00,-5.200000e-01,-1.820000e+00,-5.200000e-01,4.000000e+00,10,4.000000e+00
-4.010000e+00,1.310000e+00,9.580000e+00,-5.200000e-01,-1.560000e+00,-1.040000e+00,4.666667e+00,10,4.666667e+00
-3.790000e+00,1.540000e+00,9.530000e+00,-7.800000e-01,-1.560000e+00,-2.600000e-01,5.333333e+00,10,5.333333e+00
-4.120000e+00,1.050000e+00,9.690000e+00,1.300000e+00,-1.560000e+00,1.300000e+00,6.000000e+00,10,6.000000e+00
-3.020000e+00,3.000000e-01,1.049000e+01,1.300000e+00,-1.820000e+00,1.040000e+00,6.666667e+00,10,6.666667e+00
-2.990000e+00,3.200000e-01,1.051000e+01,1.300000e+00,-1.820000e+00,1.560000e+00,7.333333e+00,10,7.333333e+00
-3.170000e+00,1.900000e-01,1.057000e+01,1.560000e+00,-1.560000e+00,2.350000e+00,8.000000e+00,10,8.000000e+00
-3.240000e+00,-1.200000e-01,1.072000e+01,3.390000e+00,-1.820000e+00,2.870000e+00,8.666667e+00,10,8.666667e+00
-2.270000e+00,-6.000000e-01,1.121000e+01,3.650000e+00,-1.560000e+00,3.650000e+00,9.333333e+00,10,9.333333e+00
-2.310000e+00,-7.700000e-01,1.124000e+01,3.390000e+00,-1.560000e+00,2.870000e+00,10,10,10
-2.290000e+00,-8.500000e-01,1.129000e+01,5.210000e+00,-1.560000e+00,4.170000e+00,1.066667e+01,10,1.066667e+01
-1.830000e+00,-1.240000e+00,1.160000e+01,5.990000e+00,-1.300000e+00,5.470000e+00,1.133333e+01,10,1.133333e+01
-1.760000e+00,-1.800000e+00,1.184000e+01,5.730000e+00,-1.560000e+00,5.730000e+00,1.200000e+01,10,1.200000e+01
-1.790000e+00,-1.950000e+00,1.185000e+01,6.780000e+00,-1.820000e+00,5.990000e+00,1.266667e+01,10,1.266667e+01
-1.270000e+00,-2.190000e+00,1.201000e+01,6.520000e+00,-1.820000e+00,6.520000e+00,1.333333e+01,10,1.333333e+01
-1.340000e+00,-2.390000e+00,1.208000e+01,7.820000e+00,-1.560000e+00,7.300000e+00,1.400000e+01,10,1.400000e+01
-1.190000e+00,-2.720000e+00,1.225000e+01,7.820000e+00,-1.300000e+00,7.560000e+00,1.466667e+01,10,1.466667e+01
-1.110000e+00,-2.860000e+00,1.233000e+01,8.600000e+00,-1.560000e+00,8.340000e+00,1.533333e+01,10,1.533333e+01
-8.100000e-01,-3.250000e+00,1.246000e+01,9.120000e+00,-1.560000e+00,8.600000e+00,1.600000e+01,10,1.600000e+01
-6.900000e-01,-3.460000e+00,1.250000e+01,9.900000e+00,-2.090000e+00,9.640000e+00,1.666667e+01,10,1.666667e+01
-5.100000e-01,-3.840000e+00,1.262000e+01,1.016000e+01,-2.090000e+00,9.380000e+00,1.733333e+01,10,1.733333e+01
-5.300000e-01,-3.910000e+00,1.268000e+01,1.069000e+01,-1.820000e+00,1.043000e+01,1.800000e+01,10,1.800000e+01
-3.300000e-01,-4.240000e+00,1.279000e+01,1.095000e+01,-2.090000e+00,1.043000e+01,1.866667e+01,10,1.866667e+01
-2.200000e-01,-4.370000e+00,1.280000e+01,1.147000e+01,-1.560000e+00,1.147000e+01,1.933333e+01,10,1.933333e+01
2.000000e-02,-4.690000e+00,1.287000e+01,1.225000e+01,-1.560000e+00,1.199000e+01,20,10,20
4.000000e-02,-4.790000e+00,1.294000e+01,1.173000e+01,-1.300000e+00,1.173000e+01,1.933333e+01,10,1.933333e+01
-4.000000e-02,-4.750000e+00,1.298000e+01,1.173000e+01,-1.560000e+00,1.043000e+01,1.866667e+01,10,1.866667e+01
4.000000e-02,-4.420000e+00,1.297000e+01,1.147000e+01,-1.300000e+00,1.069000e+01,1.800000e+01,10,1.800000e+01
2.000000e-02,-4.370000e+00,1.296000e+01,9.640000e+00,-1.560000e+00,9.380000e+00,1.733333e+01,10,1.733333e+01
-3.700000e-01,-4.120000e+00,1.279000e+01,9.120000e+00,-1.560000e+00,9.640000e+00,1.666667e+01,10,1.666667e+01
-4.100000e-01,-4.180000e+00,1.275000e+01,9.640000e+00,-1.820000e+00,8.860000e+00,1.600000e+01,10,1.600000e+01
-2.000000e-01,8.800000e-01,1.020000e+00,-5.470000e+00,-1.095000e+01,-7.820000e+00,10,2.666667e+00,2.666667e+00
-2.000000e-01,8.800000e-01,1.020000e+00,-5.730000e+00,-1.069000e+01,-7.560000e+00,10,3.333333e+00,3.333333e+00
-2.000000e-01,8.800000e-01,1.020000e+00,-5.730000e+00,-1.069000e+01,-7.820000e+00,10,4.000000e+00,4.000000e+00
-2.000000e-01,8.800000e-01,1.020000e+00,-5.730000e+00,-1.069000e+01,-7.820000e+00,10,4.666667e+00,4.666667e+00
-2.300000e-01,8.500000e-01,9.700000e-01,-2.600000e-01,-2.600000e-01,-2.600000e-01,10,5.333333e+00,5.333333e+00
4.000000e-02,-5.200000e-01,9.930000e+00,-2.600000e-01,-1.040000e+00,-5.200000e-01,10,6.000000e+00,6.000000e+00
2.100000e-01,-9.100000e-01,1.012000e+01,-2.600000e-01,-1.300000e+00,-2.600000e-01,10,6.666667e+00,6.666667e+00
1.000000e-02,-1.060000e+00,1.038000e+01,-5.200000e-01,2.600000e-01,1.040000e+00,10,8.000000e+00,8.000000e+00
-5.500000e-01,-1.070000e+00,1.070000e+01,-5.200000e-01,7.800000e-01,1.820000e+00,10,8.666667e+00,8.666667e+00
-1.010000e+00,-8.500000e-01,1.093000e+01,-5.200000e-01,1.300000e+00,2.090000e+00,10,9.333333e+00,9.333333e+00
-1.310000e+00,-1.010000e+00,1.108000e+01,-5.200000e-01,1.040000e+00,2.090000e+00,10,10,10
-1.390000e+00,-1.010000e+00,1.113000e+01,-5.200000e-01,1.820000e+00,2.870000e+00,10,1.066667e+01,1.066667e+01
-2.020000e+00,-1.020000e+00,1.136000e+01,-2.600000e-01,4.170000e+00,4.170000e+00,10,1.133333e+01,1.133333e+01
-3.040000e+00,-6.900000e-01,1.166000e+01,-2.600000e-01,3.130000e+00,3.910000e+00,10,1.200000e+01,1.200000e+01
-2.980000e+00,-8.800000e-01,1.163000e+01,-2.600000e-01,3.650000e+00,4.950000e+00,10,1.266667e+01,1.266667e+01
-3.260000e+00,-1.040000e+00,1.169000e+01,-7.800000e-01,4.690000e+00,5.470000e+00,10,1.333333e+01,1.333333e+01
-3.860000e+00,-7.200000e-01,1.179000e+01,-7.800000e-01,5.210000e+00,5.470000e+00,10,1.400000e+01,1.400000e+01
-4.150000e+00,-6.900000e-01,1.182000e+01,-1.040000e+00,5.210000e+00,6.520000e+00,10,1.466667e+01,1.466667e+01
-4.520000e+00,-8.700000e-01,1.185000e+01,-1.040000e+00,6.520000e+00,7.300000e+00,10,1.533333e+01,1.533333e+01
-5.170000e+00,-8.700000e-01,1.190000e+01,-7.800000e-01,7.560000e+00,7.040000e+00,10,1.600000e+01,1.600000e+01
-5.640000e+00,-4.800000e-01,1.191000e+01,-1.300000e+00,7.820000e+00,8.600000e+00,10,1.666667e+01,1.666667e+01
-6.050000e+00,-7.400000e-01,1.191000e+01,-1.040000e+00,7.820000e+00,8.600000e+00,10,1.733333e+01,1.733333e+01
-6.040000e+00,-7.400000e-01,1.199000e+01,-7.800000e-01,7.820000e+00,9.380000e+00,10,1.800000e+01,1.800000e+01
-6.820000e+00,-7.500000e-01,1.222000e+01,-2.600000e-01,1.069000e+01,1.043000e+01,10,20,20
-7.180000e+00,-4.900000e-01,1.220000e+01,-2.600000e-01,9.900000e+00,1.069000e+01,10,1.933333e+01,1.933333e+01
-7.010000e+00,-7.000000e-01,1.221000e+01,-5.200000e-01,8.340000e+00,9.380000e+00,10,1.866667e+01,1.866667e+01
-6.540000e+00,-7.900000e-01,1.222000e+01,-5.200000e-01,7.560000e+00,8.600000e+00,10,1.733333e+01,1.733333e+01
-6.170000e+00,-7.900000e-01,1.222000e+01,-5.200000e-01,7.560000e+00,8.340000e+00,10,1.666667e+01,1.666667e+01
-6.090000e+00,-8.300000e-01,1.221000e+01,-5.200000e-01,6.520000e+00,7.560000e+00,10,1.600000e+01,1.600000e+01
-5.790000e+00,-8.700000e-01,1.219000e+01,-2.600000e-01,6.520000e+00,7.300000e+00,10,1.533333e+01,1.533333e+01
-5.600000e+00,-8.000000e-01,1.218000e+01,-5.200000e-01,5.470000e+00,6.260000e+00,10,1.466667e+01,1.466667e+01
-5.080000e+00,-8.000000e-01,1.214000e+01,-5.200000e-01,5.470000e+00,6.260000e+00,10,1.400000e+01,1.400000e+01
-5,-8.400000e-01,1.213000e+01,-7.800000e-01,4.170000e+00,4.950000e+00,10,1.333333e+01,1.333333e+01
-4.510000e+00,-8.300000e-01,1.206000e+01,-5.200000e-01,4.430000e+00,4.690000e+00,10,1.266667e+01,1.266667e+01
-4.440000e+00,-8.700000e-01,1.203000e+01,-7.800000e-01,3.650000e+00,4.430000e+00,10,1.200000e+01,1.200000e+01
-4.030000e+00,-8.900000e-01,1.195000e+01,-7.800000e-01,3.130000e+00,3.910000e+00,10,1.133333e+01,1.133333e+01
-3.920000e+00,-8.700000e-01,1.191000e+01,-7.800000e-01,2.350000e+00,2.610000e+00,10,1.066667e+01,1.066667e+01
-3.350000e+00,-8.400000e-01,1.177000e+01,-1.040000e+00,1.040000e+00,3.130000e+00,10,10,10
-2.970000e+00,-1.200000e+00,1.165000e+01,-1.040000e+00,7.800000e-01,1.820000e+00,10,9.333333e+00,9.333333e+00
-2.650000e+00,-8.900000e-01,1.155000e+01,-1.040000e+00,7.800000e-01,1.820000e+00,10,8.666667e+00,8.666667e+00
-2.600000e+00,-9.200000e-01,1.150000e+01,-1.040000e+00,2.600000e-01,7.800000e-01,10,8.000000e+00,8.000000e+00
2.000000e-01,-1.070000e+00,1.074000e+01,-2.600000e-01,-2.870000e+00,-2.350000e+00,10,4.666667e+00,4.666667e+00
9.700000e-01,-1.130000e+00,1.029000e+01,-2.600000e-01,-3.130000e+00,-2.090000e+00,10,4.000000e+00,4.000000e+00
1.070000e+00,-1.160000e+00,1.022000e+01,-2.600000e-01,-4.170000e+00,-2.610000e+00,10,3.333333e+00,3.333333e+00
1.540000e+00,-1.640000e+00,9.890000e+00,-2.600000e-01,-4.170000e+00,-3.910000e+00,10,2.666667e+00,2.666667e+00
1.980000e+00,-1.270000e+00,9.610000e+00,-7.800000e-01,-6.780000e+00,-3.390000e+00,10,2.000000e+00,2.000000e+00
3.290000e+00,-2.930000e+00,8.380000e+00,-5.200000e-01,-7.820000e+00,-9.120000e+00,10,1.333333e+00,1.333333e+00
5.860000e+00,-1.300000e-01,4.800000e+00,-5.200000e-01,-8.080000e+00,-8.860000e+00,10,6.666667e-01,6.666667e-01
5.990000e+00,1.400000e-01,4.070000e+00,-1.040000e+00,-8.080000e+00,-9.120000e+00,10,1.333333e+00,1.333333e+00
6,2.100000e-01,3.730000e+00,-5.200000e-01,-7.820000e+00,-8.860000e+00,10,2.000000e+00,2.000000e+00
5.980000e+00,2.100000e-01,3.550000e+00,-1.040000e+00,-7.820000e+00,-9.120000e+00,10,2.666667e+00,2.666667e+00
5.960000e+00,1.700000e-01,3.440000e+00,-1.040000e+00,-2.350000e+00,-2.610000e+00,10,3.333333e+00,3.333333e+00
1.930000e+00,-5.300000e-01,9.460000e+00,-1.300000e+00,-3.390000e+00,-1.820000e+00,10,4.000000e+00,4.000000e+00
1.600000e+00,-1.270000e+00,9.620000e+00,-1.040000e+00,-3.130000e+00,-2.350000e+00,10,4.666667e+00,4.666667e+00
1.630000e+00,-1.170000e+00,9.590000e+00,-1.300000e+00,-1.300000e+00,-1.300000e+00,10,5.333333e+00,5.333333e+00
4.600000e-01,-1.080000e+00,1.067000e+01,-2.600000e-01,-1.040000e+00,2.600000e-01,10,7.333333e+00,7.333333e+00
2.500000e-01,-1.200000e+00,1.077000e+01,-2.600000e-01,2.600000e-01,7.800000e-01,10,8.000000e+00,8.000000e+00
-4.200000e-01,-1,1.108000e+01,-2.600000e-01,1.040000e+00,1.560000e+00,10,8.666667e+00,8.666667e+00
-1.010000e+00,-9.300000e-01,1.131000e+01,-5.200000e-01,1.300000e+00,2.090000e+00,10,9.333333e+00,9.333333e+00
-1.190000e+00,-9.900000e-01,1.137000e+01,-5.200000e-01,1.040000e+00,1.820000e+00,10,10,10
-1.300000e+00,-1,1.140000e+01,-2.600000e-01,2.350000e+00,2.870000e+00,10,1.066667e+01,1.066667e+01
-1.940000e+00,-9.900000e-01,1.160000e+01,-7.800000e-01,3.910000e+00,4.690000e+00,10,1.133333e+01,1.133333e+01
-2.990000e+00,-6.500000e-01,1.189000e+01,-7.800000e-01,3.130000e+00,3.650000e+00,10,1.200000e+01,1.200000e+01
-2.910000e+00,-8.300000e-01,1.185000e+01,-7.800000e-01,3.390000e+00,4.690000e+00,10,1.266667e+01,1.266667e+01
-3.110000e+00,-9.900000e-01,1.189000e+01,-1.040000e+00,4.690000e+00,4.950000e+00,10,1.333333e+01,1.333333e+01
-3.740000e+00,-7.000000e-01,1.201000e+01,-1.040000e+00,4.950000e+00,5.210000e+00,10,1.400000e+01,1.400000e+01
-4.020000e+00,-6.600000e-01,1.204000e+01,-7.800000e-01,5.470000e+00,6.260000e+00,10,1.466667e+01,1.466667e+01
-4.400000e+00,-8.200000e-01,1.207000e+01,-7.800000e-01,5.990000e+00,7.820000e+00,10,1.533333e+01,1.533333e+01
-4.920000e+00,-9.500000e-01,1.211000e+01,-1.040000e+00,7.040000e+00,7.300000e+00,10,1.600000e+01,1.600000e+01
-5.350000e+00,-6.000000e-01,1.213000e+01,-1.040000e+00,7.560000e+00,8.600000e+00,10,1.666667e+01,1.666667e+01
-5.890000e+00,-6.800000e-01,1.213000e+01,-1.040000e+00,7.300000e+00,8.340000e+00,10,1.733333e+01,1.733333e+01
-5.980000e+00,-7.700000e-01,1.211000e+01,-1.040000e+00,8.080000e+00,9.120000e+00,10,1.800000e+01,1.800000e+01
-6.480000e+00,-7.700000e-01,1.211000e+01,-1.300000e+00,9.120000e+00,9.640000e+00,10,1.866667e+01,1.866667e+01
-6.800000e+00,-5.100000e-01,1.213000e+01,-7.800000e-01,9.640000e+00,1.043000e+01,10,1.933333e+01,1.933333e+01
-7.040000e+00,-6.200000e-01,1.216000e+01,-7.800000e-01,9.900000e+00,1.043000e+01,10,20,20
-7.100000e+00,-6.800000e-01,1.222000e+01,-7.800000e-01,9.640000e+00,1.043000e+01,10,1.933333e+01,1.933333e+01
-7.010000e+00,-6.800000e-01,1.228000e+01,-5.200000e-01,8.600000e+00,9.380000e+00,10,1.866667e+01,1.866667e+01
-6.420000e+00,-7.300000e-01,1.238000e+01,-2.600000e-01,7.820000e+00,8.340000e+00,10,1.733333e+01,1.733333e+01
-6.030000e+00,-7.700000e-01,1.238000e+01,-5.200000e-01,7.300000e+00,8.080000e+00,10,1.666667e+01,1.666667e+01
-5.670000e+00,-9.400000e-01,1.233000e+01,-2.600000e-01,6.260000e+00,7.040000e+00,10,1.533333e+01,1.533333e+01
-5.430000e+00,-7.700000e-01,1.232000e+01,-5.200000e-01,5.470000e+00,5.990000e+00,10,1.466667e+01,1.466667e+01
-4.950000e+00,-7.400000e-01,1.228000e+01,-2.600000e-01,5.210000e+00,5.730000e+00,10,1.400000e+01,1.400000e+01
-4.870000e+00,-8.000000e-01,1.226000e+01,-5.200000e-01,4.170000e+00,4.690000e+00,10,1.333333e+01,1.333333e+01
-4.300000e+00,-8.200000e-01,1.220000e+01,-2.600000e-01,4.170000e+00,4.690000e+00,10,1.266667e+01,1.266667e+01
-4.230000e+00,-8.800000e-01,1.218000e+01,-5.200000e-01,3.390000e+00,4.170000e+00,10,1.200000e+01,1.200000e+01
-3.790000e+00,-8.700000e-01,1.210000e+01,-5.200000e-01,3.130000e+00,3.910000e+00,10,1.133333e+01,1.133333e+01
-3.670000e+00,-8.700000e-01,1.208000e+01,-2.600000e-01,2.090000e+00,2.610000e+00,10,1.066667e+01,1.066667e+01
-3.060000e+00,-8.600000e-01,1.194000e+01,-2.600000e-01,1.300000e+00,3.130000e+00,10,10,10
-2.670000e+00,-1.200000e+00,1.183000e+01,-2.600000e-01,1.300000e+00,1.820000e+00,10,9.333333e+00,9.333333e+00
-2.340000e+00,-9.000000e-01,1.173000e+01,-7.800000e-01,1.040000e+00,2.090000e+00,10,8.666667e+00,8.666667e+00
-2.270000e+00,-9.200000e-01,1.168000e+01,-7.800000e-01,-2.600000e-01,7.800000e-01,10,8.000000e+00,8.000000e+00
-1.690000e+00,-9.300000e-01,1.147000e+01,-5.200000e-01,2.600000e-01,5.200000e-01,10,7.333333e+00,7.333333e+00
-1.630000e+00,-9.600000e-01,1.142000e+01,-7.800000e-01,-5.200000e-01,-2.600000e-01,10,6.666667e+00,6.666667e+00
-1,-9.600000e-01,1.116000e+01,-5.200000e-01,-7.800000e-01,-2.600000e-01,10,6.000000e+00,6.000000e+00
-9.400000e-01,-9.700000e-01,1.111000e+01,-1.300000e+00,-2.090000e+00,-1.300000e+00,10,5.333333e+00,5.333333e+00
-1.600000e-01,-1.030000e+00,1.074000e+01,-1.300000e+00,-3.650000e+00,-2.350000e+00,10,4.666667e+00,4.666667e+00
6.000000e-01,-1.050000e+00,1.032000e+01,-1.300000e+00,-3.390000e+00,-2.350000e+00,10,4.000000e+00,4.000000e+00
7.300000e-01,-1.110000e+00,1.026000e+01,-1.040000e+00,-3.910000e+00,-2.090000e+00,10,3.333333e+00,3.333333e+00
1.370000e+00,-1.650000e+00,9.930000e+00,-2.600000e-01,-4.430000e+00,-3.390000e+00,10,2.666667e+00,2.666667e+00
2,-1.260000e+00,9.660000e+00,-2.600000e-01,-7.820000e+00,-3.390000e+00,10,2.000000e+00,2.000000e+00
3.940000e+00,-3.730000e+00,7.680000e+00,-2.600000e-01,-8.080000e+00,-9.120000e+00,10,1.333333e+00,1.333333e+00
6.130000e+00,1.000000e-01,4.180000e+00,-2.600000e-01,-7.820000e+00,-9.380000e+00,10,1.333333e+00,1.333333e+00
6.140000e+00,1.800000e-01,3.870000e+00,-2.600000e-01,-8.340000e+00,-9.120000e+00,10,2.000000e+00,2.000000e+00
6.130000e+00,2.000000e-01,3.690000e+00,-7.800000e-01,-8.080000e+00,-9.120000e+00,10,2.666667e+00,2.666667e+00
6.090000e+00,1.700000e-01,3.530000e+00,-5.200000e-01,-2.350000e+00,-3.130000e+00,10,3.333333e+00,3.333333e+00
2.100000e+00,-5.400000e-01,9.550000e+00,-1.040000e+00,-3.390000e+00,-1.560000e+00,10,4.000000e+00,4.000000e+00
1.740000e+00,-1.360000e+00,9.720000e+00,-1.300000e+00,-3.130000e+00,-2.350000e+00,10,4.666667e+00,4.666667e+00
1.800000e+00,-1.200000e+00,9.660000e+00,-1.040000e+00,-1.820000e+00,-1.300000e+00,10,5.333333e+00,5.333333e+00
7.000000e-02,-1.020000e+00,1.064000e+01,-1.560000e+00,-1.300000e+00,-2.600000e-01,10,6.666667e+00,6.666667e+00
1.000000e-02,-1.050000e+00,1.064000e+01,-1.040000e+00,-7.800000e-01,-2.600000e-01,10,7.333333e+00,7.333333e+00
-9.000000e-02,-1.100000e+00,1.074000e+01,-5.200000e-01,2.600000e-01,7.800000e-01,10,8.000000e+00,8.000000e+00
-1.080000e+00,-1,1.145000e+01,-2.600000e-01,7.800000e-01,2.090000e+00,10,10,10
-1.980000e+00,-8.100000e-01,1.173000e+01,-5.200000e-01,3.650000e+00,3.910000e+00,10,1.133333e+01,1.133333e+01
-2.760000e+00,-7.700000e-01,1.195000e+01,-2.600000e-01,3.390000e+00,3.910000e+00,10,1.200000e+01,1.200000e+01
-2.730000e+00,-9.000000e-01,1.194000e+01,-5.200000e-01,3.650000e+00,4.690000e+00,10,1.266667e+01,1.266667e+01
-3.050000e+00,-9.300000e-01,1.201000e+01,-2.600000e-01,4.690000e+00,5.210000e+00,10,1.333333e+01,1.333333e+01
-3.580000e+00,-7.200000e-01,1.212000e+01,-5.200000e-01,4.690000e+00,5.990000e+00,10,1.400000e+01,1.400000e+01
-3.940000e+00,-8.400000e-01,1.218000e+01,-2.600000e-01,5.470000e+00,6.520000e+00,10,1.466667e+01,1.466667e+01
-4.130000e+00,-9.300000e-01,1.220000e+01,-2.600000e-01,6.520000e+00,7.300000e+00,10,1.533333e+01,1.533333e+01
-4.730000e+00,-7.900000e-01,1.228000e+01,-5.200000e-01,7.560000e+00,7.300000e+00,10,1.600000e+01,1.600000e+01
-5.190000e+00,-5.000000e-01,1.232000e+01,-2.600000e-01,7.820000e+00,8.600000e+00,10,1.666667e+01,1.666667e+01
-5.550000e+00,-7.600000e-01,1.234000e+01,-5.200000e-01,7.820000e+00,8.340000e+00,10,1.733333e+01,1.733333e+01
-5.710000e+00,-7.600000e-01,1.234000e+01,-7.800000e-01,7.560000e+00,9.380000e+00,10,1.800000e+01,1.800000e+01
-6.020000e+00,-9.800000e-01,1.233000e+01,-5.200000e-01,8.080000e+00,9.900000e+00,10,1.866667e+01,1.866667e+01
-6.240000e+00,-8.900000e-01,1.231000e+01,-7.800000e-01,9.380000e+00,9.900000e+00,10,1.933333e+01,1.933333e+01
-6.840000e+00,-6.400000e-01,1.228000e+01,-1.040000e+00,1.043000e+01,1.043000e+01,10,20,20
-7.300000e+00,-4.400000e-01,1.223000e+01,-1.040000e+00,9.380000e+00,1.043000e+01,10,1.933333e+01,1.933333e+01
-7.190000e+00,-6.900000e-01,1.221000e+01,-1.040000e+00,8.600000e+00,9.380000e+00,10,1.866667e+01,1.866667e+01
-6.840000e+00,-6.900000e-01,1.219000e+01,-1.300000e+00,8.340000e+00,9.380000e+00,10,1.800000e+01,1.800000e+01
-6.810000e+00,-7.200000e-01,1.216000e+01,-1.040000e+00,7.560000e+00,8.340000e+00,10,1.733333e+01,1.733333e+01
-6.450000e+00,-6.900000e-01,1.216000e+01,-1.300000e+00,7.300000e+00,8.340000e+00,10,1.666667e+01,1.666667e+01
-6.340000e+00,-7.700000e-01,1.218000e+01,-7.800000e-01,6.260000e+00,8.080000e+00,10,1.600000e+01,1.600000e+01
-5.970000e+00,-9.500000e-01,1.223000e+01,-7.800000e-01,5.990000e+00,6.780000e+00,10,1.533333e+01,1.533333e+01
-5.560000e+00,-7.700000e-01,1.229000e+01,-5.200000e-01,4.950000e+00,5.990000e+00,10,1.466667e+01,1.466667e+01
-4.800000e+00,-8.400000e-01,1.233000e+01,-2.600000e-01,4.170000e+00,4.950000e+00,10,1.333333e+01,1.333333e+01
-4.240000e+00,-8.300000e-01,1.227000e+01,-5.200000e-01,3.910000e+00,4.950000e+00,10,1.266667e+01,1.266667e+01
-4.180000e+00,-8.800000e-01,1.223000e+01,-2.600000e-01,3.130000e+00,4.170000e+00,10,1.200000e+01,1.200000e+01
-3.690000e+00,-8.500000e-01,1.214000e+01,-2.600000e-01,3.390000e+00,4.430000e+00,10,1.133333e+01,1.133333e+01
-3.610000e+00,-8.900000e-01,1.212000e+01,-2.600000e-01,1.820000e+00,3.390000e+00,10,1.066667e+01,1.066667e+01
-2.480000e+00,-1.140000e+00,1.185000e+01,-2.600000e-01,7.800000e-01,1.820000e+00,10,9.333333e+00,9.333333e+00
-2.190000e+00,-9.400000e-01,1.177000e+01,-2.600000e-01,7.800000e-01,1.820000e+00,10,8.666667e+00,8.666667e+00
-1.520000e+00,-9.200000e-01,1.155000e+01,-5.200000e-01,2.600000e-01,5.200000e-01,10,7.333333e+00,7.333333e+00
-6.400000e-01,-1.030000e+00,1.119000e+01,-5.200000e-01,-2.350000e+00,-1.300000e+00,10,5.333333e+00,5.333333e+00
1.500000e-01,-1.070000e+00,1.082000e+01,-2.600000e-01,-3.130000e+00,-2.610000e+00,10,4.666667e+00,4.666667e+00
9.300000e-01,-1.110000e+00,1.039000e+01,-5.200000e-01,-3.390000e+00,-2.350000e+00,10,4.000000e+00,4.000000e+00
1.010000e+00,-1.160000e+00,1.032000e+01,-5.200000e-01,-4.690000e+00,-2.610000e+00,10,3.333333e+00,3.333333e+00
1.500000e+00,-1.690000e+00,9.960000e+00,-1.040000e+00,-4.170000e+00,-3.650000e+00,10,2.666667e+00,2.666667e+00
1.890000e+00,-1.270000e+00,9.690000e+00,-7.800000e-01,-4.430000e+00,-3.910000e+00,10,2.000000e+00,2.000000e+00
1.980000e+00,-1.290000e+00,9.590000e+00,-7.800000e-01,-8.080000e+00,-9.120000e+00,10,1.333333e+00,1.333333e+00
5.740000e+00,-2.000000e-02,5.060000e+00,-1.040000e+00,-7.820000e+00,-8.860000e+00,10,6.666667e-01,6.666667e-01
