-2.840000e+00,-3.200000e+00,8.690000e+00,5.200000e-01,2.600000e-01,-7.800000e-01,5.333333e+00,5.333333e+00,10
-3.260000e+00,-2.130000e+00,9.210000e+00,2.090000e+00,5.200000e-01,-1.560000e+00,6.000000e+00,6.000000e+00,10
-2.470000e+00,-1.930000e+00,9.630000e+00,1.820000e+00,5.200000e-01,-1.300000e+00,6.666667e+00,6.666667e+00,10
-2.510000e+00,-1.860000e+00,9.720000e+00,2.870000e+00,7.800000e-01,-1.300000e+00,7.333333e+00,7.333333e+00,10
-1.930000e+00,-1.930000e+00,9.990000e+00,2.870000e+00,1.820000e+00,-1.300000e+00,8.000000e+00,8.000000e+00,10
-2.200000e+00,-1.480000e+00,1.025000e+01,3.650000e+00,2.350000e+00,-1.040000e+00,8.666667e+00,8.666667e+00,10
-2.040000e+00,-1.200000e+00,1.056000e+01,3.650000e+00,2.350000e+00,-1.040000e+00,9.333333e+00,9.333333e+00,10
-1.910000e+00,-1.160000e+00,1.072000e+01,4.170000e+00,2.610000e+00,-7.800000e-01,10,10,10
-1.750000e+00,-1.140000e+00,1.086000e+01,5.210000e+00,4.170000e+00,-7.800000e-01,1.066667e+01,1.066667e+01,10
-1.670000e+00,-7.400000e-01,1.115000e+01,5.990000e+00,5.210000e+00,-1.040000e+00,1.133333e+01,1.133333e+01,10
-1.510000e+00,-2.100000e-01,1.149000e+01,5.990000e+00,4.690000e+00,-1.300000e+00,1.200000e+01,1.200000e+01,10
-1.380000e+00,-2.100000e-01,1.148000e+01,7.040000e+00,5.730000e+00,-1.560000e+00,1.266667e+01,1.266667e+01,10
-1.150000e+00,1.900000e-01,1.167000e+01,7.040000e+00,6.780000e+00,-1.300000e+00,1.333333e+01,1.333333e+01,10
-1.100000e+00,4.000000e-01,1.181000e+01,8.600000e+00,5.990000e+00,-1.560000e+00,1.400000e+01,1.400000e+01,10
-5.400000e-01,2.000000e-01,1.194000e+01,8.340000e+00,7.560000e+00,-1.300000e+00,1.466667e+01,1.466667e+01,10
-9.200000e-01,7.200000e-01,1.215000e+01,9.380000e+00,7.820000e+00,-1.300000e+00,1.533333e+01,1.533333e+01,10
-7.000000e-01,9.200000e-01,1.237000e+01,9.640000e+00,8.340000e+00,-1.040000e+00,1.600000e+01,1.600000e+01,10
-6.000000e-01,9.100000e-01,1.245000e+01,1.016000e+01,8.600000e+00,-1.040000e+00,1.666667e+01,1.666667e+01,10
-3.800000e-01,1.100000e+00,1.262000e+01,1.016000e+01,9.900000e+00,-1.040000e+00,1.733333e+01,1.733333e+01,10
-5.700000e-01,1.550000e+00,1.272000e+01,1.121000e+01,9.900000e+00,-1.820000e+00,1.800000e+01,1.800000e+01,10
-2.000000e-01,1.740000e+00,1.284000e+01,1.121000e+01,9.900000e+00,-1.560000e+00,1.866667e+01,1.866667e+01,10
-1.600000e-01,1.830000e+00,1.289000e+01,1.251000e+01,1.043000e+01,-1.300000e+00,1.933333e+01,1.933333e+01,10
1.100000e-01,1.860000e+00,1.302000e+01,1.277000e+01,1.095000e+01,-1.560000e+00,20,20,10
6.000000e-02,2.030000e+00,1.312000e+01,1.173000e+01,1.095000e+01,-1.300000e+00,1.933333e+01,1.933333e+01,10
-2.000000e-02,2.160000e+00,1.314000e+01,1.199000e+01,9.900000e+00,-1.300000e+00,1.866667e+01,1.866667e+01,10
2.200000e-01,1.890000e+00,1.306000e+01,1.173000e+01,9.900000e+00,-1.560000e+00,1.800000e+01,1.800000e+01,10
1.900000e-01,1.850000e+00,1.305000e+01,1.016000e+01,8.860000e+00,-1.300000e+00,1.733333e+01,1.733333e+01,10
-2.000000e-01,1.710000e+00,1.286000e+01,9.900000e+00,8.860000e+00,-1.820000e+00,1.666667e+01,1.666667e+01,10
-2.700000e-01,1.680000e+00,1.283000e+01,9.900000e+00,8.340000e+00,-1.300000e+00,1.600000e+01,1.600000e+01,10
-1.500000e-01,1.400000e+00,1.277000e+01,9.380000e+00,7.820000e+00,-1.820000e+00,1.533333e+01,1.533333e+01,10
-4.100000e-01,1.370000e+00,1.266000e+01,8.080000e+00,7.040000e+00,-1.560000e+00,1.466667e+01,1.466667e+01,10
-5.400000e-01,1.150000e+00,1.249000e+01,7.560000e+00,6.520000e+00,-1.560000e+00,1.400000e+01,1.400000e+01,10
-5.700000e-01,1.070000e+00,1.246000e+01,7.300000e+00,5.730000e+00,-1.820000e+00,1.333333e+01,1.333333e+01,10
-7.600000e-01,7.800000e-01,1.227000e+01,6.780000e+00,5.730000e+00,-1.560000e+00,1.266667e+01,1.266667e+01,10
-7.800000e-01,7.100000e-01,1.223000e+01,6.260000e+00,4.690000e+00,-1.820000e+00,1.200000e+01,1.200000e+01,10
-9.900000e-01,4.700000e-01,1.205000e+01,5.990000e+00,4.430000e+00,-1.560000e+00,1.133333e+01,1.133333e+01,10
-1.030000e+00,4.000000e-01,1.201000e+01,4.690000e+00,3.650000e+00,-1.820000e+00,1.066667e+01,1.066667e+01,10
-1.210000e+00,7.000000e-02,1.179000e+01,4.950000e+00,2.610000e+00,-1.560000e+00,10,10,10
-1.010000e+00,-3.000000e-01,1.166000e+01,3.910000e+00,2.350000e+00,-1.560000e+00,9.333333e+00,9.333333e+00,10
-1.500000e+00,-3.600000e-01,1.147000e+01,3.910000e+00,2.350000e+00,-1.040000e+00,8.666667e+00,8.666667e+00,10
-1.530000e+00,-4.400000e-01,1.143000e+01,2.610000e+00,1.300000e+00,-1.560000e+00,8.000000e+00,8.000000e+00,10
-1.820000e+00,-7.800000e-01,1.113000e+01,2.610000e+00,1.560000e+00,-1.820000e+00,7.333333e+00,7.333333e+00,10
-1.860000e+00,-8.600000e-01,1.108000e+01,1.300000e+00,5.200000e-01,-1.560000e+00,6.666667e+00,6.666667e+00,10
-2.200000e+00,-1.330000e+00,1.071000e+01,5.200000e-01,-7.800000e-01,-1.560000e+00,5.333333e+00,5.333333e+00,10
-2.510000e+00,-1.820000e+00,1.031000e+01,-5.200000e-01,-1.560000e+00,-1.560000e+00,4.666667e+00,4.666667e+00,10
-2.820000e+00,-2.340000e+00,9.860000e+00,-5.200000e-01,-1.820000e+00,-1.820000e+00,4.000000e+00,4.000000e+00,10
-2.900000e+00,-2.420000e+00,9.770000e+00,-7.800000e-01,-2.870000e+00,-1.560000e+00,3.333333e+00,3.333333e+00,10
-2.540000e+00,-3.040000e+00,9.510000e+00,-2.090000e+00,-2.870000e+00,-1.560000e+00,2.666667e+00,2.666667e+00,10
-3.580000e+00,-3.040000e+00,9,-1.560000e+00,-2.610000e+00,-1.560000e+00,2.000000e+00,2.000000e+00,10
-3.660000e+00,-3.100000e+00,8.910000e+00,-2.870000e+00,-6.780000e+00,-1.560000e+00,1.333333e+00,1.333333e+00,10
-2.290000e+00,-6.160000e+00,6.600000e+00,-3.650000e+00,-7.300000e+00,-1.820000e+00,6.666667e-01,6.666667e-01,10
-3.090000e+00,-6.230000e+00,5.850000e+00,-4.430000e+00,-6.780000e+00,-1.300000e+00,1.333333e+00,1.333333e+00,10
-3.800000e+00,-6.210000e+00,5.240000e+00,-4.430000e+00,-7.300000e+00,-1.560000e+00,2.000000e+00,2.000000e+00,10
-4.390000e+00,-6.170000e+00,4.670000e+00,-4.690000e+00,-6.520000e+00,-1.560000e+00,2.666667e+00,2.666667e+00,10
-3.240000e+00,-3.130000e+00,9.160000e+00,-2.600000e-01,-1.820000e+00,-1.820000e+00,4.666667e+00,4.666667e+00,10
-3.220000e+00,-3.180000e+00,9.170000e+00,-2.600000e-01,2.600000e-01,-1.300000e+00,5.333333e+00,5.333333e+00,10
-4.100000e+00,-2.050000e+00,9.510000e+00,1.820000e+00,2.600000e-01,-1.820000e+00,6.000000e+00,6.000000e+00,10
-2.600000e+00,-2.110000e+00,1.018000e+01,1.820000e+00,5.200000e-01,-1.560000e+00,6.666667e+00,6.666667e+00,10
-2.660000e+00,-1.990000e+00,1.024000e+01,1.560000e+00,7.800000e-01,-1.560000e+00,7.333333e+00,7.333333e+00,10
-2.700000e+00,-1.950000e+00,1.026000e+01,2.610000e+00,7.800000e-01,-1.560000e+00,8.000000e+00,8.000000e+00,10
-2.190000e+00,-1.810000e+00,1.053000e+01,3.910000e+00,2.610000e+00,-1.560000e+00,8.666667e+00,8.666667e+00,10
-1.990000e+00,-1.090000e+00,11,3.650000e+00,2.610000e+00,-1.820000e+00,9.333333e+00,9.333333e+00,10
-2.030000e+00,-1.020000e+00,1.105000e+01,4.430000e+00,2.350000e+00,-1.300000e+00,10,10,10
-1.470000e+00,-1.090000e+00,1.119000e+01,5.210000e+00,4.690000e+00,-1.820000e+00,1.066667e+01,1.066667e+01,10
-1.930000e+00,-2.400000e-01,1.150000e+01,5.990000e+00,4.430000e+00,-1.560000e+00,1.133333e+01,1.133333e+01,10
-1.510000e+00,-1.300000e-01,1.171000e+01,5.990000e+00,4.430000e+00,-1.560000e+00,1.200000e+01,1.200000e+01,10
-1.420000e+00,-1.600000e-01,1.172000e+01,6.520000e+00,5.210000e+00,-1.560000e+00,1.266667e+01,1.266667e+01,10
-1.230000e+00,1.000000e-01,1.193000e+01,6.780000e+00,5.990000e+00,-1.560000e+00,1.333333e+01,1.333333e+01,10
-1.240000e+00,3.500000e-01,1.205000e+01,8.080000e+00,5.730000e+00,-1.560000e+00,1.400000e+01,1.400000e+01,10
-8.300000e-01,2.500000e-01,1.214000e+01,8.080000e+00,6.260000e+00,-1.820000e+00,1.466667e+01,1.466667e+01,10
-7.700000e-01,4.800000e-01,1.227000e+01,9.120000e+00,8.860000e+00,-1.820000e+00,1.533333e+01,1.533333e+01,10
-1.060000e+00,1.390000e+00,1.260000e+01,8.860000e+00,7.560000e+00,-1.560000e+00,1.600000e+01,1.600000e+01,10
-7.300000e-01,1.090000e+00,1.258000e+01,1.043000e+01,8.600000e+00,-1.820000e+00,1.666667e+01,1.666667e+01,10
-3.800000e-01,1.200000e+00,1.273000e+01,1.016000e+01,9.640000e+00,-1.820000e+00,1.733333e+01,1.733333e+01,10
-6.500000e-01,1.660000e+00,1.285000e+01,1.121000e+01,1.016000e+01,-1.300000e+00,1.800000e+01,1.800000e+01,10
-3.100000e-01,1.710000e+00,1.299000e+01,1.147000e+01,1.016000e+01,-1.300000e+00,1.866667e+01,1.866667e+01,10
-2.800000e-01,1.790000e+00,1.304000e+01,1.199000e+01,1.016000e+01,-1.300000e+00,1.933333e+01,1.933333e+01,10
3.000000e-02,1.820000e+00,1.314000e+01,1.251000e+01,1.095000e+01,-1.560000e+00,20,20,10
7.000000e-02,1.960000e+00,1.322000e+01,1.225000e+01,1.121000e+01,-1.820000e+00,1.933333e+01,1.933333e+01,10
-9.000000e-02,2.130000e+00,1.325000e+01,1.225000e+01,9.900000e+00,-1.300000e+00,1.866667e+01,1.866667e+01,10
1.000000e-01,1.850000e+00,1.319000e+01,1.199000e+01,9.900000e+00,-1.820000e+00,1.800000e+01,1.800000e+01,10
1.100000e-01,1.800000e+00,1.317000e+01,1.016000e+01,8.860000e+00,-1.560000e+00,1.733333e+01,1.733333e+01,10
-3.000000e-01,1.640000e+00,1.298000e+01,9.900000e+00,8.860000e+00,-1.560000e+00,1.666667e+01,1.666667e+01,10
-3.400000e-01,1.590000e+00,1.295000e+01,9.900000e+00,8.600000e+00,-1.560000e+00,1.600000e+01,1.600000e+01,10
-3.700000e-01,1.540000e+00,1.291000e+01,8.860000e+00,7.820000e+00,-1.560000e+00,1.533333e+01,1.533333e+01,10
-4.900000e-01,1.330000e+00,1.279000e+01,8.340000e+00,6.780000e+00,-1.560000e+00,1.466667e+01,1.466667e+01,10
-6.400000e-01,1.030000e+00,1.261000e+01,8.080000e+00,6.780000e+00,-1.560000e+00,1.400000e+01,1.400000e+01,10
-6.700000e-01,9.600000e-01,1.257000e+01,7.300000e+00,5.470000e+00,-1.560000e+00,1.333333e+01,1.333333e+01,10
-8.700000e-01,7.000000e-01,1.238000e+01,6.780000e+00,5.470000e+00,-1.560000e+00,1.266667e+01,1.266667e+01,10
-9.000000e-01,6.300000e-01,1.234000e+01,6.260000e+00,4.950000e+00,-1.560000e+00,1.200000e+01,1.200000e+01,10
-1.000000e+00,3.800000e-01,1.218000e+01,6.260000e+00,4.430000e+00,-1.560000e+00,1.133333e+01,1.133333e+01,10
-1.100000e+00,3.200000e-01,1.212000e+01,4.950000e+00,3.390000e+00,-1.300000e+00,1.066667e+01,1.066667e+01,10
-1.300000e+00,-1.000000e-02,1.189000e+01,4.950000e+00,2.870000e+00,-1.560000e+00,10,10,10
-1.090000e+00,-3.900000e-01,1.176000e+01,3.390000e+00,2.610000e+00,-1.300000e+00,9.333333e+00,9.333333e+00,10
-1.640000e+00,-4.200000e-01,1.156000e+01,3.650000e+00,2.610000e+00,-1.560000e+00,8.666667e+00,8.666667e+00,10
-1.680000e+00,-5.000000e-01,1.151000e+01,3.130000e+00,1.560000e+00,-1.560000e+00,8.000000e+00,8.000000e+00,10
-1.960000e+00,-9.000000e-01,1.126000e+01,2.610000e+00,1.560000e+00,-1.300000e+00,7.333333e+00,7.333333e+00,10
-1.980000e+00,-9.500000e-01,1.120000e+01,1.300000e+00,2.600000e-01,-1.560000e+00,6.666667e+00,6.666667e+00,10
-2.260000e+00,-1.330000e+00,1.087000e+01,1.560000e+00,5.200000e-01,-1.820000e+00,6.000000e+00,6.000000e+00,10
-2.320000e+00,-1.430000e+00,1.081000e+01,1.040000e+00,-5.200000e-01,-1.300000e+00,5.333333e+00,5.333333e+00,10
-2.260000e+00,-1.940000e+00,1.054000e+01,-2.600000e-01,-1.820000e+00,-1.560000e+00,4.666667e+00,4.666667e+00,10
-2.910000e+00,-2.410000e+00,9.960000e+00,-5.200000e-01,-1.820000e+00,-1.300000e+00,4.000000e+00,4.000000e+00,10
-2.960000e+00,-2.500000e+00,9.880000e+00,-5.200000e-01,-2.870000e+00,-1.300000e+00,3.333333e+00,3.333333e+00,10
-2.550000e+00,-3.180000e+00,9.610000e+00,-1.560000e+00,-2.870000e+00,-1.560000e+00,2.666667e+00,2.666667e+00,10
-3.470000e+00,-3.160000e+00,9.170000e+00,-1.820000e+00,-2.610000e+00,-1.560000e+00,2.000000e+00,2.000000e+00,10
-3.240000e+00,-3.500000e+00,8.970000e+00,-2.870000e+00,-7.040000e+00,-1.560000e+00,1.333333e+00,1.333333e+00,10
-2.130000e+00,-6.160000e+00,6.870000e+00,-3.650000e+00,-7.040000e+00,-1.820000e+00,6.666667e-01,6.666667e-01,10
-3.040000e+00,-6.250000e+00,6.120000e+00,-4.430000e+00,-7.040000e+00,-1.820000e+00,1.333333e+00,1.333333e+00,10
-3.720000e+00,-6.280000e+00,5.480000e+00,-4.690000e+00,-7.040000e+00,-1.300000e+00,2.000000e+00,2.000000e+00,10
-4.300000e+00,-6.240000e+00,4.930000e+00,-4.690000e+00,-6.780000e+00,-1.820000e+00,2.666667e+00,2.666667e+00,10
-4.760000e+00,-6.190000e+00,4.450000e+00,-2.600000e-01,-1.040000e+00,-1.820000e+00,3.333333e+00,3.333333e+00,10
-3.170000e+00,-3.240000e+00,9.310000e+00,-2.600000e-01,-2.090000e+00,-1.560000e+00,4.666667e+00,4.666667e+00,10
-3.140000e+00,-3.260000e+00,9.330000e+00,-2.600000e-01,2.600000e-01,-1.560000e+00,5.333333e+00,5.333333e+00,10
-3.950000e+00,-2.170000e+00,9.650000e+00,2.090000e+00,2.600000e-01,-1.820000e+00,6.000000e+00,6.000000e+00,10
-2.670000e+00,-2.090000e+00,1.031000e+01,2.090000e+00,5.200000e-01,-1.560000e+00,6.666667e+00,6.666667e+00,10
-2.640000e+00,-2.130000e+00,1.033000e+01,1.560000e+00,7.800000e-01,-1.300000e+00,7.333333e+00,7.333333e+00,10
-2.750000e+00,-1.940000e+00,1.037000e+01,2.870000e+00,1.300000e+00,-1.560000e+00,8.000000e+00,8.000000e+00,10
-2.370000e+00,-1.570000e+00,1.074000e+01,4.170000e+00,2.350000e+00,-1.560000e+00,8.666667e+00,8.666667e+00,10
-1.950000e+00,-1.220000e+00,1.108000e+01,3.910000e+00,2.350000e+00,-1.820000e+00,9.333333e+00,9.333333e+00,10
-2.010000e+00,-1.120000e+00,1.112000e+01,4.950000e+00,2.350000e+00,-1.560000e+00,10,10,10
-1.650000e+00,-1.100000e+00,1.126000e+01,5.210000e+00,3.390000e+00,-1.560000e+00,1.066667e+01,1.066667e+01,10
-1.540000e+00,-7.800000e-01,1.147000e+01,6.260000e+00,5.210000e+00,-1.560000e+00,1.133333e+01,1.133333e+01,10
-1.650000e+00,0,1.184000e+01,5.990000e+00,4.950000e+00,-1.300000e+00,1.200000e+01,1.200000e+01,10
-1.560000e+00,-3.000000e-02,1.186000e+01,6.520000e+00,4.690000e+00,-1.560000e+00,1.266667e+01,1.266667e+01,10
-1.160000e+00,-1.600000e-01,1.193000e+01,7.300000e+00,6.260000e+00,-1.560000e+00,1.333333e+01,1.333333e+01,10
-1.240000e+00,2.600000e-01,1.213000e+01,7.820000e+00,7.040000e+00,-1.560000e+00,1.400000e+01,1.400000e+01,10
-1.040000e+00,6.100000e-01,1.234000e+01,8.080000e+00,7.040000e+00,-1.300000e+00,1.466667e+01,1.466667e+01,10
-8.900000e-01,5.700000e-01,1.238000e+01,9.120000e+00,8.080000e+00,-1.560000e+00,1.533333e+01,1.533333e+01,10
-8.300000e-01,1.010000e+00,1.261000e+01,9.380000e+00,8.600000e+00,-1.560000e+00,1.600000e+01,1.600000e+01,10
-8.700000e-01,1.250000e+00,1.272000e+01,1.069000e+01,8.860000e+00,-1.300000e+00,1.666667e+01,1.666667e+01,10
-4.800000e-01,1.230000e+00,1.284000e+01,1.043000e+01,9.640000e+00,-1.560000e+00,1.733333e+01,1.733333e+01,10
-5.700000e-01,1.440000e+00,1.291000e+01,1.095000e+01,9.900000e+00,-1.820000e+00,1.800000e+01,1.800000e+01,10
-3.400000e-01,1.640000e+00,1.306000e+01,1.121000e+01,1.016000e+01,-1.560000e+00,1.866667e+01,1.866667e+01,10
-3.400000e-01,1.770000e+00,1.312000e+01,1.225000e+01,1.016000e+01,-1.300000e+00,1.933333e+01,1.933333e+01,10
5.000000e-02,1.690000e+00,1.321000e+01,1.251000e+01,1.121000e+01,-1.560000e+00,20,20,10
-7.000000e-02,2.030000e+00,1.332000e+01,1.225000e+01,1.095000e+01,-1.560000e+00,1.933333e+01,1.933333e+01,10
-1.400000e-01,2.100000e+00,1.333000e+01,1.199000e+01,9.900000e+00,-1.560000e+00,1.866667e+01,1.866667e+01,10
7.000000e-02,1.780000e+00,1.326000e+01,1.173000e+01,9.640000e+00,-1.560000e+00,1.800000e+01,1.800000e+01,10
9.000000e-02,1.730000e+00,1.323000e+01,1.016000e+01,9.380000e+00,-1.560000e+00,1.733333e+01,1.733333e+01,10
-3.500000e-01,1.600000e+00,1.304000e+01,9.900000e+00,8.600000e+00,-1.560000e+00,1.666667e+01,1.666667e+01,10
-3.800000e-01,1.540000e+00,1.301000e+01,9.380000e+00,7.820000e+00,-1.300000e+00,1.600000e+01,1.600000e+01,10
-4.300000e-01,1.260000e+00,1.291000e+01,9.120000e+00,7.820000e+00,-1.560000e+00,1.533333e+01,1.533333e+01,10
-6.100000e-01,1.230000e+00,1.285000e+01,8.340000e+00,7.040000e+00,-1.560000e+00,1.466667e+01,1.466667e+01,10
-7.100000e-01,1.030000e+00,1.268000e+01,7.820000e+00,6.780000e+00,-1.560000e+00,1.400000e+01,1.400000e+01,10
-7.200000e-01,9.600000e-01,1.264000e+01,6.780000e+00,5.470000e+00,-1.820000e+00,1.333333e+01,1.333333e+01,10
-9.200000e-01,6.600000e-01,1.244000e+01,7.040000e+00,5.730000e+00,-1.300000e+00,1.266667e+01,1.266667e+01,10
-9.500000e-01,5.900000e-01,1.239000e+01,5.990000e+00,4.690000e+00,-1.560000e+00,1.200000e+01,1.200000e+01,10
-1.170000e+00,3.500000e-01,1.221000e+01,5.730000e+00,4.430000e+00,-1.560000e+00,1.133333e+01,1.133333e+01,10
-1.200000e+00,2.800000e-01,1.216000e+01,5.210000e+00,3.650000e+00,-1.820000e+00,1.066667e+01,1.066667e+01,10
-1.310000e+00,-6.000000e-02,1.196000e+01,4.690000e+00,2.350000e+00,-1.820000e+00,10,10,10
-1.110000e+00,-4.300000e-01,1.182000e+01,3.910000e+00,2.350000e+00,-1.560000e+00,9.333333e+00,9.333333e+00,10
-1.600000e+00,-4.700000e-01,1.164000e+01,3.650000e+00,2.350000e+00,-1.560000e+00,8.666667e+00,8.666667e+00,10
-1.640000e+00,-5.400000e-01,1.159000e+01,2.610000e+00,1.820000e+00,-1.560000e+00,8.000000e+00,8.000000e+00,10
-2.020000e+00,-8.600000e-01,1.129000e+01,2.350000e+00,1.040000e+00,-1.560000e+00,7.333333e+00,7.333333e+00,10
-2.060000e+00,-9.400000e-01,1.123000e+01,1.820000e+00,5.200000e-01,-1.560000e+00,6.666667e+00,6.666667e+00,10
-2.260000e+00,-1.350000e+00,1.094000e+01,1.300000e+00,5.200000e-01,-1.560000e+00,6.000000e+00,6.000000e+00,10
-2.300000e+00,-1.410000e+00,1.087000e+01,2.600000e-01,-1.040000e+00,-1.560000e+00,5.333333e+00,5.333333e+00,10
-2.580000e+00,-1.940000e+00,1.047000e+01,-2.600000e-01,-1.560000e+00,-1.560000e+00,4.666667e+00,4.666667e+00,10
-2.940000e+00,-2.460000e+00,9.990000e+00,-2.600000e-01,-2.090000e+00,-1.820000e+00,4.000000e+00,4.000000e+00,10
-2.980000e+00,-2.550000e+00,9.910000e+00,-5.200000e-01,-2.870000e+00,-1.560000e+00,3.333333e+00,3.333333e+00,10
-2.600000e+00,-3.100000e+00,9.680000e+00,-1.820000e+00,-3.130000e+00,-1.560000e+00,2.666667e+00,2.666667e+00,10
-3.450000e+00,-3.160000e+00,9.250000e+00,-1.820000e+00,-3.130000e+00,-1.820000e+00,2.000000e+00,2.000000e+00,10
-3.610000e+00,-3.230000e+00,9.120000e+00,-2.870000e+00,-7.040000e+00,-1.560000e+00,1.333333e+00,1.333333e+00,10
-2.240000e+00,-6.150000e+00,6.960000e+00,-3.650000e+00,-7.040000e+00,-1.820000e+00,6.666667e-01,6.666667e-01,10
-3.040000e+00,-6.200000e+00,6.290000e+00,-4.170000e+00,-6.780000e+00,-1.560000e+00,1.333333e+00,1.333333e+00,10
-3.710000e+00,-6.220000e+00,5.680000e+00,-4.170000e+00,-7.040000e+00,-1.560000e+00,2.000000e+00,2.000000e+00,10
-4.220000e+00,-6.220000e+00,5.150000e+00,-4.690000e+00,-6.780000e+00,-1.560000e+00,2.666667e+00,2.666667e+00,10
-4.670000e+00,-6.190000e+00,4.700000e+00,-5.200000e-01,-7.800000e-01,-1.560000e+00,3.333333e+00,3.333333e+00,10
-3.110000e+00,-3.220000e+00,9.400000e+00,-2.600000e-01,2.600000e-01,-1.820000e+00,5.333333e+00,5.333333e+00,10
-3.960000e+00,-2.090000e+00,9.760000e+00,1.560000e+00,2.600000e-01,-1.820000e+00,6.000000e+00,6.000000e+00,10
-2.640000e+00,-2.140000e+00,1.035000e+01,1.560000e+00,5.200000e-01,-1.560000e+00,6.666667e+00,6.666667e+00,10
-2.700000e+00,-2.030000e+00,1.040000e+01,1.560000e+00,5.200000e-01,-1.820000e+00,7.333333e+00,7.333333e+00,10
-2.700000e+00,-2.040000e+00,1.039000e+01,2.610000e+00,1.040000e+00,-1.560000e+00,8.000000e+00,8.000000e+00,10
-2.300000e+00,-1.680000e+00,1.076000e+01,3.650000e+00,2.870000e+00,-1.560000e+00,8.666667e+00,8.666667e+00,10
-2.120000e+00,-1.100000e+00,1.115000e+01,3.650000e+00,2.610000e+00,-1.560000e+00,9.333333e+00,9.333333e+00,10
-2.030000e+00,-1.090000e+00,1.119000e+01,4.170000e+00,2.610000e+00,-1.560000e+00,10,10,10
-1.720000e+00,-1.090000e+00,1.130000e+01,5.470000e+00,4.170000e+00,-1.820000e+00,1.066667e+01,1.066667e+01,10
-1.900000e+00,-3.700000e-01,1.162000e+01,5.990000e+00,4.690000e+00,-1.560000e+00,1.133333e+01,1.133333e+01,10
-1.560000e+00,-1.800000e-01,1.185000e+01,5.990000e+00,4.690000e+00,-1.560000e+00,1.200000e+01,1.200000e+01,10
-1.510000e+00,-2.000000e-01,1.186000e+01,6.780000e+00,5.470000e+00,-1.560000e+00,1.266667e+01,1.266667e+01,10
-1.160000e+00,4.000000e-02,1.209000e+01,7.040000e+00,6.260000e+00,-1.820000e+00,1.333333e+01,1.333333e+01,10
-1.320000e+00,3.400000e-01,1.219000e+01,7.560000e+00,6.260000e+00,-1.560000e+00,1.400000e+01,1.400000e+01,10
-1.000000e+00,2.900000e-01,1.227000e+01,8.080000e+00,5.730000e+00,-1.820000e+00,1.466667e+01,1.466667e+01,10
-7.000000e-01,2.700000e-01,1.234000e+01,8.860000e+00,9.640000e+00,-1.300000e+00,1.533333e+01,1.533333e+01,10
-1.190000e+00,1.410000e+00,1.272000e+01,8.860000e+00,7.560000e+00,-1.820000e+00,1.600000e+01,1.600000e+01,10
-8.100000e-01,1.040000e+00,1.270000e+01,1.016000e+01,8.600000e+00,-1.560000e+00,1.666667e+01,1.666667e+01,10
-4.900000e-01,1.190000e+00,1.285000e+01,1.043000e+01,1.016000e+01,-1.820000e+00,1.733333e+01,1.733333e+01,10
-8.000000e-01,1.680000e+00,1.298000e+01,1.095000e+01,9.900000e+00,-1.820000e+00,1.800000e+01,1.800000e+01,10
-3.900000e-01,1.630000e+00,1.309000e+01,1.147000e+01,9.900000e+00,-1.560000e+00,1.866667e+01,1.866667e+01,10
-3.500000e-01,1.740000e+00,1.314000e+01,1.199000e+01,1.043000e+01,-1.560000e+00,1.933333e+01,1.933333e+01,10
-1.300000e-01,1.850000e+00,1.326000e+01,1.225000e+01,1.095000e+01,-1.560000e+00,20,20,10
-1.300000e-01,2.030000e+00,1.334000e+01,1.225000e+01,1.095000e+01,-1.560000e+00,1.933333e+01,1.933333e+01,10
-1.600000e-01,2.070000e+00,1.335000e+01,1.225000e+01,9.900000e+00,-1.560000e+00,1.866667e+01,1.866667e+01,10
5.000000e-02,1.770000e+00,1.328000e+01,1.173000e+01,9.380000e+00,-1.820000e+00,1.800000e+01,1.800000e+01,10
5.000000e-02,1.710000e+00,1.326000e+01,9.900000e+00,8.860000e+00,-1.820000e+00,1.733333e+01,1.733333e+01,10
-4.000000e-01,1.600000e+00,1.307000e+01,1.016000e+01,8.600000e+00,-1.560000e+00,1.666667e+01,1.666667e+01,10
-4.400000e-01,1.540000e+00,1.304000e+01,9.900000e+00,7.820000e+00,-1.820000e+00,1.600000e+01,1.600000e+01,10
-2.800000e-01,1.270000e+00,1.296000e+01,9.120000e+00,7.820000e+00,-1.300000e+00,1.533333e+01,1.533333e+01,10
-5.300000e-01,1.230000e+00,1.287000e+01,8.080000e+00,6.780000e+00,-1.560000e+00,1.466667e+01,1.466667e+01,10
-7.900000e-01,1.010000e+00,1.269000e+01,8.080000e+00,7.040000e+00,-1.560000e+00,1.400000e+01,1.400000e+01,10
-8.100000e-01,9.400000e-01,1.265000e+01,6.780000e+00,5.470000e+00,-2.090000e+00,1.333333e+01,1.333333e+01,10
-8.400000e-01,6.000000e-01,1.247000e+01,7.040000e+00,5.210000e+00,-1.560000e+00,1.266667e+01,1.266667e+01,10
-8.900000e-01,5.300000e-01,1.243000e+01,5.730000e+00,5.210000e+00,-1.560000e+00,1.200000e+01,1.200000e+01,10
-1.170000e+00,3.300000e-01,1.224000e+01,5.730000e+00,4.430000e+00,-1.560000e+00,1.133333e+01,1.133333e+01,10
-1.210000e+00,2.700000e-01,1.219000e+01,5.730000e+00,3.650000e+00,-1.300000e+00,1.066667e+01,1.066667e+01,10
-1.000000e+00,-1.000000e-01,1.208000e+01,4.690000e+00,2.610000e+00,-1.820000e+00,10,10,10
-1.300000e+00,-3.800000e-01,1.184000e+01,3.650000e+00,2.090000e+00,-1.560000e+00,9.333333e+00,9.333333e+00,10
-1.700000e+00,-4.600000e-01,1.165000e+01,3.650000e+00,2.350000e+00,-1.560000e+00,8.666667e+00,8.666667e+00,10
-1.740000e+00,-5.400000e-01,1.160000e+01,2.610000e+00,1.040000e+00,-1.560000e+00,8.000000e+00,8.000000e+00,10
-2.010000e+00,-9.100000e-01,1.131000e+01,2.350000e+00,1.040000e+00,-1.560000e+00,7.333333e+00,7.333333e+00,10
-2.040000e+00,-9.800000e-01,1.126000e+01,1.560000e+00,5.200000e-01,-1.820000e+00,6.666667e+00,6.666667e+00,10
-2.310000e+00,-1.370000e+00,1.095000e+01,1.560000e+00,5.200000e-01,-1.820000e+00,6.000000e+00,6.000000e+00,10
-2.340000e+00,-1.430000e+00,1.090000e+01,5.200000e-01,-5.200000e-01,-1.560000e+00,5.333333e+00,5.333333e+00,10
-2.580000e+00,-1.920000e+00,1.052000e+01,-2.600000e-01,-1.820000e+00,-1.820000e+00,4.666667e+00,4.666667e+00,10
-2.910000e+00,-2.450000e+00,1.004000e+01,-5.200000e-01,-1.820000e+00,-1.560000e+00,4.000000e+00,4.000000e+00,10
-2.990000e+00,-2.550000e+00,9.960000e+00,-2.600000e-01,-2.870000e+00,-1.820000e+00,3.333333e+00,3.333333e+00,10
-2.600000e+00,-3.160000e+00,9.710000e+00,-1.560000e+00,-2.610000e+00,-2.090000e+00,2.666667e+00,2.666667e+00,10
-3.500000e+00,-3.190000e+00,9.270000e+00,-1.560000e+00,-2.870000e+00,-1.560000e+00,2.000000e+00,2.000000e+00,10
-2.970000e+00,-3.860000e+00,8.960000e+00,-4.170000e+00,-7.040000e+00,-1.560000e+00,1.333333e+00,1.333333e+00,10
-3.810000e+00,-5.910000e+00,6.130000e+00,-4.950000e+00,-7.040000e+00,-1.820000e+00,6.666667e-01,6.666667e-01,10
-4.990000e+00,-5.900000e+00,4.910000e+00,-4.950000e+00,-7.040000e+00,-1.820000e+00,1.333333e+00,1.333333e+00,10
-5.600000e+00,-5.910000e+00,4.120000e+00,-5.210000e+00,-6.780000e+00,-1.560000e+00,2.000000e+00,2.000000e+00,10
-5.920000e+00,-5.910000e+00,3.630000e+00,-5.470000e+00,-6.780000e+00,-1.560000e+00,2.666667e+00,2.666667e+00,10
-6.110000e+00,-5.900000e+00,3.310000e+00,-5.200000e-01,-1.040000e+00,-1.820000e+00,3.333333e+00,3.333333e+00,10
-3.520000e+00,-3.130000e+00,9.300000e+00,-2.600000e-01,-2.090000e+00,-1.820000e+00,4.666667e+00,4.666667e+00,10
-3.480000e+00,-3.180000e+00,9.310000e+00,5.200000e-01,-2.600000e-01,-1.300000e+00,5.333333e+00,5.333333e+00,10
-3.510000e+00,-2.300000e+00,9.900000e+00,1.820000e+00,2.600000e-01,-1.560000e+00,6.000000e+00,6.000000e+00,10
-2.790000e+00,-2.100000e+00,1.037000e+01,1.560000e+00,2.600000e-01,-1.820000e+00,6.666667e+00,6.666667e+00,10
-2.740000e+00,-2.100000e+00,1.038000e+01,1.820000e+00,5.200000e-01,-1.820000e+00,7.333333e+00,7.333333e+00,10
-2.830000e+00,-1.970000e+00,1.043000e+01,2.610000e+00,1.560000e+00,-1.560000e+00,8.000000e+00,8.000000e+00,10
-2.410000e+00,-1.600000e+00,1.081000e+01,3.650000e+00,2.350000e+00,-1.560000e+00,8.666667e+00,8.666667e+00,10
-2.110000e+00,-1.210000e+00,1.114000e+01,3.910000e+00,2.610000e+00,-1.820000e+00,9.333333e+00,9.333333e+00,10
-2.080000e+00,-1.080000e+00,1.121000e+01,4.170000e+00,2.610000e+00,-1.560000e+00,10,10,10
-1.900000e+00,-1.060000e+00,1.129000e+01,4.690000e+00,3.910000e+00,-1.560000e+00,1.066667e+01,1.066667e+01,10
-1.830000e+00,-5.100000e-01,1.161000e+01,6.260000e+00,4.950000e+00,-1.560000e+00,1.133333e+01,1.133333e+01,10
-1.630000e+00,-1.500000e-01,1.189000e+01,5.730000e+00,4.950000e+00,-1.300000e+00,1.200000e+01,1.200000e+01,10
-1.590000e+00,-1.600000e-01,1.188000e+01,6.780000e+00,4.950000e+00,-1.560000e+00,1.266667e+01,1.266667e+01,10
-1.220000e+00,2.000000e-02,1.210000e+01,7.300000e+00,5.990000e+00,-1.560000e+00,1.333333e+01,1.333333e+01,10
-1.390000e+00,3.700000e-01,1.222000e+01,7.820000e+00,5.990000e+00,-1.560000e+00,1.400000e+01,1.400000e+01,10
-9.500000e-01,3.200000e-01,1.234000e+01,8.080000e+00,5.990000e+00,-1.560000e+00,1.466667e+01,1.466667e+01,10
-7.700000e-01,3.100000e-01,1.238000e+01,8.860000e+00,9.380000e+00,-1.560000e+00,1.533333e+01,1.533333e+01,10
-1.190000e+00,1.360000e+00,1.274000e+01,9.120000e+00,7.820000e+00,-1.560000e+00,1.600000e+01,1.600000e+01,10
-7.800000e-01,1.070000e+00,1.274000e+01,9.900000e+00,8.080000e+00,-1.820000e+00,1.666667e+01,1.666667e+01,10
-4.300000e-01,1.110000e+00,1.287000e+01,1.016000e+01,9.640000e+00,-1.820000e+00,1.733333e+01,1.733333e+01,10
-7.400000e-01,1.610000e+00,13,1.121000e+01,9.640000e+00,-1.560000e+00,1.800000e+01,1.800000e+01,10
-4.200000e-01,1.640000e+00,1.313000e+01,1.147000e+01,9.900000e+00,-1.820000e+00,1.866667e+01,1.866667e+01,10
-3.700000e-01,1.720000e+00,1.317000e+01,1.199000e+01,1.016000e+01,-1.560000e+00,1.933333e+01,1.933333e+01,10
-7.000000e-02,1.760000e+00,1.328000e+01,1.225000e+01,1.069000e+01,-1.560000e+00,20,20,10
-8.000000e-02,1.960000e+00,1.336000e+01,1.225000e+01,1.121000e+01,-1.560000e+00,1.933333e+01,1.933333e+01,10
-1.700000e-01,2.050000e+00,1.337000e+01,1.251000e+01,9.900000e+00,-1.820000e+00,1.866667e+01,1.866667e+01,10
2.000000e-02,1.770000e+00,1.331000e+01,1.173000e+01,9.380000e+00,-1.820000e+00,1.800000e+01,1.800000e+01,10
3.000000e-02,1.710000e+00,1.328000e+01,1.016000e+01,8.860000e+00,-1.820000e+00,1.733333e+01,1.733333e+01,10
-4.000000e-01,1.570000e+00,1.309000e+01,9.900000e+00,8.600000e+00,-1.560000e+00,1.666667e+01,1.666667e+01,10
-4.400000e-01,1.530000e+00,1.306000e+01,9.640000e+00,7.820000e+00,-1.560000e+00,1.600000e+01,1.600000e+01,10
-3.100000e-01,1.290000e+00,1.299000e+01,9.120000e+00,8.080000e+00,-1.560000e+00,1.533333e+01,1.533333e+01,10
-6.000000e-01,1.240000e+00,1.288000e+01,7.820000e+00,6.520000e+00,-1.560000e+00,1.466667e+01,1.466667e+01,10
-7.500000e-01,1.000000e+00,1.272000e+01,7.820000e+00,6.520000e+00,-1.820000e+00,1.400000e+01,1.400000e+01,10
-7.700000e-01,9.300000e-01,1.268000e+01,7.040000e+00,5.470000e+00,-1.560000e+00,1.333333e+01,1.333333e+01,10
-9.500000e-01,6.300000e-01,1.249000e+01,7.040000e+00,5.210000e+00,-1.820000e+00,1.266667e+01,1.266667e+01,10
-9.800000e-01,5.700000e-01,1.244000e+01,5.990000e+00,4.430000e+00,-1.820000e+00,1.200000e+01,1.200000e+01,10
-1.190000e+00,3.600000e-01,1.227000e+01,5.730000e+00,4.430000e+00,-1.560000e+00,1.133333e+01,1.133333e+01,10
-1.230000e+00,2.800000e-01,1.222000e+01,4.690000e+00,3.650000e+00,-1.560000e+00,1.066667e+01,1.066667e+01,10
-1.420000e+00,-7.000000e-02,1.199000e+01,4.690000e+00,3.130000e+00,-1.560000e+00,10,10,10
-1.450000e+00,-1.500000e-01,1.194000e+01,3.650000e+00,2.610000e+00,-1.560000e+00,9.333333e+00,9.333333e+00,10
-1.710000e+00,-4.600000e-01,1.169000e+01,3.650000e+00,2.610000e+00,-1.300000e+00,8.666667e+00,8.666667e+00,10
-1.730000e+00,-5.300000e-01,1.164000e+01,2.610000e+00,1.300000e+00,-1.820000e+00,8.000000e+00,8.000000e+00,10
-2.050000e+00,-8.700000e-01,1.135000e+01,2.350000e+00,1.560000e+00,-1.820000e+00,7.333333e+00,7.333333e+00,10
-2.090000e+00,-9.400000e-01,1.129000e+01,1.820000e+00,5.200000e-01,-1.560000e+00,6.666667e+00,6.666667e+00,10
-2.390000e+00,-1.420000e+00,1.092000e+01,7.800000e-01,-7.800000e-01,-1.560000e+00,5.333333e+00,5.333333e+00,10
-2.610000e+00,-1.940000e+00,1.054000e+01,-7.800000e-01,-1.820000e+00,-1.560000e+00,4.666667e+00,4.666667e+00,10
-2.960000e+00,-2.460000e+00,1.007000e+01,-2.600000e-01,-1.820000e+00,-1.820000e+00,4.000000e+00,4.000000e+00,10
-3.030000e+00,-2.550000e+00,9.980000e+00,-7.800000e-01,-2.870000e+00,-1.560000e+00,3.333333e+00,3.333333e+00,10
-2.650000e+00,-3.150000e+00,9.730000e+00,-1.560000e+00,-2.870000e+00,-1.560000e+00,2.666667e+00,2.666667e+00,10
-3.580000e+00,-3.160000e+00,9.280000e+00,-1.820000e+00,-2.870000e+00,-1.820000e+00,2.000000e+00,2.000000e+00,10
-3.640000e+00,-3.210000e+00,9.200000e+00,-3.650000e+00,-7.040000e+00,-1.560000e+00,1.333333e+00,1.333333e+00,10
-2.780000e+00,-6.020000e+00,6.880000e+00,-4.430000e+00,-7.040000e+00,-1.820000e+00,6.666667e-01,6.666667e-01,10
-3.740000e+00,-6.040000e+00,6.030000e+00,-4.430000e+00,-7.040000e+00,-1.560000e+00,1.333333e+00,1.333333e+00,10
-4.470000e+00,-6.030000e+00,5.330000e+00,-4.690000e+00,-7.040000e+00,-1.560000e+00,2.000000e+00,2.000000e+00,10
-5.020000e+00,-6.040000e+00,4.710000e+00,-5.210000e+00,-7.300000e+00,-1.560000e+00,2.666667e+00,2.666667e+00,10
-5.420000e+00,-6.020000e+00,4.210000e+00,-5.200000e-01,-1.040000e+00,-1.820000e+00,3.333333e+00,3.333333e+00,10
-3.920000e+00,-2.930000e+00,9.270000e+00,-2.600000e-01,-2.090000e+00,-1.820000e+00,4.000000e+00,4.000000e+00,10
-3.450000e+00,-3.100000e+00,9.380000e+00,-5.200000e-01,-2.090000e+00,-1.820000e+00,4.666667e+00,4.666667e+00,10
-3.420000e+00,-3.140000e+00,9.390000e+00,-2.600000e-01,5.200000e-01,-1.560000e+00,5.333333e+00,5.333333e+00,10
-4.140000e+00,-2.050000e+00,9.770000e+00,1.820000e+00,2.600000e-01,-1.820000e+00,6.000000e+00,6.000000e+00,10
-2.730000e+00,-2.090000e+00,1.042000e+01,1.820000e+00,2.600000e-01,-2.350000e+00,6.666667e+00,6.666667e+00,10
-2.750000e+00,-2.010000e+00,1.047000e+01,1.820000e+00,5.200000e-01,-1.820000e+00,7.333333e+00,7.333333e+00,10
-2.800000e+00,-1.960000e+00,1.048000e+01,2.350000e+00,7.800000e-01,-1.820000e+00,8.000000e+00,8.000000e+00,10
-2.360000e+00,-1.800000e+00,1.074000e+01,3.910000e+00,2.610000e+00,-1.560000e+00,8.666667e+00,8.666667e+00,10
-2.110000e+00,-1.100000e+00,1.122000e+01,3.650000e+00,2.350000e+00,-1.820000e+00,9.333333e+00,9.333333e+00,10
-2.130000e+00,-1.040000e+00,1.124000e+01,4.170000e+00,2.350000e+00,-1.040000e+00,10,10,10
-1.790000e+00,-1.090000e+00,1.135000e+01,4.950000e+00,4.430000e+00,-1.820000e+00,1.066667e+01,1.066667e+01,10
-2.010000e+00,-2.600000e-01,1.171000e+01,5.990000e+00,4.430000e+00,-1.560000e+00,1.133333e+01,1.133333e+01,10
-1.580000e+00,-2.000000e-01,1.189000e+01,5.730000e+00,4.690000e+00,-1.300000e+00,1.200000e+01,1.200000e+01,10
-1.570000e+00,-2.000000e-01,1.190000e+01,6.520000e+00,5.210000e+00,-1.560000e+00,1.266667e+01,1.266667e+01,10
-1.200000e+00,-2.000000e-02,1.212000e+01,7.040000e+00,6.260000e+00,-1.300000e+00,1.333333e+01,1.333333e+01,10
-1.370000e+00,3.400000e-01,1.224000e+01,7.820000e+00,5.990000e+00,-1.560000e+00,1.400000e+01,1.400000e+01,10
-9.400000e-01,2.900000e-01,1.237000e+01,8.340000e+00,5.990000e+00,-1.300000e+00,1.466667e+01,1.466667e+01,10
-8.100000e-01,3.300000e-01,1.242000e+01,8.860000e+00,8.600000e+00,-1.300000e+00,1.533333e+01,1.533333e+01,10
-9.900000e-01,1.090000e+00,1.272000e+01,9.380000e+00,7.820000e+00,-1.820000e+00,1.600000e+01,1.600000e+01,10
-7.600000e-01,1.010000e+00,1.276000e+01,1.043000e+01,8.080000e+00,-1.560000e+00,1.666667e+01,1.666667e+01,10
-4.500000e-01,1.100000e+00,1.290000e+01,1.016000e+01,9.900000e+00,-1.820000e+00,1.733333e+01,1.733333e+01,10
-7.400000e-01,1.560000e+00,1.302000e+01,1.121000e+01,9.900000e+00,-1.820000e+00,1.800000e+01,1.800000e+01,10
-4.200000e-01,1.630000e+00,1.314000e+01,1.147000e+01,9.900000e+00,-1.560000e+00,1.866667e+01,1.866667e+01,10
-3.700000e-01,1.700000e+00,1.319000e+01,1.199000e+01,1.043000e+01,-1.820000e+00,1.933333e+01,1.933333e+01,10
-9.000000e-02,1.760000e+00,1.330000e+01,1.277000e+01,1.043000e+01,-1.820000e+00,20,20,10
-6.000000e-02,1.900000e+00,1.337000e+01,1.199000e+01,1.095000e+01,-1.820000e+00,1.933333e+01,1.933333e+01,10
-1.900000e-01,2.040000e+00,1.339000e+01,1.225000e+01,9.640000e+00,-1.560000e+00,1.866667e+01,1.866667e+01,10
1.000000e-02,1.750000e+00,1.333000e+01,1.225000e+01,9.640000e+00,-1.560000e+00,1.800000e+01,1.800000e+01,10
1.000000e-02,1.700000e+00,1.330000e+01,1.016000e+01,8.860000e+00,-1.820000e+00,1.733333e+01,1.733333e+01,10
-4.100000e-01,1.570000e+00,1.311000e+01,9.900000e+00,8.600000e+00,-1.820000e+00,1.666667e+01,1.666667e+01,10
-4.500000e-01,1.520000e+00,1.308000e+01,9.380000e+00,8.080000e+00,-1.820000e+00,1.600000e+01,1.600000e+01,10
-4.200000e-01,1.290000e+00,1.299000e+01,8.600000e+00,7.560000e+00,-1.560000e+00,1.533333e+01,1.533333e+01,10
-6.100000e-01,1.240000e+00,1.290000e+01,8.080000e+00,6.780000e+00,-1.820000e+00,1.466667e+01,1.466667e+01,10
-7.700000e-01,9.700000e-01,1.274000e+01,8.080000e+00,6.780000e+00,-1.820000e+00,1.400000e+01,1.400000e+01,10
-7.900000e-01,9.100000e-01,1.269000e+01,6.780000e+00,5.470000e+00,-1.560000e+00,1.333333e+01,1.333333e+01,10
-1.000000e+00,6.200000e-01,1.250000e+01,6.780000e+00,5.210000e+00,-1.560000e+00,1.266667e+01,1.266667e+01,10
-1.020000e+00,5.600000e-01,1.246000e+01,5.990000e+00,4.430000e+00,-1.560000e+00,1.200000e+01,1.200000e+01,10
-1.120000e+00,3.200000e-01,1.230000e+01,5.730000e+00,4.690000e+00,-1.820000e+00,1.133333e+01,1.133333e+01,10
-1.220000e+00,2.500000e-01,1.225000e+01,4.950000e+00,3.650000e+00,-1.820000e+00,1.066667e+01,1.066667e+01,10
-1.440000e+00,-6.000000e-02,1.202000e+01,4.690000e+00,2.610000e+00,-1.820000e+00,10,10,10
-1.240000e+00,-4.100000e-01,1.190000e+01,3.650000e+00,2.610000e+00,-1.820000e+00,9.333333e+00,9.333333e+00,10
-1.700000e+00,-4.800000e-01,1.170000e+01,3.650000e+00,2.090000e+00,-1.820000e+00,8.666667e+00,8.666667e+00,10
-1.740000e+00,-5.500000e-01,1.165000e+01,2.610000e+00,1.300000e+00,-1.560000e+00,8.000000e+00,8.000000e+00,10
-2.020000e+00,-8.800000e-01,1.137000e+01,2.610000e+00,1.300000e+00,-1.560000e+00,7.333333e+00,7.333333e+00,10
-2.370000e+00,-1.370000e+00,1.099000e+01,1.560000e+00,2.600000e-01,-1.820000e+00,6.000000e+00,6.000000e+00,10
-2.410000e+00,-1.440000e+00,1.093000e+01,2.600000e-01,-7.800000e-01,-1.560000e+00,5.333333e+00,5.333333e+00,10
-2.660000e+00,-1.930000e+00,1.055000e+01,-2.600000e-01,-1.820000e+00,-1.820000e+00,4.666667e+00,4.666667e+00,10
-3.010000e+00,-2.480000e+00,1.007000e+01,-5.200000e-01,-2.350000e+00,-1.560000e+00,4.000000e+00,4.000000e+00,10
-3.050000e+00,-2.550000e+00,9.990000e+00,-5.200000e-01,-2.870000e+00,-1.560000e+00,3.333333e+00,3.333333e+00,10
-2.680000e+00,-3.090000e+00,9.770000e+00,-1.560000e+00,-2.870000e+00,-1.560000e+00,2.666667e+00,2.666667e+00,10
-3.500000e+00,-3.170000e+00,9.340000e+00,-1.820000e+00,-3.910000e+00,-1.560000e+00,2.000000e+00,2.000000e+00,10
-3.350000e+00,-3.690000e+00,9,-2.870000e+00,-6.780000e+00,-1.560000e+00,1.333333e+00,1.333333e+00,10
-2.400000e+00,-6.060000e+00,7.120000e+00,-3.390000e+00,-7.040000e+00,-2.090000e+00,6.666667e-01,6.666667e-01,10
-3.190000e+00,-6.110000e+00,6.450000e+00,-3.910000e+00,-6.780000e+00,-1.820000e+00,1.333333e+00,1.333333e+00,10
-3.830000e+00,-6.110000e+00,5.890000e+00,-4.430000e+00,-6.780000e+00,-1.300000e+00,2.000000e+00,2.000000e+00,10
-4.360000e+00,-6.110000e+00,5.370000e+00,-4.430000e+00,-7.040000e+00,-1.560000e+00,2.666667e+00,2.666667e+00,10
-4.780000e+00,-6.090000e+00,4.930000e+00,-5.200000e-01,-7.800000e-01,-2.090000e+00,3.333333e+00,3.333333e+00,10
-3.190000e+00,-3.130000e+00,9.530000e+00,-2.600000e-01,2.600000e-01,-1.820000e+00,5.333333e+00,5.333333e+00,10
-3.960000e+00,-2.120000e+00,9.840000e+00,1.820000e+00,2.600000e-01,-1.820000e+00,6.000000e+00,6.000000e+00,10
-2.740000e+00,-2.060000e+00,1.046000e+01,1.560000e+00,2.600000e-01,-1.820000e+00,6.666667e+00,6.666667e+00,10
-2.760000e+00,-1.980000e+00,1.049000e+01,1.560000e+00,2.600000e-01,-1.560000e+00,7.333333e+00,7.333333e+00,10
-2.790000e+00,-1.950000e+00,1.050000e+01,2.610000e+00,7.800000e-01,-1.560000e+00,8.000000e+00,8.000000e+00,10
-2.250000e+00,-1.770000e+00,1.083000e+01,3.650000e+00,2.610000e+00,-1.300000e+00,8.666667e+00,8.666667e+00,10
-2.110000e+00,-1.100000e+00,1.124000e+01,3.650000e+00,2.350000e+00,-2.090000e+00,9.333333e+00,9.333333e+00,10
-2.070000e+00,-1.070000e+00,1.127000e+01,3.910000e+00,2.610000e+00,-1.820000e+00,10,10,10
-1.750000e+00,-1.020000e+00,1.141000e+01,4.950000e+00,3.390000e+00,-1.560000e+00,1.066667e+01,1.066667e+01,10
-1.680000e+00,-6.900000e-01,1.162000e+01,5.990000e+00,5.210000e+00,-1.820000e+00,1.133333e+01,1.133333e+01,10
-1.720000e+00,-4.000000e-02,1.195000e+01,5.990000e+00,4.690000e+00,-1.820000e+00,1.200000e+01,1.200000e+01,10
-1.620000e+00,-1.100000e-01,1.195000e+01,7.040000e+00,4.690000e+00,-1.820000e+00,1.266667e+01,1.266667e+01,10
-1.080000e+00,-1.700000e-01,1.210000e+01,7.040000e+00,6.260000e+00,-1.820000e+00,1.333333e+01,1.333333e+01,10
-1.390000e+00,3.600000e-01,1.226000e+01,8.080000e+00,6.520000e+00,-1.820000e+00,1.400000e+01,1.400000e+01,10
-1.200000e+00,4.600000e-01,1.238000e+01,8.080000e+00,6.520000e+00,-1.820000e+00,1.466667e+01,1.466667e+01,10
-1.030000e+00,5.800000e-01,1.250000e+01,8.860000e+00,7.300000e+00,-1.560000e+00,1.533333e+01,1.533333e+01,10
-7.800000e-01,8.200000e-01,1.269000e+01,9.120000e+00,8.600000e+00,-1.820000e+00,1.600000e+01,1.600000e+01,10
-9.700000e-01,1.210000e+00,1.280000e+01,1.016000e+01,8.860000e+00,-1.820000e+00,1.666667e+01,1.666667e+01,10
-6.300000e-01,1.290000e+00,1.295000e+01,1.016000e+01,9.120000e+00,-1.560000e+00,1.733333e+01,1.733333e+01,10
-6.100000e-01,1.350000e+00,1.299000e+01,1.121000e+01,9.120000e+00,-1.820000e+00,1.800000e+01,1.800000e+01,10
-2.900000e-01,1.420000e+00,1.312000e+01,1.121000e+01,9.640000e+00,-1.820000e+00,1.866667e+01,1.866667e+01,10
-3.300000e-01,1.630000e+00,1.319000e+01,1.225000e+01,1.069000e+01,-1.820000e+00,1.933333e+01,1.933333e+01,10
-2.300000e-01,1.890000e+00,1.334000e+01,1.225000e+01,1.121000e+01,-1.820000e+00,20,20,10
-2.400000e-01,2.080000e+00,1.342000e+01,1.199000e+01,1.095000e+01,-1.560000e+00,1.933333e+01,1.933333e+01,10
-1.800000e-01,2,1.340000e+01,1.199000e+01,1.016000e+01,-1.560000e+00,1.866667e+01,1.866667e+01,10
-1.000000e-02,1.760000e+00,1.335000e+01,1.199000e+01,9.380000e+00,-2.090000e+00,1.800000e+01,1.800000e+01,10
-1.000000e-02,1.700000e+00,1.332000e+01,9.900000e+00,8.860000e+00,-1.560000e+00,1.733333e+01,1.733333e+01,10
-4.200000e-01,1.550000e+00,1.312000e+01,9.900000e+00,8.600000e+00,-1.820000e+00,1.666667e+01,1.666667e+01,10
-4.600000e-01,1.490000e+00,1.309000e+01,9.900000e+00,8.080000e+00,-1.820000e+00,1.600000e+01,1.600000e+01,10
-4.900000e-01,1.450000e+00,1.306000e+01,9.120000e+00,7.820000e+00,-1.820000e+00,1.533333e+01,1.533333e+01,10
-5.800000e-01,1.250000e+00,1.294000e+01,7.820000e+00,6.520000e+00,-2.090000e+00,1.466667e+01,1.466667e+01,10
-8.000000e-01,9.700000e-01,1.275000e+01,8.080000e+00,6.520000e+00,-1.820000e+00,1.400000e+01,1.400000e+01,10
