[0. 0. 0.], [85.6928882598877]
[-3.000e-02 -1.000e-02  4.996e+01], [86.9795458316803]
[-3.000e-02 -1.000e-02  4.996e+01], [87.13809156417847]
[-2.000e-02  0.000e+00  4.997e+01], [87.28899455070496]
[-2.000e-02 -1.000e-02  4.997e+01], [87.44046998023987]
[-3.000e-02 -1.000e-02  4.997e+01], [87.58977603912354]
[-3.000e-02 -1.000e-02  4.997e+01], [87.74042439460754]
[-0.41 -0.3  50.05], [87.89674973487854]
[-0.32 -0.1  50.14], [88.07495212554932]
[-0.44 -0.3  50.07], [88.22706389427185]
[-0.57 -0.33 50.09], [88.37766456604004]
[-0.96 -0.52 50.11], [88.52834296226501]
[-1.2  -0.83 50.18], [88.70902252197266]
[-1.56 -1.03 50.24], [88.89426875114441]
[-1.76 -1.33 50.28], [89.05677890777588]
[-2.08 -1.9  50.28], [89.225989818573]
[-2.37 -2.02 50.27], [89.43377017974854]
[-2.49 -2.05 50.3 ], [89.58244323730469]
[-3.3  -2.41 50.3 ], [89.73622131347656]
[-3.77 -2.85 50.28], [89.88765478134155]
[-4.51 -3.19 50.24], [90.03989052772522]
[-5.35 -3.84 50.09], [90.19065451622009]
[-6.02 -4.48 49.95], [90.34605479240417]
[-6.9  -5.07 49.74], [90.53814840316772]
[-7.29 -6.04 49.69], [90.7147068977356]
[-7.74 -7.06 49.45], [90.87030339241028]
[-8.4  -7.56 49.07], [91.02465176582336]
[-8.93 -8.57 48.95], [91.17864394187927]
[-9.23 -8.87 48.74], [91.33437728881836]
[-9.61 -9.31 48.51], [91.49286246299744]
[-10.18  -9.47  48.35], [91.6488389968872]
[-10.65 -10.05  47.91], [91.7995285987854]
[-11.47 -10.46  47.45], [91.94883513450623]
[-11.4  -11.23  47.44], [92.09789633750916]
[-11.95 -11.66  47.02], [92.25011706352234]
[-12.48 -13.3   45.86], [92.40142703056335]
[-14.04 -14.42  44.96], [92.55308485031128]
[-15.17 -16.47  42.85], [92.70208883285522]
[-15.4  -17.38  43.63], [92.85329532623291]
[-16.82 -20.29  41.12], [93.00619077682495]
[-18.16 -20.47  41.82], [93.17083716392517]
[-18.77 -21.69  42.92], [93.32803177833557]
[-20.98 -23.4   42.98], [93.49800491333008]
[-20.09 -21.    48.  ], [93.66128945350647]
[-19.38 -21.03  51.09], [93.81225156784058]
[-19.31 -18.67  54.88], [93.96745729446411]
[-18.15 -16.9   57.48], [94.12028527259827]
[-19.32 -15.31  58.12], [94.27193212509155]
[-17.63 -15.71  56.47], [94.43291449546814]
[-17.47 -15.36  54.44], [94.58555722236633]
[-17.63 -19.04  51.04], [94.7435531616211]
[-17.12 -20.93  46.81], [95.12608361244202]
[-19.59 -21.47  43.42], [95.50786352157593]
[-19.45 -21.24  43.76], [95.88415050506592]
[  3.61 -21.54  50.56], [96.26272678375244]
[ 19.37 -24.41  45.24], [96.63577365875244]
[ 33.9  -26.75  27.46], [97.01566123962402]
[ 32.65 -23.02  14.58], [97.3934154510498]
[ 35.59 -23.42  20.92], [97.79293870925903]
[ 40.07 -22.08  36.34], [98.22439908981323]
[ 34.17 -15.14  65.66], [98.60177755355835]
[  1.81 -11.23  83.81], [98.97657489776611]
