[ 0.0 0.0 0.0],[ 166.8683296242748 166.8683296242749 166.86832962427468], [85.69325613975525]
[ 0.0 0.0 0.0],[ 166.8683296242748 166.8683296242749 166.86832962427468], [86.9792993068695]
[ 0.5102950080612018 0.35959771556444936 0.0],[ 166.86832962427502 166.86832962427502 166.86832962427465], [87.13790798187256]
[ 1.299323997440558 0.9125915052721191 0.0],[ 166.9590976104891 166.94858399010388 166.922383256975], [87.28928279876709]
[ 2.3343671318375656 1.6406405882453112 0.0],[ 167.1101127349262 167.0776170273869 166.998533549176], [87.44056057929993]
[ 3.5915931767843987 2.5216214985747643 0.0],[ 167.31606448145033 167.2500392953806 167.09103647068116], [87.58972573280334]
[ 5.075459941137337 3.575770450537256 0.0],[ 167.57275871017816 167.46153623650625 167.19627052884042], [87.74031925201416]
[ 6.805819115223059 4.8020724861356765 0.0],[ 167.88173049247254 167.71482499481235 167.31616978197138], [87.89655327796936]
[ 8.279492750141788 5.922706221097234 0.0],[ 168.24537003503525 168.01139711402658 167.45222053131965], [88.07482409477234]
[ 10.37919427496864 7.493813715019442 0.0],[ 168.57750572638565 168.28080883009807 167.5540767179349], [88.22694087028503]
[ 12.556030067813836 9.056049273748568 0.0],[ 169.02330033119347 168.6531219870217 167.7217267751551], [88.37757658958435]
[ 14.939803247932252 10.857383620804805 0.0],[ 169.49087490669504 169.03573887555402 167.8838503068449], [88.52820563316345]
[ 17.231120207850392 12.716808089607742 0.0],[ 170.0082173589977 169.4652373798485 168.06754608640477], [88.70889925956726]
[ 19.64580165563909 14.529284673395816 0.0],[ 170.52192877111824 169.90007962923568 168.24131587530522], [88.89420795440674]
[ 22.106239504436253 16.514468226212298 0.0],[ 171.04874574651274 170.33928776523885 168.4166844727633], [89.0567102432251]
[ 24.772455266646496 18.521071432763787 0.0],[ 171.5942442161538 170.8038080228624 168.60483830483088], [89.22568583488464]
[ 27.35572331052774 20.341089964405707 0.0],[ 172.1689604762144 171.28671584102676 168.807471479727], [89.43358969688416]
[ 30.199370003930028 22.56034093792663 0.0],[ 172.72280429110438 171.73677867684924 168.99061555458732], [89.5823142528534]
[ 33.44871942480496 25.086461442746423 0.0],[ 173.33719297566094 172.25365356797056 169.22067417599033], [89.73652744293213]
[ 36.14453162709549 27.558622796562616 0.0],[ 174.0281426225911 172.84256418377691 169.49920875980862], [89.88764238357544]
[ 38.91504421419146 29.95822244549636 0.0],[ 174.64221739535913 173.38886724359645 169.73010317699632], [90.03982448577881]
[ 41.44626084848496 32.484429398346506 0.0],[ 175.25274875044977 173.932712887205 169.96366210240748], [90.19050455093384]
[ 43.573915902288476 34.77197487865031 0.0],[ 175.83516454468898 174.47751501024445 170.19190246477683], [90.34592342376709]
[ 45.55239125285465 36.91604302545756 0.0],[ 176.34080825238547 174.96600427280467 170.37873191583955], [90.53823113441467]
[ 47.14838292368091 39.013469615234555 0.0],[ 176.80906373205218 175.42539487158 170.55152973386575], [90.71461033821106]
[ 48.66898937457909 40.512633144600734 0.0],[ 177.21747091964122 175.85317461771845 170.70015394246693], [90.87007689476013]
[ 49.97878060657109 41.61203508684639 0.0],[ 177.57091270264957 176.19563414988403 170.80857943888145], [91.02459239959717]
[ 51.21061055532254 42.985857031926784 0.0],[ 177.86880523815782 176.46329816686566 170.88138822900308], [91.17858362197876]
[ 52.09760910356478 43.70189653741333 0.0],[ 178.1718916324748 176.7569052446011 170.97521047287722], [91.33419036865234]
[ 53.40145997318806 44.862451697295704 0.0],[ 178.38451180025714 176.94029157321845 171.0040136022184], [91.49280118942261]
[ 54.762696905314414 46.05993143251652 0.0],[ 178.67695175163445 177.20508537351913 171.09983677846608], [91.64877343177795]
[ 56.13111385792787 47.6119959127427 0.0],[ 178.98209140442617 177.4798426134506 171.20498528015034], [91.79929947853088]
[ 57.47217078263513 48.995038721983036 0.0],[ 179.30954688770896 177.803098307949 171.3357045519343], [91.9486575126648]
[ 59.39357618924029 51.40572960548025 1.1567294601348368],[ 179.6212219024092 178.10428717963964 171.45308068438075], [92.09765911102295]
[ 63.84892280994688 55.3551055023264 4.715517352499503],[ 180.13490232380505 178.6416844488354 171.82896127356355], [92.25007057189941]
[ 68.64571779769405 59.97450114867702 8.255849918288586],[ 181.2213729650929 179.68671435888382 172.81992155744067], [92.40123128890991]
[ 74.32927310176706 64.77899741471632 13.44448448471568],[ 182.4136845292025 180.86558791579955 173.93376257602165], [92.55290198326111]
[ 79.73397216855474 70.17940391673122 19.561175692928394],[ 183.83344878424884 182.21785662453115 175.35017506233498], [92.70183563232422]
[ 86.61006388283855 76.52761670203867 28.37414728296167],[ 185.3087748953626 183.7032064412397 176.94734179852193], [92.85308790206909]
[ 92.90932864405522 81.54962925348197 35.78919892994429],[ 187.20624406046414 185.57527731379852 179.09608360940493], [93.00603079795837]
[ 100.5460714416914 87.41388131200517 47.15949187755633],[ 188.8752360412692 187.19492780474903 180.9833702061539], [93.17076849937439]
[ 107.05079049660944 92.8189024073923 57.285699181129374],[ 191.01182678342133 189.24324461388687 183.5408797679064], [93.32773280143738]
[ 112.16881524860182 96.49255188084885 66.33556555755486],[ 192.8997263622036 191.1487717243285 185.85295088418334], [93.49816799163818]
[ 115.61465931755436 99.54001029047882 75.97359196315132],[ 194.44906871598886 192.64737211894587 187.81566388878878], [93.66096377372742]
[ 115.40389129082487 99.5249452768274 78.13724022615882],[ 195.74273479052982 194.00481458026238 189.6921275365107], [93.81218481063843]
[ 113.44812463386785 96.92285818127911 75.62778387563024],[ 195.90926069817763 194.19467966227032 190.09225338959791], [93.96745991706848]
[ 108.07395799591166 92.41854732419743 67.44850249486198],[ 195.2812547308387 193.54742006045373 189.5923723354159], [94.12015104293823]
[ 101.215444333824 86.50519811741535 55.78714289666927],[ 193.7005604163573 191.9902724423151 187.95487013458748], [94.27191662788391]
[ 92.66775728964957 81.34087940890191 44.059884299396366],[ 191.57268141628143 189.90310221192104 185.5894665645217], [94.43288207054138]
[ 87.68293287821507 77.02448309383979 35.39586561971529],[ 189.29021152046155 187.75516249532896 183.07722872199207], [94.58539462089539]
[ 85.32192979145114 75.31881469116468 29.49574484799483],[ 187.71920033705607 186.19528656516076 181.18097819610435], [94.74344515800476]
[ 86.08047438434892 74.36964220925086 29.238382715633687],[ 186.89191610059717 185.35688324698387 180.00151530723866], [95.12597703933716]
[ 52.17175282852193 80.75239072269052 40.406767599832335],[ 186.87325572188385 185.19809488268268 179.82236036239934], [95.50782132148743]
[ 34.43546790849113 97.50945048365648 57.734845177093035],[ 184.1251634436385 185.2728273356462 180.036272335643], [95.88403725624084]
[ 19.65027139965574 120.98610365044985 80.8735536271862],[ 184.05571405359515 187.51396001056537 182.58280441370752], [96.26247906684875]
[ 16.60688393946352 128.95456674288354 88.94910934624279],[ 185.37352005039182 191.21274942955262 186.50357622814943], [96.63579654693604]
[ 30.551718947736667 125.6145151847351 92.60109072066537],[ 185.53408498958743 191.9166095707938 187.28348691069053], [97.01548862457275]
[ 68.28727866851636 135.01876298342475 111.9974891668887],[ 186.74313581171745 192.57613909424185 188.4053475756916], [97.39338064193726]
[ 120.799548433444 150.0 137.75883002518265],[ 193.55146852410576 197.6823211148211 194.12487619584127], [97.79286646842957]
[ 150.0 147.77822191169219 142.5138895537923],[ 202.85833419474866 205.4035541971155 202.6700625930552], [98.22419691085815]
[ 150.0 135.47726768227824 130.64037118003728],[ 206.2848954916657 208.44132687538868 205.74088395447197], [98.60159277915955]
[ 150.0 123.72571026550307 106.27967625795108],[ 204.73564364990713 206.22087873324057 203.84869118197227], [98.97627544403076]
