[1.11022302e-14 0.00000000e+00 5.00000000e+01], [85.69228553771973]
[1.50452435e-14 1.26021230e-14 5.00000000e+01], [86.97918581962585]
[-3.17833727e-02 -3.01448160e-02  5.00216043e+01], [87.13785719871521]
[-0.10005266 -0.09428005 50.05557933], [87.28863286972046]
[-0.20620934 -0.19399106 50.09991259], [87.44015192985535]
[-0.35016811 -0.32871716 50.15279007], [87.58948183059692]
[-0.53116673 -0.49968646 50.21393574], [87.74018907546997]
[-0.75054086 -0.70731673 50.28274356], [87.89652061462402]
[-0.97394024 -0.92866751 50.33967272], [88.0747344493866]
[-1.23890653 -1.19637097 50.41795139], [88.22682118415833]
[-1.53551873 -1.4896188  50.49249953], [88.37747287750244]
[-1.85875139 -1.81788096 50.5705644 ], [88.52810263633728]
[-2.18559568 -2.17074006 50.64059515], [88.70879435539246]
[-2.52897187 -2.53320546 50.70462463], [88.89400553703308]
[-2.876738   -2.91493851 50.76583797], [89.05649662017822]
[-3.2451552  -3.30743873 50.82340584], [89.22567939758301]
[-3.62587334 -3.68974914 50.86663146], [89.43351793289185]
[-4.01759015 -4.09810223 50.91519061], [89.58223128318787]
[-4.43657998 -4.54141616 50.96703188], [89.73592925071716]
[-4.82026046 -4.99859444 50.9970005 ], [89.88741827011108]
[-5.1984843  -5.45715936 51.0187501 ], [90.03963017463684]
[-5.54553847 -5.92710038 51.03207756], [90.19040322303772]
[-5.85365582 -6.38520284 51.02913977], [90.34579205513]
[-6.13794966 -6.82811766 51.01815372], [90.53786587715149]
[-6.37864393 -7.26247585 50.99892221], [90.71448373794556]
[-6.62199261 -7.6465529  50.96637348], [90.87006115913391]
[-6.8656336  -7.97853344 50.92409311], [91.02430701255798]
[-7.08703515 -8.30840646 50.88724769], [91.17836737632751]
[-7.29745701 -8.58470805 50.83546819], [91.33419442176819]
[-7.5166965  -8.86900929 50.79837497], [91.49264860153198]
[-7.73857569 -9.15335261 50.76031394], [91.64859104156494]
[-7.94259375 -9.46186127 50.72583017], [91.79932904243469]
[-8.14290132 -9.76368967 50.68546008], [91.94865465164185]
[ -8.29377835 -10.04835588  50.72854549], [92.09768557548523]
[ -8.46758671 -10.2375263   50.96189434], [92.24980735778809]
[ -8.62557089 -10.42319867  51.23450849], [92.40117383003235]
[ -8.76952448 -10.48395517  51.61834674], [92.552889585495]
[ -8.79696448 -10.47260437  52.08791475], [92.70188164710999]
[ -8.75013254 -10.29467004  52.75704793], [92.85307192802429]
[ -8.72216208 -10.0691277   53.35213011], [93.00592470169067]
[-8.59018286 -9.59183032 54.18692179], [93.17058110237122]
[-8.36702138 -9.14139715 54.95325   ], [93.32776951789856]
[-8.12591139 -8.61155644 55.61589967], [93.4975233078003]
[-7.70559153 -7.95363425 56.27443894], [93.66113805770874]
[-7.42223927 -7.58306972 56.45930551], [93.81203532218933]
[-7.25114071 -7.24844968 56.36228044], [93.96716713905334]
[-7.12873294 -7.19187932 55.91165833], [94.11993026733398]
[-7.16339433 -7.34949348 55.21816283], [94.27172303199768]
[-7.12042112 -7.70431837 54.4669135 ], [94.43257522583008]
[-7.28406336 -8.05531465 53.86424206], [94.58533501625061]
[-7.49893135 -8.47922165 53.44817742], [94.74326872825623]
[-7.73374493 -8.57203684 53.34991084], [95.12579727172852]
[-4.04614869 -8.48074866 53.69848706], [95.5076003074646]
[-0.13593386 -8.32495759 54.32100633], [95.88388991355896]
[ 3.75810826 -8.1949952  54.92480645], [96.26235365867615]
[ 5.3605009  -8.04950988 54.9210087 ], [96.63551187515259]
[ 5.40244291 -7.59788702 55.35915079], [97.01544499397278]
[ 3.98952874 -6.89329521 57.44132735], [97.39314603805542]
[ 2.51317163 -6.21644552 60.1667683 ], [97.7926037311554]
[ 2.29917288 -5.89225651 61.14172846], [98.22419214248657]
[ 1.21127844 -5.39667583 60.68905291], [98.60154843330383]
[-0.39143606 -6.1555979  59.62613892], [98.97627782821655]
