0,4.950000e+00
0,5.210000e+00
0,5.210000e+00
0,4.950000e+00
0,4.950000e+00
9.899495e-02,4.950000e+00
1.555635e-01,2.600000e-01
5.826560e+00,3.154000e+01
2.227386e+01,7.011000e+01
3.293703e+01,8.966000e+01
4.326079e+01,1.110300e+02
4.468915e+01,1.110300e+02
4.570738e+01,1.120700e+02
4.574981e+01,1.105100e+02
4.573567e+01,1.089500e+02
4.562253e+01,1.079000e+02
4.522655e+01,1.058200e+02
4.446287e+01,1.024300e+02
4.344464e+01,9.878000e+01
4.220013e+01,9.461000e+01
1.738068e+01,3.701000e+01
1.008334e+01,2.372000e+01
4.907321e+00,1.225000e+01
2.503158e+00,7.560000e+00
1.244508e+00,4.950000e+00
1.074802e+00,5.730000e+00
1.159655e+00,6.780000e+00
1.541493e+00,8.860000e+00
1.682914e+00,9.900000e+00
1.640488e+00,1.016000e+01
1.018234e+00,7.040000e+00
2.121320e-01,3.130000e+00
1.527351e+00,5.200000e-01
1.640488e+00,2.600000e-01
1.654630e+00,2.600000e-01
8.555992e+00,3.519000e+01
4.132332e+01,1.092100e+02
5.300472e+01,1.454400e+02
5.540889e+01,1.743700e+02
5.540889e+01,1.746300e+02
5.547960e+01,1.686300e+02
5.553617e+01,1.608100e+02
5.545131e+01,1.524700e+02
5.518261e+01,1.443900e+02
5.473006e+01,1.373600e+02
5.417852e+01,1.318800e+02
5.368355e+01,1.277100e+02
5.355627e+01,1.271900e+02
5.342899e+01,1.264100e+02
5.323100e+01,1.251100e+02
5.313200e+01,1.243200e+02
5.347141e+01,1.274500e+02
5.027529e+01,1.110300e+02
1.903531e+01,3.623000e+01
1.138442e+01,2.372000e+01
7.410479e+00,1.642000e+01
5.897271e+00,1.486000e+01
4.072935e+00,1.043000e+01
3.111270e-01,7.800000e-01
3.676955e-01,1.300000e+00
4.666905e-01,1.560000e+00
