58,4.950000e+00
58,5.210000e+00
58,5.210000e+00
58,4.950000e+00
58,4.950000e+00
5.799004e+01,4.950000e+00
5.799010e+01,2.600000e-01
5.870475e+01,3.154000e+01
5.950233e+01,7.011000e+01
5.890020e+01,8.966000e+01
5.684291e+01,1.110300e+02
5.636177e+01,1.110300e+02
5.600652e+01,1.120700e+02
5.600751e+01,1.105100e+02
5.601806e+01,1.089500e+02
5.606184e+01,1.079000e+02
5.619684e+01,1.058200e+02
5.646312e+01,1.024300e+02
5.679517e+01,9.878000e+01
5.715757e+01,9.461000e+01
5.948348e+01,3.701000e+01
5.909173e+01,2.372000e+01
5.861281e+01,1.225000e+01
5.834685e+01,7.560000e+00
5.818665e+01,4.950000e+00
5.816497e+01,5.730000e+00
5.816578e+01,6.780000e+00
5.822020e+01,8.860000e+00
5.823216e+01,9.900000e+00
5.823156e+01,1.016000e+01
5.814446e+01,7.040000e+00
5.799019e+01,3.130000e+00
5.780009e+01,5.200000e-01
5.779164e+01,2.600000e-01
5.778185e+01,2.600000e-01
5.898111e+01,3.519000e+01
5.742928e+01,1.092100e+02
5.203113e+01,1.454400e+02
4.737330e+01,1.743700e+02
4.676380e+01,1.746300e+02
4.709135e+01,1.686300e+02
4.775861e+01,1.608100e+02
4.864451e+01,1.524700e+02
4.954434e+01,1.443900e+02
5.042095e+01,1.373600e+02
5.112219e+01,1.318800e+02
5.166007e+01,1.277100e+02
5.177773e+01,1.271900e+02
5.190353e+01,1.264100e+02
5.204971e+01,1.251100e+02
5.214452e+01,1.243200e+02
5.186373e+01,1.274500e+02
5.388175e+01,1.110300e+02
5.959005e+01,3.623000e+01
5.921969e+01,2.372000e+01
5.888361e+01,1.642000e+01
5.873821e+01,1.486000e+01
5.853090e+01,1.043000e+01
5.800042e+01,7.800000e-01
5.799058e+01,1.300000e+00
5.798094e+01,1.560000e+00
