0,0
0,5.200000e-01
0,5.200000e-01
0,2.600000e-01
0,2.600000e-01
0,5.200000e-01
0,5.200000e-01
0,2.600000e-01
2.828427e-02,2.600000e-01
8.485281e-02,0
8.485281e-02,2.600000e-01
8.485281e-02,0
4.242641e-02,1.040000e+00
5.656854e-02,2.600000e-01
5.656854e-02,5.200000e-01
4.242641e-02,2.600000e-01
1.131371e-01,1.560000e+00
8.909545e-01,6.260000e+00
6.986215e+00,2.815000e+01
3.983840e+01,1.029500e+02
4.794184e+01,1.183300e+02
4.333150e+01,9.774000e+01
4.720645e+01,1.099900e+02
5.505533e+01,1.404800e+02
5.761506e+01,1.673300e+02
5.767163e+01,1.634200e+02
5.753021e+01,1.537800e+02
5.740293e+01,1.490900e+02
5.751607e+01,1.511700e+02
5.738879e+01,147
5.733222e+01,1.454400e+02
5.736050e+01,1.457000e+02
5.764334e+01,1.535200e+02
5.767163e+01,1.527300e+02
5.762920e+01,1.509100e+02
5.758678e+01,1.490900e+02
5.758678e+01,1.485600e+02
5.768577e+01,1.519500e+02
5.771406e+01,1.524700e+02
5.771406e+01,1.516900e+02
5.765749e+01,1.496100e+02
5.693624e+01,1.363100e+02
5.577658e+01,1.251100e+02
5.622913e+01,1.295400e+02
5.709180e+01,1.407400e+02
5.710594e+01,1.402200e+02
5.702109e+01,1.389200e+02
5.680896e+01,1.355300e+02
5.678067e+01,1.352700e+02
5.710594e+01,1.399600e+02
5.712009e+01,1.402200e+02
5.678067e+01,1.365700e+02
5.584729e+01,1.258900e+02
5.580487e+01,1.261500e+02
5.604528e+01,1.287600e+02
5.603114e+01,1.284900e+02
5.598871e+01,1.277100e+02
5.552202e+01,1.240600e+02
5.538060e+01,1.232800e+02
5.504119e+01,1.209400e+02
5.494220e+01,1.206800e+02
5.488563e+01,1.206800e+02
5.482906e+01,1.201500e+02
5.475835e+01,1.198900e+02
5.470178e+01,1.196300e+02
5.463107e+01,1.191100e+02
5.454622e+01,1.185900e+02
5.447551e+01,1.185900e+02
5.441894e+01,1.180700e+02
5.434823e+01,1.175500e+02
5.422095e+01,1.172900e+02
5.256632e+01,1.086900e+02
5.143495e+01,1.045200e+02
5.167536e+01,1.066000e+02
5.164708e+01,1.066000e+02
5.157637e+01,1.063400e+02
5.149152e+01,1.060800e+02
5.140666e+01,1.058200e+02
5.132181e+01,1.055600e+02
5.116625e+01,1.050400e+02
4.840853e+01,9.513000e+01
4.617407e+01,8.914000e+01
4.572152e+01,8.862000e+01
4.572152e+01,8.940000e+01
4.682461e+01,9.383000e+01
4.847924e+01,9.982000e+01
4.877623e+01,1.003500e+02
4.874794e+01,1.000900e+02
4.864895e+01,9.930000e+01
4.853581e+01,9.878000e+01
4.804083e+01,9.722000e+01
4.466086e+01,8.575000e+01
4.228499e+01,8.054000e+01
4.188901e+01,8.028000e+01
4.179001e+01,8.054000e+01
3.961212e+01,7.506000e+01
3.927271e+01,7.532000e+01
3.928685e+01,7.585000e+01
3.915957e+01,7.559000e+01
3.903229e+01,7.559000e+01
3.889087e+01,7.532000e+01
3.874945e+01,7.506000e+01
3.860803e+01,7.480000e+01
3.848075e+01,7.480000e+01
3.843832e+01,7.480000e+01
3.828276e+01,7.480000e+01
3.463409e+01,6.594000e+01
3.405426e+01,6.568000e+01
3.392698e+01,6.594000e+01
3.378556e+01,6.594000e+01
3.367242e+01,6.594000e+01
3.353100e+01,6.568000e+01
3.343201e+01,6.542000e+01
3.337544e+01,6.542000e+01
3.326230e+01,6.516000e+01
3.310674e+01,6.516000e+01
3.303603e+01,6.490000e+01
3.293703e+01,6.490000e+01
3.279561e+01,6.438000e+01
3.254105e+01,6.386000e+01
2.916108e+01,5.630000e+01
2.496087e+01,4.796000e+01
2.269813e+01,4.405000e+01
2.213244e+01,4.405000e+01
2.117078e+01,4.196000e+01
2.037882e+01,4.066000e+01
2.005355e+01,4.066000e+01
1.989798e+01,4.040000e+01
1.975656e+01,4.040000e+01
1.964343e+01,4.066000e+01
1.947372e+01,4.014000e+01
1.801708e+01,3.649000e+01
1.361888e+01,2.685000e+01
1.063489e+01,2.007000e+01
8.669129e+00,1.590000e+01
7.509474e+00,1.381000e+01
6.745799e+00,1.277000e+01
6.208398e+00,1.147000e+01
5.769991e+00,1.043000e+01
5.416438e+00,9.900000e+00
5.119453e+00,9.380000e+00
4.879037e+00,8.600000e+00
4.596194e+00,8.340000e+00
4.412346e+00,8.080000e+00
4.256783e+00,8.080000e+00
4.129504e+00,7.560000e+00
4.016367e+00,7.300000e+00
3.818377e+00,7.040000e+00
3.634529e+00,6.520000e+00
1.739483e+00,7.800000e-01
1.513209e+00,0
1.371787e+00,0
1.258650e+00,2.600000e-01
1.187939e+00,0
1.216224e+00,5.200000e-01
1.230366e+00,7.800000e-01
1.159655e+00,7.800000e-01
1.159655e+00,7.800000e-01
1.159655e+00,7.800000e-01
1.131371e+00,7.800000e-01
1.117229e+00,7.800000e-01
1.088944e+00,5.200000e-01
1.074802e+00,7.800000e-01
1.046518e+00,7.800000e-01
1.032376e+00,7.800000e-01
1.018234e+00,5.200000e-01
1.004092e+00,7.800000e-01
9.899495e-01,7.800000e-01
9.616652e-01,5.200000e-01
8.768124e-01,5.200000e-01
9.333810e-01,7.800000e-01
9.192388e-01,5.200000e-01
8.909545e-01,5.200000e-01
8.768124e-01,5.200000e-01
8.626703e-01,7.800000e-01
8.485281e-01,1.040000e+00
8.343860e-01,7.800000e-01
8.343860e-01,7.800000e-01
8.202439e-01,7.800000e-01
8.061017e-01,7.800000e-01
7.919596e-01,5.200000e-01
7.778175e-01,5.200000e-01
7.778175e-01,7.800000e-01
7.636753e-01,7.800000e-01
7.495332e-01,5.200000e-01
7.353911e-01,7.800000e-01
7.212489e-01,7.800000e-01
6.929646e-01,7.800000e-01
6.929646e-01,7.800000e-01
6.646804e-01,7.800000e-01
