[4.63648015e-310 4.63648072e-310 4.63645335e-310], [15.631330490112305]
[4.63648015e-310 4.63648072e-310 4.63645335e-310], [16.91815996170044]
[4.63648015e-310 4.63648072e-310 4.63645335e-310], [17.10767912864685]
[4.63648015e-310 4.63648072e-310 4.63645335e-310], [17.271486282348633]
[4.63648015e-310 4.63648072e-310 4.63645335e-310], [17.418601036071777]
[4.63648015e-310 4.63648072e-310 4.63645335e-310], [17.56810688972473]
[4.63648015e-310 4.63648072e-310 4.63645335e-310], [17.71464490890503]
[4.63648015e-310 4.63648072e-310 4.63645335e-310], [17.89275288581848]
[4.63648015e-310 4.63648072e-310 4.63645335e-310], [18.042654275894165]
[4.63648015e-310 4.63648072e-310 4.63645335e-310], [18.18990993499756]
[4.63648015e-310 4.63648072e-310 4.63645335e-310], [18.369308710098267]
[4.63648015e-310 4.63648072e-310 4.63645335e-310], [18.543333292007446]
[4.63648015e-310 4.63648072e-310 4.63645335e-310], [18.690717220306396]
[4.63648015e-310 4.63648072e-310 4.63645335e-310], [18.83857536315918]
[4.63648015e-310 4.63648072e-310 4.63645335e-310], [18.98555898666382]
[4.63648015e-310 4.63648072e-310 4.63645335e-310], [19.133829355239868]
[4.63648015e-310 4.63648072e-310 4.63645335e-310], [19.282254457473755]
[4.63648015e-310 4.63648072e-310 4.63645335e-310], [19.430965662002563]
[4.63648015e-310 4.63648072e-310 4.63645335e-310], [19.606574535369873]
[4.63648015e-310 4.63648072e-310 4.63645335e-310], [19.782288074493408]
[4.63648015e-310 4.63648072e-310 4.63645335e-310], [20.00296711921692]
[4.63648015e-310 4.63648072e-310 4.63645335e-310], [20.16138243675232]
[4.63648015e-310 4.63648072e-310 4.63645335e-310], [20.309780836105347]
[4.63648015e-310 4.63648072e-310 4.63645335e-310], [20.4612557888031]
[4.63648015e-310 4.63648072e-310 4.63645335e-310], [20.610195636749268]
[4.63648015e-310 4.63648072e-310 4.63645335e-310], [20.757668018341064]
[4.63648015e-310 4.63648072e-310 4.63645335e-310], [20.906519889831543]
[4.63648015e-310 4.63648072e-310 4.63645335e-310], [21.058143615722656]
[4.63648015e-310 4.63648072e-310 4.63645335e-310], [21.206698656082153]
[4.63648015e-310 4.63648072e-310 4.63645335e-310], [21.35374426841736]
[4.63648015e-310 4.63648072e-310 4.63645335e-310], [21.504313468933105]
[4.63648015e-310 4.63648072e-310 4.63645335e-310], [21.6515531539917]
[4.63648015e-310 4.63648072e-310 4.63645335e-310], [21.799976110458374]
[4.63648015e-310 4.63648072e-310 4.63645335e-310], [21.948451280593872]
[4.63648015e-310 4.63648072e-310 4.63645335e-310], [22.097071647644043]
[4.63648015e-310 4.63648072e-310 4.63645335e-310], [22.28229594230652]
[4.63648015e-310 4.63648072e-310 4.63645335e-310], [22.429867029190063]
[4.63648015e-310 4.63648072e-310 4.63645335e-310], [22.578829765319824]
[4.63648015e-310 4.63648072e-310 4.63645335e-310], [22.727455139160156]
[4.63648015e-310 4.63648072e-310 4.63645335e-310], [22.90928053855896]
[4.63648015e-310 4.63648072e-310 4.63645335e-310], [23.06858253479004]
[4.63648015e-310 4.63648072e-310 4.63645335e-310], [23.21610164642334]
[4.63648015e-310 4.63648072e-310 4.63645335e-310], [23.36429762840271]
[4.63648015e-310 4.63648072e-310 4.63645335e-310], [23.512675046920776]
[4.63648015e-310 4.63648072e-310 4.63645335e-310], [23.66326379776001]
[4.63648015e-310 4.63648072e-310 4.63645335e-310], [23.84226393699646]
[4.63648015e-310 4.63648072e-310 4.63645335e-310], [23.992128610610962]
[4.63648015e-310 4.63648072e-310 4.63645335e-310], [24.144250631332397]
[4.63648015e-310 4.63648072e-310 4.63645335e-310], [24.291532278060913]
[4.63648015e-310 4.63648072e-310 4.63645335e-310], [24.439151525497437]
[4.63648015e-310 4.63648072e-310 4.63645335e-310], [24.587273359298706]
[4.63648015e-310 4.63648072e-310 4.63645335e-310], [24.77499771118164]
[4.63648015e-310 4.63648072e-310 4.63645335e-310], [24.922504901885986]
[4.63648015e-310 4.63648072e-310 4.63645335e-310], [25.070445775985718]
[4.63648015e-310 4.63648072e-310 4.63645335e-310], [25.22650456428528]
[4.63648015e-310 4.63648072e-310 4.63645335e-310], [25.373762845993042]
[4.63648015e-310 4.63648072e-310 4.63645335e-310], [25.52132487297058]
[4.63648015e-310 4.63648072e-310 4.63645335e-310], [25.670310258865356]
[4.63648015e-310 4.63648072e-310 4.63645335e-310], [25.819490671157837]
[4.63648015e-310 4.63648072e-310 4.63645335e-310], [25.96657633781433]
[4.63648015e-310 4.63648072e-310 4.63645335e-310], [26.11601185798645]
[4.63648015e-310 4.63648072e-310 4.63645335e-310], [26.267192125320435]
[4.63648015e-310 4.63648072e-310 4.63645335e-310], [26.414677143096924]
[4.63648015e-310 4.63648072e-310 4.63645335e-310], [26.562587022781372]
[4.63648015e-310 4.63648072e-310 4.63645335e-310], [26.711299180984497]
[4.63648015e-310 4.63648072e-310 4.63645335e-310], [26.859656810760498]
[4.63648015e-310 4.63648072e-310 4.63645335e-310], [27.007484674453735]
[4.63648015e-310 4.63648072e-310 4.63645335e-310], [27.15977191925049]
[4.63648015e-310 4.63648072e-310 4.63645335e-310], [27.331758975982666]
[4.63648015e-310 4.63648072e-310 4.63645335e-310], [27.48203134536743]
[4.63648015e-310 4.63648072e-310 4.63645335e-310], [27.630828142166138]
[4.63648015e-310 4.63648072e-310 4.63645335e-310], [27.779345989227295]
[4.63648015e-310 4.63648072e-310 4.63645335e-310], [27.931931734085083]
[4.63648015e-310 4.63648072e-310 4.63645335e-310], [28.081557750701904]
[4.63648015e-310 4.63648072e-310 4.63645335e-310], [28.2423894405365]
[4.63648015e-310 4.63648072e-310 4.63645335e-310], [28.39209270477295]
[4.63648015e-310 4.63648072e-310 4.63645335e-310], [28.55022144317627]
[4.63648015e-310 4.63648072e-310 4.63645335e-310], [28.699219703674316]
[4.63648015e-310 4.63648072e-310 4.63645335e-310], [28.846807956695557]
[4.63648015e-310 4.63648072e-310 4.63645335e-310], [28.99609661102295]
[4.63648015e-310 4.63648072e-310 4.63645335e-310], [29.145237922668457]
[4.63648015e-310 4.63648072e-310 4.63645335e-310], [29.29329538345337]
[4.63648015e-310 4.63648072e-310 4.63645335e-310], [29.442147493362427]
[4.63648015e-310 4.63648072e-310 4.63645335e-310], [29.589648008346558]
[4.63648015e-310 4.63648072e-310 4.63645335e-310], [29.738013982772827]
[4.63648015e-310 4.63648072e-310 4.63645335e-310], [29.917646884918213]
[4.63648015e-310 4.63648072e-310 4.63645335e-310], [30.069453477859497]
[4.63648015e-310 4.63648072e-310 4.63645335e-310], [30.2181658744812]
[4.63648015e-310 4.63648072e-310 4.63645335e-310], [30.367149829864502]
[4.63648015e-310 4.63648072e-310 4.63645335e-310], [30.5591778755188]
[4.63648015e-310 4.63648072e-310 4.63645335e-310], [30.70847463607788]
[4.63648015e-310 4.63648072e-310 4.63645335e-310], [30.85758090019226]
[4.63648015e-310 4.63648072e-310 4.63645335e-310], [31.007294416427612]
[4.63648015e-310 4.63648072e-310 4.63645335e-310], [31.155969381332397]
[4.63648015e-310 4.63648072e-310 4.63645335e-310], [31.305518627166748]
[4.63648015e-310 4.63648072e-310 4.63645335e-310], [31.46646213531494]
[4.63648015e-310 4.63648072e-310 4.63645335e-310], [31.61775517463684]
[4.63648015e-310 4.63648072e-310 4.63645335e-310], [31.766226053237915]
[4.63648015e-310 4.63648072e-310 4.63645335e-310], [31.914684772491455]
[4.63648015e-310 4.63648072e-310 4.63645335e-310], [32.062551975250244]
[4.63648015e-310 4.63648072e-310 4.63645335e-310], [32.21111536026001]
[4.63648015e-310 4.63648072e-310 4.63645335e-310], [32.39159655570984]
[4.63648015e-310 4.63648072e-310 4.63645335e-310], [32.54107975959778]
[4.63648015e-310 4.63648072e-310 4.63645335e-310], [32.68870234489441]
[4.63648015e-310 4.63648072e-310 4.63645335e-310], [32.83733916282654]
[4.63648015e-310 4.63648072e-310 4.63645335e-310], [32.986863136291504]
[4.63648015e-310 4.63648072e-310 4.63645335e-310], [33.166374921798706]
[4.63648015e-310 4.63648072e-310 4.63645335e-310], [33.325966596603394]
[4.63648015e-310 4.63648072e-310 4.63645335e-310], [33.474242210388184]
[4.63648015e-310 4.63648072e-310 4.63645335e-310], [33.62203001976013]
[4.63648015e-310 4.63648072e-310 4.63645335e-310], [33.769590854644775]
[4.63648015e-310 4.63648072e-310 4.63645335e-310], [33.91707682609558]
[4.63648015e-310 4.63648072e-310 4.63645335e-310], [34.06398630142212]
[4.63648015e-310 4.63648072e-310 4.63645335e-310], [34.22061586380005]
[4.63648015e-310 4.63648072e-310 4.63645335e-310], [34.36801552772522]
[4.63648015e-310 4.63648072e-310 4.63645335e-310], [34.51577806472778]
[4.63648015e-310 4.63648072e-310 4.63645335e-310], [34.76651048660278]
[4.63648015e-310 4.63648072e-310 4.63645335e-310], [34.9145827293396]
[4.63648015e-310 4.63648072e-310 4.63645335e-310], [35.06383442878723]
[4.63648015e-310 4.63648072e-310 4.63645335e-310], [35.21152091026306]
[4.63648015e-310 4.63648072e-310 4.63645335e-310], [35.36144018173218]
[4.63648015e-310 4.63648072e-310 4.63645335e-310], [35.50990676879883]
[4.63648015e-310 4.63648072e-310 4.63645335e-310], [35.66154456138611]
[4.63648015e-310 4.63648072e-310 4.63645335e-310], [35.8338840007782]
[4.63648015e-310 4.63648072e-310 4.63645335e-310], [35.985981702804565]
[4.63648015e-310 4.63648072e-310 4.63645335e-310], [36.142986536026]
[4.63648015e-310 4.63648072e-310 4.63645335e-310], [36.29092526435852]
[4.63648015e-310 4.63648072e-310 4.63645335e-310], [36.43934893608093]
[4.63648015e-310 4.63648072e-310 4.63645335e-310], [36.589473724365234]
[4.63648015e-310 4.63648072e-310 4.63645335e-310], [36.73869276046753]
[4.63648015e-310 4.63648072e-310 4.63645335e-310], [36.930217266082764]
[4.63648015e-310 4.63648072e-310 4.63645335e-310], [37.08426475524902]
[4.63648015e-310 4.63648072e-310 4.63645335e-310], [37.233784437179565]
[4.63648015e-310 4.63648072e-310 4.63645335e-310], [37.381773948669434]
[4.63648015e-310 4.63648072e-310 4.63645335e-310], [37.53893303871155]
[4.63648015e-310 4.63648072e-310 4.63645335e-310], [37.774547815322876]
[4.63648015e-310 4.63648072e-310 4.63645335e-310], [37.92237114906311]
[4.63648015e-310 4.63648072e-310 4.63645335e-310], [38.071117877960205]
[4.63648015e-310 4.63648072e-310 4.63645335e-310], [38.218841791152954]
[4.63648015e-310 4.63648072e-310 4.63645335e-310], [38.40177273750305]
[4.63648015e-310 4.63648072e-310 4.63645335e-310], [38.5715913772583]
[4.63648015e-310 4.63648072e-310 4.63645335e-310], [38.81599235534668]
[4.63648015e-310 4.63648072e-310 4.63645335e-310], [39.02708125114441]
[4.63648015e-310 4.63648072e-310 4.63645335e-310], [39.174944162368774]
[4.63648015e-310 4.63648072e-310 4.63645335e-310], [39.323368310928345]
[4.63648015e-310 4.63648072e-310 4.63645335e-310], [39.474422216415405]
[4.63648015e-310 4.63648072e-310 4.63645335e-310], [39.622042655944824]
[4.63648015e-310 4.63648072e-310 4.63645335e-310], [39.76949405670166]
[4.63648015e-310 4.63648072e-310 4.63645335e-310], [39.94937562942505]
[4.63648015e-310 4.63648072e-310 4.63645335e-310], [40.09840416908264]
[4.63648015e-310 4.63648072e-310 4.63645335e-310], [40.2571063041687]
[4.63648015e-310 4.63648072e-310 4.63645335e-310], [40.404388189315796]
[4.63648015e-310 4.63648072e-310 4.63645335e-310], [40.55697059631348]
[4.63648015e-310 4.63648072e-310 4.63645335e-310], [40.704296588897705]
[4.63648015e-310 4.63648072e-310 4.63645335e-310], [40.85341501235962]
[4.63648015e-310 4.63648072e-310 4.63645335e-310], [41.00136208534241]
[4.63648015e-310 4.63648072e-310 4.63645335e-310], [41.1488733291626]
[4.63648015e-310 4.63648072e-310 4.63645335e-310], [41.29551672935486]
[4.63648015e-310 4.63648072e-310 4.63645335e-310], [41.44342923164368]
[4.63648015e-310 4.63648072e-310 4.63645335e-310], [41.59069228172302]
[4.63648015e-310 4.63648072e-310 4.63645335e-310], [41.73931407928467]
[4.63648015e-310 4.63648072e-310 4.63645335e-310], [41.88681888580322]
[4.63648015e-310 4.63648072e-310 4.63645335e-310], [42.0673623085022]
[4.63648015e-310 4.63648072e-310 4.63645335e-310], [42.21508526802063]
[4.63648015e-310 4.63648072e-310 4.63645335e-310], [42.36343169212341]
[4.63648015e-310 4.63648072e-310 4.63645335e-310], [42.54310584068298]
[4.63648015e-310 4.63648072e-310 4.63645335e-310], [42.69032669067383]
[4.63648015e-310 4.63648072e-310 4.63645335e-310], [42.838115215301514]
[4.63648015e-310 4.63648072e-310 4.63645335e-310], [42.98653292655945]
[4.63648015e-310 4.63648072e-310 4.63645335e-310], [43.13517951965332]
[4.63648015e-310 4.63648072e-310 4.63645335e-310], [43.31418538093567]
[4.63648015e-310 4.63648072e-310 4.63645335e-310], [43.47941875457764]
[4.63648015e-310 4.63648072e-310 4.63645335e-310], [43.63002848625183]
[4.63648015e-310 4.63648072e-310 4.63645335e-310], [43.789071798324585]
[4.63648015e-310 4.63648072e-310 4.63645335e-310], [43.93604326248169]
[4.63648015e-310 4.63648072e-310 4.63645335e-310], [44.12031650543213]
[4.63648015e-310 4.63648072e-310 4.63645335e-310], [44.26877188682556]
[4.63648015e-310 4.63648072e-310 4.63645335e-310], [44.41848874092102]
[4.63648015e-310 4.63648072e-310 4.63645335e-310], [44.56613564491272]
[4.63648015e-310 4.63648072e-310 4.63645335e-310], [44.71496605873108]
[4.63648015e-310 4.63648072e-310 4.63645335e-310], [44.86216473579407]
[4.63648015e-310 4.63648072e-310 4.63645335e-310], [45.01056528091431]
[4.63648015e-310 4.63648072e-310 4.63645335e-310], [45.16074585914612]
[4.63648015e-310 4.63648072e-310 4.63645335e-310], [45.34028220176697]
[4.63648015e-310 4.63648072e-310 4.63645335e-310], [45.508662939071655]
[4.63648015e-310 4.63648072e-310 4.63645335e-310], [45.65601181983948]
[4.63648015e-310 4.63648072e-310 4.63645335e-310], [45.80466437339783]
[4.63648015e-310 4.63648072e-310 4.63645335e-310], [45.95221972465515]
[4.63648015e-310 4.63648072e-310 4.63645335e-310], [46.102527379989624]
[4.63648015e-310 4.63648072e-310 4.63645335e-310], [46.25260138511658]
[4.63648015e-310 4.63648072e-310 4.63645335e-310], [46.40119814872742]
[4.63648015e-310 4.63648072e-310 4.63645335e-310], [46.557295083999634]
[4.63648015e-310 4.63648072e-310 4.63645335e-310], [46.706873655319214]
[4.63648015e-310 4.63648072e-310 4.63645335e-310], [46.855894804000854]
[4.63648015e-310 4.63648072e-310 4.63645335e-310], [47.004074573516846]
[4.63648015e-310 4.63648072e-310 4.63645335e-310], [47.153692960739136]
[4.63648015e-310 4.63648072e-310 4.63645335e-310], [47.30476474761963]
[4.63648015e-310 4.63648072e-310 4.63645335e-310], [47.487337589263916]
[4.63648015e-310 4.63648072e-310 4.63645335e-310], [47.63547396659851]
[4.63648015e-310 4.63648072e-310 4.63645335e-310], [47.815407037734985]
[4.63648015e-310 4.63648072e-310 4.63645335e-310], [47.96253418922424]
[4.63648015e-310 4.63648072e-310 4.63645335e-310], [48.11251473426819]
[4.63648015e-310 4.63648072e-310 4.63645335e-310], [48.2734477519989]
[4.63648015e-310 4.63648072e-310 4.63645335e-310], [48.42196273803711]
[4.63648015e-310 4.63648072e-310 4.63645335e-310], [48.569846630096436]
[4.63648015e-310 4.63648072e-310 4.63645335e-310], [48.71816158294678]
[4.63648015e-310 4.63648072e-310 4.63645335e-310], [48.8651225566864]
[4.63648015e-310 4.63648072e-310 4.63645335e-310], [49.01268458366394]
[4.63648015e-310 4.63648072e-310 4.63645335e-310], [49.19663906097412]
[4.63648015e-310 4.63648072e-310 4.63645335e-310], [49.346829891204834]
[4.63648015e-310 4.63648072e-310 4.63645335e-310], [49.49722170829773]
[4.63648015e-310 4.63648072e-310 4.63645335e-310], [49.65141797065735]
[4.63648015e-310 4.63648072e-310 4.63645335e-310], [49.80380392074585]
[4.63648015e-310 4.63648072e-310 4.63645335e-310], [49.98704123497009]
[4.63648015e-310 4.63648072e-310 4.63645335e-310], [50.15069913864136]
[4.63648015e-310 4.63648072e-310 4.63645335e-310], [50.30192041397095]
[4.63648015e-310 4.63648072e-310 4.63645335e-310], [50.45070672035217]
[4.63648015e-310 4.63648072e-310 4.63645335e-310], [50.599292039871216]
[4.63648015e-310 4.63648072e-310 4.63645335e-310], [50.75376558303833]
[4.63648015e-310 4.63648072e-310 4.63645335e-310], [50.90393352508545]
[4.63648015e-310 4.63648072e-310 4.63645335e-310], [51.05423641204834]
[4.63648015e-310 4.63648072e-310 4.63645335e-310], [51.20830774307251]
[4.63648015e-310 4.63648072e-310 4.63645335e-310], [51.35752630233765]
[4.63648015e-310 4.63648072e-310 4.63645335e-310], [51.50598073005676]
[4.63648015e-310 4.63648072e-310 4.63645335e-310], [51.65295386314392]
[4.63648015e-310 4.63648072e-310 4.63645335e-310], [51.80061459541321]
[4.63648015e-310 4.63648072e-310 4.63645335e-310], [51.95006585121155]
[4.63648015e-310 4.63648072e-310 4.63645335e-310], [52.10141706466675]
[4.63648015e-310 4.63648072e-310 4.63645335e-310], [52.251455307006836]
[4.63648015e-310 4.63648072e-310 4.63645335e-310], [52.403043270111084]
[4.63648015e-310 4.63648072e-310 4.63645335e-310], [52.56200313568115]
[4.63648015e-310 4.63648072e-310 4.63645335e-310], [52.712772369384766]
[4.63648015e-310 4.63648072e-310 4.63645335e-310], [52.86305022239685]
[4.63648015e-310 4.63648072e-310 4.63645335e-310], [53.04764485359192]
[4.63648015e-310 4.63648072e-310 4.63645335e-310], [53.19580888748169]
[4.63648015e-310 4.63648072e-310 4.63645335e-310], [53.3445143699646]
[4.63648015e-310 4.63648072e-310 4.63645335e-310], [53.49269223213196]
[4.63648015e-310 4.63648072e-310 4.63645335e-310], [53.640156984329224]
[4.63648015e-310 4.63648072e-310 4.63645335e-310], [53.78926086425781]
[4.63648015e-310 4.63648072e-310 4.63645335e-310], [53.939528703689575]
[4.63648015e-310 4.63648072e-310 4.63645335e-310], [54.132354974746704]
[4.63648015e-310 4.63648072e-310 4.63645335e-310], [54.282328605651855]
[4.63648015e-310 4.63648072e-310 4.63645335e-310], [54.43366765975952]
[4.63648015e-310 4.63648072e-310 4.63645335e-310], [54.585521936416626]
[4.63648015e-310 4.63648072e-310 4.63645335e-310], [54.73844242095947]
[4.63648015e-310 4.63648072e-310 4.63645335e-310], [54.88815116882324]
[4.63648015e-310 4.63648072e-310 4.63645335e-310], [55.03854846954346]
[4.63648015e-310 4.63648072e-310 4.63645335e-310], [55.19069981575012]
[4.63648015e-310 4.63648072e-310 4.63645335e-310], [55.34323287010193]
[4.63648015e-310 4.63648072e-310 4.63645335e-310], [55.494680881500244]
[4.63648015e-310 4.63648072e-310 4.63645335e-310], [55.64501237869263]
[4.63648015e-310 4.63648072e-310 4.63645335e-310], [55.794798851013184]
[4.63648015e-310 4.63648072e-310 4.63645335e-310], [55.94432067871094]
[4.63648015e-310 4.63648072e-310 4.63645335e-310], [56.096503019332886]
[4.63648015e-310 4.63648072e-310 4.63645335e-310], [56.2585654258728]
[4.63648015e-310 4.63648072e-310 4.63645335e-310], [56.410167932510376]
[4.63648015e-310 4.63648072e-310 4.63645335e-310], [56.56143498420715]
[4.63648015e-310 4.63648072e-310 4.63645335e-310], [56.71187901496887]
[4.63648015e-310 4.63648072e-310 4.63645335e-310], [56.86174941062927]
[4.63648015e-310 4.63648072e-310 4.63645335e-310], [57.01026177406311]
[4.63648015e-310 4.63648072e-310 4.63645335e-310], [57.15809988975525]
[4.63648015e-310 4.63648072e-310 4.63645335e-310], [57.30750274658203]
[4.63648015e-310 4.63648072e-310 4.63645335e-310], [57.458794832229614]
[4.63648015e-310 4.63648072e-310 4.63645335e-310], [57.60889959335327]
[4.63648015e-310 4.63648072e-310 4.63645335e-310], [57.75604724884033]
[4.63648015e-310 4.63648072e-310 4.63645335e-310], [57.90682816505432]
[4.63648015e-310 4.63648072e-310 4.63645335e-310], [58.056665658950806]
[4.63648015e-310 4.63648072e-310 4.63645335e-310], [58.206101179122925]
[4.63648015e-310 4.63648072e-310 4.63645335e-310], [58.35584306716919]
[4.63648015e-310 4.63648072e-310 4.63645335e-310], [58.5093035697937]
[4.63648015e-310 4.63648072e-310 4.63645335e-310], [58.66033220291138]
[4.63648015e-310 4.63648072e-310 4.63645335e-310], [58.810821533203125]
[4.63648015e-310 4.63648072e-310 4.63645335e-310], [58.95862412452698]
[4.63648015e-310 4.63648072e-310 4.63645335e-310], [59.10801339149475]
[4.63648015e-310 4.63648072e-310 4.63645335e-310], [59.25621175765991]
[4.63648015e-310 4.63648072e-310 4.63645335e-310], [59.40663933753967]
[4.63648015e-310 4.63648072e-310 4.63645335e-310], [59.58991289138794]
[4.63648015e-310 4.63648072e-310 4.63645335e-310], [59.74012470245361]
[4.63648015e-310 4.63648072e-310 4.63645335e-310], [59.891387939453125]
[4.63648015e-310 4.63648072e-310 4.63645335e-310], [60.052000284194946]
[4.63648015e-310 4.63648072e-310 4.63645335e-310], [60.229933977127075]
[4.63648015e-310 4.63648072e-310 4.63645335e-310], [60.386534452438354]
[4.63648015e-310 4.63648072e-310 4.63645335e-310], [60.56765365600586]
[4.63648015e-310 4.63648072e-310 4.63645335e-310], [60.72001624107361]
[4.63648015e-310 4.63648072e-310 4.63645335e-310], [60.908020973205566]
[4.63648015e-310 4.63648072e-310 4.63645335e-310], [61.119568824768066]
[4.63648015e-310 4.63648072e-310 4.63645335e-310], [61.274415493011475]
[4.63648015e-310 4.63648072e-310 4.63645335e-310], [61.42349314689636]
[4.63648015e-310 4.63648072e-310 4.63645335e-310], [61.59154653549194]
[4.63648015e-310 4.63648072e-310 4.63645335e-310], [61.78732895851135]
[4.63648015e-310 4.63648072e-310 4.63645335e-310], [61.97128462791443]
[4.63648015e-310 4.63648072e-310 4.63645335e-310], [62.18337440490723]
[4.63648015e-310 4.63648072e-310 4.63645335e-310], [62.37777042388916]
[4.63648015e-310 4.63648072e-310 4.63645335e-310], [62.584898233413696]
[4.63648015e-310 4.63648072e-310 4.63645335e-310], [62.7800178527832]
[4.63648015e-310 4.63648072e-310 4.63645335e-310], [62.985405683517456]
[4.63648015e-310 4.63648072e-310 4.63645335e-310], [63.18489336967468]
[4.63648015e-310 4.63648072e-310 4.63645335e-310], [63.38230514526367]
[4.63648015e-310 4.63648072e-310 4.63645335e-310], [63.59592270851135]
[4.63648015e-310 4.63648072e-310 4.63645335e-310], [63.79554891586304]
[4.63648015e-310 4.63648072e-310 4.63645335e-310], [64.00038409233093]
[4.63648015e-310 4.63648072e-310 4.63645335e-310], [64.2093722820282]
[4.63648015e-310 4.63648072e-310 4.63645335e-310], [64.4067816734314]
[4.63648015e-310 4.63648072e-310 4.63645335e-310], [64.60800981521606]
[4.63648015e-310 4.63648072e-310 4.63645335e-310], [64.78938555717468]
[4.63648015e-310 4.63648072e-310 4.63645335e-310], [64.97001719474792]
[4.63648015e-310 4.63648072e-310 4.63645335e-310], [65.15301632881165]
[4.63648015e-310 4.63648072e-310 4.63645335e-310], [65.33435726165771]
[4.63648015e-310 4.63648072e-310 4.63645335e-310], [65.51769208908081]
[4.63648015e-310 4.63648072e-310 4.63645335e-310], [65.72273802757263]
[4.63648015e-310 4.63648072e-310 4.63645335e-310], [65.87364745140076]
[4.63648015e-310 4.63648072e-310 4.63645335e-310], [66.02543187141418]
[4.63648015e-310 4.63648072e-310 4.63645335e-310], [66.1761429309845]
[4.63648015e-310 4.63648072e-310 4.63645335e-310], [66.33062505722046]
[4.63648015e-310 4.63648072e-310 4.63645335e-310], [66.48034691810608]
[4.63648015e-310 4.63648072e-310 4.63645335e-310], [66.63549733161926]
[4.63648015e-310 4.63648072e-310 4.63645335e-310], [66.80157685279846]
[4.63648015e-310 4.63648072e-310 4.63645335e-310], [66.95151090621948]
[4.63648015e-310 4.63648072e-310 4.63645335e-310], [67.10376071929932]
[4.63648015e-310 4.63648072e-310 4.63645335e-310], [67.27101755142212]
[4.63648015e-310 4.63648072e-310 4.63645335e-310], [67.42190027236938]
[4.63648015e-310 4.63648072e-310 4.63645335e-310], [67.57809329032898]
[4.63648015e-310 4.63648072e-310 4.63645335e-310], [67.73559808731079]
[4.63648015e-310 4.63648072e-310 4.63645335e-310], [67.94046783447266]
[4.63648015e-310 4.63648072e-310 4.63645335e-310], [68.09461688995361]
[4.63648015e-310 4.63648072e-310 4.63645335e-310], [68.25006151199341]
[4.63648015e-310 4.63648072e-310 4.63645335e-310], [68.40336656570435]
[4.63648015e-310 4.63648072e-310 4.63645335e-310], [68.55833077430725]
[4.63648015e-310 4.63648072e-310 4.63645335e-310], [68.73495244979858]
[4.63648015e-310 4.63648072e-310 4.63645335e-310], [68.92501211166382]
[4.63648015e-310 4.63648072e-310 4.63645335e-310], [69.10737919807434]
[4.63648015e-310 4.63648072e-310 4.63645335e-310], [69.28734564781189]
[4.63648015e-310 4.63648072e-310 4.63645335e-310], [69.45342636108398]
[4.63648015e-310 4.63648072e-310 4.63645335e-310], [69.60759282112122]
[4.63648015e-310 4.63648072e-310 4.63645335e-310], [69.75992822647095]
[4.63648015e-310 4.63648072e-310 4.63645335e-310], [69.90782070159912]
[4.63648015e-310 4.63648072e-310 4.63645335e-310], [70.05760598182678]
[4.63648015e-310 4.63648072e-310 4.63645335e-310], [70.21535062789917]
[4.63648015e-310 4.63648072e-310 4.63645335e-310], [70.36710667610168]
[4.63648015e-310 4.63648072e-310 4.63645335e-310], [70.52023386955261]
[4.63648015e-310 4.63648072e-310 4.63645335e-310], [70.67345523834229]
[4.63648015e-310 4.63648072e-310 4.63645335e-310], [70.83848786354065]
[4.63648015e-310 4.63648072e-310 4.63645335e-310], [70.98897433280945]
[4.63648015e-310 4.63648072e-310 4.63645335e-310], [71.14318227767944]
[4.63648015e-310 4.63648072e-310 4.63645335e-310], [71.29409956932068]
[4.63648015e-310 4.63648072e-310 4.63645335e-310], [71.44513964653015]
[4.63648015e-310 4.63648072e-310 4.63645335e-310], [71.60792922973633]
[4.63648015e-310 4.63648072e-310 4.63645335e-310], [71.75653672218323]
[4.63648015e-310 4.63648072e-310 4.63645335e-310], [71.90651273727417]
[4.63648015e-310 4.63648072e-310 4.63645335e-310], [72.05795764923096]
[4.63648015e-310 4.63648072e-310 4.63645335e-310], [72.20718955993652]
[4.63648015e-310 4.63648072e-310 4.63645335e-310], [72.35627341270447]
[4.63648015e-310 4.63648072e-310 4.63645335e-310], [72.50510859489441]
[4.63648015e-310 4.63648072e-310 4.63645335e-310], [72.65817594528198]
[4.63648015e-310 4.63648072e-310 4.63645335e-310], [72.80995416641235]
[4.63648015e-310 4.63648072e-310 4.63645335e-310], [72.96196269989014]
[4.63648015e-310 4.63648072e-310 4.63645335e-310], [73.15255379676819]
[4.63648015e-310 4.63648072e-310 4.63645335e-310], [73.30388236045837]
[4.63648015e-310 4.63648072e-310 4.63645335e-310], [73.45665884017944]
[4.63648015e-310 4.63648072e-310 4.63645335e-310], [73.60789847373962]
[4.63648015e-310 4.63648072e-310 4.63645335e-310], [73.75999593734741]
[4.63648015e-310 4.63648072e-310 4.63645335e-310], [73.91173124313354]
[4.63648015e-310 4.63648072e-310 4.63645335e-310], [74.06297206878662]
[4.63648015e-310 4.63648072e-310 4.63645335e-310], [74.21395993232727]
[4.63648015e-310 4.63648072e-310 4.63645335e-310], [74.36422753334045]
[4.63648015e-310 4.63648072e-310 4.63645335e-310], [74.51564478874207]
[4.63648015e-310 4.63648072e-310 4.63645335e-310], [74.69776582717896]
[4.63648015e-310 4.63648072e-310 4.63645335e-310], [74.84870767593384]
[4.63648015e-310 4.63648072e-310 4.63645335e-310], [75.03312468528748]
[4.63648015e-310 4.63648072e-310 4.63645335e-310], [75.18492245674133]
[4.63648015e-310 4.63648072e-310 4.63645335e-310], [75.33778595924377]
[4.63648015e-310 4.63648072e-310 4.63645335e-310], [75.48965382575989]
[4.63648015e-310 4.63648072e-310 4.63645335e-310], [75.64214706420898]
[4.63648015e-310 4.63648072e-310 4.63645335e-310], [75.79306435585022]
[4.63648015e-310 4.63648072e-310 4.63645335e-310], [75.94322562217712]
[4.63648015e-310 4.63648072e-310 4.63645335e-310], [76.13667345046997]
[4.63648015e-310 4.63648072e-310 4.63645335e-310], [76.28704142570496]
[4.63648015e-310 4.63648072e-310 4.63645335e-310], [76.4359061717987]
[4.63648015e-310 4.63648072e-310 4.63645335e-310], [76.58861422538757]
[4.63648015e-310 4.63648072e-310 4.63645335e-310], [76.73996543884277]
[4.63648015e-310 4.63648072e-310 4.63645335e-310], [76.89026117324829]
[4.63648015e-310 4.63648072e-310 4.63645335e-310], [77.04068207740784]
[4.63648015e-310 4.63648072e-310 4.63645335e-310], [77.19173216819763]
[4.63648015e-310 4.63648072e-310 4.63645335e-310], [77.34320068359375]
[4.63648015e-310 4.63648072e-310 4.63645335e-310], [77.49593997001648]
[4.63648015e-310 4.63648072e-310 4.63645335e-310], [77.64758968353271]
[4.63648015e-310 4.63648072e-310 4.63645335e-310], [77.83740282058716]
[4.63648015e-310 4.63648072e-310 4.63645335e-310], [77.98855018615723]
[4.63648015e-310 4.63648072e-310 4.63645335e-310], [78.14123272895813]
[4.63648015e-310 4.63648072e-310 4.63645335e-310], [78.29039669036865]
[4.63648015e-310 4.63648072e-310 4.63645335e-310], [78.44034576416016]
[4.63648015e-310 4.63648072e-310 4.63645335e-310], [78.5886161327362]
[4.63648015e-310 4.63648072e-310 4.63645335e-310], [78.73766136169434]
[4.63648015e-310 4.63648072e-310 4.63645335e-310], [78.88743090629578]
[4.63648015e-310 4.63648072e-310 4.63645335e-310], [79.03968071937561]
[4.63648015e-310 4.63648072e-310 4.63645335e-310], [79.18988990783691]
[4.63648015e-310 4.63648072e-310 4.63645335e-310], [79.34395360946655]
[4.63648015e-310 4.63648072e-310 4.63645335e-310], [79.49679827690125]
[4.63648015e-310 4.63648072e-310 4.63645335e-310], [79.65079140663147]
[4.63648015e-310 4.63648072e-310 4.63645335e-310], [79.80244326591492]
[4.63648015e-310 4.63648072e-310 4.63645335e-310], [79.95313572883606]
[4.63648015e-310 4.63648072e-310 4.63645335e-310], [80.10347843170166]
[4.63648015e-310 4.63648072e-310 4.63645335e-310], [80.290043592453]
[4.63648015e-310 4.63648072e-310 4.63645335e-310], [80.4416446685791]
[4.63648015e-310 4.63648072e-310 4.63645335e-310], [80.59325957298279]
[4.63648015e-310 4.63648072e-310 4.63645335e-310], [80.74447679519653]
[4.63648015e-310 4.63648072e-310 4.63645335e-310], [80.8932135105133]
[4.63648015e-310 4.63648072e-310 4.63645335e-310], [81.04402256011963]
[4.63648015e-310 4.63648072e-310 4.63645335e-310], [81.19479537010193]
[4.63648015e-310 4.63648072e-310 4.63645335e-310], [81.34375429153442]
[4.63648015e-310 4.63648072e-310 4.63645335e-310], [81.5003674030304]
[4.63648015e-310 4.63648072e-310 4.63645335e-310], [81.66460466384888]
[4.63648015e-310 4.63648072e-310 4.63645335e-310], [81.86154246330261]
[4.63648015e-310 4.63648072e-310 4.63645335e-310], [82.04027915000916]
[4.63648015e-310 4.63648072e-310 4.63645335e-310], [82.20310258865356]
[4.63648015e-310 4.63648072e-310 4.63645335e-310], [82.35388612747192]
[4.63648015e-310 4.63648072e-310 4.63645335e-310], [82.50772356987]
[4.63648015e-310 4.63648072e-310 4.63645335e-310], [82.67376589775085]
[4.63648015e-310 4.63648072e-310 4.63645335e-310], [82.84205770492554]
[4.63648015e-310 4.63648072e-310 4.63645335e-310], [83.0056562423706]
[4.63648015e-310 4.63648072e-310 4.63645335e-310], [83.18389678001404]
[4.63648015e-310 4.63648072e-310 4.63645335e-310], [83.33529257774353]
[4.63648015e-310 4.63648072e-310 4.63645335e-310], [83.51566910743713]
[4.63648015e-310 4.63648072e-310 4.63645335e-310], [83.66630792617798]
[4.63648015e-310 4.63648072e-310 4.63645335e-310], [83.85424280166626]
[4.63648015e-310 4.63648072e-310 4.63645335e-310], [84.01036214828491]
[4.63648015e-310 4.63648072e-310 4.63645335e-310], [84.16516709327698]
[4.63648015e-310 4.63648072e-310 4.63645335e-310], [84.31857824325562]
