[1.11022302e-14 0.00000000e+00 5.00000000e+01], [16.34348464012146]
[1.49944319e-14 1.19719783e-14 5.00000000e+01], [17.636367559432983]
[ 3.47004059e-02 -1.09754982e-03  5.00197223e+01], [17.798160076141357]
[ 1.13156957e-01 -2.75473491e-04  5.00530306e+01], [17.946720600128174]
[2.37250583e-01 5.02345489e-04 5.00965697e+01], [18.095451831817627]
[4.05452268e-01 2.27315836e-04 5.01478520e+01], [18.246381998062134]
[ 6.19885139e-01 -1.22895065e-04  5.02079659e+01], [18.39510226249695]
[8.79088241e-01 4.52860321e-04 5.02747642e+01], [18.544920206069946]
[1.15616217e+00 1.59781040e-02 5.03331582e+01], [18.706682443618774]
[1.46815729e+00 8.68456394e-03 5.04006211e+01], [18.858123779296875]
[1.81567406e+00 6.92961290e-03 5.04726778e+01], [19.010769367218018]
[2.20171196e+00 7.15388112e-03 5.05493654e+01], [19.160787105560303]
[2.60419321e+00 2.33085231e-02 5.06172518e+01], [19.310399055480957]
[3.04435293e+00 2.57989188e-02 5.06937697e+01], [19.4620041847229]
[ 3.49952269  0.0538098  50.76083654], [19.613285541534424]
[ 3.95249093  0.08260862 50.81529826], [19.764248371124268]
[ 4.42667195  0.12641297 50.8754851 ], [19.914544343948364]
[ 4.89153603  0.18584937 50.91889245], [20.083192586898804]
[ 5.38564414  0.2400567  50.97308027], [20.23237109184265]
[ 5.92008302  0.31015702 51.03222484], [20.38183856010437]
[ 6.45824812  0.36929879 51.07266528], [20.532649993896484]
[ 6.99936944  0.4341648  51.10439368], [20.71243143081665]
[ 7.57878747  0.50963897 51.14493299], [20.86174964904785]
[ 8.15885692  0.57992042 51.16631852], [21.010136365890503]
[ 8.69668578  0.66109659 51.15852184], [21.158637762069702]
[ 9.19436865  0.73230152 51.13634735], [21.30728816986084]
[ 9.66777374  0.84006517 51.10952937], [21.455888986587524]
[10.12469577  0.91149584 51.07837239], [21.605666637420654]
[10.57918676  0.98654957 51.0476256 ], [21.756409168243408]
[11.03525484  1.1030905  51.01435067], [21.9320170879364]
[11.50289468  1.20930991 50.9805659 ], [22.07953119277954]
[11.93367815  1.31704423 50.92606972], [22.22949242591858]
[12.34072169  1.50260003 50.86534842], [22.378308296203613]
[12.62693087  1.68833351 50.76421107], [22.52824091911316]
[12.91278894  1.91150515 50.68834334], [22.677238941192627]
[13.08175175  2.11987894 50.58039374], [22.8276264667511]
[13.24113496  2.36051646 50.49772523], [22.97756862640381]
[13.36950288  2.59047717 50.41708575], [23.127886533737183]
[13.49889271  2.84864157 50.34779619], [23.279724836349487]
[13.62990184  3.09067426 50.28422397], [23.43358540534973]
[13.753508    3.34177083 50.22070145], [23.58952498435974]
[13.87923137  3.54631263 50.16443701], [23.745128870010376]
[13.99592929  3.7715838  50.1066783 ], [23.899210453033447]
[14.09124046  4.02002857 50.0439669 ], [24.050946950912476]
[14.16669843  4.26829795 49.98079697], [24.20159602165222]
[14.21468555  4.48437145 49.91933056], [24.390171766281128]
[14.25268347  4.73033344 49.8609288 ], [24.553022146224976]
[14.31011634  4.94450753 49.81469203], [24.714855194091797]
[14.36464991  5.17888003 49.76376555], [24.86617875099182]
[14.4199276   5.41014076 49.71329689], [25.017804861068726]
[14.44025652  5.60620249 49.65883847], [25.171594619750977]
[14.42661861  5.85711356 49.69037662], [25.325050115585327]
[14.39083129  6.0967683  49.76657498], [25.49636936187744]
[14.34920414  6.34586096 49.84233844], [25.720301628112793]
[14.32399095  6.59306232 49.91027096], [25.897023916244507]
[14.23734559  6.79459589 50.0019759 ], [26.054971933364868]
[14.16698859  6.96143172 50.06568112], [26.209298372268677]
[14.05986834  7.13394497 50.15096912], [26.403210878372192]
[13.9130192   7.29095639 50.25123879], [26.561719179153442]
[13.71639267  7.44454739 50.35911428], [26.716195583343506]
[13.55627584  7.57748422 50.44352225], [26.87410306930542]
[13.34840534  7.66783314 50.54576131], [27.03285503387451]
[13.2061211   7.76410727 50.60906599], [27.199618101119995]
[13.02031881  7.85516562 50.68335781], [27.35626530647278]
[12.86447011  7.96652534 50.73834787], [27.52476191520691]
[12.68570953  8.02255265 50.79874095], [27.68872857093811]
[12.53001545  8.1155565  50.84627001], [27.858017206192017]
[12.36137403  8.21923182 50.89815331], [28.009276866912842]
[12.17566488  8.33656391 50.94329435], [28.16641926765442]
[11.9693323   8.4571988  50.99701071], [28.319095849990845]
[11.76128934  8.60110776 51.03807555], [28.47004723548889]
[11.55110154  8.76298531 51.07244106], [28.621950149536133]
[11.33756587  8.93575493 51.09732534], [28.772967100143433]
[11.11520721  9.1240689  51.1220951 ], [28.925026178359985]
[10.91076356  9.29386274 51.14204765], [29.077316761016846]
[10.64433457  9.40040695 51.18091733], [29.259075164794922]
[10.41199151  9.52176453 51.20950836], [29.440293073654175]
[10.18258982  9.65772008 51.23453417], [29.596431016921997]
[ 9.9949812   9.77722951 51.24122462], [29.7504141330719]
[ 9.80582332  9.91105351 51.24030345], [29.900625705718994]
[ 9.63781982 10.03666195 51.23721422], [30.052107095718384]
[ 9.46180468 10.18592704 51.2301707 ], [30.204871892929077]
[ 9.27751984 10.33037231 51.23177753], [30.35872721672058]
[ 9.08985012 10.47904707 51.22855695], [30.54545521736145]
[ 8.88546509 10.63949097 51.22625382], [30.69845747947693]
[ 8.6681686  10.80943374 51.22388747], [30.852027654647827]
[ 8.44065276 10.97164294 51.22735553], [31.039604425430298]
[ 8.25267931 11.10818996 51.21643062], [31.192744255065918]
[ 8.03772404 11.26627595 51.21671615], [31.346805095672607]
[ 7.81291845 11.42657576 51.22076358], [31.534916162490845]
[ 7.60613362 11.57240119 51.20880081], [31.68519687652588]
[ 7.38383539 11.72997574 51.19946965], [31.836089849472046]
[ 7.14704641 11.89302263 51.18918775], [31.98643970489502]
[ 6.91351276 12.04640349 51.17611242], [32.1706862449646]
[ 6.70996018 12.18605673 51.14679649], [32.32121419906616]
[ 6.49197892 12.33213397 51.12679935], [32.47235655784607]
[ 6.30077114 12.44395316 51.09296406], [32.623557806015015]
[ 6.09380193 12.55866594 51.06742045], [32.78127646446228]
[ 5.87314606 12.68786185 51.03876646], [32.96273612976074]
[ 5.63862016 12.8262828  51.01007785], [33.11462879180908]
[ 5.39599528 12.97758738 50.97828372], [33.264941692352295]
[ 5.14407357 13.14543593 50.94337501], [33.415300607681274]
[ 4.93464443 13.2969092  50.89523442], [33.56658411026001]
[ 4.71839361 13.45737412 50.8467852 ], [33.71846103668213]
[ 4.53335978 13.60270621 50.78886771], [33.87305545806885]
[ 4.34324176 13.74921009 50.74020222], [34.02401089668274]
[ 4.13409587 13.90141361 50.69986896], [34.1744704246521]
[ 3.91786005 14.04028173 50.66546147], [34.32468914985657]
[ 3.68536522 14.17650005 50.63098808], [34.4757661819458]
[ 3.4704138  14.26786577 50.60666751], [34.62655258178711]
[ 3.25075709 14.37063577 50.58452385], [34.77856707572937]
[ 3.04039337 14.46949961 50.56434449], [34.928619146347046]
[ 2.86221582 14.55280813 50.52546485], [35.079084157943726]
[ 2.66801812 14.64917868 50.49650344], [35.22977638244629]
[ 2.45199466 14.74861172 50.46759435], [35.38032531738281]
[ 2.21701992 14.84674906 50.44248804], [35.534202575683594]
[ 2.00885386 14.924548   50.41481551], [35.684083223342896]
[ 1.80826525 14.99718765 50.39738603], [35.86203742027283]
[ 1.61532123 15.06455092 50.3780816 ], [36.01582646369934]
[ 1.40203529 15.13705596 50.36239517], [36.169556617736816]
[ 1.17443369 15.19363927 50.34803072], [36.323208808898926]
[ 0.99022337 15.23107837 50.33005671], [36.476093769073486]
[ 0.77937119 15.26048363 50.32533542], [36.66372728347778]
[ 0.59294    15.27673615 50.3216906 ], [36.81731653213501]
[ 0.3898512  15.29246907 50.3180127 ], [36.9676947593689]
[ 0.1771802  15.31515994 50.31031825], [37.11848592758179]
[-4.41378398e-02  1.53435047e+01  5.03006634e+01], [37.270214796066284]
[-0.26916432 15.37413409 50.28904814], [37.42141795158386]
[-0.50192543 15.40675916 50.27357765], [37.604915380477905]
[-0.74043215 15.44192922 50.25608702], [37.7554395198822]
[-0.98170892 15.47525077 50.24046663], [37.90740180015564]
[-1.1899178  15.49683342 50.21471988], [38.0583336353302]
[-1.4149452  15.53159664 50.19027876], [38.208401679992676]
[-1.63470158 15.56651541 50.16117113], [38.35933828353882]
[-1.85822355 15.58932854 50.13227359], [38.5098090171814]
[-2.05454862 15.5666082  50.12319796], [38.66115188598633]
[-2.25158531 15.53259936 50.12901319], [38.81190037727356]
[-2.46716369 15.49604605 50.13757589], [38.96450734138489]
[-2.69821559 15.46164    50.14509475], [39.1156952381134]
[-2.94173793 15.42201145 50.15553925], [39.297898292541504]
[-3.19272124 15.38180638 50.16590048], [39.44935488700867]
[-3.42722854 15.32876857 50.1803983 ], [39.60046863555908]
[-3.65026668 15.27159279 50.19110677], [39.75115418434143]
[-3.88861565 15.20676919 50.20180814], [39.90139150619507]
[-4.07441246 15.12526711 50.21220284], [40.05281615257263]
[-4.28441922 15.05222631 50.21913121], [40.20301103591919]
[-4.46457223 14.96368654 50.22482845], [40.3547089099884]
[-4.66064924 14.88179099 50.23380218], [40.50583052635193]
[-4.88043493 14.79134559 50.24475524], [40.65663504600525]
[-5.1128771  14.70309978 50.25175959], [40.807368516922]
[-5.32310235 14.61679119 50.25419884], [40.95999264717102]
[-5.5369101  14.52578716 50.26226508], [41.144665479660034]
[-5.72136958 14.42325816 50.26418574], [41.29653310775757]
[-5.92707029 14.31132488 50.27153702], [41.449376344680786]
[-6.11689547 14.1977518  50.28183776], [41.61793613433838]
[-6.32574438 14.075268   50.29115635], [41.76898908615112]
[-6.53739096 13.95641911 50.29839953], [41.919703006744385]
[-6.73486881 13.83998086 50.3038771 ], [42.10810947418213]
[-6.89316069 13.73755754 50.30654805], [42.258063554763794]
[-7.06194922 13.6337657  50.30718966], [42.408610582351685]
[-7.26995366 13.61833248 50.2536465 ], [42.560195446014404]
[-7.48198107 13.58389824 50.20871056], [42.71134376525879]
[-7.66227655 13.52575507 50.16056941], [42.86260795593262]
[-7.84718854 13.42285327 50.1402007 ], [43.015016317367554]
[-8.02543372 13.32074528 50.13269256], [43.16504120826721]
[-8.22804144 13.20253157 50.1214723 ], [43.31715393066406]
[-8.44471051 13.08375327 50.10526192], [43.467122316360474]
[-8.61248631 12.97201373 50.09898482], [43.61868619918823]
[-8.80004835 12.86090051 50.09128378], [43.768747329711914]
[-9.00704647 12.7293436  50.08470624], [43.95179510116577]
[-9.22533666 12.59407612 50.07321578], [44.10359978675842]
[-9.41677101 12.47550524 50.06643962], [44.25623869895935]
[-9.63017596 12.34253549 50.05674857], [44.40761995315552]
[-9.78846895 12.22092948 50.05135291], [44.59214735031128]
[-9.9601925  12.09214206 50.05037559], [44.74439978599548]
[-10.15201312  11.94813403  50.04651105], [44.894277572631836]
[-10.35370991  11.79762871  50.04068474], [45.04530620574951]
[-10.49138723  11.6592738   50.04504601], [45.1946816444397]
[-10.63852399  11.52553807  50.05075921], [45.3453733921051]
[-10.8107535   11.3704794   50.05367321], [45.52287769317627]
[-10.98681573  11.21680184  50.05457091], [45.68145561218262]
[-11.12095345  11.13518464  50.03229269], [45.83847117424011]
[-11.27976938  11.02249743  50.00178064], [45.98837876319885]
[-11.43954865  10.90340688  49.9749292 ], [46.13822889328003]
[-11.60715974  10.77171718  49.94901792], [46.2875759601593]
[-11.72258274  10.63417613  49.93724323], [46.47132182121277]
[-11.85416624  10.49825855  49.92664523], [46.62321853637695]
[-11.99477003  10.34007294  49.9144529 ], [46.77508091926575]
[-12.14504829  10.1683527   49.90028557], [46.92867970466614]
[-12.29775381   9.99178566  49.88418457], [47.08239483833313]
[-12.45157431   9.81007686  49.86900423], [47.236610651016235]
[-12.59922677   9.63794778  49.85370568], [47.41691541671753]
[-12.74636265   9.46216829  49.84219151], [47.57220125198364]
[-12.85477387   9.33041158  49.83542919], [47.72486209869385]
[-12.9185393    9.17980043  49.839239  ], [47.87774324417114]
[-12.99481208   9.03100586  49.83764125], [48.03047823905945]
[-13.07210491   8.88975974  49.83976789], [48.18475651741028]
[-13.15732558   8.72309027  49.84307132], [48.338799238204956]
[-13.24907111   8.54778297  49.84532031], [48.49473309516907]
[-13.34503168   8.35761773  49.84954079], [48.65193772315979]
[-13.44686437   8.15339497  49.85563492], [48.81481671333313]
[-13.55531315   7.93996921  49.85882206], [48.97258949279785]
[-13.66706501   7.72213331  49.85911606], [49.13191199302673]
[-13.73884926   7.54351754  49.86727155], [49.28848147392273]
[-13.80033287   7.36003484  49.88029597], [49.47195911407471]
[-13.87114575   7.15778637  49.88954855], [49.62705326080322]
[-13.9328958    6.96355416  49.89892683], [49.779680252075195]
[-13.99413902   6.75711268  49.91211053], [49.93115997314453]
[-14.06564601   6.5444453   49.91851681], [50.082438230514526]
[-14.11026661   6.36731901  49.92045166], [50.234293937683105]
[-14.16624693   6.16554181  49.92398804], [50.41233515739441]
[-14.2054526    5.976139    49.93163827], [50.56357741355896]
[-14.25839261   5.76798166  49.93520593], [50.72113347053528]
[-14.30782347   5.56199629  49.93797993], [50.959458351135254]
[-14.3492912    5.35000856  49.94559456], [51.11352515220642]
[-14.38352867   5.13395426  49.95521533], [51.26577115058899]
[-14.42706286   4.90276866  49.96276588], [51.41863751411438]
[-14.46564902   4.6723666   49.9695128 ], [51.57352328300476]
[-14.49687516   4.4296394   49.97922799], [51.760356426239014]
[-14.53838797   4.17754803  49.98303343], [51.93250632286072]
[-14.57288978   3.93995451  49.98312499], [52.1419472694397]
[-14.60584945   3.6827951   49.98602079], [52.32874631881714]
[-14.63899593   3.41609472  49.98893857], [52.48168659210205]
[-14.66393773   3.14076277  49.99483197], [52.63585424423218]
[-14.68829128   2.84776327  50.00164585], [52.78863215446472]
[-14.71470084   2.54605333  50.00650198], [52.94293975830078]
[-14.73782443   2.24254875  50.00946021], [53.097347021102905]
[-14.76219306   1.92821514  50.01227559], [53.25090265274048]
[-14.76850348   1.62897624  50.02197822], [53.404001235961914]
[-14.76435719   1.3397871   50.03349841], [53.55782437324524]
[-14.76330184   1.02079004  50.04482977], [53.7105598449707]
[-14.74018289   0.72791165  50.06233177], [53.86620807647705]
[-14.70838888   0.41715607  50.08250184], [54.020981311798096]
[-14.66562449   0.11754642  50.10950945], [54.1732017993927]
[-14.61485655  -0.17891932  50.12232548], [54.34231185913086]
[-14.57850804  -0.48815901  50.15915386], [54.49482011795044]
[-14.54610187  -0.81507486  50.19320281], [54.6499297618866]
[-14.50825359  -1.14468283  50.22927619], [54.80193114280701]
[-14.46852041  -1.49093935  50.2661766 ], [54.95535755157471]
[-14.40859067  -1.78996207  50.31590094], [55.1083447933197]
[-14.34686423  -2.08068021  50.36802366], [55.26062726974487]
[-14.28327008  -2.40084334  50.41535058], [55.41443657875061]
[-14.21245841  -2.73134863  50.46385511], [55.56766366958618]
[-14.14484767  -3.02430907  50.51804938], [55.72064757347107]
[-14.08191864  -3.29469044  50.57571784], [55.87317371368408]
[-14.01272519  -3.5643536   50.62776637], [56.025810956954956]
[-13.94566075  -3.81711544  50.68154082], [56.17864179611206]
[-13.85531927  -4.05489052  50.74784617], [56.34461450576782]
[-13.76150206  -4.2795899   50.81791224], [56.5512421131134]
[-13.65887179  -4.53597847  50.88506141], [56.705414056777954]
[-13.51156365  -4.7611219   50.96016116], [56.891120195388794]
[-13.3623482   -4.96380856  51.04800507], [57.04442858695984]
[-13.20429222  -5.1640031   51.13513139], [57.19927525520325]
[-13.07133475  -5.34667685  51.19453995], [57.36168384552002]
[-12.93519154  -5.51639087  51.27487232], [57.52798914909363]
[-12.84037166  -5.68628961  51.32429725], [57.68649935722351]
[-12.73304916  -5.8380275   51.38571928], [57.84987950325012]
[-12.60446591  -5.98165049  51.44277736], [58.01327681541443]
[-12.44993025  -6.15864708  51.5054799 ], [58.1704740524292]
[-12.29212894  -6.30392813  51.57999793], [58.33302187919617]
[-12.16188909  -6.50355593  51.61263276], [58.487389087677]
[-12.02863733  -6.66716716  51.65768727], [58.65308141708374]
[-11.89671946  -6.80870423  51.71370227], [58.813817739486694]
[-11.75536023  -6.95112357  51.76524154], [59.02852511405945]
[-11.52115268  -7.13477382  51.8452078 ], [59.18154001235962]
[-11.29137495  -7.27188238  51.91600269], [59.34485340118408]
[-11.0633895   -7.38113211  51.99963439], [59.517438650131226]
[-10.84322061  -7.45640921  52.09868015], [59.66762042045593]
[-10.62189141  -7.56749566  52.17643681], [59.853551626205444]
[-10.40720542  -7.64909792  52.25212054], [60.016151666641235]
[-10.20017817  -7.69890823  52.34459704], [60.16862392425537]
[-10.01151018  -7.80021356  52.38545721], [60.31962585449219]
[-9.81918578 -7.85109061 52.44720316], [60.47460341453552]
[-9.61108033 -7.92069574 52.50464219], [60.638487339019775]
[-9.42589622 -7.95856213 52.56992752], [60.79305911064148]
[-9.25849491 -8.03881578 52.59568277], [60.950581073760986]
[-9.08641488 -8.08677577 52.6365667 ], [61.10234713554382]
[-8.8893127  -8.1731964  52.68148619], [61.25429916381836]
[-8.67936601 -8.26685448 52.72692779], [61.43515491485596]
[-8.48533179 -8.39883996 52.73012571], [61.5887656211853]
[-8.3822171  -8.44081962 52.73459913], [61.843610763549805]
[-8.27036767 -8.45173271 52.75492105], [62.004441022872925]
[-8.12660752 -8.50899887 52.77224801], [62.16303277015686]
[-7.96664831 -8.58191009 52.79355544], [62.35141134262085]
[-7.79213953 -8.66252467 52.81499807], [62.50762128829956]
[-7.62874271 -8.73867277 52.8306654 ], [62.659775495529175]
[-7.43904622 -8.83790837 52.85094252], [62.81179738044739]
[-7.25812434 -8.87626153 52.87962328], [62.96265482902527]
[-7.04829667 -8.95522114 52.90921849], [63.11360692977905]
[-6.88099426 -9.04275485 52.90592145], [63.26343131065369]
[-6.71912288 -9.09923614 52.91416509], [63.413414001464844]
[-6.55808664 -9.16193309 52.90241578], [63.56418490409851]
[-6.42121867 -9.22972422 52.90058421], [63.71542572975159]
[-6.26949947 -9.31654896 52.90162418], [63.867058515548706]
[-6.11991668 -9.40409082 52.90651383], [64.01794290542603]
[-5.96530593 -9.45946735 52.90719285], [64.16752982139587]
[-5.80926414 -9.52803012 52.9091389 ], [64.31881713867188]
[-5.69164018 -9.59349182 52.90347094], [64.46805715560913]
[-5.56122062 -9.66667084 52.88748533], [64.62226986885071]
[-5.4080288  -9.75689294 52.87797827], [64.80488109588623]
[-5.28291548 -9.8411437  52.85712536], [64.95556378364563]
[-5.17118609 -9.8618993  52.86801162], [65.10824584960938]
[-5.02916064 -9.91923029 52.86209542], [65.29643130302429]
[-4.91066314 -9.99503479 52.86171595], [65.44674801826477]
[ -4.75857115 -10.06660869  52.85244655], [65.59779477119446]
[ -4.59488193 -10.13750717  52.84119662], [65.7477798461914]
[ -4.40625154 -10.22415172  52.83156968], [65.89929151535034]
[ -4.25556186 -10.23770037  52.82959523], [66.05076813697815]
[ -4.09323078 -10.28340273  52.82537841], [66.22889184951782]
[ -3.94178037 -10.33924295  52.79711377], [66.37938499450684]
[ -3.79267467 -10.38741593  52.77348083], [66.53148150444031]
[ -3.63800816 -10.45390161  52.73637032], [66.68174004554749]
[ -3.47560752 -10.52195392  52.70682038], [66.89288926124573]
[ -3.3483514  -10.58867215  52.66393533], [67.04217410087585]
[ -3.19790604 -10.65308207  52.64357479], [67.19069051742554]
[ -3.09952066 -10.71555503  52.60711191], [67.34035897254944]
[ -2.95986057 -10.78130371  52.57344507], [67.51575112342834]
[ -2.83427942 -10.84820526  52.53410082], [67.66529178619385]
[ -2.70233457 -10.91862341  52.49643573], [67.82801938056946]
[ -2.54715909 -10.99320146  52.46725928], [67.97849369049072]
[ -2.39967708 -11.07569356  52.43412431], [68.153404712677]
[ -2.25272923 -11.13903024  52.39383002], [68.31960082054138]
[ -2.12412949 -11.19032321  52.37118414], [68.4780387878418]
[ -1.96399653 -11.2534617   52.34553553], [68.63227009773254]
[ -1.78151682 -11.31307541  52.32107255], [68.78795838356018]
[ -1.62537969 -11.37676774  52.29256874], [68.94687628746033]
[ -1.44846484 -11.44301733  52.26965249], [69.1270842552185]
[ -1.27596186 -11.49578309  52.24606461], [69.28234791755676]
[ -1.08970021 -11.55724211  52.23146544], [69.46635818481445]
[ -0.92274725 -11.60873078  52.20123084], [69.63112282752991]
[ -0.7279918  -11.66207177  52.1856942 ], [69.78119540214539]
[ -0.56654477 -11.65264881  52.18365045], [69.93153429031372]
[ -0.38621843 -11.65060034  52.18354864], [70.08255004882812]
[ -0.21128383 -11.65195404  52.16772664], [70.26373267173767]
[-3.45966612e-02 -1.16398565e+01  5.21604820e+01], [70.45525097846985]
[  0.13777433 -11.62320652  52.15134389], [70.61518836021423]
[  0.29088817 -11.63148135  52.13041486], [70.81074166297913]
[  0.46861367 -11.61827137  52.11846717], [71.01943397521973]
[  0.66275177 -11.61258395  52.09114389], [71.17317581176758]
[  0.89227639 -11.60560049  52.06756909], [71.32384657859802]
[  1.09229868 -11.6033303   52.03865379], [71.49402713775635]
[  1.32184884 -11.61391684  52.00721188], [71.69744038581848]
[  1.53273446 -11.62931237  51.9750145 ], [71.85128355026245]
[  1.72612222 -11.64204655  51.94169719], [72.0029137134552]
[  1.88387259 -11.59170143  51.94423156], [72.15351963043213]
[  2.0678404  -11.54438188  51.92909328], [72.3052225112915]
[  2.22181119 -11.4852973   51.9248957 ], [72.48216652870178]
[  2.40876467 -11.43509109  51.91066553], [72.63688898086548]
[  2.5984602  -11.41652869  51.88018289], [72.79214119911194]
[  2.78793349 -11.39298789  51.85359077], [72.94721031188965]
[  2.99901338 -11.37037799  51.82203868], [73.10352325439453]
[  3.20661292 -11.34435156  51.78969115], [73.26313662528992]
[  3.42863058 -11.31042729  51.76004074], [73.41942620277405]
[  3.63098013 -11.26434414  51.73822876], [73.57225251197815]
[  3.82061281 -11.22359073  51.71797255], [73.72661304473877]
[  4.03823318 -11.19287479  51.69068566], [73.88608527183533]
[  4.25669143 -11.16997849  51.65874206], [74.04490566253662]
[  4.4938287  -11.14134898  51.63229107], [74.20221948623657]
[  4.71859135 -11.11689152  51.60495519], [74.36066150665283]
[  4.96075457 -11.07203244  51.5820182 ], [74.51480722427368]
[  5.16217842 -10.95966284  51.59526106], [74.66974949836731]
[  5.3957921  -10.85055365  51.58947318], [74.82273864746094]
[  5.58240766 -10.7561374   51.58700533], [74.98025679588318]
[  5.79079772 -10.65084711  51.58789519], [75.2186553478241]
[  6.00971519 -10.56183861  51.57544814], [75.37398147583008]
[  6.26088523 -10.46545736  51.56089961], [75.52693128585815]
[  6.48440656 -10.39273616  51.53223576], [75.68020915985107]
[  6.72788293 -10.30882868  51.50981233], [75.86616444587708]
[  6.98011185 -10.20795373  51.48860814], [76.01923108100891]
[  7.20502241 -10.10857817  51.47027204], [76.1721875667572]
[ 7.4513344  -9.99835523 51.44874177], [76.32557845115662]
[ 7.67387763 -9.89712518 51.42649238], [76.47715902328491]
[ 7.88739042 -9.777331   51.41468775], [76.63066220283508]
[ 8.12951831 -9.64294036 51.39975384], [76.7811667919159]
[ 8.36021073 -9.52568086 51.37442627], [76.93699979782104]
[ 8.61314034 -9.39505569 51.34503773], [77.09000873565674]
[ 8.83918765 -9.26202214 51.31797013], [77.24134826660156]
[ 9.07494156 -9.10301278 51.29821804], [77.40820264816284]
[ 9.26833162 -8.95097135 51.2855349 ], [77.55914783477783]
[ 9.49797109 -8.79041557 51.2606726 ], [77.72074341773987]
[ 9.6627786  -8.65824682 51.24426092], [77.87899661064148]
[ 9.8403475 -8.5019187 51.229245 ], [78.03383159637451]
[10.0121944  -8.34049172 51.22393011], [78.18738436698914]
[10.16533793 -8.22546986 51.20779255], [78.34118509292603]
[10.34140176 -8.08771724 51.18693624], [78.49111199378967]
[10.53290736 -7.93221055 51.16702906], [78.64232611656189]
[10.74459324 -7.75756635 51.14691858], [78.79748511314392]
[10.91634461 -7.59645114 51.13956606], [78.94799423217773]
[11.11285047 -7.42655586 51.12393575], [79.09911227226257]
[11.2830014  -7.29783024 51.10098821], [79.24965119361877]
[11.46925244 -7.14181871 51.08064121], [79.39981698989868]
[11.61038013 -6.99259766 51.07710171], [79.55082154273987]
[11.76113839 -6.81681817 51.07035688], [79.73185515403748]
[11.87731395 -6.67040823 51.06307334], [79.88142991065979]
[12.01443565 -6.49596046 51.04973264], [80.03372383117676]
[12.16800726 -6.29959555 51.03547888], [80.18393683433533]
[12.33176993 -6.08393996 51.02115043], [80.33616161346436]
[12.47029686 -5.86065531 51.02803016], [80.48742485046387]
[12.55787333 -5.68651037 51.03328742], [80.63909649848938]
[12.65490986 -5.50826527 51.02866792], [80.78901362419128]
[12.76882332 -5.32205826 51.01826521], [80.94046878814697]
[12.84063673 -5.1825286  51.00840702], [81.09132099151611]
[12.9367272  -5.0044979  50.99331819], [81.24619340896606]
[13.05554936 -4.80118979 50.97621622], [81.40110397338867]
[13.17986288 -4.57622919 50.96295268], [81.55812788009644]
[13.2584977  -4.36234697 50.96835544], [81.71237182617188]
[13.35116115 -4.1373641  50.96364968], [81.86307287216187]
[13.3995417  -3.94018071 50.97117296], [82.01319289207458]
[13.4691011  -3.71559936 50.97232065], [82.16846823692322]
[13.5026252  -3.5176669  50.98277963], [82.33909702301025]
[13.5486998  -3.30705264 50.98608374], [82.49881505966187]
[13.62581977 -3.08093829 50.97669353], [82.65822982788086]
[13.66086089 -2.88996326 50.97954346], [82.81493401527405]
[13.72249408 -2.68102567 50.96356616], [82.96862959861755]
[13.73930936 -2.50711518 50.96184415], [83.12582588195801]
[13.78081553 -2.31401678 50.94976947], [83.28398489952087]
[13.84367549 -2.10499139 50.92530081], [83.44208240509033]
[13.91234185 -1.86981415 50.90552883], [83.60068464279175]
[13.98965562 -1.622438   50.87984445], [83.76554679870605]
[14.03139041 -1.4214956  50.86421146], [83.91992378234863]
[14.07217529 -1.17802882 50.8455181 ], [84.08586931228638]
[14.07035007 -0.98505129 50.85016674], [84.25114798545837]
[14.09188659 -0.76037328 50.83708373], [84.40943360328674]
[14.12804199 -0.52530551 50.81914626], [84.59120655059814]
[14.17851143 -0.30649583 50.79712878], [84.77844619750977]
[14.21422958 -0.10088164 50.77457227], [84.96109557151794]
[14.24970338  0.10848482 50.74799816], [85.13964867591858]
[14.30229223  0.33251712 50.71906426], [85.29233288764954]
[14.35789501  0.57321304 50.68543709], [85.44966530799866]
[14.3842499   0.77678633 50.65992551], [85.60537886619568]
[14.40564564  1.01617042 50.642603  ], [85.79004263877869]
[14.42181267  1.26911743 50.62813055], [85.97586154937744]
[14.40366467  1.49695623 50.62385135], [86.13270235061646]
[14.39150525  1.73263256 50.61713961], [86.28491425514221]
[14.38093602  1.99093791 50.61135572], [86.44267511367798]
[14.31990147  2.19610541 50.62571029], [86.61280131340027]
[14.27782799  2.429085   50.6258352 ], [86.76334071159363]
[14.26425955  2.65461757 50.61048718], [86.91871380805969]
[14.25570615  2.88481578 50.59894871], [87.1101644039154]
[14.21709329  3.10160291 50.59844615], [87.26080274581909]
[14.18908414  3.33891845 50.58408539], [87.43821454048157]
[14.15295619  3.59052787 50.57931491], [87.59568405151367]
[14.14142506  3.82854649 50.56733939], [87.74957752227783]
[14.08148336  4.04309715 50.5757069 ], [87.93822169303894]
[14.04159207  4.2868608  50.56791049], [88.09365010261536]
[13.95262417  4.50484735 50.5767478 ], [88.2485842704773]
[13.86878552  4.74688147 50.58381733], [88.39892315864563]
[13.79383233  4.99183022 50.58519881], [88.55848288536072]
[13.74138589  5.23176353 50.57386174], [88.71528100967407]
[13.67327734  5.40482566 50.56906457], [88.87146425247192]
[13.61879454  5.6096128  50.55566718], [89.02816390991211]
[13.56570732  5.83568883 50.54033534], [89.18301033973694]
[13.50085152  6.0751472  50.52611903], [89.33773303031921]
[13.40302249  6.28505298 50.52315932], [89.49035716056824]
[13.35243465  6.49024303 50.50284402], [89.64607334136963]
[13.30091054  6.69256781 50.47906196], [89.79678893089294]
[13.23208393  6.91865669 50.45893755], [89.95188927650452]
[13.12487522  7.08464101 50.46285634], [90.11810421943665]
[13.02981592  7.2743895  50.44975333], [90.26867651939392]
[12.93620393  7.49024804 50.43930225], [90.41932821273804]
[12.86601736  7.69941606 50.41722919], [90.66063404083252]
[12.79789522  7.893859   50.39245359], [90.81606149673462]
[12.71147499  8.09720598 50.37243224], [90.96969413757324]
[12.64143262  8.30324575 50.34532591], [91.12516951560974]
[12.51868623  8.45810762 50.34548279], [91.35133194923401]
[12.40156391  8.64821061 50.33780708], [91.50104928016663]
[12.28693761  8.83444475 50.32762389], [91.68211817741394]
[12.18832148  9.0326434  50.3073765 ], [91.83562159538269]
[12.09044667  9.20367082 50.28823777], [91.98758482933044]
[11.99393164  9.38822085 50.26865913], [92.1439414024353]
[11.88653625  9.59091043 50.25280957], [92.29960584640503]
[11.77813336  9.77978587 50.23713539], [92.45386481285095]
[11.66019043  9.99741998 50.22295085], [92.60821485519409]
[11.5606754  10.18189652 50.20234195], [92.78840684890747]
[11.40848642 10.32530065 50.19928122], [92.94297480583191]
[11.27665887 10.49452658 50.19187787], [93.09817552566528]
[11.15133642 10.65780256 50.18013205], [93.25443911552429]
[11.00707604 10.84162792 50.1729866 ], [93.41041445732117]
[10.84979095 11.03084459 50.16590711], [93.56403732299805]
[10.68113909 11.22625628 50.15976183], [93.71563839912415]
[10.51592452 11.41278526 50.14605342], [93.8671760559082]
[10.34671939 11.61600069 50.12728593], [94.02163457870483]
[10.17439774 11.8187157  50.10288093], [94.17207479476929]
[ 9.98748542 12.03740887 50.08488752], [94.32182383537292]
[ 9.78888599 12.26192596 50.0678256 ], [94.47200536727905]
[ 9.56245292 12.44229717 50.06889456], [94.65802192687988]
[ 9.31966832 12.6488003  50.07008971], [94.80899286270142]
[ 9.07959154 12.8286042  50.06710896], [94.99942541122437]
[ 8.83165861 13.02906353 50.0616525 ], [95.15070295333862]
[ 8.59582237 13.20712876 50.05269018], [95.30116438865662]
[ 8.36373706 13.37351028 50.04369959], [95.45222306251526]
[ 8.10808576 13.56135667 50.04381962], [95.60357546806335]
[ 7.87788696 13.72590175 50.03935865], [95.75419855117798]
[ 7.63376146 13.88471728 50.04260347], [95.93975496292114]
[ 7.43380415 14.00612329 50.02133218], [96.08983325958252]
[ 7.20633573 14.14376097 50.01684635], [96.24104356765747]
[ 6.96559912 14.2825629  50.01143957], [96.39362072944641]
[ 6.69938788 14.41139897 50.01402931], [96.54555940628052]
[ 6.44027596 14.55156929 50.01694416], [96.69691205024719]
[ 6.15132422 14.67327547 50.02635963], [96.84893989562988]
[ 5.90214924 14.77508382 50.02881594], [97.0003433227539]
[ 5.68450558 14.86691098 50.01795062], [97.15153574943542]
[ 5.4682403  14.95791086 50.00885641], [97.30196714401245]
[ 5.27435193 15.04102501 49.99212926], [97.45451712608337]
[ 5.05459519 15.13733894 49.98846704], [97.60577654838562]
[ 4.81808043 15.23884449 49.98385126], [97.75600576400757]
[ 4.56361509 15.33930071 49.98125861], [97.9056134223938]
[ 4.34689524 15.41158478 49.97703066], [98.05680274963379]
[ 4.14568949 15.48132295 49.96502331], [98.20682072639465]
[ 3.94496137 15.55277297 49.95477467], [98.3595061302185]
[ 3.73069256 15.62853219 49.95109033], [98.51087403297424]
[ 3.5317862  15.69761407 49.94177572], [98.66370248794556]
[ 3.30411607 15.77039138 49.9381339 ], [98.81530809402466]
[ 3.06168057 15.83954255 49.93738417], [98.96647310256958]
[ 2.85726029 15.87648584 49.92489349], [99.11911058425903]
[ 2.63257408 15.9116499  49.93299089], [99.26915717124939]
[ 2.43175844 15.93445805 49.93177735], [99.41973614692688]
[ 2.2056786  15.96505965 49.93606202], [99.57284450531006]
[ 1.97536726 15.99917582 49.93834601], [99.7250919342041]
[ 1.74666674 16.02461542 49.94370201], [99.87835550308228]
[ 1.50653164 16.04508154 49.94529846], [100.03235721588135]
[ 1.27586896 16.06912759 49.94006401], [100.18569040298462]
[ 1.02663775 16.09718305 49.93759122], [100.34176659584045]
[ 0.81771929 16.11552597 49.9182481 ], [100.49468493461609]
[ 0.5860583  16.14099408 49.90617294], [100.6481454372406]
[ 0.38667755 16.16386308 49.87803397], [100.8020191192627]
[ 0.16056037 16.19120598 49.85634831], [100.9554533958435]
[-4.13003878e-02  1.61790009e+01  4.98478200e+01], [101.11050534248352]
[-0.20910521 16.13671078 49.85762335], [101.26145792007446]
[-0.40265772 16.10154624 49.87546216], [101.41477513313293]
[-0.60980922 16.07353145 49.88755403], [101.60267734527588]
[-0.8306288  16.05327811 49.89574064], [101.75559306144714]
[-1.06613173 16.03940273 49.90000701], [101.90965175628662]
[-1.31033393 16.02852649 49.90325582], [102.06139993667603]
[-1.56126595 16.02041132 49.9007368 ], [102.21533060073853]
[-1.78403687 16.01170713 49.89447367], [102.40815377235413]
[-1.99963741 16.00500563 49.88431729], [102.56078433990479]
[-2.23184599 15.99080449 49.87798529], [102.71198725700378]
[-2.45267885 15.96004469 49.87199032], [102.86353850364685]
[-2.69865705 15.92092321 49.88497465], [103.01873517036438]
[-2.95593163 15.88582104 49.9031293 ], [103.16929793357849]
[-3.20708553 15.84893217 49.91675167], [103.3208920955658]
[-3.43895477 15.80428513 49.92335826], [103.47176384925842]
[-3.69150023 15.7561598  49.93595191], [103.6233561038971]
[-3.90195752 15.70614805 49.93675688], [103.77330279350281]
[-4.08851401 15.64827617 49.93330074], [103.93824338912964]
[-4.2950977  15.58752284 49.93795686], [104.08792853355408]
[-4.52703808 15.51185383 49.94531231], [104.23771286010742]
[-4.73093384 15.42356803 49.94458687], [104.38738489151001]
[-4.95387238 15.33469694 49.95164845], [104.53804469108582]
[-5.19559313 15.23827828 49.96027044], [104.6904673576355]
[-5.40583606 15.13981141 49.96111448], [104.84406542778015]
[-5.63577014 15.04744917 49.9688114 ], [104.99460625648499]
[-5.83237194 14.9380242  49.96464144], [105.14571571350098]
[-6.04001506 14.84163454 49.96932188], [105.29581093788147]
[-6.27115135 14.72847334 49.97243194], [105.44621753692627]
[-6.49801138 14.63380661 49.97774431], [105.59758353233337]
[-6.69497811 14.53782584 49.97428469], [105.74685049057007]
[-6.91087238 14.43986035 49.97478653], [105.89665961265564]
[-7.08861112 14.34292407 49.96812657], [106.04754447937012]
[-7.27807981 14.24199769 49.96460221], [106.19840455055237]
[-7.49185816 14.1258434  49.96119559], [106.38019013404846]
[-7.71754998 14.0066069  49.95800697], [106.5309464931488]
[-7.9106553  13.88262418 49.94802609], [106.6828043460846]
[-8.10875098 13.77492974 49.94462138], [106.83414101600647]
[-8.2758452  13.66150608 49.93346505], [106.9886302947998]
[-8.44940827 13.5565402  49.92765852], [107.14222168922424]
[-8.64113644 13.43568447 49.91866905], [107.32781100273132]
[-8.84001046 13.31340542 49.90991346], [107.48025321960449]
[-9.05161847 13.18856621 49.90030231], [107.64389491081238]
[-9.27574319 13.05941983 49.88863647], [107.795743227005]
[-9.47767982 12.93252961 49.87333727], [107.96159362792969]
[-9.70274366 12.78946867 49.85632394], [108.11452579498291]
[-9.85995595 12.66822831 49.83879067], [108.26682138442993]
[-10.03048698  12.54645302  49.82447174], [108.41861724853516]
[-10.21956735  12.407274    49.80636801], [108.57160663604736]
[-10.40963004  12.27160698  49.78895955], [108.72458410263062]
[-10.6073832   12.13410962  49.76994923], [108.87842798233032]
[-10.75551566  12.00577247  49.74929182], [109.03422713279724]
[-10.90160345  11.89484026  49.73571773], [109.18672609329224]
[-11.06971469  11.76229696  49.71537122], [109.34264945983887]
[-11.23897966  11.62945245  49.69506051], [109.49556064605713]
[-11.41569299  11.48762111  49.67171201], [109.64954829216003]
[-11.59971744  11.33808275  49.64618983], [109.80045294761658]
[-11.79463532  11.18077012  49.61816297], [109.95016598701477]
[-11.94378526  11.0193534   49.58752008], [110.09974598884583]
[-12.09626159  10.86893383  49.56481432], [110.25010800361633]
[-12.2365254   10.73021486  49.54372492], [110.3987123966217]
[-12.38113711  10.58490393  49.51970517], [110.55011916160583]
[-12.54410825  10.41938167  49.4898853 ], [110.70057010650635]
[-12.70522298  10.25659843  49.461144  ], [110.8508152961731]
[-12.86982804  10.08805822  49.42970006], [111.04685306549072]
[-13.03076309   9.92125912  49.39838735], [111.19708037376404]
[-13.1716887    9.78250944  49.374969  ], [111.35195565223694]
[-13.29614797   9.65418269  49.35218969], [111.53678584098816]
[-13.42073529   9.51900063  49.32659248], [111.68666124343872]
[-13.5592747    9.36887624  49.29625143], [111.84278869628906]
[-13.70441697   9.20636146  49.26183438], [111.99358749389648]
[-13.85279797   9.03639428  49.22530575], [112.15024423599243]
[-13.97426215   8.88612763  49.19635886], [112.31387829780579]
[-14.08981841   8.72377127  49.16356351], [112.46652483940125]
[-14.20015085   8.57559772  49.13781298], [112.61932730674744]
[-14.32884847   8.4004007   49.10047164], [112.77220630645752]
[-14.45871458   8.20391008  49.09673152], [112.92773628234863]
[-14.57206644   8.01553331  49.11550069], [113.08158230781555]
[-14.67377305   7.8232588   49.13925953], [113.27300381660461]
[-14.74951939   7.64990023  49.17099439], [113.42693948745728]
[-14.79999932   7.46441605  49.21085357], [113.58343720436096]
[-14.85066204   7.25571522  49.25554519], [113.73391699790955]
[-14.90122501   7.03073414  49.30043233], [113.88434958457947]
[-14.93837767   6.88798618  49.33148765], [114.03570222854614]
[-14.98272131   6.68863426  49.36190618], [114.18917894363403]
[-15.03401563   6.47477833  49.38769219], [114.3397912979126]
[-15.02227004   6.262244    49.42436994], [114.48979258537292]
[-15.02530294   6.03558636  49.46413902], [114.64488816261292]
[-15.03399936   5.7839699   49.50414987], [114.79422092437744]
[-15.04708911   5.51630445  49.54044516], [115.03906631469727]
[-15.06313159   5.23441305  49.57582299], [115.18958592414856]
[-15.07990451   4.95618478  49.60356484], [115.3703203201294]
[-15.0909174    4.66849349  49.63235069], [115.52027463912964]
[-15.10686287   4.37431511  49.6553011 ], [115.67200541496277]
[-15.12638142   4.08355727  49.67052862], [115.82268810272217]
[-15.18194147   3.74029294  49.67286755], [115.97300314903259]
[-15.1845064    3.49809856  49.68644355], [116.12973713874817]
[-15.17340233   3.23297182  49.70160799], [116.27914357185364]
[-15.17243167   2.94622012  49.71195821], [116.42923545837402]
[-15.16610094   2.6487833   49.7234078 ], [116.57993364334106]
[-15.15706656   2.3355661   49.73584111], [116.73172736167908]
[-15.13390418   2.04741784  49.7540937 ], [116.88132095336914]
[-15.11816666   1.72543633  49.7691791 ], [117.06591987609863]
[-15.12535769   1.45545921  49.7799048 ], [117.22141742706299]
[-15.12431118   1.14963542  49.7888182 ], [117.3719871044159]
[-15.10670643   0.85298254  49.81043316], [117.52360129356384]
[-15.08002071   0.54251412  49.83767019], [117.67670464515686]
[-15.05599307   0.21029943  49.86483964], [117.82823181152344]
[-15.02023965  -0.12368387  49.8979302 ], [117.9796245098114]
[-14.95746748  -0.41759024  49.94092683], [118.18189406394958]
[-14.88596193  -0.72028511  49.99218079], [118.33187103271484]
[-14.81364575  -1.04556968  50.04249579], [118.48043513298035]
[-14.74007587  -1.38539364  50.09377875], [118.63277101516724]
[-14.65183856  -1.68490426  50.1567901 ], [118.78318214416504]
[-14.55741354  -1.97503245  50.2252337 ], [118.93498706817627]
[-14.46257318  -2.2606156   50.2964756 ], [119.0850465297699]
[-14.36117069  -2.5714951   50.36110315], [119.2349157333374]
[-14.25576386  -2.89457002  50.42681464], [119.38501262664795]
[-14.15186165  -3.18192898  50.49640391], [119.53842997550964]
[-14.04703088  -3.45452827  50.56577901], [119.69394874572754]
[-13.94567248  -3.72608159  50.64129915], [119.84735822677612]
[-13.85177211  -3.96261164  50.715855  ], [120.00065875053406]
[-13.7519855   -4.19301907  50.79043506], [120.15465426445007]
[-13.65300468  -4.39914728  50.86897444], [120.3432285785675]
[-13.52595075  -4.62393373  50.93369072], [120.49753260612488]
[-13.40884139  -4.82106294  51.00781203], [120.67863702774048]
[-13.23734497  -5.02644022  51.10545365], [120.83258318901062]
[-13.07783536  -5.20117351  51.18318421], [120.98646855354309]
[-12.90496066  -5.3997872   51.26825134], [121.14009881019592]
[-12.79823031  -5.52961236  51.31899695], [121.29377126693726]
[-12.66825807  -5.70408844  51.37709442], [121.44780492782593]
[-12.55286757  -5.86416485  51.42333637], [121.60181999206543]
[-12.42879944  -6.01653019  51.47891447], [121.75550746917725]
[-12.29221398  -6.20805262  51.53355564], [121.9098551273346]
[-12.07998969  -6.36757522  51.61644032], [122.06052660942078]
[-11.90972537  -6.582022    51.65761795], [122.21265387535095]
[-11.74263132  -6.75909694  51.70831979], [122.3652925491333]
[-11.57822751  -6.90083808  51.77114158], [122.51650357246399]
[-11.39960936  -7.06801789  51.82818991], [122.66603946685791]
[-11.23149677  -7.20931594  51.88457047], [122.81786155700684]
[-11.05033569  -7.36655277  51.93981658], [122.96859622001648]
[-10.86992664  -7.49447192  52.00781676], [123.11865401268005]
[-10.69085237  -7.59504308  52.07861843], [123.2678382396698]
[-10.51312748  -7.72507758  52.12924927], [123.42176342010498]
[-10.33627836  -7.79121571  52.19314274], [123.5738480091095]
[-10.18860645  -7.82837293  52.25913782], [123.72399878501892]
[-10.01918828  -7.89616316  52.32247979], [123.87289023399353]
[-9.87925685 -7.95347161 52.35756389], [124.02357816696167]
[-9.71351552 -8.04747393 52.41034165], [124.17359900474548]
[-9.54704713 -8.15069568 52.42771072], [124.32358121871948]
[-9.36427501 -8.27605709 52.46353962], [124.47419357299805]
[-9.18745566 -8.35888082 52.51042142], [124.64358067512512]
[-8.99603035 -8.460874   52.55674909], [124.7991795539856]
[-8.81112793 -8.54981346 52.59970993], [124.95237565040588]
[-8.6428949  -8.54844098 52.67065709], [125.11824440956116]
[-8.48681889 -8.61717395 52.67886233], [125.2806248664856]
[-8.33410762 -8.63153472 52.7157654 ], [125.44762754440308]
[-8.16074252 -8.6898441  52.73571838], [125.60644936561584]
[-7.96666851 -8.76337501 52.76093925], [125.77008414268494]
[-7.75844703 -8.85191335 52.7868851 ], [125.94443416595459]
[-7.5369196  -8.95236309 52.81012717], [126.1326014995575]
[-7.34363197 -9.00355384 52.83834584], [126.31667160987854]
[-7.19209426 -9.07832578 52.8456421 ], [126.47992610931396]
[-7.03909523 -9.12194225 52.87640212], [126.63588047027588]
[-6.86990855 -9.18251333 52.89739317], [126.80172300338745]
[-6.71661543 -9.24193187 52.88557562], [126.95775938034058]
[-6.56327212 -9.31421176 52.87989698], [127.11082005500793]
