[1.11022302e-14 0.00000000e+00 5.00000000e+01], [16.720609664916992]
[1.49944319e-14 1.19719783e-14 5.00000000e+01], [17.973215579986572]
[ 7.37197178e-02 -1.18789966e-03  5.00419045e+01], [18.131190538406372]
[ 1.93860817e-01 -3.40821603e-03  5.00861034e+01], [18.281723260879517]
[ 3.60877751e-01 -5.69096987e-03  5.01386003e+01], [18.430305242538452]
[ 5.72245968e-01 -8.04986301e-03  5.01978611e+01], [18.57738995552063]
[ 8.31498527e-01 -9.49736384e-03  5.02660905e+01], [18.74639892578125]
[ 1.13776225e+00 -1.00277373e-02  5.03409724e+01], [18.894428491592407]
[ 1.49038975e+00 -1.16300673e-02  5.04214463e+01], [19.043636560440063]
[1.82088588e+00 3.06268786e-02 5.04700616e+01], [19.212928533554077]
[ 2.18565222  0.07166509 50.53898895], [19.361324071884155]
[ 2.57359531  0.09780347 50.60623677], [19.512242317199707]
[ 2.99632249  0.13463741 50.67949071], [19.661038637161255]
[ 3.3989506   0.143      50.72565347], [19.811124801635742]
[ 3.82877838  0.17649591 50.78699327], [19.960588216781616]
[ 4.22658524  0.19895102 50.81935694], [20.111412286758423]
[ 4.65698286  0.24399513 50.87320267], [20.261102437973022]
[ 5.11179016  0.2979317  50.92526463], [20.4091317653656]
[ 5.60841838  0.37328428 50.98368822], [20.557753562927246]
[ 6.10754797  0.43880231 51.02301889], [20.708930015563965]
[ 6.61734435  0.49119254 51.05844784], [20.858099222183228]
[ 7.12161944  0.57414919 51.08125101], [21.011375665664673]
[ 7.6417234   0.64306362 51.10523016], [21.16768527030945]
[ 8.14405212  0.67944101 51.11034157], [21.31557273864746]
[ 8.64694402  0.78018386 51.11337522], [21.462745904922485]
[ 9.10472607  0.81899481 51.09046613], [21.612653255462646]
[ 9.52371115  0.95459354 51.0577203 ], [21.76038670539856]
[ 9.90456202  1.00568081 51.01648677], [21.90982675552368]
[10.30435163  1.11828766 50.99203337], [22.058003187179565]
[10.62115767  1.1923459  50.92956971], [22.210856676101685]
[10.97275507  1.30131945 50.89873989], [22.360870122909546]
[11.28469972  1.42781921 50.84641993], [22.600114822387695]
[11.56729175  1.62991361 50.78887051], [22.784323930740356]
[11.75910503  1.79693503 50.70686708], [22.935678005218506]
[11.92979877  1.98509492 50.64136865], [23.086068868637085]
[12.04782704  2.15860734 50.57033781], [23.263840436935425]
[12.15696506  2.36953511 50.51226707], [23.41572403907776]
[12.26926584  2.59719231 50.46136813], [23.56691837310791]
[12.37328453  2.84176469 50.4088452 ], [23.71870708465576]
[12.49104599  3.07804518 50.36382545], [23.869614601135254]
[12.60860205  3.30807019 50.3173266 ], [24.022671937942505]
[12.66460318  3.4855778  50.25697152], [24.207587003707886]
[12.71782999  3.70239636 50.20893171], [24.35646367073059]
[12.73189626  3.89879565 50.15526184], [24.511006355285645]
[12.74990651  4.10162509 50.11337384], [24.664870262145996]
[12.78134014  4.28960262 50.07881058], [24.817688703536987]
[12.81571491  4.49870435 50.04160142], [24.968056201934814]
[12.86017225  4.7182285  50.00479777], [25.119107961654663]
[12.89457651  4.93571823 49.96263535], [25.292576551437378]
[12.93309426  5.13995159 49.92457123], [25.53042197227478]
[12.93393906  5.31899642 49.87923574], [25.695348739624023]
[12.9366802   5.52102244 49.8404352 ], [25.883182048797607]
[12.94067224  5.73870973 49.80036362], [26.04311966896057]
[12.93897152  5.97218287 49.75569638], [26.200594186782837]
[12.90786555  6.15781567 49.71062493], [26.355199575424194]
[12.86253091  6.37384085 49.71656224], [26.50987219810486]
[12.82507349  6.59183537 49.75210984], [26.659480333328247]
[12.77475371  6.84232926 49.78971222], [26.81054377555847]
[12.71840944  7.06137531 49.82590357], [26.99595856666565]
[12.60774768  7.26788583 49.87929282], [27.151549816131592]
[12.44929859  7.47940946 49.94645252], [27.322226524353027]
[12.24471369  7.67685278 50.03346877], [27.47865128517151]
[12.08335625  7.74407901 50.08335388], [27.636014461517334]
[11.85928803  7.89736447 50.16599946], [27.788195610046387]
[11.67211836  8.03476923 50.22354521], [27.941980361938477]
[11.47606664  8.19226539 50.28367161], [28.096261501312256]
[11.31906438  8.35165027 50.31935264], [28.270323514938354]
[11.18197234  8.50605851 50.33712184], [28.42538332939148]
[11.02448508  8.62321087 50.3613631 ], [28.576422929763794]
[10.85712106  8.76160203 50.38420988], [28.726758003234863]
[10.67868261  8.90898054 50.40525845], [28.878506422042847]
[10.50767321  9.06509951 50.42598382], [29.02772569656372]
[10.33009921  9.22301189 50.43744893], [29.180150032043457]
[10.17554652  9.36252567 50.43643316], [29.331666707992554]
[ 9.95895528  9.47452183 50.45098066], [29.483694553375244]
[ 9.74461119  9.62013348 50.46059921], [29.63934063911438]
[ 9.51833985  9.77629993 50.47328936], [29.79729199409485]
[ 9.33489392  9.92408542 50.46463157], [29.951709747314453]
[ 9.13386109 10.10296637 50.45680556], [30.105582237243652]
[ 8.95611488 10.27077851 50.44021683], [30.258877754211426]
[ 8.75835324 10.46025943 50.42545864], [30.41255021095276]
[ 8.55042654 10.65608642 50.40775281], [30.56452250480652]
[ 8.32399692 10.86199843 50.39473479], [30.727813720703125]
[ 8.11284058 11.06290414 50.37202019], [30.875606775283813]
[ 7.90661651 11.24856407 50.35038131], [31.024800062179565]
[ 7.7001292  11.4406004  50.32277136], [31.17532467842102]
[ 7.48811744 11.61167118 50.30492022], [31.325416564941406]
[ 7.25837879 11.80238861 50.28667945], [31.475230932235718]
[ 7.04067225 11.97157135 50.27144214], [31.62540054321289]
[ 6.80176992 12.15786312 50.2569116 ], [31.796732902526855]
[ 6.56960243 12.32323428 50.23505008], [31.96610689163208]
[ 6.33278429 12.49320723 50.21106197], [32.11620759963989]
[ 6.10700982 12.64527901 50.19657976], [32.26500940322876]
[ 5.87024525 12.76649489 50.19023021], [32.43943119049072]
[ 5.64826493 12.87249811 50.17712527], [32.58828902244568]
[ 5.44068028 12.97756332 50.1703891 ], [32.737467527389526]
[ 5.20452716 13.09540193 50.16738593], [32.886083364486694]
[ 4.95771412 13.20089097 50.16651727], [33.03749489784241]
[ 4.74894257 13.28312201 50.15155838], [33.211987257003784]
[ 4.53284465 13.37500775 50.14573403], [33.36154580116272]
[ 4.31847859 13.46646055 50.13797567], [33.53659200668335]
[ 4.08569336 13.569097   50.13100674], [33.68615674972534]
[ 3.83933779 13.67452425 50.12776102], [33.83590316772461]
[ 3.58623268 13.7735476  50.12839236], [33.98602867126465]
[ 3.31825309 13.8679227  50.12814424], [34.13557410240173]
[ 3.08817732 13.92675198 50.11797119], [34.28623390197754]
[ 2.87871026 13.96929383 50.10875692], [34.43831396102905]
[ 2.64786186 14.02759183 50.10852993], [34.58868074417114]
[ 2.40169258 14.09175239 50.10356314], [34.7396719455719]
[ 2.19391606 14.14090384 50.08273739], [34.901212215423584]
[ 1.98927444 14.18485175 50.07881862], [35.054978132247925]
[ 1.82174749 14.18678878 50.08411558], [35.20785903930664]
[ 1.63332356 14.19898158 50.09278382], [35.35630440711975]
[ 1.43404237 14.21710119 50.09946179], [35.50528359413147]
[ 1.2187836  14.24384667 50.1050731 ], [35.65375065803528]
[ 1.03233201 14.25325801 50.10349329], [35.80753302574158]
[ 0.81365613 14.27131104 50.11199208], [35.9614896774292]
[ 0.60074432 14.28314254 50.11307107], [36.1459903717041]
[ 0.37047718 14.30116145 50.11397149], [36.32610297203064]
[ 0.14776131 14.32403714 50.10999358], [36.47493386268616]
[-0.06851945 14.35242568 50.10306226], [36.62446188926697]
[-0.30133105 14.37894964 50.09613176], [36.77368998527527]
[-0.50183337 14.389493   50.08665954], [36.925697803497314]
[-0.72798068 14.40531022 50.0797232 ], [37.07446503639221]
[-0.94379724 14.42037923 50.06146173], [37.22430920600891]
[-1.1723058  14.43623697 50.07213707], [37.37234926223755]
[-1.41252104 14.45501215 50.08949124], [37.52372074127197]
[-1.62438847 14.46405096 50.0942864 ], [37.69079327583313]
[-1.8357755  14.46368499 50.10027609], [37.8401358127594]
[-2.05862315 14.45867483 50.11043948], [37.98964786529541]
[-2.23511048 14.42889121 50.10285684], [38.13776087760925]
[-2.44574926 14.38593416 50.11062327], [38.29188680648804]
[-2.65610717 14.33536215 50.11799949], [38.452224016189575]
[-2.88168296 14.28012471 50.12958961], [38.63350868225098]
[-3.11887055 14.2257805  50.14360063], [38.78676247596741]
[-3.34677377 14.17671358 50.15417056], [38.97195363044739]
[-3.59232003 14.12406309 50.16681553], [39.12446713447571]
[-3.82924665 14.08218648 50.17733252], [39.27318334579468]
[-4.04997639 14.03030505 50.17948597], [39.42161464691162]
[-4.26753488 13.96912406 50.18117941], [39.571528911590576]
[-4.4444859  13.88684531 50.17186344], [39.72357153892517]
[-4.64333846 13.81565787 50.17722618], [39.873902559280396]
[-4.85968882 13.73739586 50.18208979], [40.0250289440155]
[-5.09056786 13.66070039 50.18868122], [40.17714738845825]
[-5.33667313 13.58496323 50.19543373], [40.328911542892456]
[-5.54387602 13.50024798 50.18990695], [40.48166227340698]
[-5.77005345 13.41751165 50.19193122], [40.632813930511475]
[-5.96092205 13.31500205 50.18162659], [40.784690618515015]
[-6.16814823 13.22412711 50.18245978], [40.935176849365234]
[-6.36577207 13.11579904 50.17515112], [41.08463215827942]
[-6.58624181 13.00585643 50.1739803 ], [41.238115310668945]
[-6.81966361 12.89438261 50.17213165], [41.39041709899902]
[-7.05492303 12.7961113  50.17081135], [41.54293704032898]
[-7.23775369 12.70949539 50.16089773], [41.69494438171387]
[-7.43121652 12.63206999 50.15627626], [41.84506177902222]
[-7.61621201 12.53757396 50.14389393], [41.996967792510986]
[-7.78019315 12.44977299 50.13319683], [42.14595937728882]
[-7.9625143  12.34750296 50.12241774], [42.30130314826965]
[-8.15540202 12.24316805 50.11274648], [42.45521378517151]
[-8.36070513 12.136405   50.1023291 ], [42.61327290534973]
[-8.51479511 12.02187432 50.08311163], [42.76272439956665]
[-8.68969449 11.91563772 50.07384176], [42.91320586204529]
[-8.85632044 11.82908245 50.06566135], [43.06194353103638]
[-9.0328008  11.74016153 50.05417807], [43.21438479423523]
[-9.19987738 11.63280165 50.03557853], [43.36275124549866]
[-9.37068605 11.52827396 50.02104893], [43.51345491409302]
[-9.53346926 11.41662527 50.00321659], [43.66257071495056]
[-9.71838914 11.29312667 49.98529309], [43.81249403953552]
[-9.88090208 11.16746067 49.96458799], [43.96133494377136]
[-10.04025789  11.0420236   49.94591461], [44.15185832977295]
[-10.18857236  10.91440363  49.92646614], [44.30141496658325]
[-10.35901495  10.77377714  49.90602962], [44.450748682022095]
[-10.51767215  10.65528783  49.89036117], [44.60103511810303]
[-10.68225958  10.53575514  49.87146114], [44.791051626205444]
[-10.86793527  10.39666049  49.84632645], [44.98229670524597]
[-11.02062513  10.27681362  49.82508289], [45.13220500946045]
[-11.1854339   10.14253736  49.79989486], [45.28609037399292]
[-11.3440735   10.02013651  49.77824073], [45.435224771499634]
[-11.52049393   9.8814209   49.75020412], [45.58721923828125]
[-11.68206444   9.76210527  49.73165939], [45.737420320510864]
[-11.79190099   9.63012402  49.77984931], [45.88821792602539]
[-11.9080845    9.48993475  49.83258155], [46.03798580169678]
[-12.03728876   9.33042445  49.88447209], [46.18881821632385]
[-12.1721818    9.16623907  49.93821073], [46.34073543548584]
[-12.27975544   8.98921367  50.0011914 ], [46.4916455745697]
[-12.34666975   8.80197698  50.08282116], [46.641475677490234]
[-12.38182597   8.59945608  50.17072987], [46.79081058502197]
[-12.38467435   8.53677868  50.23735835], [46.9390172958374]
[-12.32046974   8.39436682  50.33232057], [47.09346008300781]
[-12.27224008   8.24109354  50.42165171], [47.24556803703308]
[-12.28942832   8.00690722  50.50245539], [47.395551443099976]
[-12.30482281   7.81826737  50.57244322], [47.54409217834473]
[-12.32642445   7.65170793  50.63095632], [47.69431710243225]
[-12.35494502   7.48219377  50.68103703], [47.845274686813354]
[-12.35217579   7.28373824  50.73963912], [48.033108949661255]
[-12.36261994   7.15478972  50.77615135], [48.221630573272705]
[-12.38594061   6.98828002  50.81037303], [48.40415287017822]
[-12.37585443   6.82916978  50.85356129], [48.55299949645996]
[-12.37801972   6.6422423   50.89474024], [48.70394539833069]
[-12.29837271   6.4334488   50.9603381 ], [48.8634135723114]
[-12.24821195   6.26225129  51.01023654], [49.01594638824463]
[-12.21815521   6.06265718  51.05193966], [49.17058873176575]
[-12.19587728   5.8496561   51.09183862], [49.321874141693115]
[-12.17713816   5.63299338  51.12902144], [49.507078886032104]
[-12.16254933   5.40844519  51.16430802], [49.66035723686218]
[-12.14876386   5.18285529  51.19864031], [49.81246280670166]
[-12.14243643   4.94808788  51.23004438], [49.964599609375]
[-12.14026018   4.70903943  51.2576591 ], [50.13909363746643]
[-12.14381217   4.45655306  51.28522185], [50.290334939956665]
[-12.14381099   4.20051445  51.3138206 ], [50.44015622138977]
[-12.11590422   3.97262999  51.35112997], [50.591569900512695]
[-12.09268116   3.74876787  51.38709448], [50.74104309082031]
[-12.06172119   3.51698675  51.42983881], [50.89058971405029]
[-12.02787684   3.30022084  51.4678293 ], [51.04351592063904]
[-12.0055502    3.05437758  51.50564382], [51.19396185874939]
[-11.98655077   2.80549493  51.54075688], [51.34375]
[-11.97048579   2.55535203  51.57202069], [51.49268436431885]
[-11.94704092   2.3417419   51.60043584], [51.64226174354553]
[-11.92368938   2.10961627  51.63053757], [51.79433584213257]
[-11.90816385   1.85218439  51.6606594 ], [51.94634246826172]
[-11.89414419   1.59930938  51.68801874], [52.142521381378174]
[-11.87818752   1.3418093   51.7162794 ], [52.29448866844177]
[-11.85398129   1.08765814  51.74746486], [52.44910931587219]
[-11.83009029   0.81983803  51.7804147 ], [52.60091257095337]
[-11.7961909    0.56430411  51.81826708], [52.75379419326782]
[-11.75700072   0.3378811   51.8522641 ], [52.905781269073486]
[-11.72502344   0.12853485  51.88025627], [53.058448791503906]
[-11.69576189  -0.11352301  51.91094142], [53.21065282821655]
[-11.66923925  -0.29837863  51.93433153], [53.36141490936279]
[-11.64355549  -0.52808927  51.96098753], [53.545300006866455]
[-11.61902945  -0.69756072  51.97871585], [53.6969575881958]
[-11.60371143  -0.91885621  51.98815052], [53.84857678413391]
[-11.58936617  -1.07684966  52.01131277], [53.999212980270386]
[-11.52285779  -1.23979298  52.03867507], [54.15123009681702]
[-11.43996892  -1.39040602  52.0690395 ], [54.30421781539917]
[-11.34590038  -1.55062222  52.10404214], [54.45517945289612]
[-11.24937721  -1.7392905   52.14100803], [54.6080002784729]
[-11.15401757  -1.90047717  52.18010815], [54.75993728637695]
[-11.1025027   -2.12914436  52.18610677], [54.913018226623535]
[-11.02926999  -2.26628     52.21510283], [55.06475901603699]
[-10.98806392  -2.47702368  52.21508931], [55.218358516693115]
[-10.91371893  -2.61902933  52.23368906], [55.36794424057007]
[-10.83238523  -2.79839263  52.26067602], [55.52079772949219]
[-10.74937955  -2.93996274  52.28369865], [55.673826456069946]
[-10.66170154  -3.09867567  52.30995585], [55.82629179954529]
[-10.58141993  -3.19454774  52.33670117], [55.97878432273865]
[-10.49575042  -3.31943298  52.36182904], [56.13127303123474]
[-10.39785677  -3.47591302  52.38553995], [56.281108379364014]
[-10.29621861  -3.65887859  52.40742337], [56.431880474090576]
[-10.21827314  -3.77055811  52.43613723], [56.582833766937256]
[-10.12258369  -3.90795048  52.46060742], [56.73207473754883]
[-10.02345134  -4.02375139  52.47525421], [56.8828501701355]
[-9.92373795 -4.17762619 52.49582085], [57.03398537635803]
[-9.8266188  -4.31355652 52.51605615], [57.21662664413452]
[-9.71833567 -4.48534853 52.54153551], [57.36593961715698]
[-9.6029908  -4.66785108 52.56651609], [57.518335580825806]
[-9.50392725 -4.79017794 52.59633857], [57.66794443130493]
[-9.38880758 -4.94124564 52.61715435], [57.81877899169922]
[-9.28850563 -5.01778325 52.64521339], [57.96794629096985]
[-9.18026898 -5.1017172  52.67154813], [58.11701202392578]
[-9.06723003 -5.19559581 52.69721405], [58.266894817352295]
[-8.98721945 -5.34529146 52.68168306], [58.41717505455017]
[-8.89938295 -5.51628964 52.67497298], [58.60021233558655]
[-8.78969484 -5.70367004 52.6710539 ], [58.75036334991455]
[-8.6606774  -5.87723801 52.6880692 ], [58.900057792663574]
[-8.52313606 -6.06597657 52.70388682], [59.0521559715271]
[-8.40750484 -6.22059903 52.73106403], [59.204145431518555]
[-8.3156174  -6.31044639 52.7499913 ], [59.35348844528198]
[-8.21904601 -6.42597301 52.76463534], [59.501896381378174]
[-8.13176966 -6.4848187  52.78755832], [59.65165591239929]
[-8.02835266 -6.56188874 52.80536936], [59.80345439910889]
[-7.91271344 -6.65959716 52.82429981], [59.952149629592896]
[-7.82974247 -6.80497283 52.7982817 ], [60.10224008560181]
[-7.76448693 -6.85770987 52.79401239], [60.255940675735474]
[-7.67779013 -6.95379991 52.78688749], [60.40705871582031]
[-7.56971468 -7.06041635 52.79537313], [60.568397521972656]
[-7.43700284 -7.18458113 52.80194178], [60.720723390579224]
[-7.29036334 -7.32007313 52.80765104], [60.87260723114014]
[-7.15319763 -7.40967526 52.82963299], [61.022801637649536]
[-6.98842153 -7.50943923 52.84588467], [61.173956871032715]
[-6.90882936 -7.52325425 52.84638183], [61.323716163635254]
[-6.81931942 -7.55643692 52.85649569], [61.473981857299805]
[-6.7499487  -7.63689952 52.82415445], [61.62445950508118]
[-6.6657339  -7.71869999 52.80518679], [61.7737135887146]
[-6.55668592 -7.83180971 52.79540506], [61.96066665649414]
[-6.46150698 -7.93395164 52.79513111], [62.11111402511597]
[-6.34603847 -8.03827951 52.78557821], [62.261048793792725]
[-6.21307755 -8.15221292 52.77877174], [62.517714500427246]
[-6.08323257 -8.21452539 52.79037554], [62.66875910758972]
[-5.92426235 -8.30896951 52.80141088], [62.82215070724487]
[-5.75420164 -8.41401634 52.81364447], [63.00476121902466]
[-5.62357247 -8.50463525 52.81536137], [63.15488791465759]
[-5.50880372 -8.54446622 52.83725159], [63.33708429336548]
[-5.36322969 -8.6044753  52.84571283], [63.4888653755188]
[-5.26850172 -8.60793574 52.86875805], [63.63889241218567]
[-5.19034533 -8.67204209 52.84453832], [63.78958702087402]
[-5.09369885 -8.7296342  52.83611745], [63.98202610015869]
[-4.97350851 -8.80068601 52.83212397], [64.13255000114441]
[-4.83567961 -8.87696395 52.8273745 ], [64.28317975997925]
[-4.67989867 -8.96006182 52.82536412], [64.43381261825562]
[-4.50994812 -9.06055959 52.8288097 ], [64.58646821975708]
[-4.35760787 -9.14631401 52.83432029], [64.75137543678284]
[-4.24449822 -9.1603495  52.84798837], [64.90172123908997]
[-4.13654157 -9.20536534 52.83624544], [65.05463147163391]
[-4.05556556 -9.17032355 52.86523862], [65.20941615104675]
[-3.93462712 -9.17440537 52.88110911], [65.36096835136414]
[-3.78798464 -9.19479257 52.89646495], [65.51531314849854]
[-3.62035173 -9.23139443 52.89669332], [65.66545248031616]
[-3.44941861 -9.30262495 52.88988235], [65.81776428222656]
[-3.29185334 -9.32115605 52.9083398 ], [65.96890139579773]
[-3.12262275 -9.36010698 52.91391924], [66.11831617355347]
[-2.99866596 -9.39296868 52.90556229], [66.26769876480103]
[-2.89839721 -9.33302928 52.9461058 ], [66.41829347610474]
[-2.77623028 -9.30556998 52.96976397], [66.56827449798584]
[-2.65929496 -9.28875739 52.97964713], [66.72118020057678]
[-2.54829546 -9.29535295 52.96665237], [66.86955285072327]
[-2.40815423 -9.31953282 52.96293648], [67.02142405509949]
[-2.26197185 -9.32437226 52.96247196], [67.17531824111938]
[-2.08555204 -9.34048889 52.95886855], [67.32543349266052]
[-1.89488884 -9.37322367 52.96168149], [67.47435188293457]
[-1.70584683 -9.39275613 52.94982479], [67.62568020820618]
[-1.50223311 -9.41035379 52.94428817], [67.77578496932983]
[-1.32709139 -9.47824919 52.88642159], [67.92631101608276]
[-1.2348481  -9.45633831 52.86265974], [68.11115598678589]
[-1.11561948 -9.44859445 52.84346753], [68.26313972473145]
[-1.01793544 -9.43862565 52.81812986], [68.41330099105835]
[-0.88958707 -9.43498191 52.78414081], [68.56254386901855]
[-0.74878106 -9.45218674 52.74520283], [68.71338367462158]
[-0.58039556 -9.48982349 52.69946706], [68.86310863494873]
[-0.39644821 -9.52366052 52.65292696], [69.01394438743591]
[-0.2147738  -9.58222429 52.60206087], [69.16406679153442]
[-5.12602737e-02 -9.65831328e+00  5.25369637e+01], [69.31473016738892]
[ 0.09314067 -9.73041239 52.47650476], [69.46423506736755]
[ 0.25625916 -9.79328818 52.42068741], [69.61593461036682]
[ 0.44488484 -9.85458334 52.36663228], [69.7659239768982]
[ 0.58921828 -9.89090702 52.32421582], [69.91787457466125]
[ 0.7652541  -9.90568824 52.30142697], [70.10966897010803]
[ 0.9247471  -9.90486703 52.28456317], [70.26066517829895]
[ 1.0250187  -9.88182248 52.28399471], [70.41174626350403]
[ 1.17380224 -9.87033497 52.27255466], [70.56266593933105]
[ 1.34564836 -9.86489432 52.26510737], [70.71575284004211]
[ 1.54072933 -9.87230888 52.24436056], [70.86479806900024]
[ 1.72311766 -9.90125604 52.20558043], [71.01480221748352]
[ 1.89880573 -9.93297705 52.1731471 ], [71.16404271125793]
[ 2.08962125 -9.96446608 52.13587113], [71.31451439857483]
[ 2.25251409 -9.98427841 52.10731805], [71.46322178840637]
[ 2.37052703 -9.90901268 52.12427712], [71.6139121055603]
[ 2.50146313 -9.84959462 52.12900241], [71.76363754272461]
[ 2.66597908 -9.80143338 52.11966573], [71.91313338279724]
[ 2.85092392 -9.74607662 52.11333051], [72.06866383552551]
[ 3.07125466 -9.70523928 52.09721015], [72.22056460380554]
[ 3.25206733 -9.6805305  52.07750255], [72.37034678459167]
[ 3.45427187 -9.64848106 52.05647625], [72.52287030220032]
[ 3.67050456 -9.61095662 52.03737508], [72.67483401298523]
[ 3.89373446 -9.56455496 52.01919674], [72.82856130599976]
[ 4.06900629 -9.52290063 51.99894639], [72.97909212112427]
[ 4.23914467 -9.46947456 51.98796112], [73.13089752197266]
[ 4.40882464 -9.39123516 51.98581109], [73.36447620391846]
[ 4.59980543 -9.31670283 51.98231359], [73.51756572723389]
[ 4.78197706 -9.22755807 51.9867627 ], [73.69870042800903]
[ 4.93048087 -9.16361235 51.97495363], [73.84754586219788]
[ 5.08490109 -9.05626739 51.97958351], [73.99713325500488]
[ 5.21608147 -8.97747126 51.97538925], [74.14698553085327]
[ 5.35779558 -8.87958778 51.97699821], [74.29657864570618]
[ 5.52170268 -8.77459191 51.9766295 ], [74.4872817993164]
[ 5.70261399 -8.65604198 51.97818618], [74.6410744190216]
[ 5.92366509 -8.63585258 51.91601029], [74.79055213928223]
[ 6.13140118 -8.58215493 51.87366852], [74.94113254547119]
[ 6.34361738 -8.49804809 51.84715444], [75.09162878990173]
[ 6.57716242 -8.40331609 51.81571353], [75.2441771030426]
[ 6.78683538 -8.29845684 51.79590885], [75.39622735977173]
[ 6.97166079 -8.21418129 51.76922634], [75.54753279685974]
[ 7.18416923 -8.10919287 51.74051762], [75.69831848144531]
[ 7.41993046 -7.98732664 51.71457784], [75.85003018379211]
[ 7.62495715 -7.85620224 51.69844987], [76.00576066970825]
[ 7.84200247 -7.70749367 51.68295681], [76.1574010848999]
[ 8.07469426 -7.5490038  51.66642155], [76.31004762649536]
[ 8.2392707  -7.42144906 51.64475001], [76.46386051177979]
[ 8.43806862 -7.27626556 51.62041997], [76.61903047561646]
[ 8.63477661 -7.14355348 51.59245804], [76.76905083656311]
[ 8.85009854 -7.01474181 51.56214649], [76.91857075691223]
[ 9.05383821 -6.87876268 51.53875341], [77.06814193725586]
[ 9.20210885 -6.76536789 51.51476992], [77.2191641330719]
[ 9.3802553  -6.62521834 51.48740091], [77.36879277229309]
[ 9.46026232 -6.505255   51.48030787], [77.60238599777222]
[ 9.57259169 -6.36892603 51.46646665], [77.81719398498535]
[ 9.70971157 -6.23932948 51.44691272], [77.97001457214355]
[ 9.87040085 -6.09308373 51.42536682], [78.2091543674469]
[10.05331903 -5.9240639  51.40556801], [78.36020398139954]
[10.23835395 -5.76197087 51.3828104 ], [78.51439881324768]
[10.39542694 -5.62444908 51.35927772], [78.66598081588745]
[10.55712919 -5.47633801 51.33271344], [78.81830477714539]
[10.63427554 -5.34547012 51.32998751], [78.9690477848053]
[10.72437661 -5.19556657 51.3246656 ], [79.15424823760986]
[10.76628359 -5.08360644 51.32103802], [79.30597257614136]
[10.82943522 -4.93325747 51.31422319], [79.46010780334473]
[10.8973716  -4.7646529  51.30852365], [79.67824125289917]
[10.99170597 -4.5992878  51.29753213], [79.8296468257904]
[11.12111932 -4.42902379 51.27862098], [79.97926831245422]
[11.26045706 -4.23779139 51.25701226], [80.12863087654114]
[11.34869144 -4.10918252 51.23765979], [80.27837228775024]
[11.42736321 -3.95498927 51.22305031], [80.42767906188965]
[11.53175189 -3.79637491 51.20502406], [80.60859870910645]
[11.64274074 -3.61413588 51.18626752], [80.75814747810364]
[11.7648915  -3.43208051 51.16527491], [80.9081802368164]
[11.8859926  -3.2380176  51.14532857], [81.07127285003662]
[11.94889295 -3.07372769 51.14032842], [81.25243663787842]
[12.02407523 -2.88608649 51.13100072], [81.43234944343567]
[12.08123535 -2.73605981 51.12007907], [81.59926247596741]
[12.15593173 -2.58137038 51.1011894 ], [81.76528358459473]
[12.23075661 -2.40220756 51.08344431], [81.91716694831848]
[12.32331344 -2.21637836 51.05957817], [82.06812405586243]
[12.42532658 -2.02571624 51.03091096], [82.22095227241516]
[12.44663339 -1.87195617 51.0309841 ], [82.40247464179993]
[12.48566458 -1.69706866 51.02542625], [82.55509185791016]
[12.49623713 -1.52818225 51.0235016 ], [82.73720097541809]
[12.53273123 -1.34407866 51.01138764], [82.88992071151733]
[12.58768777 -1.15078193 50.99534114], [83.03921103477478]
[12.65182594 -0.93419689 50.97825425], [83.19022011756897]
[12.72178337 -0.70327228 50.9610004 ], [83.33983302116394]
[12.74058959 -0.49577083 50.9550936 ], [83.49001717567444]
[12.77750672 -0.26168501 50.94270961], [83.6396336555481]
[12.76253772 -0.06197516 50.9400221 ], [83.79702234268188]
[12.77094203  0.16345688 50.92696576], [83.95782279968262]
[12.78124404  0.3894586  50.91592319], [84.18913626670837]
[12.82324373  0.60027645 50.88724759], [84.34289264678955]
[12.82574347  0.78199777 50.86900717], [84.516357421875]
[12.84114981  0.97151551 50.84440591], [84.66488838195801]
[12.86410319  1.17369621 50.8150247 ], [84.81669902801514]
[12.89127793  1.38459031 50.78079047], [84.96996998786926]
[12.88223907  1.60221146 50.76508515], [85.12071394920349]
[12.87462849  1.83552863 50.74802815], [85.27290034294128]
[12.80128767  2.01177424 50.75699675], [85.42541408538818]
[12.73568424  2.20686259 50.75771264], [85.57868027687073]
[12.71429166  2.38960158 50.73697852], [85.73115420341492]
[12.69572635  2.58105311 50.7173637 ], [85.88281083106995]
[12.6865919   2.79001085 50.69545483], [86.03423595428467]
[12.67864763  3.02246065 50.67155717], [86.18730854988098]
[12.71248619  3.20062553 50.63287543], [86.33980584144592]
[12.74385117  3.3884826  50.59248729], [86.49247860908508]
[12.73945695  3.56870543 50.56396276], [86.64421200752258]
[12.7329035   3.77823073 50.53125952], [86.79407668113708]
[12.72875794  3.99496501 50.49665102], [86.94639182090759]
[12.72460145  4.22491306 50.46191289], [87.09649229049683]
[12.7181112   4.46398435 50.42614494], [87.24624109268188]
[12.6851158   4.62046351 50.40460625], [87.39545345306396]
[12.63899921  4.80001569 50.38653752], [87.54501152038574]
[12.59337043  4.99819852 50.367315  ], [87.69418931007385]
[12.54013659  5.1862346  50.3455726 ], [87.84800434112549]
[12.48655022  5.38883949 50.32824074], [87.99783039093018]
[12.4443942   5.5919459  50.30690485], [88.14665007591248]
[12.39041156  5.78155945 50.29063271], [88.29801487922668]
[12.34420228  5.97747986 50.26830765], [88.45033049583435]
[12.27450997  6.15362803 50.25605661], [88.60091018676758]
[12.20987108  6.32483472 50.24257041], [88.8242883682251]
[12.1539432   6.50390053 50.22317858], [89.00871920585632]
[12.08243581  6.69662054 50.20676111], [89.15818738937378]
[12.0010221   6.89785161 50.19222591], [89.33937287330627]
[11.92033406  7.11147476 50.17467217], [89.52043652534485]
[11.85103331  7.30346522 50.15429327], [89.67054152488708]
[11.76572401  7.5125264  50.13862808], [89.82094740867615]
[11.63540075  7.65972025 50.14422572], [89.97298955917358]
[11.49651354  7.82572056 50.14559043], [90.15864753723145]
[11.34450701  8.02494327 50.14952112], [90.32844281196594]
[11.23212063  8.21551811 50.13564293], [90.47766017913818]
[11.11413267  8.42532382 50.11800688], [90.6623785495758]
[10.9792453   8.64598307 50.10320624], [90.81317281723022]
[10.84214078  8.87738642 50.08627792], [90.9621365070343]
[10.70750164  9.1044112  50.06741835], [91.1134774684906]
[10.55904848  9.34680282 50.04753126], [91.26307606697083]
[10.39845049  9.58929344 50.03146259], [91.41312265396118]
[10.25052063  9.79801218 50.00988456], [91.56576418876648]
[10.08386443 10.01052992 49.990276  ], [91.71860456466675]
[ 9.90712734 10.2393452  49.97034158], [91.86901497840881]
[ 9.75107276 10.45850078 49.94168529], [92.019775390625]
[ 9.57935588 10.69062003 49.91583354], [92.16991090774536]
[ 9.3720774  10.85789493 49.90369633], [92.31916403770447]
[ 9.16748278 11.04556461 49.88684143], [92.46842455863953]
[ 8.99343132 11.20564794 49.86064163], [92.61878156661987]
[ 8.80857679 11.3766768  49.83620684], [92.79719066619873]
[ 8.66670144 11.52851151 49.79815049], [92.95671796798706]
[ 8.52753844 11.68285242 49.75911498], [93.10785865783691]
[ 8.37785675 11.85511439 49.72067853], [93.38275146484375]
[ 8.218475   12.04112453 49.68301306], [93.5490345954895]
[ 8.07509447 12.19783224 49.65032496], [93.69906497001648]
[ 7.91155915 12.35993121 49.61860702], [93.85032296180725]
[ 7.74856965 12.52096313 49.58671008], [94.0008385181427]
[ 7.58782558 12.68962342 49.55646499], [94.15241527557373]
[ 7.43516548 12.84379256 49.52729927], [94.32920551300049]
[ 7.31236299 12.98433321 49.48850017], [94.48318934440613]
[ 7.19212406 13.12162218 49.45533934], [94.63467192649841]
[ 7.05434599 13.27421779 49.42572445], [94.78399348258972]
[ 6.90391652 13.42801643 49.39711731], [94.93287897109985]
[ 6.76156768 13.5549039  49.37266096], [95.11685991287231]
[ 6.59806089 13.69227831 49.35182588], [95.27293467521667]
[ 6.43927806 13.79910675 49.33432403], [95.42366456985474]
[ 6.26486943 13.92960273 49.32007704], [95.57322072982788]
[ 6.07181639 14.06465465 49.30591512], [95.7291955947876]
[ 5.89994671 14.11464761 49.30560607], [95.91179728507996]
[ 5.73474464 14.16530683 49.31517759], [96.08106803894043]
[ 5.55229613 14.22434927 49.32756063], [96.23305773735046]
[ 5.36144393 14.28846912 49.34364791], [96.38453125953674]
[ 5.15907281 14.35452835 49.35884984], [96.53683376312256]
[ 4.94301961 14.43014479 49.37011526], [96.70449995994568]
[ 4.71310118 14.51987989 49.3792508 ], [96.85396647453308]
[ 4.48412138 14.62540267 49.38328568], [97.00356316566467]
[ 4.23899723 14.73450181 49.38739294], [97.15284204483032]
[ 3.98280892 14.84718143 49.39306358], [97.30300259590149]
[ 3.72774685 14.94832757 49.42536644], [97.45836973190308]
[ 3.45097411 15.00319462 49.4619554 ], [97.63846516609192]
[ 3.17951377 15.06289764 49.50330833], [97.78915095329285]
[ 2.87678984 15.10896935 49.55326338], [97.938711643219]
[ 2.57880274 15.14890175 49.59762391], [98.08818578720093]
[ 2.29577174 15.18642792 49.63417667], [98.23833870887756]
[ 2.0236956  15.20185485 49.6620523 ], [98.38742589950562]
[ 1.7743176  15.20528692 49.68305661], [98.53765296936035]
[ 1.53594631 15.19712375 49.70230349], [98.71811866760254]
[ 1.30869455 15.17686026 49.71942486], [98.8958637714386]
[ 1.05504871 15.16224633 49.75169495], [99.05071330070496]
[ 0.80600891 15.15437181 49.78085187], [99.20658326148987]
[ 0.54592716 15.14211095 49.81102049], [99.3555817604065]
[ 0.31502907 15.12103627 49.82848091], [99.56618976593018]
[ 0.05732067 15.10244625 49.85879794], [99.7156891822815]
[-0.1834168  15.07468508 49.87912408], [99.86686682701111]
[-0.43909656 15.03744564 49.90434812], [100.01689791679382]
[-0.65729266 14.98714702 49.91567434], [100.16702961921692]
[-0.86945545 14.940809   49.93127014], [100.3184084892273]
[-1.10312519 14.89504516 49.95451847], [100.46968698501587]
[-1.34992407 14.85285917 49.98008039], [100.62006306648254]
[-1.5695099  14.78919796 49.99082134], [100.77036905288696]
[-1.80865053 14.73357653 50.0138907 ], [100.91970467567444]
[-2.00902218 14.66605601 50.0212535 ], [101.06931018829346]
[-2.22787073 14.6104923  50.040636  ], [101.22013711929321]
[-2.4380968  14.54551592 50.05286299], [101.36959218978882]
[-2.66971693 14.4815366  50.07217128], [101.51962208747864]
[-2.91448029 14.42067393 50.09276649], [101.66975378990173]
[-3.17456216 14.36210082 50.11396542], [101.81984567642212]
[-3.42027948 14.30610543 50.12822812], [101.97273254394531]
[-3.66359841 14.24481076 50.13948321], [102.12321543693542]
[-3.86973196 14.17030762 50.13951504], [102.27334260940552]
[-4.0951164  14.10254539 50.15007699], [102.4238748550415]
[-4.31000017 14.02692033 50.15422332], [102.57327079772949]
[-4.514325   13.94964393 50.15706988], [102.75854444503784]
[-4.7402488  13.86647285 50.16421883], [102.90862560272217]
[-4.97972571 13.78237942 50.17230414], [103.06215333938599]
[-5.23450902 13.69741522 50.18050096], [103.21433663368225]
[-5.44815368 13.60202585 50.17587884], [103.36381673812866]
[-5.68220296 13.51388357 50.18056241], [103.55150628089905]
[-5.88033953 13.40584263 50.17168044], [103.73220586776733]
[-6.09855119 13.30118811 50.17260015], [103.88319230079651]
[-6.30482957 13.19669072 50.16963499], [104.03642082214355]
[-6.52619712 13.08351796 50.16725986], [104.22181177139282]
[-6.76498446 12.96696956 50.1660291 ], [104.40833950042725]
[-7.01419139 12.85131833 50.16385837], [104.559396982193]
[-7.22742235 12.73282857 50.15313518], [104.76777911186218]
[-7.45141748 12.60761423 50.14486507], [104.91835761070251]
[-7.62730159 12.49970764 50.13427854], [105.06869149208069]
[-7.79803642 12.40326416 50.12711106], [105.22049069404602]
[-7.97337038 12.30156734 50.11802986], [105.36976957321167]
[-8.17441237 12.1903258  50.10926104], [105.51944613456726]
[-8.3663758  12.10407506 50.10346869], [105.66910004615784]
[-8.51599917 11.99797769 50.08427322], [105.81974124908447]
[-8.68206187 11.89688752 50.07462015], [105.96938443183899]
[-8.87016869 11.78456022 50.06232934], [106.12201690673828]
[-9.07152735 11.66809957 50.04865595], [106.27503371238708]
[-9.2846613  11.54739471 50.03278693], [106.42746043205261]
[-9.44434938 11.40707601 50.00611073], [106.58104825019836]
[-9.62249235 11.26986636 49.98978424], [106.73589825630188]
[-9.78541431 11.12765359 49.96971526], [106.88951182365417]
[-9.96784532 10.97440276 49.94988193], [107.04058527946472]
[-10.10381649  10.8397296   49.93195361], [107.20077967643738]
[-10.22839961  10.73326264  49.92255119], [107.35063409805298]
[-10.35663676  10.62693204  49.91005175], [107.5019326210022]
[-10.49012086  10.52542837  49.89771929], [107.6525526046753]
[-10.64566885  10.40570068  49.87911594], [107.80251979827881]
[-10.80809961  10.28235129  49.85919251], [107.95495128631592]
[-10.98122361  10.15081144  49.83609486], [108.10527110099792]
[-11.16899142  10.01057241  49.80990698], [108.25457525253296]
[-11.36117903   9.8698008   49.78206173], [108.40556693077087]
[-11.48381985   9.7384114   49.75410494], [108.5971326828003]
[-11.60413002   9.62657933  49.73766934], [108.78019309043884]
[-11.7241779    9.51305989  49.7184057 ], [108.93120741844177]
[-11.86188941   9.38641154  49.69493389], [109.08147597312927]
[-12.00761188   9.25258591  49.66880326], [109.26641392707825]
[-12.16555262   9.10827896  49.638937  ], [109.41727066040039]
[-12.32253878   8.96577067  49.60903379], [109.60432600975037]
[-12.45466659   8.86073845  49.58978916], [109.78441548347473]
[-12.53717396   8.7457759   49.56423235], [109.93683052062988]
[-12.61397442   8.62797856  49.54488092], [110.08869314193726]
[-12.71018188   8.4968851   49.52314228], [110.23878169059753]
[-12.81086565   8.35656076  49.49845755], [110.40980052947998]
[-12.90226529   8.22202191  49.47669613], [110.56120324134827]
[-13.00700936   8.07462295  49.45047777], [110.71305322647095]
[-13.09006053   7.95114226  49.43304666], [110.86549639701843]
[-13.18366131   7.81688386  49.41006805], [111.04422616958618]
[-13.27075372   7.68452482  49.38790868], [111.19761729240417]
[-13.37172715   7.51130268  49.42243884], [111.3486020565033]
[-13.47546587   7.31142776  49.50772806], [111.49888253211975]
[-13.58743495   7.09877194  49.59308299], [111.64895296096802]
[-13.70237488   6.87512929  49.68065014], [111.80004405975342]
[-13.82288554   6.64028562  49.76924275], [111.94990611076355]
[-13.92074479   6.39906783  49.86693783], [112.10382008552551]
[-13.93211836   6.32785376  49.95527813], [112.25407433509827]
[-13.90239817   6.14392271  50.06099634], [112.40400838851929]
[-13.84626481   5.95160156  50.17299621], [112.55555748939514]
[-13.7528204    5.76125281  50.3034968 ], [112.70710253715515]
[-13.64638786   5.64767869  50.40615284], [112.85736227035522]
[-13.54399201   5.49676901  50.50509686], [113.00683927536011]
[-13.45838107   5.33671565  50.5964147 ], [113.19129347801208]
[-13.39417146   5.14340443  50.67736568], [113.34249782562256]
[-13.33529744   4.97662542  50.73942649], [113.50274682044983]
[-13.2568938    4.81091461  50.81498066], [113.65455770492554]
[-13.17794924   4.61647201  50.89069747], [113.8060781955719]
[-13.10294372   4.41222445  50.96646852], [113.96413922309875]
[-13.08973822   4.12834575  51.01149799], [114.11614894866943]
[-13.06863703   3.85151338  51.06466798], [114.27792310714722]
[-13.04651094   3.5763215   51.11388839], [114.42796277999878]
[-12.9950292    3.29073408  51.17310358], [114.57842588424683]
[-12.93689297   3.01271248  51.22839755], [114.73300051689148]
[-12.84455685   2.73610063  51.29645162], [114.88363528251648]
[-12.75152873   2.4837896   51.36882736], [115.0337393283844]
[-12.65475601   2.25874946  51.42698792], [115.2170741558075]
[-12.55754607   1.99807324  51.48696425], [115.36698126792908]
[-12.45458084   1.76377731  51.55370193], [115.5201940536499]
[-12.35546165   1.5416307   51.61732076], [115.70336532592773]
[-12.25888567   1.27386031  51.6800599 ], [115.86688876152039]
[-12.15766288   0.99756471  51.7412552 ], [116.0164167881012]
[-12.06120404   0.71151903  51.80135355], [116.1648485660553]
[-11.96623314   0.42966883  51.85770583], [116.31494927406311]
[-11.87323382   0.14098185  51.91484581], [116.46443963050842]
[-1.17909775e+01 -4.98020317e-02  5.19652210e+01], [116.6143319606781]
[-11.71282298  -0.23977153  52.00830022], [116.76516461372375]
[-11.63589417  -0.40352546  52.04213961], [116.91474223136902]
[-11.55953892  -0.57602538  52.07198467], [117.06607675552368]
[-11.47947569  -0.78502866  52.10389692], [117.21832275390625]
[-11.40335073  -1.01246432  52.13594384], [117.36748623847961]
[-11.33476426  -1.23748804  52.16423574], [117.51748251914978]
[-11.27425186  -1.41429106  52.19151686], [117.7004976272583]
[-11.21040113  -1.61277582  52.21657891], [117.8511381149292]
[-11.15826769  -1.78076217  52.22858903], [118.00141859054565]
[-11.09792897  -1.98515119  52.24596234], [118.15330982208252]
[-10.95267634  -2.16183086  52.29247329], [118.3064775466919]
[-10.80994636  -2.35384655  52.33342113], [118.45732879638672]
[-10.67610961  -2.56495074  52.36871941], [118.60828018188477]
[-10.55673999  -2.70532867  52.40515677], [118.75789475440979]
[-10.43830973  -2.82409234  52.4401624 ], [118.91091394424438]
[-10.31186796  -2.97476922  52.4666452 ], [119.09730195999146]
[-10.18296013  -3.16196969  52.49416697], [119.2481586933136]
[-10.0783211   -3.26106114  52.5164612 ], [119.39907693862915]
[-9.96307196 -3.40495758 52.53694598], [119.58161067962646]
[-9.86514346 -3.54505027 52.57177916], [119.73207783699036]
[-9.75158027 -3.69161091 52.58997531], [119.88762164115906]
[-9.67079585 -3.84937953 52.59539252], [120.03685069084167]
[-9.5912965  -4.00125669 52.59816412], [120.21105813980103]
[-9.52082048 -4.18406257 52.59582595], [120.36243391036987]
[-9.43807103 -4.39150905 52.59847094], [120.51681113243103]
[-9.36888699 -4.51491183 52.60164364], [120.66812801361084]
[-9.28227897 -4.67197445 52.61418366], [120.82212281227112]
[-9.19979002 -4.76556776 52.62482111], [120.97397327423096]
[-9.10432988 -4.89735829 52.63921344], [121.15867567062378]
[-8.99817384 -5.05995049 52.65409838], [121.31064295768738]
[-8.88283021 -5.23524827 52.66917169], [121.4609260559082]
[-8.76587535 -5.37331482 52.68517732], [121.60997033119202]
[-8.6359037  -5.52200497 52.70184634], [121.76123642921448]
[-8.49965271 -5.69183657 52.72411589], [121.91150641441345]
[-8.35975778 -5.87959314 52.7500751 ], [122.06775498390198]
[-8.25203901 -5.9666432  52.77481716], [122.2186369895935]
[-8.13181172 -6.09270106 52.7930396 ], [122.36823892593384]
[-8.05589172 -6.15807048 52.83145844], [122.51759648323059]
[-8.01536453 -6.29319602 52.80660642], [122.66762924194336]
[-7.97174975 -6.39617906 52.78934215], [122.81758284568787]
[-7.91869098 -6.5070361  52.77531672], [122.96711015701294]
[-7.84006686 -6.62837029 52.77290255], [123.11647057533264]
[-7.7457094  -6.74906169 52.76964574], [123.2681782245636]
[-7.6460702  -6.89274424 52.76983731], [123.45181775093079]
[-7.53293433 -7.05117637 52.77297039], [123.60225319862366]
[-7.42604534 -7.13747972 52.78623327], [123.78400540351868]
[-7.29992703 -7.25735532 52.79590582], [123.93390393257141]
[-7.18940752 -7.30529941 52.83005265], [124.11572742462158]
[-7.05514823 -7.39030464 52.85596788], [124.26732730865479]
[-6.9092508  -7.49571524 52.88034986], [124.41685390472412]
[-6.75919959 -7.62327062 52.90070865], [124.56646513938904]
[-6.67291725 -7.70041457 52.89030873], [124.71845173835754]
[-6.55948128 -7.79935754 52.88599057], [124.868079662323]
[-6.49816323 -7.82190596 52.89738246], [125.02223515510559]
[-6.4074586  -7.87490901 52.90063358], [125.17352795600891]
[-6.30271793 -7.94766351 52.90419204], [125.35671353340149]
[-6.19544378 -8.0059889  52.9088481 ], [125.50806021690369]
[-6.06930828 -8.0955547  52.91597988], [125.69025921821594]
[-5.92629329 -8.20301418 52.92137005], [125.84049153327942]
[-5.78602711 -8.25931188 52.93867497], [125.9910147190094]
[-5.64111366 -8.32120664 52.95734308], [126.14104437828064]
[-5.48665388 -8.39136323 52.96491286], [126.2990779876709]
[-5.34013102 -8.40526094 52.9965498 ], [126.4545407295227]
[-5.17542944 -8.43585893 53.02490843], [126.60794043540955]
[-5.03666585 -8.48087095 53.02315106], [126.76209950447083]
[-4.89210945 -8.53941739 53.02964832], [126.91552448272705]
[-4.75979922 -8.51259205 53.06551149], [127.06816458702087]
[-4.60355879 -8.5172523  53.09199418], [127.22204685211182]
[-4.47434032 -8.54347553 53.11749029], [127.37597274780273]
[-4.33594234 -8.59138792 53.11764221], [127.52878022193909]
[-4.18331718 -8.65147812 53.11121718], [127.68222212791443]
[-4.03212446 -8.65640791 53.12701332], [127.83485317230225]
[-3.89102193 -8.67582336 53.15426253], [127.99022579193115]
[-3.73023359 -8.70262429 53.16596075], [128.141850233078]
[-3.5956909  -8.76164793 53.13391942], [128.2954785823822]
[-3.43688612 -8.83290773 53.10465342], [128.44702744483948]
[-3.33177076 -8.83845656 53.09289963], [128.59991240501404]
[-3.20398368 -8.84406264 53.08255821], [128.75212597846985]
[-3.10684234 -8.85522288 53.06372513], [128.90453481674194]
[-2.98202013 -8.88338553 53.04098464], [129.05795192718506]
[-2.83672255 -8.93411199 53.02093536], [129.21120762825012]
[-2.7047133  -9.00229317 52.98474109], [129.36420130729675]
[-2.5627088  -9.0704476  52.95137895], [129.51675581932068]
[-2.41978179 -9.14648904 52.90656556], [129.6687364578247]
[-2.29661875 -9.20869511 52.87677873], [129.8203136920929]
[-2.1921493  -9.26614601 52.83845671], [130.0072898864746]
[-2.05345432 -9.34117006 52.79892415], [130.1587483882904]
[-1.89367844 -9.41931774 52.76698538], [130.30822849273682]
[-1.70170409 -9.49455821 52.72761964], [130.45744967460632]
[-1.54126525 -9.57234629 52.68704329], [130.61070775985718]
[-1.36313678 -9.64023169 52.65497859], [130.76294112205505]
[-1.22939295 -9.70204522 52.62285496], [130.9161241054535]
[-1.10378414 -9.75327537 52.59541378], [131.06920886039734]
[-0.96759308 -9.81266017 52.56404746], [131.22358918190002]
[-0.85874012 -9.86982737 52.52709483], [131.37361526489258]
[-0.71819762 -9.93135617 52.4862081 ], [131.52530670166016]
[-0.59807475 -9.98387392 52.4492201 ], [131.67578148841858]
[ -0.47115751 -10.02790956  52.4196754 ], [131.82680940628052]
[ -0.31866953 -10.06813808  52.39672446], [131.98301672935486]
[ -0.18053764 -10.10537034  52.36725436], [132.1374020576477]
[-2.06808601e-02 -1.01369821e+01  5.23433576e+01], [132.2922065258026]
[  0.16270302 -10.1656529   52.3250994 ], [132.44238090515137]
[  0.36664625 -10.19004653  52.30874483], [132.5933599472046]
[  0.52337746 -10.20399643  52.28695319], [132.74455904960632]
[  0.69792188 -10.21469926  52.27521788], [132.89582180976868]
[  0.86501323 -10.22230221  52.25239808], [133.04595255851746]
[  1.0436832  -10.22399519  52.23802876], [133.1974573135376]
[  1.21585895 -10.22367111  52.22192508], [133.34712553024292]
[  1.40349713 -10.21476003  52.21048161], [133.53207564353943]
[  1.57255398 -10.19604294  52.20302863], [133.6831328868866]
[  1.69820606 -10.19011764  52.18683692], [133.83600997924805]
[  1.84524439 -10.18766042  52.15528453], [133.98991346359253]
[  2.00131871 -10.18222433  52.12663766], [134.142098903656]
[  2.1704254  -10.16839104  52.10461359], [134.2934136390686]
[  2.30662181 -10.14890616  52.08752781], [134.51121735572815]
[  2.47379593 -10.12138891  52.0654673 ], [134.6622829437256]
[  2.61572143 -10.0834273   52.05602863], [134.8443841934204]
[  2.78541342 -10.0546609   52.03760518], [134.99598860740662]
[ 2.96457126 -9.99877363 52.03105735], [135.14647126197815]
[ 3.10836449 -9.95546218 52.02058947], [135.2988519668579]
[ 3.28456841 -9.92509572 52.00388456], [135.48214983940125]
[ 3.46694318 -9.89767338 51.97984887], [135.6307077407837]
[ 3.65044444 -9.85563656 51.9634423 ], [135.78374886512756]
[ 3.85488167 -9.80970745 51.94871823], [135.9326605796814]
[ 4.06809057 -9.74453231 51.94172676], [136.0831217765808]
[ 4.27900677 -9.66975266 51.93537416], [136.2333903312683]
[ 4.48365846 -9.61119018 51.91177635], [136.38362193107605]
[ 4.68273756 -9.53419277 51.90064729], [136.53515005111694]
[ 4.87007823 -9.44058009 51.90095219], [136.68566393852234]
[ 5.03771091 -9.37415    51.88394974], [136.83485651016235]
[ 5.19729641 -9.29129019 51.87664108], [136.98417592048645]
[ 5.35256426 -9.18687729 51.87988091], [137.1351718902588]
[ 5.53128461 -9.07260313 51.88103252], [137.28500652313232]
[ 5.65751242 -8.98812869 51.87575887], [137.4368896484375]
[ 5.80498054 -8.88694347 51.86932813], [137.58632016181946]
[ 5.96917352 -8.75800627 51.87262781], [137.7356083393097]
[ 6.1699656  -8.63492992 51.86500447], [137.88461470603943]
[ 6.38331173 -8.53441899 51.83929315], [138.0356321334839]
[ 6.62594346 -8.4320147  51.80668283], [138.1905493736267]
[ 6.84277305 -8.34450278 51.77416562], [138.3426079750061]
[ 7.05960331 -8.23549483 51.74822357], [138.52211356163025]
[ 7.28605477 -8.10489212 51.72794136], [138.673978805542]
[ 7.53992961 -7.97936668 51.69584224], [138.82689785957336]
[ 7.73431979 -7.882556   51.66138641], [138.98038268089294]
[ 7.93478299 -7.75800365 51.6342311 ], [139.1658957004547]
[ 8.12500485 -7.62779941 51.60818615], [139.32039213180542]
[ 8.33066173 -7.47944835 51.58287161], [139.47515559196472]
[ 8.53946839 -7.31677429 51.5614238 ], [139.62786293029785]
[ 8.76316499 -7.15936238 51.53670647], [139.78324556350708]
[ 8.91093646 -7.05291782 51.51257004], [139.93556427955627]
[ 9.07929098 -6.93709058 51.48024433], [140.08524107933044]
[ 9.2626639  -6.80202055 51.4490237 ], [140.23544883728027]
[ 9.39594431 -6.66024279 51.43732613], [140.3857753276825]
[ 9.54583747 -6.52644714 51.41826142], [140.53616404533386]
[ 9.71788629 -6.39246169 51.39624879], [140.6874485015869]
[ 9.90785627 -6.23813802 51.37328544], [140.8407175540924]
[10.03890723 -6.12321103 51.3489598 ], [140.99445748329163]
[10.19144581 -5.97430257 51.322294  ], [141.14582872390747]
[10.32809729 -5.83246267 51.29872391], [141.30059242248535]
[10.42065345 -5.70211051 51.29062613], [141.4495565891266]
[10.52966539 -5.56816989 51.28013088], [141.59905791282654]
[10.65581687 -5.41364134 51.26595371], [141.7484736442566]
[10.79568776 -5.23725816 51.25450932], [141.89785242080688]
[10.88239836 -5.09869965 51.24742774], [142.04680180549622]
[10.99446999 -4.95067919 51.22739085], [142.1969678401947]
[11.04163907 -4.83115289 51.22260844], [142.41055488586426]
[11.0983701  -4.70574002 51.21812981], [142.59104871749878]
[11.16826698 -4.55065072 51.21383307], [142.76566123962402]
[11.25299975 -4.37565343 51.20655711], [142.91706824302673]
[11.36714406 -4.2044198  51.19212131], [143.09746313095093]
[11.50060937 -4.02881712 51.16626355], [143.26404643058777]
[11.59017156 -3.87757311 51.15045583], [143.41514372825623]
[11.70536395 -3.70955252 51.1254214 ], [143.59182119369507]
[11.81862183 -3.53274403 51.11001551], [143.74519109725952]
[11.93086931 -3.35593    51.09263004], [143.8967399597168]
[12.04271407 -3.16300702 51.07620925], [144.05059719085693]
[12.08115412 -3.00574751 51.07506197], [144.2049264907837]
[12.12548467 -2.82995733 51.07332262], [144.35711002349854]
[12.13243379 -2.66274174 51.08181643], [144.54985404014587]
[12.16442764 -2.4828492  51.08297641], [144.7396788597107]
[12.21410222 -2.29232222 51.07842332], [144.89242672920227]
[12.27507205 -2.10193507 51.07273528], [145.04404020309448]
[12.35110467 -1.90261341 51.06022715], [145.19768595695496]
[12.35034269 -1.76608663 51.05946997], [145.3826835155487]
[12.36595384 -1.61224795 51.05219064], [145.53546619415283]
[12.40742264 -1.44739929 51.03520603], [145.68698239326477]
[12.45745623 -1.25736976 51.01635132], [145.84016132354736]
[12.51864984 -1.04811234 50.99533712], [145.99238753318787]
[12.5827135  -0.82049908 50.97427774], [146.14421701431274]
[12.66325237 -0.58343137 50.94713992], [146.3002805709839]
[12.74201999 -0.34379237 50.91818342], [146.45248889923096]
[12.78087204 -0.13440584 50.89647775], [146.61077570915222]
[12.81699001  0.10964622 50.88383885], [146.76365971565247]
[12.8024992   0.32137116 50.88071118], [146.91598677635193]
[12.80862924  0.55589506 50.86918665], [147.068195104599]
[12.73841682  0.73027377 50.87831256], [147.22230648994446]
[12.6941689   0.92056663 50.8712149 ], [147.37478137016296]
[12.67819287  1.10152152 50.85720624], [147.52752017974854]
[12.67634853  1.28727438 50.83649071], [147.68086552619934]
[12.67325502  1.48869646 50.81574787], [147.83511424064636]
[12.6695395   1.71275549 50.79579945], [147.9881727695465]
[12.67385037  1.94748713 50.77181589], [148.1418673992157]
[12.67986659  2.1939407  50.74492312], [148.2991964817047]
[12.6921845   2.43015575 50.71500397], [148.4548192024231]
[12.70260435  2.58443397 50.68446229], [148.60846877098083]
[12.72163211  2.76649738 50.64693843], [148.7988259792328]
[12.73582875  2.96392443 50.61031294], [148.95148062705994]
[12.75288453  3.16786405 50.57255365], [149.10458946228027]
[12.77738493  3.36930095 50.53270118], [149.28435730934143]
[12.7830802   3.55426239 50.50082387], [149.43710899353027]
[12.74273946  3.73864563 50.48286515], [149.59026169776917]
[12.7047845   3.95120086 50.46063695], [149.77569150924683]
[12.67674612  4.17687959 50.43734816], [149.92800784111023]
[12.63736786  4.40871118 50.41708407], [150.09330224990845]
[12.6242302   4.60775334 50.38788553], [150.24700903892517]
[12.61187618  4.83178112 50.35846722], [150.39812397956848]
[12.51551     4.96296405 50.3634142 ], [150.58092331886292]
[12.43930794  5.12599545 50.35480878], [150.76235508918762]
[12.38479713  5.27953972 50.33947929], [150.94263911247253]
[12.34073229  5.44961899 50.31629436], [151.09184217453003]
[12.31876324  5.61407814 50.28231588], [151.26645946502686]
[12.29050175  5.79376694 50.25209335], [151.4298369884491]
[12.25768662  5.98948311 50.2217137 ], [151.5789201259613]
[12.22110615  6.16033884 50.19258029], [151.73037552833557]
[12.18623369  6.35205196 50.16022907], [151.88080739974976]
[12.16368441  6.54241049 50.12573501], [152.03147768974304]
[12.11230674  6.73039713 50.10219542], [152.18114161491394]
[12.05068736  6.94169071 50.07837379], [152.33275318145752]
[11.99347072  7.1671775  50.05055625], [152.4833915233612]
[11.8717126   7.34406138 50.04528003], [152.63692164421082]
[11.78549959  7.52388332 50.02744076], [152.7906997203827]
[11.68562268  7.72536167 50.01169372], [152.9459674358368]
[11.57869548  7.95017202 49.99846717], [153.10039281845093]
[11.46455608  8.19829644 49.98229024], [153.25797128677368]
[11.34376508  8.4605066  49.96388837], [153.41149878501892]
[11.2080729   8.73368459 49.94634978], [153.56266331672668]
[11.01054641  8.92909381 49.95533971], [153.71608138084412]
[10.82620493  9.15993136 49.9562928 ], [153.88649225234985]
[10.63703387  9.37517042 49.95869595], [154.03914737701416]
[10.45973858  9.58872291 49.94941643], [154.22778964042664]
[10.29787662  9.80819462 49.93218181], [154.37732911109924]
[10.08945514 10.00154103 49.93024406], [154.52966260910034]
[ 9.90984736 10.20527367 49.91492521], [154.6821587085724]
[ 9.72086814 10.42021697 49.89974228], [154.83341717720032]
[ 9.57120668 10.60927764 49.87381824], [154.98268628120422]
[ 9.40667453 10.81417411 49.84504586], [155.1348147392273]
[ 9.22794184 11.03532567 49.81788365], [155.29000687599182]
[ 9.0388449  11.2447914  49.79477242], [155.44013500213623]
[ 8.86693755 11.43828841 49.77147288], [155.58843803405762]
[ 8.69911011 11.619723   49.74260466], [155.73922777175903]
[ 8.5149812  11.81741033 49.71725279], [155.89785766601562]
[ 8.33146059 12.01134775 49.68620215], [156.04823660850525]
[ 8.194174   12.15257954 49.65069372], [156.1993489265442]
[ 8.04290095 12.31348082 49.60919027], [156.34868717193604]
[ 7.90430644 12.45250596 49.57721963], [156.49706625938416]
[ 7.74435496 12.58067367 49.55322112], [156.64562845230103]
[ 7.59469381 12.70748192 49.52604222], [156.80583214759827]
[ 7.42212234 12.84755626 49.50549798], [156.9576871395111]
[ 7.26141721 12.97175898 49.4859484 ], [157.110347032547]
[ 7.12834307 13.07903654 49.45977584], [157.26178979873657]
[ 6.97667556 13.20862876 49.43422883], [157.41402792930603]
[ 6.83024189 13.33530034 49.41049983], [157.5678675174713]
[ 6.68088866 13.46394447 49.3848615 ], [157.72185254096985]
[ 6.51339748 13.59904404 49.36295573], [157.87315201759338]
[ 6.35359813 13.71257195 49.34227931], [158.0254385471344]
[ 6.17419572 13.84580122 49.32596782], [158.18082976341248]
[ 5.98015561 13.98065564 49.30783158], [158.33337116241455]
[ 5.81408106 14.07289168 49.30346816], [158.48557448387146]
[ 5.62604505 14.09164988 49.31967815], [158.6351478099823]
[ 5.42260584 14.14638925 49.33750802], [158.78541016578674]
[ 5.20983592 14.20141539 49.35278638], [158.9345622062683]
[ 4.99846935 14.26433868 49.36309187], [159.0854949951172]
[ 4.77037285 14.33675028 49.37332097], [159.23749327659607]
[ 4.52941269 14.4203182  49.38050017], [159.38684487342834]
[ 4.27542069 14.51669128 49.38556658], [159.56855392456055]
[ 4.03806181 14.61859025 49.40696043], [159.71924924850464]
[ 3.81438915 14.71673111 49.43313776], [159.86854934692383]
[ 3.58486755 14.82080277 49.46510096], [160.01832580566406]
[ 3.32478252 14.88688399 49.49969548], [160.16821908950806]
[ 3.06758581 14.97347379 49.53994684], [160.3208363056183]
[ 2.80276633 15.05379677 49.57641972], [160.47233033180237]
[ 2.55432564 15.1329347  49.60389691], [160.626118183136]
[ 2.27985699 15.14311629 49.62819549], [160.78416752815247]
[ 2.00773914 15.17257814 49.66563305], [160.96841979026794]
[ 1.74010601 15.19410636 49.69620837], [161.12688660621643]
[ 1.48180225 15.20431045 49.72156759], [161.28136897087097]
[ 1.24111684 15.17976803 49.73617447], [161.43832397460938]
[ 0.97342376 15.14737311 49.76775781], [161.59274816513062]
[ 0.73926649 15.1010852  49.7852484 ], [161.8504889011383]
[ 0.48465919 15.06539763 49.8173838 ], [162.0089418888092]
[ 0.24732566 15.03371676 49.84157668], [162.16406965255737]
[-9.23370529e-03  1.50057628e+01  4.98725963e+01], [162.31678414344788]
[-0.2322407  14.97626839 49.88951766], [162.46683144569397]
[-0.47268266 14.94912169 49.91456499], [162.61857867240906]
[-0.68018526 14.91443531 49.92608657], [162.767831325531]
[-0.90866023 14.88353257 49.94831534], [162.92028880119324]
[-1.14731542 14.84972695 49.97098154], [163.07503008842468]
[-1.39498998 14.81103876 49.99370716], [163.22683453559875]
[-1.60311379 14.7621677  50.00209834], [163.37700366973877]
[-1.83601259 14.71968384 50.02326798], [163.52907061576843]
[-2.02832793 14.66344109 50.02781553], [163.67885780334473]
[-2.23729432 14.61859792 50.04426535], [163.83103156089783]
[-2.43982715 14.56560028 50.05488535], [163.98348379135132]
[-2.66380948 14.51458009 50.0725515 ], [164.1349036693573]
[-2.89955905 14.46496608 50.09073226], [164.28717064857483]
[-3.14973489 14.41961815 50.11023858], [164.43862509727478]
[-3.41635125 14.37057919 50.12889666], [164.58657884597778]
[-3.64530113 14.30616207 50.13248111], [164.73863816261292]
[-3.83207154 14.22453559 50.12752892], [164.89745330810547]
[-4.03005455 14.15173213 50.1344057 ], [165.05157256126404]
[-4.22229265 14.07502679 50.13808299], [165.20809364318848]
[-4.43083795 13.98866934 50.14424763], [165.36232376098633]
[-4.65418302 13.90092731 50.15322035], [165.51397228240967]
[-4.89182463 13.81636553 50.16364504], [165.66920948028564]
[-5.14516252 13.73202658 50.17368457], [165.84993982315063]
[-5.41449922 13.6487691  50.18315426], [165.99951243400574]
[-5.65001032 13.56699573 50.18259156], [166.1495018005371]
[-5.85167349 13.4619653  50.17214223], [166.30720281600952]
[-6.06885411 13.36373123 50.17260676], [166.45851969718933]
[-6.27478282 13.25304559 50.16656629], [166.6092221736908]
[-6.50473284 13.136824   50.16548862], [166.77610087394714]
[-6.74818557 13.01689031 50.16380208], [166.92549681663513]
[-6.9740202  12.90180606 50.15837889], [167.08061695098877]
[-7.18337457 12.77985486 50.14870643], [167.24294233322144]
[-7.39319926 12.68269365 50.1466239 ], [167.3962743282318]
[-7.55339752 12.57291507 50.13084924], [167.54913568496704]
[-7.73421492 12.46858095 50.125077  ], [167.70180463790894]
[-7.93096821 12.34894971 50.11541052], [167.85534000396729]
[-8.14178683 12.22649042 50.10652942], [168.00762057304382]
[-8.36806354 12.10081391 50.09647383], [168.15785908699036]
[-8.52626444 11.98342466 50.07913026], [168.31375980377197]
[-8.69641068 11.88038061 50.07113057], [168.4639537334442]
[-8.87962843 11.76953436 50.05925138], [168.6135551929474]
[-9.07467923 11.6585069  50.04693852], [168.76387310028076]
[-9.22627772 11.54857378 50.02909961], [168.95061087608337]
[-9.3906009  11.4266114  50.01282668], [169.1093873977661]
[-9.56976319 11.29570679 49.9962574 ], [169.26118278503418]
[-9.76015433 11.15859822 49.97815533], [169.41224551200867]
[-9.96430101 11.01646605 49.95841484], [169.5961742401123]
[-10.09242779  10.88723581  49.93607732], [169.74553084373474]
[-10.24411709  10.75906145  49.92092289], [169.894793510437]
[-10.40961767  10.61634769  49.90050952], [170.04504942893982]
[-10.56779676  10.48965454  49.88396969], [170.1955051422119]
[-10.72592868  10.37225137  49.86734908], [170.3719220161438]
[-10.8876551   10.25425986  49.8479658 ], [170.5241241455078]
[-11.03876697  10.16051354  49.83331305], [170.6737470626831]
[-11.19621506  10.05498257  49.81148404], [170.8245451450348]
[-11.30744439   9.92901545  49.78286084], [170.97823524475098]
[-11.43562258   9.80341805  49.76306469], [171.16806364059448]
[-11.5818455    9.65865423  49.73708222], [171.32978439331055]
[-11.72199589   9.51331412  49.71142055], [171.48222160339355]
[-11.87933794   9.35302372  49.68189417], [171.63440704345703]
[-12.03577403   9.19733211  49.65368653], [171.78679990768433]
[-12.17173975   9.06395052  49.63088702], [171.93728041648865]
[-12.28521742   8.96342227  49.61612227], [172.0889437198639]
[-12.40793524   8.85340957  49.59458554], [172.2485978603363]
[-12.54742278   8.72280478  49.56567675], [172.400470495224]
[-12.74837697   8.52722782  49.5157987 ], [172.564195394516]
[-12.81727246   8.40836743  49.49591389], [172.7149636745453]
[-12.906773     8.27507933  49.47443698], [172.86444854736328]
[-13.00409761   8.12743471  49.44855024], [173.0142946243286]
[-13.10695579   7.97068715  49.42084358], [173.16296696662903]
[-13.19322397   7.83348384  49.40101996], [173.3241093158722]
[-13.2667334    7.7138143   49.38609083], [173.4849214553833]
[-13.34434791   7.56905105  49.36075233], [173.6412787437439]
[-13.43833209   7.41235323  49.33390375], [173.7980661392212]
[-13.53608243   7.24825212  49.30449023], [173.95194792747498]
[-13.63703596   7.07689083  49.27289323], [174.10603547096252]
[-13.74480238   6.86777301  49.30838087], [174.29843068122864]
[-13.86026126   6.62453989  49.40019223], [174.4500072002411]
[-13.98399802   6.36801167  49.49215172], [174.59972381591797]
[-14.11262989   6.09495672  49.58517565], [174.74854016304016]
[-14.24780607   5.80720321  49.67917475], [174.8964445590973]
[-14.33848907   5.65418362  49.76449653], [175.04389810562134]
[-14.34164953   5.42418871  49.87659709], [175.19490242004395]
[-14.27292759   5.1723607   50.01276695], [175.3773775100708]
[-14.14263164   4.99210118  50.1549179 ], [175.56209301948547]
[-14.02416169   4.86408352  50.2733057 ], [175.71551847457886]
[-13.88312663   4.74047096  50.39317701], [175.86401772499084]
[-13.75611486   4.58641153  50.50816371], [176.0157630443573]
[-13.67591885   4.40897637  50.59527142], [176.20493054389954]
[-13.58993673   4.2148632   50.68770838], [176.38546657562256]
[-13.51594779   4.00890712  50.77528281], [176.5352499485016]
[-13.4008014    3.82590706  50.86937715], [176.68316268920898]
[-13.2988713    3.64167586  50.95624597], [176.83379578590393]
[-13.20371213   3.43431992  51.04324831], [176.98995566368103]
[-13.13829084   3.19795187  51.1083032 ], [177.1430914402008]
[-13.0767992    2.93534713  51.18020664], [177.29565906524658]
[-13.0241507    2.66738265  51.24733257], [177.44370579719543]
[-12.9699633    2.39589299  51.31169681], [177.59141778945923]
[-12.83010649   2.15968154  51.4020616 ], [177.7388949394226]
[-12.70310697   1.92269088  51.48011144], [177.8860960006714]
[-12.58636043   1.70101791  51.548623  ], [178.03373408317566]
[-12.47438114   1.44569907  51.61706252], [178.18207931518555]
[-12.36893756   1.22967079  51.68455656], [178.3322331905365]
[-12.26156846   0.96986758  51.75100807], [178.48309755325317]
[-12.15319256   0.70450403  51.8158769 ], [178.70283794403076]
[-12.05127788   0.48423016  51.8729729 ], [178.85413336753845]
[-11.94340738   0.24701674  51.92618332], [179.00549244880676]
[-1.18523371e+01  3.90214082e-02  5.19697423e+01], [179.1570179462433]
[-11.74740795  -0.15091193  52.01997222], [179.35025691986084]
[-11.62160296  -0.36158498  52.07326659], [179.49837279319763]
[-11.5056926   -0.54894201  52.11234878], [179.6465995311737]
[-11.38770077  -0.76100605  52.1578302 ], [179.80424785614014]
[-11.28071059  -0.90682958  52.19781823], [179.98442912101746]
[-11.17090736  -1.0934074   52.23823549], [180.13536596298218]
[-11.07254677  -1.26541911  52.26766099], [180.31885600090027]
[-10.96577219  -1.46391768  52.29980779], [180.47008275985718]
[-10.8665833   -1.60696685  52.32844807], [180.63622164726257]
[-10.76506206  -1.79150037  52.36119904], [180.8095669746399]
[-10.67052905  -1.94431509  52.38596323], [180.96297812461853]
[-10.57206048  -2.13140274  52.41218488], [181.1532440185547]
[-10.47165206  -2.33350129  52.44062219], [181.30351161956787]
[-10.38788932  -2.49481721  52.46052058], [181.45109057426453]
[-10.29821576  -2.67331223  52.47732012], [181.5994689464569]
[-10.21247358  -2.82075898  52.49619711], [181.7496166229248]
[-10.11717627  -2.99308729  52.51292478], [181.90225338935852]
[-10.04212667  -3.11120848  52.52795968], [182.05193614959717]
[-9.95761709 -3.26203162 52.54249346], [182.20025944709778]
[-9.86276953 -3.44710171 52.55833527], [182.35015606880188]
[-9.76216888 -3.63940751 52.57251906], [182.50355052947998]
[-9.68025534 -3.80306424 52.58563554], [182.65345120429993]
[-9.59152057 -3.98191219 52.60130261], [182.80470156669617]
[-9.49508988 -4.15477638 52.61259877], [182.95465087890625]
[-9.38535907 -4.36339571 52.62362908], [183.1040642261505]
[-9.29511386 -4.51978783 52.63504817], [183.25693583488464]
[-9.19270477 -4.69191421 52.64217061], [183.41232180595398]
[-9.0880642  -4.79854255 52.66315336], [183.5701289176941]
[-8.97754498 -4.92549098 52.68421276], [183.72209787368774]
[-8.87417021 -4.98059497 52.71460384], [183.88081741333008]
[-8.82825087 -5.05577477 52.71604996], [184.08201670646667]
[-8.80983137 -5.2104631  52.68052767], [184.2363748550415]
[-8.7646342  -5.36531806 52.65648449], [184.39686822891235]
[-8.71722383 -5.54835974 52.6355963 ], [184.5478823184967]
[-8.6412743  -5.7184062  52.62922563], [184.7029950618744]
[-8.55457258 -5.912384   52.62150443], [184.8599410057068]
[-8.4578079  -6.11601858 52.61297055], [185.01315808296204]
[-8.34959664 -6.33613359 52.60334885], [185.16272497177124]
[-8.24856966 -6.48574002 52.60653178], [185.31409811973572]
[-8.13714639 -6.6725077  52.61355631], [185.4618604183197]
[-8.01962734 -6.8182663  52.62154609], [185.6109755039215]
[-7.88934868 -6.97576266 52.62713729], [185.76330518722534]
[-7.77592206 -7.05668331 52.65887688], [185.9277470111847]
[-7.69889925 -7.17191276 52.67518323], [186.07686758041382]
[-7.64250641 -7.22436857 52.68144034], [186.22610640525818]
[-7.55591858 -7.32723254 52.70182585], [186.37752437591553]
[-7.46569488 -7.42143519 52.7192282 ], [186.53161430358887]
[-7.35406252 -7.53563626 52.73915868], [186.68266916275024]
[-7.2569289  -7.55196481 52.77628194], [186.83330368995667]
[-7.14359024 -7.60500201 52.81416826], [186.98367619514465]
[-7.08248371 -7.61069462 52.82927212], [187.13196992874146]
[-6.99165244 -7.64840726 52.84197525], [187.27945494651794]
[-6.87543163 -7.7205352  52.8633509 ], [187.42761325836182]
[-6.78789784 -7.83246798 52.82590671], [187.57624745368958]
[-6.68284182 -7.94516349 52.81218487], [187.72374153137207]
[-6.54950076 -8.07271717 52.80779803], [187.8900966644287]
[-6.42047091 -8.12189537 52.83722348], [188.04305982589722]
[-6.2685357  -8.19272244 52.86128211], [188.1902837753296]
[-6.0918507  -8.27560267 52.87917508], [188.33852410316467]
[-5.91780666 -8.31014677 52.91630723], [188.4856276512146]
[-5.78517924 -8.38447104 52.92033499], [188.6332266330719]
[-5.66456331 -8.40288004 52.938605  ], [188.78040957450867]
[-5.53588467 -8.43322154 52.95908473], [188.92751336097717]
[-5.39224707 -8.47998572 52.97691793], [189.07460117340088]
[-5.23545491 -8.53688581 52.989154  ], [189.22300744056702]
[-5.07019284 -8.58658299 53.00717965], [189.37697386741638]
[-4.88728065 -8.64183554 53.02608658], [189.52783846855164]
[-4.72343326 -8.64234115 53.06250483], [189.67756009101868]
[-4.59036888 -8.66012452 53.07463396], [189.8250572681427]
[-4.50789762 -8.66460228 53.07096271], [189.97454118728638]
[-4.39792889 -8.68637618 53.05771762], [190.1217007637024]
[-4.26267831 -8.71380757 53.05496644], [190.2719693183899]
[-4.11391438 -8.74573081 53.05218706], [190.421719789505]
[-3.95234409 -8.7996484  53.05384495], [190.57095384597778]
[-3.7630097  -8.88245366 53.0404199 ], [190.72091579437256]
[-3.5855844  -8.92073604 53.0416647 ], [190.87224459648132]
[-3.44267766 -8.96351236 53.0290868 ], [191.02407264709473]
[-3.32801987 -9.01782208 53.02657466], [191.17398047447205]
[-3.19191305 -9.07183921 53.01217878], [191.32435989379883]
[-3.02942482 -9.11905403 52.99881752], [191.47569012641907]
[-2.89119393 -9.11903089 53.00555645], [191.62776446342468]
[-2.78693225 -9.10487312 52.99799157], [191.77811646461487]
[-2.66065147 -9.11166694 52.98825012], [191.92733812332153]
[-2.53449369 -9.11389624 52.99094917], [192.08101177215576]
[-2.39434116 -9.14559293 52.97356528], [192.23203492164612]
[-2.22119298 -9.19905943 52.95331396], [192.38760614395142]
[-2.02600727 -9.25710775 52.9302908 ], [192.53911781311035]
[-1.84642939 -9.32912886 52.91718836], [192.68942618370056]
[-1.70621989 -9.30838365 52.92144427], [192.83946704864502]
[-1.53141033 -9.31639759 52.91699991], [192.9862847328186]
[-1.38526431 -9.32870277 52.89507958], [193.18477416038513]
[-1.22540732 -9.35066493 52.87002344], [193.3336763381958]
[-1.05406228 -9.36693651 52.85356621], [193.48510646820068]
[-0.89408257 -9.38033981 52.83330197], [193.6336796283722]
[-0.73136189 -9.40333557 52.81280259], [193.78438568115234]
[-0.54902547 -9.42362893 52.79240762], [193.93539881706238]
[-0.37204365 -9.44306295 52.7607188 ], [194.0989625453949]
[-0.22517207 -9.46298344 52.73073792], [194.2476851940155]
[-0.07044751 -9.47704448 52.70544364], [194.39596486091614]
[ 0.07297645 -9.48497966 52.6820819 ], [194.5437364578247]
[ 0.18128351 -9.49457314 52.64550844], [194.69116640090942]
[ 0.3113539  -9.49513763 52.61546921], [194.84019994735718]
[ 0.4608893  -9.4943593  52.59195489], [194.9896650314331]
[ 0.63891953 -9.51591912 52.55776183], [195.13711833953857]
[ 0.85138998 -9.55141105 52.51498973], [195.28613710403442]
[ 1.03249734 -9.591576   52.46664812], [195.4383294582367]
[ 1.23232305 -9.62991083 52.42096224], [195.5875961780548]
[ 1.42765074 -9.6563385  52.37269836], [195.73446464538574]
[ 1.58763784 -9.68125872 52.32710544], [195.88165140151978]
[ 1.7591321  -9.70013349 52.29064741], [196.03032517433167]
[ 1.93092504 -9.70791944 52.25535103], [196.18041038513184]
[ 2.07806111 -9.69903627 52.23339512], [196.3292179107666]
[ 2.23046408 -9.68619754 52.21218628], [196.4778983592987]
[ 2.34705876 -9.65612468 52.19612541], [196.62567043304443]
[ 2.47773803 -9.63827482 52.17476343], [196.77330994606018]
[ 2.63121489 -9.64041447 52.14005436], [196.9228856563568]
[ 2.8014053  -9.65706769 52.09953625], [197.07187390327454]
[ 2.99322275 -9.66394067 52.06192219], [197.22247886657715]
[ 3.15870605 -9.66574631 52.03013389], [197.36980867385864]
[ 3.3367777  -9.65804289 52.00001377], [197.51693534851074]
[ 3.49428256 -9.64562828 51.97103663], [197.66415905952454]
[ 3.67304437 -9.61995423 51.94657543], [197.81150841712952]
[ 3.82792225 -9.58778196 51.93088644], [197.9607892036438]
[ 3.98389679 -9.56068857 51.90913991], [198.10844159126282]
[ 4.12374867 -9.51838629 51.89135699], [198.25813150405884]
[ 4.29221361 -9.47144461 51.8750595 ], [198.40980005264282]
[ 4.48302743 -9.42654054 51.86152503], [198.55826020240784]
[ 4.67523247 -9.38841498 51.84228022], [198.70905208587646]
[ 4.89163776 -9.34269184 51.8210023 ], [198.85804533958435]
[ 5.08218558 -9.300127   51.79989188], [199.0084366798401]
[ 5.27168602 -9.24116661 51.78908945], [199.15837335586548]
[ 5.48684147 -9.17573002 51.77527438], [199.31032371520996]
[ 5.71844652 -9.09445819 51.76251376], [199.46283864974976]
[ 5.92153832 -9.01503833 51.74894375], [199.61384630203247]
[ 6.14581047 -8.92994372 51.7349514 ], [199.76519346237183]
[ 6.26428761 -8.79012765 51.75771816], [199.91562581062317]
[ 6.42665692 -8.65013497 51.76394059], [200.10027623176575]
[ 6.60436829 -8.50074121 51.77066584], [200.25039887428284]
[ 6.77147981 -8.36354496 51.76877663], [200.3999571800232]
[ 6.97763882 -8.23014252 51.75596891], [200.54870533943176]
[ 7.18467118 -8.12134065 51.7327038 ], [200.69791674613953]
[ 7.40734416 -7.99273287 51.71224109], [200.88074827194214]
[ 7.58667544 -7.88624239 51.68819717], [201.0352919101715]
[ 7.78528059 -7.76632891 51.66185184], [201.2112193107605]
[ 7.99582517 -7.64502013 51.62887734], [201.3607316017151]
[ 8.18029339 -7.57477659 51.58237361], [201.51495790481567]
[ 8.38024843 -7.48127385 51.53960378], [201.6668438911438]
[ 8.57933993 -7.38352021 51.50059334], [201.8170609474182]
[ 8.78444016 -7.25821522 51.46261529], [201.9668459892273]
[ 8.98604942 -7.13291673 51.43670453], [202.12752056121826]
[ 9.19411326 -6.98647362 51.41274569], [202.2757294178009]
[ 9.31462462 -6.85461293 51.40676593], [202.4234654903412]
[ 9.46502035 -6.70989016 51.39509967], [202.57369828224182]
[ 9.62196576 -6.58336006 51.37501493], [202.72184801101685]
[ 9.780217   -6.45556581 51.35396322], [202.8697657585144]
[ 9.94343284 -6.30444243 51.33676783], [203.02022457122803]
[10.07553027 -6.17371028 51.31975746], [203.170485496521]
[10.22206469 -6.01506565 51.30255539], [203.3182098865509]
[10.35458633 -5.85138308 51.29691297], [203.46609616279602]
[10.50784402 -5.686309   51.28698418], [203.61367416381836]
[10.60992964 -5.56866071 51.27580436], [203.76138377189636]
[10.72227836 -5.41018717 51.26634386], [203.909574508667]
[10.81057965 -5.27393214 51.25710336], [204.0982382297516]
[10.90652146 -5.11049914 51.24591442], [204.24792432785034]
[11.0314693  -4.93484982 51.2314417 ], [204.39743542671204]
[11.18029235 -4.75670833 51.20729284], [204.547700881958]
[11.24001223 -4.62468575 51.20422584], [204.70462107658386]
[11.30410875 -4.48455645 51.19954776], [204.8541488647461]
[11.34034403 -4.36547791 51.19353632], [205.0034055709839]
[11.39325172 -4.23814535 51.17673513], [205.1562476158142]
[11.46522235 -4.09653522 51.1588405 ], [205.30543661117554]
[11.55501427 -3.93548248 51.13797007], [205.45744800567627]
[11.6632704  -3.7627998  51.11399953], [205.60650396347046]
[11.7927121  -3.57730926 51.08407855], [205.75495433807373]
[11.90501055 -3.39378126 51.06481616], [205.90319395065308]
[12.02187408 -3.20106857 51.04622421], [206.0526044368744]
[12.12397871 -3.00708377 51.03448455], [206.20304417610168]
[12.17021107 -2.84356164 51.03669345], [206.35311579704285]
[12.23404841 -2.66346236 51.02884253], [206.50432538986206]
[12.26712733 -2.49279495 51.02924662], [206.65488839149475]
[12.31700515 -2.30038416 51.02253312], [206.80526447296143]
[12.37833527 -2.10423689 51.00724883], [206.9593152999878]
[12.45160558 -1.90010871 50.99172753], [207.15038537979126]
[12.45694858 -1.7507772  50.99061894], [207.30247712135315]
[12.4966442  -1.57519615 50.9752094 ], [207.45080137252808]
[12.55318259 -1.39059479 50.95505633], [207.60143089294434]
[12.61934614 -1.19971424 50.93003469], [207.75246787071228]
[12.70268969 -0.9945232  50.89993625], [207.90006256103516]
[12.76306819 -0.77197783 50.87601009], [208.04684591293335]
[12.81598524 -0.52701206 50.85568891], [208.19461297988892]
[12.86495494 -0.26754651 50.84190459], [208.36991620063782]
[ 1.28689688e+01 -4.23389224e-02  5.08393163e+01], [208.5184404850006]
[12.88640479  0.20161291 50.82948776], [208.66644883155823]
[12.83909562  0.38937501 50.84089104], [208.81472730636597]
[12.8095608   0.58104077 50.8382598 ], [208.96257305145264]
[12.81018926  0.77236061 50.82201591], [209.11520624160767]
[12.83359054  0.96642819 50.79886169], [209.26473808288574]
[12.86446431  1.17418976 50.77369919], [209.42594003677368]
[12.82983841  1.33783891 50.76876361], [209.5725519657135]
[12.82403138  1.535263   50.7475658 ], [209.72545313835144]
[12.82160268  1.74526003 50.72367744], [209.90390253067017]
[12.83215363  1.96198511 50.69564412], [210.08436799049377]
[12.86538072  2.16151334 50.65685442], [210.2331531047821]
[12.89190713  2.37278281 50.62197931], [210.38285183906555]
[12.87256003  2.54282143 50.60497011], [210.5610113143921]
[12.84479037  2.75346127 50.59042802], [210.71037912368774]
[12.81421628  2.98347716 50.57392043], [210.85958337783813]
[12.79043203  3.20109673 50.55633996], [211.00726699829102]
[12.77705291  3.41928807 50.535748  ], [211.15554904937744]
[12.80081375  3.62003928 50.49668636], [211.33642625808716]
[12.77761943  3.79339465 50.46821559], [211.48999190330505]
[12.77574286  3.97902918 50.42933024], [211.63714480400085]
[12.76082667  4.17978276 50.39734328], [211.78572797775269]
[12.73853471  4.40255407 50.36804281], [211.93452429771423]
[12.72250547  4.61439874 50.33865661], [212.0831537246704]
[12.70937308  4.83426047 50.30721725], [212.23396825790405]
[12.71182712  5.03707165 50.2679741 ], [212.38378739356995]
[12.63596293  5.18400751 50.2542977 ], [212.53321433067322]
[12.5778248   5.35951528 50.23089307], [212.68025135993958]
[12.52405246  5.55138321 50.20749309], [212.82981705665588]
[12.49235479  5.72771286 50.17716461], [212.980233669281]
[12.44740794  5.91334068 50.15171012], [213.12701296806335]
[12.42193578  6.09014561 50.11543218], [213.27436685562134]
[12.39143632  6.2789215  50.08479791], [213.42642545700073]
[12.36076859  6.44563191 50.05428664], [213.5741150379181]
[12.32342718  6.65094722 50.02434826], [213.72363352775574]
[12.27423637  6.86173278 49.9964657 ], [213.87324571609497]
[12.2269432   7.06010911 49.96390676], [214.02084946632385]
[12.12725091  7.22692871 49.95240629], [214.16796040534973]
[12.04048807  7.39878008 49.93735797], [214.31483554840088]
[11.9594184   7.59646523 49.91448024], [214.48304295539856]
[11.86586305  7.78792451 49.89190686], [214.6312620639801]
[11.75921356  8.01573048 49.87461876], [214.78035283088684]
[11.64632743  8.25382084 49.85732934], [214.92790031433105]
[11.54083964  8.49215474 49.83702759], [215.07601737976074]
[11.43046503  8.72854928 49.81184015], [215.23081994056702]
[11.3037548   8.99255314 49.79008845], [215.3812644481659]
[11.12988726  9.21841216 49.78093903], [215.52952122688293]
[10.97596929  9.45159572 49.76611068], [215.71308088302612]
[10.80783243  9.69885416 49.75519668], [215.86361861228943]
[10.64729547  9.94411137 49.73551965], [216.0142228603363]
[10.48294709 10.20305318 49.71467664], [216.19607853889465]
[10.25178736 10.40369003 49.72689125], [216.34369897842407]
[10.05220914 10.60463992 49.72186452], [216.4915144443512]
[ 9.84299184 10.81960131 49.71315652], [216.6403193473816]
[ 9.67887638 11.01052874 49.68509995], [216.79311418533325]
[ 9.49455479 11.19804395 49.6649862 ], [216.94433498382568]
[ 9.35377327 11.36892646 49.62626913], [217.0932993888855]
[ 9.19920268 11.53677338 49.59826753], [217.24371790885925]
[ 9.03363452 11.72209514 49.5698585 ], [217.3955099582672]
[ 8.85387021 11.91774911 49.54426847], [217.54844498634338]
[ 8.68964409 12.08672967 49.51789211], [217.69748067855835]
[ 8.49578872 12.2507408  49.49662105], [217.8462791442871]
[ 8.31787741 12.38136404 49.48113586], [217.9944713115692]
[ 8.13465262 12.52621101 49.46630252], [218.1425278186798]
[ 7.96091919 12.66299982 49.4514331 ], [218.29315948486328]
[ 7.78048649 12.8054866  49.43743835], [218.4424295425415]
[ 7.6390983  12.93354574 49.41182364], [218.5908908843994]
[ 7.49252442 13.06371666 49.39003701], [218.74066376686096]
[ 7.3316187  13.2105026  49.36793597], [218.95919013023376]
[ 7.15623643 13.36875226 49.34480074], [219.14118671417236]
[ 7.01110186 13.48752643 49.32112488], [219.28952622413635]
[ 6.85793261 13.62014256 49.29711596], [219.43763613700867]
[ 6.68661902 13.75913647 49.2778045 ], [219.58683967590332]
[ 6.50199609 13.89636043 49.26331644], [219.7343144416809]
[ 6.32282368 14.02560211 49.24788952], [219.88436913490295]
[ 6.14988875 14.12262864 49.24152558], [220.03338265419006]
[ 5.98097243 14.17503109 49.25289109], [220.1801643371582]
[ 5.8099559  14.23334238 49.26013833], [220.33046984672546]
[ 5.61772011 14.30504645 49.26917381], [220.4836072921753]
[ 5.40915019 14.37997531 49.27825506], [220.63463401794434]
[ 5.18503869 14.4587877  49.28826757], [220.78490710258484]
[ 4.9521842  14.54012002 49.29916734], [221.00241804122925]
[ 4.72644927 14.62387682 49.29952745], [221.1517059803009]
[ 4.48463481 14.72335195 49.30054798], [221.30711340904236]
[ 4.24265751 14.82188867 49.33109259], [221.4647045135498]
[ 4.00469112 14.9085512  49.36337374], [221.6257336139679]
[ 3.75148097 15.00387852 49.40596877], [221.7740762233734]
[ 3.50351215 15.10560789 49.44266767], [221.95690727233887]
[ 3.20271313 15.11060606 49.47963144], [222.10932993888855]
[ 2.90439706 15.14877233 49.53459169], [222.26006484031677]
[ 2.60682687 15.17585262 49.57973137], [222.43094730377197]
[ 2.32285059 15.20232123 49.61854543], [222.59538555145264]
[ 2.04091664 15.23170488 49.6564377 ], [222.76360392570496]
[ 1.77088302 15.24453371 49.68465924], [222.92111372947693]
[ 1.52825219 15.23934341 49.70195896], [223.07590246200562]
[ 1.30612043 15.21469028 49.71419284], [223.23011136054993]
[ 1.06828278 15.1748552  49.73665107], [223.3831889629364]
[ 0.8120401  15.13357908 49.76880383], [223.53534364700317]
[ 0.54463384 15.09633146 49.80457308], [223.6828808784485]
[ 0.26363023 15.06539129 49.84343807], [223.83089590072632]
[2.31232774e-02 1.50235846e+01 4.98627047e+01], [223.97903156280518]
[-0.19166745 14.97442248 49.87643365], [224.1305708885193]
[-0.40429456 14.92275534 49.89368418], [224.27906560897827]
