[ 0.  0. 50.], [16.427871465682983]
[ 0.83333333  0.         50.        ], [17.67668342590332]
[ 1.66666667  0.         50.        ], [17.83601999282837]
[ 2.5  0.  50. ], [17.99434542655945]
[ 3.33333333  0.         50.        ], [18.145370721817017]
[ 4.16666667  0.         50.        ], [18.295688152313232]
[ 5.  0. 50.], [18.444156646728516]
[ 5.83333333  0.         50.        ], [18.593188762664795]
[ 6.66666667  0.         50.        ], [18.743099451065063]
[ 7.5  0.  50. ], [18.897817373275757]
[ 8.33333333  0.         50.        ], [19.053845405578613]
[ 9.16666667  0.         50.        ], [19.204456329345703]
[10.  0. 50.], [19.352975606918335]
[10.83333333  0.         50.        ], [19.506580591201782]
[11.66666667  0.         50.        ], [19.66017460823059]
[12.5  0.  50. ], [19.809033632278442]
[13.33333333  0.         50.        ], [19.95985722541809]
[14.16666667  0.         50.        ], [20.110629081726074]
[15.  0. 50.], [20.290602922439575]
[15.83333333  0.         50.        ], [20.51669478416443]
[16.66666667  0.         50.        ], [20.67603898048401]
[17.5  0.  50. ], [20.831233978271484]
[18.33333333  0.         50.        ], [20.99200201034546]
[19.16666667  0.         50.        ], [21.14398455619812]
[20.  0. 50.], [21.295196533203125]
[20.83333333  0.         50.        ], [21.446918725967407]
[21.66666667  0.         50.        ], [21.59836483001709]
[22.5  0.  50. ], [21.755090475082397]
[23.33333333  0.         50.        ], [21.917126893997192]
[24.16666667  0.         50.        ], [22.074907541275024]
[25.  0. 50.], [22.227143049240112]
[24.98766401  0.78526898 50.        ], [22.383177757263184]
[24.97224687  1.17766127 50.        ], [22.536009311676025]
[24.95066821  1.56976299 50.        ], [22.69303870201111]
[24.92293334  1.96147739 50.        ], [22.884199380874634]
[24.88904912  2.35270783 50.        ], [23.036561727523804]
[24.84902389  2.74335778 50.        ], [23.18743920326233]
[24.80286753  3.13333084 50.        ], [23.339985132217407]
[24.75059144  3.5225308  50.        ], [23.49221158027649]
[24.69220851  3.91086163 50.        ], [23.643123388290405]
[24.62773315  4.29822751 50.        ], [23.795574426651]
[24.55718127  4.68453286 50.        ], [23.988813161849976]
[24.48057027  5.06968238 50.        ], [24.17253041267395]
[24.39791905  5.45358103 50.        ], [24.3245689868927]
[24.30924801  5.8361341  50.        ], [24.475800037384033]
[24.21457903  6.21724718 50.        ], [24.632972240447998]
[24.11393546  6.59682625 50.        ], [24.794570207595825]
[24.00734214  6.97477765 50.        ], [24.953420400619507]
[23.89482537  7.35100813 50.        ], [25.111541271209717]
[23.77641291  7.72542486 50.        ], [25.268425703048706]
[23.65213397  8.09793545 50.        ], [25.438966274261475]
[23.52201922  8.46844801 50.        ], [25.622071266174316]
[23.38610077  8.83687109 50.        ], [25.785135507583618]
[23.24441215  9.20311382 50.        ], [25.938876390457153]
[23.09698831  9.56708581 50.        ], [26.09423327445984]
[22.94386564  9.92869727 50.        ], [26.246911764144897]
[22.78508192 10.28785897 50.        ], [26.39996361732483]
[22.62067631 10.64448229 50.        ], [26.55940079689026]
[22.45068939 10.99847925 50.        ], [26.719056367874146]
[22.2751631  11.34976249 50.        ], [26.888089895248413]
[22.09414075 11.69824536 50.        ], [27.070877075195312]
[21.907667   12.04384185 50.        ], [27.232768297195435]
[21.71578786 12.38646671 50.        ], [27.391988277435303]
[21.51855068 12.72603539 50.        ], [27.576714515686035]
[21.31600411 13.06246412 50.        ], [27.73303723335266]
[21.10819814 13.39566987 50.        ], [27.924274682998657]
[20.89518403 13.72557045 50.        ], [28.080325603485107]
[20.67701436 14.05208445 50.        ], [28.27449083328247]
[20.45374294 14.3751313  50.        ], [28.461546659469604]
[20.22542486 14.69463131 50.        ], [28.616036653518677]
[19.99211646 15.01050563 50.        ], [28.771588563919067]
[19.75387531 15.32267634 50.        ], [28.926841735839844]
[19.51076018 15.63106641 50.        ], [29.08117985725403]
[19.26283107 15.93559974 50.        ], [29.237345933914185]
[19.01014914 16.23620121 50.        ], [29.399284839630127]
[18.75277674 16.53279663 50.        ], [29.555729389190674]
[18.49077737 16.82531284 50.        ], [29.7098708152771]
[18.22421569 17.11367765 50.        ], [29.861708402633667]
[17.95315744 17.39781991 50.        ], [30.01440119743347]
[17.67766953 17.67766953 50.        ], [30.166749000549316]
[17.39781991 17.95315744 50.        ], [30.321807861328125]
[17.11367765 18.22421569 50.        ], [30.47601008415222]
[16.82531284 18.49077737 50.        ], [30.636099576950073]
[16.53279663 18.75277674 50.        ], [30.794373750686646]
[16.23620121 19.01014914 50.        ], [30.98249912261963]
[15.93559974 19.26283107 50.        ], [31.13651728630066]
[15.63106641 19.51076018 50.        ], [31.29326820373535]
[15.32267634 19.75387531 50.        ], [31.44705080986023]
[15.01050563 19.99211646 50.        ], [31.598899841308594]
[14.69463131 20.22542486 50.        ], [31.750133752822876]
[14.3751313  20.45374294 50.        ], [31.901871919631958]
[14.05208445 20.67701436 50.        ], [32.106141090393066]
[13.72557045 20.89518403 50.        ], [32.263301610946655]
[13.39566987 21.10819814 50.        ], [32.417800426483154]
[13.06246412 21.31600411 50.        ], [32.575448989868164]
[12.72603539 21.51855068 50.        ], [32.74663186073303]
[12.38646671 21.71578786 50.        ], [32.90175914764404]
[12.04384185 21.907667   50.        ], [33.08994936943054]
[11.69824536 22.09414075 50.        ], [33.24828910827637]
[11.34976249 22.2751631  50.        ], [33.40596413612366]
[10.99847925 22.45068939 50.        ], [33.575440406799316]
[10.64448229 22.62067631 50.        ], [33.73023796081543]
[10.28785897 22.78508192 50.        ], [33.885173082351685]
[ 9.92869727 22.94386564 50.        ], [34.07376551628113]
[ 9.56708581 23.09698831 50.        ], [34.26387047767639]
[ 9.20311382 23.24441215 50.        ], [34.420902252197266]
[ 8.83687109 23.38610077 50.        ], [34.577290058135986]
[ 8.46844801 23.52201922 50.        ], [34.73270773887634]
[ 8.09793545 23.65213397 50.        ], [34.887213468551636]
[ 7.72542486 23.77641291 50.        ], [35.041961908340454]
[ 7.35100813 23.89482537 50.        ], [35.19559383392334]
[ 6.97477765 24.00734214 50.        ], [35.35013699531555]
[ 6.59682625 24.11393546 50.        ], [35.50849676132202]
[ 6.21724718 24.21457903 50.        ], [35.674702167510986]
[ 5.8361341  24.30924801 50.        ], [35.835270404815674]
[ 5.45358103 24.39791905 50.        ], [35.98953914642334]
[ 5.06968238 24.48057027 50.        ], [36.15304923057556]
[ 4.68453286 24.55718127 50.        ], [36.32863903045654]
[ 4.29822751 24.62773315 50.        ], [36.48010301589966]
[ 3.91086163 24.69220851 50.        ], [36.641199588775635]
[ 3.5225308  24.75059144 50.        ], [36.79210019111633]
[ 3.13333084 24.80286753 50.        ], [36.94337463378906]
[ 2.74335778 24.84902389 50.        ], [37.094640254974365]
[ 2.35270783 24.88904912 50.        ], [37.246763944625854]
[ 1.96147739 24.92293334 50.        ], [37.39907121658325]
[ 1.56976299 24.95066821 50.        ], [37.554646015167236]
[ 1.17766127 24.97224687 50.        ], [37.708051443099976]
[ 0.78526898 24.98766401 50.        ], [37.85795521736145]
[ 0.39268293 24.99691581 50.        ], [38.02093195915222]
[1.5308085e-15 2.5000000e+01 5.0000000e+01], [38.172502279281616]
[-0.39268293 24.99691581 50.        ], [38.32442092895508]
[-0.78526898 24.98766401 50.        ], [38.50580382347107]
[-1.17766127 24.97224687 50.        ], [38.67872190475464]
[-1.56976299 24.95066821 50.        ], [38.82998085021973]
[-1.96147739 24.92293334 50.        ], [38.982133626937866]
[-2.35270783 24.88904912 50.        ], [39.13403010368347]
[-2.74335778 24.84902389 50.        ], [39.319880962371826]
[-3.13333084 24.80286753 50.        ], [39.47085475921631]
[-3.5225308  24.75059144 50.        ], [39.62229537963867]
[-3.91086163 24.69220851 50.        ], [39.80584907531738]
[-4.29822751 24.62773315 50.        ], [39.955745458602905]
[-4.68453286 24.55718127 50.        ], [40.10745596885681]
[-5.06968238 24.48057027 50.        ], [40.264891624450684]
[-5.45358103 24.39791905 50.        ], [40.42284631729126]
[-5.8361341  24.30924801 50.        ], [40.580779790878296]
[-6.21724718 24.21457903 50.        ], [40.731168270111084]
[-6.59682625 24.11393546 50.        ], [40.881306648254395]
[-6.97477765 24.00734214 50.        ], [41.03226852416992]
[-7.35100813 23.89482537 50.        ], [41.18220543861389]
[-7.72542486 23.77641291 50.        ], [41.34119963645935]
[-8.09793545 23.65213397 50.        ], [41.49146747589111]
[-8.46844801 23.52201922 50.        ], [41.64531898498535]
[-8.83687109 23.38610077 50.        ], [41.796887159347534]
[-9.20311382 23.24441215 50.        ], [41.94658589363098]
[-9.56708581 23.09698831 50.        ], [42.097332239151]
[-9.92869727 22.94386564 50.        ], [42.25297713279724]
[-10.28785897  22.78508192  50.        ], [42.41071391105652]
[-10.64448229  22.62067631  50.        ], [42.560211420059204]
[-10.99847925  22.45068939  50.        ], [42.71637153625488]
[-11.34976249  22.2751631   50.        ], [42.86654782295227]
[-11.69824536  22.09414075  50.        ], [43.0175895690918]
[-12.04384185  21.907667    50.        ], [43.168386459350586]
[-12.38646671  21.71578786  50.        ], [43.3499116897583]
[-12.72603539  21.51855068  50.        ], [43.50531840324402]
[-13.06246412  21.31600411  50.        ], [43.66566872596741]
[-13.39566987  21.10819814  50.        ], [43.825743675231934]
[-13.72557045  20.89518403  50.        ], [43.984405279159546]
[-14.05208445  20.67701436  50.        ], [44.1709349155426]
[-14.3751313   20.45374294  50.        ], [44.323649168014526]
[-14.69463131  20.22542486  50.        ], [44.48013663291931]
[-15.01050563  19.99211646  50.        ], [44.66634702682495]
[-15.32267634  19.75387531  50.        ], [44.84890651702881]
[-15.63106641  19.51076018  50.        ], [45.006197690963745]
[-15.93559974  19.26283107  50.        ], [45.16623616218567]
[-16.23620121  19.01014914  50.        ], [45.337377309799194]
[-16.53279663  18.75277674  50.        ], [45.49077892303467]
[-16.82531284  18.49077737  50.        ], [45.657718896865845]
[-17.11367765  18.22421569  50.        ], [45.83884263038635]
[-17.39781991  17.95315744  50.        ], [46.01874876022339]
[-17.67766953  17.67766953  50.        ], [46.1785831451416]
[-17.95315744  17.39781991  50.        ], [46.340795278549194]
[-18.22421569  17.11367765  50.        ], [46.530850410461426]
[-18.49077737  16.82531284  50.        ], [46.69548010826111]
[-18.75277674  16.53279663  50.        ], [46.85957741737366]
[-19.01014914  16.23620121  50.        ], [47.01210808753967]
[-19.26283107  15.93559974  50.        ], [47.16725277900696]
[-19.51076018  15.63106641  50.        ], [47.33433413505554]
[-19.75387531  15.32267634  50.        ], [47.4969916343689]
[-19.99211646  15.01050563  50.        ], [47.65022373199463]
[-20.22542486  14.69463131  50.        ], [47.86220598220825]
[-20.45374294  14.3751313   50.        ], [48.03023958206177]
[-20.67701436  14.05208445  50.        ], [48.22062039375305]
[-20.89518403  13.72557045  50.        ], [48.3783073425293]
[-21.10819814  13.39566987  50.        ], [48.53054857254028]
[-21.31600411  13.06246412  50.        ], [48.684727907180786]
[-21.51855068  12.72603539  50.        ], [48.83722519874573]
[-21.71578786  12.38646671  50.        ], [48.9927773475647]
[-21.907667    12.04384185  50.        ], [49.142512798309326]
[-22.09414075  11.69824536  50.        ], [49.295018911361694]
[-22.2751631   11.34976249  50.        ], [49.455864906311035]
[-22.45068939  10.99847925  50.        ], [49.61331367492676]
[-22.62067631  10.64448229  50.        ], [49.802613258361816]
[-22.78508192  10.28785897  50.        ], [49.954230308532715]
[-22.94386564   9.92869727  50.        ], [50.11058974266052]
[-23.09698831   9.56708581  50.        ], [50.26112771034241]
[-23.24441215   9.20311382  50.        ], [50.413986921310425]
[-23.38610077   8.83687109  50.        ], [50.56343960762024]
[-23.52201922   8.46844801  50.        ], [50.71909236907959]
[-23.65213397   8.09793545  50.        ], [50.8704354763031]
[-23.77641291   7.72542486  50.        ], [51.02160358428955]
[-23.89482537   7.35100813  50.        ], [51.17788219451904]
[-24.00734214   6.97477765  50.        ], [51.33420133590698]
[-24.11393546   6.59682625  50.        ], [51.49033260345459]
[-24.21457903   6.21724718  50.        ], [51.64597725868225]
[-24.30924801   5.8361341   50.        ], [51.81021165847778]
[-24.39791905   5.45358103  50.        ], [51.96133494377136]
[-24.48057027   5.06968238  50.        ], [52.11598038673401]
[-24.55718127   4.68453286  50.        ], [52.26664972305298]
[-24.62773315   4.29822751  50.        ], [52.41818165779114]
[-24.69220851   3.91086163  50.        ], [52.60658812522888]
[-24.75059144   3.5225308   50.        ], [52.75927782058716]
[-24.80286753   3.13333084  50.        ], [52.9106023311615]
[-24.84902389   2.74335778  50.        ], [53.064621686935425]
[-24.88904912   2.35270783  50.        ], [53.21804118156433]
[-24.92293334   1.96147739  50.        ], [53.37284874916077]
[-24.95066821   1.56976299  50.        ], [53.52679371833801]
[-24.97224687   1.17766127  50.        ], [53.71539568901062]
[-24.98766401   0.78526898  50.        ], [53.869481563568115]
[-24.99691581   0.39268293  50.        ], [54.02440810203552]
[-2.500000e+01  3.061617e-15  5.000000e+01], [54.1803195476532]
[-24.99691581  -0.39268293  50.        ], [54.33479070663452]
[-24.98766401  -0.78526898  50.        ], [54.48646545410156]
[-24.97224687  -1.17766127  50.        ], [54.638076066970825]
[-24.95066821  -1.56976299  50.        ], [54.79168105125427]
[-24.92293334  -1.96147739  50.        ], [54.968130350112915]
[-24.88904912  -2.35270783  50.        ], [55.125189781188965]
[-24.84902389  -2.74335778  50.        ], [55.28304386138916]
[-24.80286753  -3.13333084  50.        ], [55.440589427948]
[-24.75059144  -3.5225308   50.        ], [55.60651516914368]
[-24.69220851  -3.91086163  50.        ], [55.79599595069885]
[-24.62773315  -4.29822751  50.        ], [55.969303369522095]
[-24.55718127  -4.68453286  50.        ], [56.14593482017517]
[-24.48057027  -5.06968238  50.        ], [56.334794759750366]
[-24.39791905  -5.45358103  50.        ], [56.504966735839844]
[-24.30924801  -5.8361341   50.        ], [56.668241024017334]
[-24.21457903  -6.21724718  50.        ], [56.83898663520813]
[-24.11393546  -6.59682625  50.        ], [57.040443897247314]
[-24.00734214  -6.97477765  50.        ], [57.21154475212097]
[-23.89482537  -7.35100813  50.        ], [57.37775492668152]
[-23.77641291  -7.72542486  50.        ], [57.5378098487854]
[-23.65213397  -8.09793545  50.        ], [57.69928765296936]
[-23.52201922  -8.46844801  50.        ], [57.88939690589905]
[-23.38610077  -8.83687109  50.        ], [58.07782316207886]
[-23.24441215  -9.20311382  50.        ], [58.270344972610474]
[-23.09698831  -9.56708581  50.        ], [58.45640969276428]
[-22.94386564  -9.92869727  50.        ], [58.632994413375854]
[-22.78508192 -10.28785897  50.        ], [58.799861907958984]
[-22.62067631 -10.64448229  50.        ], [58.956374406814575]
[-22.45068939 -10.99847925  50.        ], [59.11571550369263]
[-22.2751631  -11.34976249  50.        ], [59.305805921554565]
[-22.09414075 -11.69824536  50.        ], [59.464168071746826]
[-21.907667   -12.04384185  50.        ], [59.61289191246033]
[-21.71578786 -12.38646671  50.        ], [59.76241707801819]
[-21.51855068 -12.72603539  50.        ], [59.93260169029236]
[-21.31600411 -13.06246412  50.        ], [60.08284521102905]
[-21.10819814 -13.39566987  50.        ], [60.23787999153137]
[-20.89518403 -13.72557045  50.        ], [60.403093576431274]
[-20.67701436 -14.05208445  50.        ], [60.56824326515198]
[-20.45374294 -14.3751313   50.        ], [60.72460746765137]
[-20.22542486 -14.69463131  50.        ], [60.87911820411682]
[-19.99211646 -15.01050563  50.        ], [61.02984118461609]
[-19.75387531 -15.32267634  50.        ], [61.18381071090698]
[-19.51076018 -15.63106641  50.        ], [61.34740996360779]
[-19.26283107 -15.93559974  50.        ], [61.49957752227783]
[-19.01014914 -16.23620121  50.        ], [61.65611147880554]
[-18.75277674 -16.53279663  50.        ], [61.80641770362854]
[-18.49077737 -16.82531284  50.        ], [61.97348403930664]
[-18.22421569 -17.11367765  50.        ], [62.133748054504395]
[-17.95315744 -17.39781991  50.        ], [62.29024267196655]
[-17.67766953 -17.67766953  50.        ], [62.450669050216675]
[-17.39781991 -17.95315744  50.        ], [62.617875814437866]
[-17.11367765 -18.22421569  50.        ], [62.76847052574158]
[-16.82531284 -18.49077737  50.        ], [62.92103910446167]
[-16.53279663 -18.75277674  50.        ], [63.070051193237305]
[-16.23620121 -19.01014914  50.        ], [63.21931004524231]
[-15.93559974 -19.26283107  50.        ], [63.36852478981018]
[-15.63106641 -19.51076018  50.        ], [63.51832914352417]
[-15.32267634 -19.75387531  50.        ], [63.67285490036011]
[-15.01050563 -19.99211646  50.        ], [63.82257604598999]
[-14.69463131 -20.22542486  50.        ], [63.973002672195435]
[-14.3751313  -20.45374294  50.        ], [64.1235454082489]
[-14.05208445 -20.67701436  50.        ], [64.27644515037537]
[-13.72557045 -20.89518403  50.        ], [64.42866158485413]
[-13.39566987 -21.10819814  50.        ], [64.61142158508301]
[-13.06246412 -21.31600411  50.        ], [64.80570101737976]
[-12.72603539 -21.51855068  50.        ], [64.96427893638611]
[-12.38646671 -21.71578786  50.        ], [65.12507176399231]
[-12.04384185 -21.907667    50.        ], [65.28350019454956]
[-11.69824536 -22.09414075  50.        ], [65.44191718101501]
[-11.34976249 -22.2751631   50.        ], [65.59763956069946]
[-10.99847925 -22.45068939  50.        ], [65.75037884712219]
[-10.64448229 -22.62067631  50.        ], [65.91935801506042]
[-10.28785897 -22.78508192  50.        ], [66.08570504188538]
[ -9.92869727 -22.94386564  50.        ], [66.24240636825562]
[ -9.56708581 -23.09698831  50.        ], [66.40232539176941]
[ -9.20311382 -23.24441215  50.        ], [66.55264210700989]
[ -8.83687109 -23.38610077  50.        ], [66.71255922317505]
