[1.11022302e-14 0.00000000e+00 5.00000000e+01], [16.427453994750977]
[1.49944319e-14 1.19719783e-14 5.00000000e+01], [17.676281690597534]
[6.20169282e-02 8.28332561e-04 5.00352606e+01], [17.835620641708374]
[1.93357162e-01 5.59934596e-04 5.00896401e+01], [17.993912935256958]
[ 3.98957713e-01 -8.09405804e-04  5.01606918e+01], [18.145054578781128]
[ 6.79754267e-01 -1.31182939e-03  5.02457429e+01], [18.295353889465332]
[ 1.03813425e+00 -1.94527026e-03  5.03441882e+01], [18.443850994110107]
[1.46297573e+00 5.24723016e-03 5.04474971e+01], [18.592613220214844]
[ 1.91580369e+00 -1.03834811e-02  5.05365932e+01], [18.742701768875122]
[ 2.44527642e+00 -8.86724224e-03  5.06501248e+01], [18.897549867630005]
[ 3.03264540e+00 -2.15789369e-03  5.07616783e+01], [19.053351163864136]
[3.64407371e+00 1.25399340e-02 5.08568071e+01], [19.203972101211548]
[ 4.29392441  0.05332217 50.95362395], [19.35252046585083]
[ 4.96109954  0.1000419  51.03690016], [19.50628662109375]
[ 5.67782863  0.13801956 51.12838511], [19.659762144088745]
[ 6.44311482  0.20657302 51.21761557], [19.808677196502686]
[ 7.21548896  0.25493222 51.2815463 ], [19.959521532058716]
[ 8.02253478  0.32534836 51.34542042], [20.109814167022705]
[ 8.79238489  0.4223503  51.36797933], [20.290104389190674]
[ 9.57140489  0.50021355 51.38847819], [20.51635432243347]
[10.28918983  0.60808503 51.36685639], [20.675763607025146]
[10.96729914  0.75916955 51.32843929], [20.83081030845642]
[11.58659657  0.92112431 51.26411188], [20.99150252342224]
[12.18319168  1.10485952 51.19554818], [21.142974615097046]
[12.78645216  1.25819568 51.13003975], [21.294553995132446]
[13.35709319  1.34797658 51.04791793], [21.446253538131714]
[13.92134715  1.43670759 50.96645536], [21.597766876220703]
[14.45648559  1.58712372 50.87281804], [21.754655122756958]
[14.9615927   1.70512304 50.77150599], [21.916736602783203]
[15.46761393  1.95224941 50.67161504], [22.07439351081848]
[15.92872653  2.12877545 50.55738104], [22.22658920288086]
[16.21342158  2.32086458 50.91307111], [22.382423162460327]
[16.39084897  2.5372249  51.35212467], [22.53539490699768]
[16.43346003  2.7824942  51.86746014], [22.69245958328247]
[16.18167587  3.05436142 52.54011441], [22.88387966156006]
[15.83831411  3.2990207  53.21055868], [23.03632926940918]
[15.21144714  3.39836322 54.03740469], [23.18714213371277]
[14.58604608  3.44355942 54.80378654], [23.33969759941101]
[14.0202208   3.41240194 55.44167698], [23.491832733154297]
[13.56319462  3.15102378 55.87787199], [23.642627239227295]
[13.27414934  2.69854056 56.09664512], [23.79480290412903]
[13.17462235  2.35533395 56.00082438], [23.988560438156128]
[13.06397192  2.07976836 55.79746763], [24.17194652557373]
[12.88430755  2.21904    55.48640598], [24.324252128601074]
[12.57172195  2.68368903 55.23630762], [24.475137948989868]
[12.20581597  3.24259987 55.05507959], [24.631956577301025]
[11.86981472  3.73610383 54.91250747], [24.79418659210205]
[11.44184464  4.37746771 54.89509395], [24.95322060585022]
[11.22346017  4.57583429 54.80732211], [25.11130452156067]
[11.0597071   4.65040737 54.79710348], [25.26798367500305]
[10.94644628  4.26438969 54.88109049], [25.438717126846313]
[10.9710812   4.02242971 54.88480689], [25.621721029281616]
[11.00239316  3.80947811 54.85763603], [25.784741163253784]
[11.09834612  4.06943928 54.66528587], [25.938530445098877]
[11.05238266  4.41466395 54.53066143], [26.093791961669922]
[10.84827795  4.9681477  54.47170442], [26.246338367462158]
[10.72823085  5.47394162 54.36888044], [26.399708032608032]
[10.55213268  5.88419367 54.34674012], [26.559179067611694]
[10.39207574  6.16650138 54.35644201], [26.718881607055664]
[10.30177458  6.39939752 54.39150844], [26.887738704681396]
[10.21078355  6.42238211 54.48099734], [27.070568084716797]
[10.12429217  6.44094009 54.58190011], [27.23239827156067]
[10.05584724  6.44684238 54.67833641], [27.391905784606934]
[ 9.97036908  6.5864345  54.70799122], [27.576477766036987]
[ 9.91114146  6.72972174 54.71700757], [27.732628107070923]
[ 9.85531973  6.93224114 54.67888848], [27.923938512802124]
[ 9.72733873  7.18531928 54.66016125], [28.080021142959595]
[ 9.5057495   7.36514835 54.70529971], [28.274121046066284]
[ 9.32256771  7.58836118 54.71491268], [28.461121320724487]
[ 9.15024436  7.65884407 54.7881066 ], [28.615638732910156]
[ 9.02158238  7.76188182 54.81465971], [28.77126669883728]
[ 8.92844475  7.85848024 54.82397048], [28.926496982574463]
[ 8.86019708  7.99864825 54.78638524], [29.08080744743347]
[ 8.81079491  8.12568154 54.73526353], [29.237090349197388]
[ 8.74713034  8.28326519 54.677884  ], [29.398892402648926]
[ 8.66378171  8.44997038 54.61529398], [29.5554518699646]
[ 8.55855496  8.64622987 54.54932375], [29.70951533317566]
[ 8.43433363  8.86352536 54.49849155], [29.86137557029724]
[ 8.26518142  9.09138525 54.47060575], [30.013967752456665]
[ 8.1252233   9.26401367 54.45225201], [30.166410446166992]
[ 7.94785026  9.46885331 54.44839792], [30.321509838104248]
[ 7.78068137  9.59522352 54.47683225], [30.475670337677002]
[ 7.61821735  9.72899371 54.52198111], [30.635759592056274]
[ 7.50500057  9.84287509 54.54764839], [30.79400062561035]
[ 7.43887961  9.94153354 54.54666162], [30.982192277908325]
[ 7.31880797  9.95531941 54.58622435], [31.136146306991577]
[ 7.21383263 10.00290377 54.60005352], [31.292888641357422]
[ 7.04858468 10.07499691 54.62457348], [31.44653081893921]
[ 6.91060687 10.17193996 54.64264771], [31.598597526550293]
[ 6.69884386 10.35005751 54.62439018], [31.749670267105103]
[ 6.49395577 10.50816134 54.59453502], [31.90155339241028]
[ 6.27080722 10.65927996 54.58214291], [32.10584044456482]
[ 6.09390868 10.81688542 54.55586969], [32.263010025024414]
[ 5.94587491 10.88984192 54.54490749], [32.417418003082275]
[ 5.80178478 10.9043885  54.57017204], [32.5750048160553]
[ 5.62628601 10.98065546 54.60455539], [32.746044635772705]
[ 5.46644845 11.06420267 54.60787854], [32.901480197906494]
[ 5.38862584 11.13729199 54.56662156], [33.08959484100342]
[ 5.24140909 11.22518393 54.54803627], [33.24766421318054]
[ 5.14653919 11.27142415 54.50637382], [33.405616760253906]
[ 5.00895121 11.35666267 54.46732622], [33.575106143951416]
[ 4.84481653 11.449238   54.43560181], [33.72963047027588]
[ 4.66434193 11.58888403 54.37763255], [33.88489603996277]
[ 4.48341095 11.75397699 54.30380456], [34.07352328300476]
[ 4.27021565 11.90175464 54.24647332], [34.263585329055786]
[ 4.07479025 12.003857   54.22310243], [34.42057943344116]
[ 3.88337718 12.13896295 54.18617003], [34.57698059082031]
[ 3.68503192 12.22756505 54.20522676], [34.7322518825531]
[ 3.47661942 12.35304066 54.21075834], [34.886993169784546]
[ 3.30118088 12.44289969 54.21096127], [35.04162883758545]
[ 3.18572963 12.51273565 54.19541935], [35.19535255432129]
[ 2.98629906 12.53791654 54.24106538], [35.34974431991577]
[ 2.84369509 12.58298819 54.25260113], [35.50809621810913]
[ 2.66188848 12.64269776 54.2627359 ], [35.674505949020386]
[ 2.54608608 12.69480915 54.24754552], [35.835041522979736]
[ 2.36070453 12.76309652 54.25096303], [35.989073276519775]
[ 2.15760799 12.84184715 54.21598806], [36.152750968933105]
[ 1.92424258 12.91244183 54.20847362], [36.32824897766113]
[ 1.73511636 12.9811469  54.17905807], [36.47987198829651]
[ 1.49003034 13.04089088 54.16294476], [36.64098286628723]
[ 1.28812363 13.05685709 54.172733  ], [36.79179072380066]
[ 1.11286455 13.08719175 54.16833838], [36.943035364151]
[ 0.92809305 13.11839161 54.16789373], [37.09440088272095]
[ 0.7683643  13.10837454 54.18818222], [37.24648833274841]
[ 0.61896703 13.10948318 54.19801002], [37.39858317375183]
[ 0.51625461 13.10916257 54.20362616], [37.55362892150879]
[ 0.369829   13.13564695 54.18688081], [37.70742917060852]
[ 0.21368481 13.14510507 54.18811511], [37.857586145401]
[-8.69598991e-03  1.31967018e+01  5.41420505e+01], [38.02053356170654]
[-0.26272357 13.22388983 54.11793222], [38.1718544960022]
[-0.56500051 13.22121862 54.11726239], [38.323973655700684]
[-0.81149914 13.20747057 54.12405174], [38.50544023513794]
[-1.11995943 13.17047443 54.14863268], [38.678277254104614]
[-1.40830586 13.11473899 54.20085951], [38.82939434051514]
[-1.62862886 13.05302763 54.24928878], [38.98177409172058]
[-1.79707674 12.98751772 54.2986076 ], [39.13330125808716]
[-1.94638497 12.92041125 54.34965734], [39.31945466995239]
[-2.11300044 12.89584547 54.35681563], [39.47012805938721]
[-2.2816921  12.87148977 54.35337087], [39.62188386917114]
[-2.49025557 12.8241624  54.34835097], [39.80566477775574]
[-2.70056308 12.78310514 54.33338859], [39.955379247665405]
[-2.94267116 12.73279151 54.31110802], [40.106990814208984]
[-3.22331309 12.6672432  54.29432739], [40.26436233520508]
[-3.45544604 12.58614667 54.29029129], [40.42236566543579]
[-3.71369031 12.50563959 54.27972163], [40.580644845962524]
[-3.90032797 12.42115219 54.2830887 ], [40.730528354644775]
[-3.98635002 12.38595099 54.27134399], [40.88072466850281]
[-4.13604824 12.3321944  54.26646542], [41.03084397315979]
[-4.2821191  12.27790497 54.2588202 ], [41.18169832229614]
[-4.44601104 12.26185011 54.21390626], [41.34074425697327]
[-4.62548149 12.26161764 54.15389569], [41.49096322059631]
[-4.81918051 12.2601012  54.08848835], [41.6449089050293]
[-5.05294588 12.24143406 54.02361835], [41.79670429229736]
[-5.32696581 12.18886513 53.99666687], [41.94614386558533]
[-5.6035624  12.12418112 53.97703199], [42.0968132019043]
[-5.84974054 12.04563801 53.97950098], [42.25266146659851]
[-6.06059736 11.94832901 54.00739842], [42.409584522247314]
[-6.23704794 11.86648036 54.0219402 ], [42.559916257858276]
[-6.33060503 11.77523939 54.08048918], [42.71602916717529]
[-6.43527134 11.68109114 54.13674138], [42.86564350128174]
[-6.49147757 11.63853072 54.1616677 ], [43.01728558540344]
[-6.58601039 11.57390412 54.17415096], [43.16739296913147]
[-6.71798838 11.52897224 54.14892785], [43.34946894645691]
[-6.87389122 11.46098986 54.12658287], [43.50481653213501]
[-7.09131266 11.34394443 54.12542425], [43.66538405418396]
[-7.31492715 11.22914307 54.12435798], [43.82483220100403]
[-7.56987531 11.0671354  54.14233308], [43.984034061431885]
[-7.74987176 10.90309288 54.18084528], [44.17059540748596]
[-7.90137982 10.73766329 54.22907503], [44.32327651977539]
[-8.06163842 10.57900883 54.26406523], [44.47984457015991]
[-8.25540915 10.46278241 54.23882046], [44.66520118713379]
[-8.41408674 10.38618143 54.18900539], [44.84849524497986]
[-8.48656372 10.28788555 54.17584209], [45.005879163742065]
[-8.59625184 10.17917438 54.16787914], [45.16595649719238]
[-8.74724423 10.04388555 54.14393783], [45.337127923965454]
[-8.91194504  9.90062069 54.12124593], [45.49041795730591]
[-9.09211416  9.73017348 54.11631609], [45.65716195106506]
[-9.29551519  9.53984941 54.10965863], [45.83849096298218]
[-9.51172278  9.33668627 54.10273553], [46.01846504211426]
[-9.72013418  9.24874622 54.02968895], [46.178253412246704]
[-9.85185923  9.12873726 54.00491235], [46.34045171737671]
[-10.00276329   8.99895452  53.97310265], [46.53041076660156]
[-10.15867227   8.8665855   53.94111958], [46.69523739814758]
[-10.30233008   8.74134667  53.91417365], [46.859241008758545]
[-10.45127069   8.59942611  53.89736442], [47.01173686981201]
[-10.6099       8.43696048  53.8883263 ], [47.16702151298523]
[-10.77285842   8.25339696  53.88109231], [47.33328437805176]
[-10.93574093   8.0764762   53.87005758], [47.496708393096924]
[-10.99568065   7.96530667  53.860761  ], [47.64945864677429]
[-11.07211445   7.84017174  53.8535973 ], [47.86184072494507]
[-11.17170558   7.69340304  53.84435346], [48.02988028526306]
[-11.28998266   7.53997351  53.82960774], [48.220268964767456]
[-11.4126073    7.37806827  53.81200109], [48.37804651260376]
[-11.53359877   7.26666969  53.76109008], [48.53019952774048]
[-11.67899138   7.12767005  53.70630225], [48.68441605567932]
[-11.82315191   6.99853816  53.64772532], [48.836856842041016]
[-11.96669963   6.86344517  53.59086022], [48.99235558509827]
[-12.11311036   6.71937747  53.53395039], [49.14217519760132]
[-12.24784115   6.56988303  53.48174867], [49.29464912414551]
[-12.34136286   6.4674973   53.44281251], [49.45541310310364]
[-12.44823014   6.33470342  53.41023218], [49.61315441131592]
[-12.55646027   6.17694042  53.38917165], [49.80226707458496]
[-12.6737533    5.99289327  53.36802368], [49.95380878448486]
[-12.78557834   5.81620853  53.34500774], [50.110183000564575]
[-13.09792956   5.37030813  53.38151711], [50.260701179504395]
[-13.19524778   5.20420523  53.36975687], [50.41366171836853]
[-13.24079476   5.07479464  53.3653302 ], [50.56315755844116]
[-13.22586433   5.04801941  53.33346719], [50.71873378753662]
[-13.21508335   4.93876187  53.33669629], [50.87008857727051]
[-13.16918168   4.81490217  53.36297009], [51.0211923122406]
[-13.12174813   4.67801899  53.39201349], [51.177348136901855]
[-13.17122992   4.4907954   53.37616295], [51.33389353752136]
[-13.24839381   4.29046308  53.34686857], [51.49000144004822]
[-13.37092698   4.14321385  53.25719242], [51.6452522277832]
[-13.49917292   3.95854019  53.17370053], [51.80987882614136]
[-13.6251058    3.72986693  53.09396624], [51.96102738380432]
[-13.73929076   3.51013649  53.0126175 ], [52.11533164978027]
[-13.85153531   3.26850697  52.95480199], [52.26633930206299]
[-13.90856245   3.05913933  52.91838537], [52.41789984703064]
[-13.96948171   2.82752585  52.90001681], [52.60626673698425]
[-13.99179523   2.62300239  52.90316135], [52.75907278060913]
[-14.05994858   2.4381285   52.88777618], [52.91022539138794]
[-14.11825065   2.26001447  52.8702262 ], [53.063979387283325]
[-14.16731311   2.05075611  52.85655014], [53.21771574020386]
[-14.21752754   1.81554933  52.84390319], [53.37276840209961]
[-14.26859015   1.63704488  52.81335217], [53.52637434005737]
[-14.29486386   1.43472931  52.80825954], [53.71506118774414]
[-14.31383513   1.2172328   52.79769734], [53.86902356147766]
[-14.38707925   0.99143174  52.76982012], [54.02412700653076]
[-14.45241575   0.77616248  52.73536152], [54.18011116981506]
[-14.50818126   0.52740541  52.69878079], [54.334502935409546]
[-14.56773221   0.24841707  52.66599453], [54.4858500957489]
[-1.45995295e+01 -1.59554272e-02  5.26423465e+01], [54.63756775856018]
[-14.62039306  -0.29794767  52.64194531], [54.79133057594299]
[-14.62741683  -0.5264868   52.64093691], [54.96754717826843]
[-14.60208834  -0.75678812  52.66813405], [55.12482237815857]
[-14.57629471  -0.97544643  52.70745103], [55.28278160095215]
[-14.54148423  -1.20338968  52.74592311], [55.44024038314819]
[-14.52633187  -1.3917111   52.72574933], [55.606213092803955]
[-14.51410934  -1.60818101  52.75676827], [55.79578638076782]
[-14.50633073  -1.81256191  52.79232193], [55.96886873245239]
[-14.49009714  -2.05779285  52.82112064], [56.145548820495605]
[-14.46606861  -2.33156071  52.85530479], [56.334354400634766]
[-14.37223513  -2.55695055  52.93357746], [56.50463056564331]
[-14.28998663  -2.76329452  53.01521796], [56.66791033744812]
[-14.18812704  -2.96508378  53.12552761], [56.83864784240723]
[-14.08214607  -3.15426572  53.22946384], [57.04005789756775]
[-14.03311738  -3.35364566  53.2923439 ], [57.211299419403076]
[-13.96299045  -3.54394846  53.37462377], [57.37723135948181]
[-13.93578065  -3.73812024  53.42732145], [57.537503480911255]
[-13.81383709  -3.92794872  53.51191052], [57.69903349876404]
[-13.61739535  -4.10198823  53.65343624], [57.88918662071228]
[-13.50271504  -4.31736557  53.72537499], [58.077502727508545]
[-13.36652747  -4.50045582  53.83164133], [58.270166635513306]
[-13.31964516  -4.58179728  53.92678245], [58.456181049346924]
[-13.14178204  -4.68117316  54.08032387], [58.63264179229736]
[-13.0363436   -4.81280951  54.16758485], [58.79953336715698]
[-12.80268276  -4.99591903  54.29293668], [58.95611262321472]
[-12.72548422  -5.18196051  54.31562234], [59.11535906791687]
[-12.50637937  -5.42302816  54.39960609], [59.30562448501587]
[-12.34253427  -5.47257246  54.53472753], [59.46368074417114]
[-12.11336298  -5.60265559  54.66845972], [59.61251258850098]
[-11.93624004  -5.56349037  54.8684981 ], [59.762202978134155]
[-11.77027968  -5.6350568   54.99534771], [59.93224263191223]
[-11.61815213  -5.68185539  55.14182223], [60.08246636390686]
[-11.47666692  -5.81177283  55.17377441], [60.23749351501465]
[-11.26120146  -5.94193784  55.24585109], [60.402048110961914]
[-11.00876262  -6.09900755  55.31514011], [60.56769108772278]
[-10.69497328  -6.3402167   55.37293738], [60.7242476940155]
[-10.3655698   -6.595664    55.41861523], [60.87874150276184]
[-10.02879008  -6.80922839  55.50928177], [61.02940225601196]
[-9.72026594 -6.96094307 55.57525801], [61.18342900276184]
[-9.52336148 -7.09403875 55.65020095], [61.34713125228882]
[-9.4335775  -6.99568988 55.76777376], [61.49926781654358]
[-9.40876517 -6.88770204 55.88242854], [61.65545153617859]
[-9.39634682 -6.7560287  55.95697734], [61.80602192878723]
[-9.49205697 -6.77552569 55.89617786], [61.973071575164795]
[-9.36453687 -6.7913601  55.91613928], [62.133500814437866]
[-9.06695456 -7.1762821  55.81762506], [62.29012966156006]
[-8.61888191 -7.46581251 55.78679301], [62.45025897026062]
[-8.05769251 -7.89463867 55.91530331], [62.6174681186676]
[-7.53465581 -7.85415092 56.04196422], [62.76821422576904]
[-7.16242332 -7.83809481 56.38281244], [62.92073678970337]
[-6.75706047 -7.37991966 56.66920671], [63.069721937179565]
[-6.50277049 -6.87591789 57.19360158], [63.21896958351135]
[-5.81545115 -5.99598829 57.82179558], [63.36808156967163]
[-4.46380732 -4.95587222 57.63962485], [63.518014430999756]
[-4.11650025 -3.92781681 58.37682627], [63.672606229782104]
[-1.43367367 -3.69867917 58.33945963], [63.822181701660156]
[-1.09024454 -2.46057915 59.80761039], [63.97262620925903]
[ 3.22111139 -4.55875632 58.97162921], [64.12322759628296]
[ 0.35130878 -0.90690195 59.67630183], [64.27615809440613]
[ 2.60291576 -6.12216892 57.64189292], [64.42823600769043]
[ 3.63361449 -3.97972918 60.44065907], [64.61133575439453]
[ 3.94710758 -6.38442022 56.66009768], [64.80534648895264]
[ 6.15123113 -8.03546882 58.98839096], [64.9638159275055]
[ 3.43123738 -7.85129379 54.52000577], [65.12480139732361]
[ -0.97009376 -13.48806147  56.80307665], [65.28315830230713]
[ -3.10734029 -12.84948584  56.18396688], [65.4415590763092]
[ -5.47002393 -13.75270439  54.4728766 ], [65.59713315963745]
[ -4.73451319 -14.19024661  55.89557695], [65.75012302398682]
[ -7.21161548 -10.18752463  61.46106352], [65.91894435882568]
[ -4.79947859 -15.01157315  59.160314  ], [66.08533430099487]
[-10.20208978 -16.01525836  53.31461471], [66.24208116531372]
[-15.58051853 -12.72323723  54.18395514], [66.40206289291382]
[-5.80153725 -8.26239913 61.7271545 ], [66.55227398872375]
[-5.93570215 -9.15704894 61.7543475 ], [66.71218395233154]
