0,0,5,-5.470000e+00,-2.600000e-01,-6.260000e+00,2.000000e+00,10,2.000000e+00
0,0,5,-5.210000e+00,-2.600000e-01,-6.260000e+00,3.333333e+00,10,3.333333e+00
0,0,5,-5.210000e+00,-2.600000e-01,-6.260000e+00,4.000000e+00,10,4.000000e+00
-3.370000e+00,1.050000e+00,1.374000e+01,7.800000e-01,-1.820000e+00,1.040000e+00,5.333333e+00,10,5.333333e+00
-2.970000e+00,-3.000000e-02,1.445000e+01,1.040000e+00,-1.560000e+00,1.560000e+00,6.000000e+00,10,6.000000e+00
-2.660000e+00,-9.000000e-02,1.469000e+01,1.300000e+00,-1.560000e+00,1.040000e+00,6.666667e+00,10,6.666667e+00
-2.600000e+00,-1.800000e-01,1.482000e+01,2.090000e+00,-1.560000e+00,1.820000e+00,7.333333e+00,10,7.333333e+00
-2.180000e+00,-2.800000e-01,1.507000e+01,2.090000e+00,-1.560000e+00,2.610000e+00,8.000000e+00,10,8.000000e+00
-2.240000e+00,-6.700000e-01,1.527000e+01,3.130000e+00,-1.560000e+00,2.610000e+00,8.666667e+00,10,8.666667e+00
-2,-8.600000e-01,1.550000e+01,3.650000e+00,-1.560000e+00,3.650000e+00,9.333333e+00,10,9.333333e+00
-1.870000e+00,-1.210000e+00,1.570000e+01,3.650000e+00,-1.560000e+00,3.390000e+00,10,10,10
-1.740000e+00,-1.300000e+00,1.576000e+01,4.950000e+00,-1.560000e+00,4.170000e+00,1.066667e+01,10,1.066667e+01
-1.500000e+00,-1.690000e+00,1.606000e+01,5.990000e+00,-1.560000e+00,5.730000e+00,1.133333e+01,10,1.133333e+01
-1.300000e+00,-2.220000e+00,1.633000e+01,5.730000e+00,-1.560000e+00,5.730000e+00,1.200000e+01,10,1.200000e+01
-1.290000e+00,-2.310000e+00,1.633000e+01,6.780000e+00,-1.560000e+00,6.260000e+00,1.266667e+01,10,1.266667e+01
-8.300000e-01,-2.620000e+00,1.652000e+01,6.780000e+00,-1.560000e+00,6.260000e+00,1.333333e+01,10,1.333333e+01
-9.100000e-01,-2.790000e+00,1.661000e+01,7.560000e+00,-1.820000e+00,7.040000e+00,1.400000e+01,10,1.400000e+01
-6.000000e-01,-2.950000e+00,1.672000e+01,7.560000e+00,-1.560000e+00,7.560000e+00,1.466667e+01,10,1.466667e+01
-5.600000e-01,-3.330000e+00,1.682000e+01,8.860000e+00,-1.560000e+00,8.860000e+00,1.533333e+01,10,1.533333e+01
-3.900000e-01,-3.740000e+00,1.700000e+01,8.860000e+00,-1.560000e+00,8.600000e+00,1.600000e+01,10,1.600000e+01
-3.000000e-01,-3.770000e+00,1.707000e+01,9.900000e+00,-1.300000e+00,9.640000e+00,1.666667e+01,10,1.666667e+01
-9.000000e-02,-4.260000e+00,1.718000e+01,9.900000e+00,-1.560000e+00,9.900000e+00,1.733333e+01,10,1.733333e+01
-2.000000e-02,-4.390000e+00,1.719000e+01,1.069000e+01,-1.300000e+00,1.095000e+01,1.800000e+01,10,1.800000e+01
1.000000e-01,-4.710000e+00,1.734000e+01,1.095000e+01,-1.820000e+00,1.069000e+01,1.866667e+01,10,1.866667e+01
1.900000e-01,-4.780000e+00,1.738000e+01,1.199000e+01,-1.820000e+00,1.173000e+01,1.933333e+01,10,1.933333e+01
4.100000e-01,-5.200000e+00,1.744000e+01,1.199000e+01,-1.560000e+00,1.225000e+01,20,10,20
4.900000e-01,-5.280000e+00,1.749000e+01,1.199000e+01,-1.300000e+00,1.173000e+01,1.933333e+01,10,1.933333e+01
4.500000e-01,-5.260000e+00,1.752000e+01,1.173000e+01,-1.560000e+00,1.043000e+01,1.866667e+01,10,1.866667e+01
6.000000e-01,-4.970000e+00,1.747000e+01,1.147000e+01,-1.560000e+00,1.043000e+01,1.800000e+01,10,1.800000e+01
5.800000e-01,-5,1.745000e+01,9.900000e+00,-1.560000e+00,9.900000e+00,1.733333e+01,10,1.733333e+01
1.000000e-02,-4.690000e+00,1.738000e+01,9.640000e+00,-1.300000e+00,9.640000e+00,1.666667e+01,10,1.666667e+01
-2.000000e-02,-4.540000e+00,1.737000e+01,9.380000e+00,-1.300000e+00,8.860000e+00,1.600000e+01,10,1.600000e+01
1.000000e-01,-4.300000e+00,1.730000e+01,8.860000e+00,-1.820000e+00,8.600000e+00,1.533333e+01,10,1.533333e+01
-1.200000e-01,-4.220000e+00,1.723000e+01,7.820000e+00,-1.300000e+00,7.300000e+00,1.466667e+01,10,1.466667e+01
-4.300000e-01,-3.750000e+00,1.716000e+01,7.560000e+00,-1.300000e+00,7.300000e+00,1.400000e+01,10,1.400000e+01
-5.200000e-01,-3.610000e+00,1.716000e+01,6.780000e+00,-1.300000e+00,6.260000e+00,1.333333e+01,10,1.333333e+01
-6.800000e-01,-3.230000e+00,1.703000e+01,6.520000e+00,-1.560000e+00,6.520000e+00,1.266667e+01,10,1.266667e+01
-7.000000e-01,-3.290000e+00,1.697000e+01,5.730000e+00,-1.560000e+00,5.990000e+00,1.200000e+01,10,1.200000e+01
-1.040000e+00,-3.090000e+00,1.683000e+01,5.470000e+00,-1.300000e+00,5.470000e+00,1.133333e+01,10,1.133333e+01
-1.090000e+00,-2.770000e+00,1.682000e+01,5.210000e+00,-1.300000e+00,4.170000e+00,1.066667e+01,10,1.066667e+01
-9.300000e-01,-2.270000e+00,1.675000e+01,4.430000e+00,-1.040000e+00,4.430000e+00,10,10,10
-1.390000e+00,-2.150000e+00,1.659000e+01,3.390000e+00,-1.560000e+00,3.130000e+00,9.333333e+00,10,9.333333e+00
-1.620000e+00,-1.770000e+00,1.635000e+01,3.130000e+00,-1.820000e+00,3.390000e+00,8.666667e+00,10,8.666667e+00
-1.640000e+00,-1.730000e+00,1.629000e+01,2.350000e+00,-1.560000e+00,2.350000e+00,8.000000e+00,10,8.000000e+00
-2,-1.160000e+00,1.608000e+01,2.090000e+00,-1.560000e+00,2.090000e+00,7.333333e+00,10,7.333333e+00
-2.070000e+00,-1.130000e+00,1.603000e+01,1.300000e+00,-1.560000e+00,1.300000e+00,6.666667e+00,10,6.666667e+00
-2.280000e+00,-6.800000e-01,1.575000e+01,1.300000e+00,-1.300000e+00,1.040000e+00,6.000000e+00,10,6.000000e+00
-2.720000e+00,2.000000e-02,1.536000e+01,-5.200000e-01,-1.300000e+00,-1.040000e+00,4.666667e+00,10,4.666667e+00
-3.190000e+00,6.300000e-01,1.491000e+01,-5.200000e-01,-1.560000e+00,-1.300000e+00,4.000000e+00,10,4.000000e+00
-3.240000e+00,6.700000e-01,1.484000e+01,-7.800000e-01,-1.560000e+00,-1.040000e+00,3.333333e+00,10,3.333333e+00
-3.240000e+00,7.000000e-01,1.478000e+01,-2.090000e+00,-1.820000e+00,-2.350000e+00,2.666667e+00,10,2.666667e+00
-3.700000e+00,1.250000e+00,1.421000e+01,-1.820000e+00,-1.300000e+00,-1.820000e+00,2.000000e+00,10,2.000000e+00
-3.860000e+00,1.410000e+00,1.413000e+01,-3.390000e+00,-1.300000e+00,-7.820000e+00,1.333333e+00,10,1.333333e+00
-1.830000e+00,4.820000e+00,1.108000e+01,-4.430000e+00,-1.300000e+00,-7.560000e+00,6.666667e-01,10,6.666667e-01
-2.270000e+00,5.030000e+00,1.002000e+01,-4.430000e+00,-1.560000e+00,-7.820000e+00,1.333333e+00,10,1.333333e+00
-2.720000e+00,5.040000e+00,9.430000e+00,-4.950000e+00,-1.300000e+00,-8.080000e+00,2.000000e+00,10,2.000000e+00
-3.120000e+00,5.070000e+00,9.030000e+00,-5.210000e+00,-1.560000e+00,-7.820000e+00,2.666667e+00,10,2.666667e+00
-3.360000e+00,5.090000e+00,8.680000e+00,-7.800000e-01,-1.560000e+00,-1.560000e+00,3.333333e+00,10,3.333333e+00
-3.820000e+00,1.100000e+00,1.436000e+01,-7.800000e-01,-1.560000e+00,-1.040000e+00,4.666667e+00,10,4.666667e+00
-3.590000e+00,1.320000e+00,1.430000e+01,-2.600000e-01,-1.300000e+00,2.600000e-01,5.333333e+00,10,5.333333e+00
-3.930000e+00,9.800000e-01,1.451000e+01,1.300000e+00,-1.040000e+00,1.300000e+00,6.000000e+00,10,6.000000e+00
-2.940000e+00,3.600000e-01,1.530000e+01,1.560000e+00,-1.040000e+00,1.040000e+00,6.666667e+00,10,6.666667e+00
-2.920000e+00,3.200000e-01,1.533000e+01,1.560000e+00,-1.560000e+00,1.820000e+00,7.333333e+00,10,7.333333e+00
-2.920000e+00,7.000000e-02,1.534000e+01,1.040000e+00,-1.820000e+00,2.350000e+00,8.000000e+00,10,8.000000e+00
-3.060000e+00,-3.200000e-01,1.545000e+01,3.650000e+00,-1.300000e+00,2.870000e+00,8.666667e+00,10,8.666667e+00
-1.970000e+00,-6.200000e-01,1.595000e+01,3.130000e+00,-1.560000e+00,3.390000e+00,9.333333e+00,10,9.333333e+00
-2.160000e+00,-9.000000e-01,1.604000e+01,3.650000e+00,-1.300000e+00,3.650000e+00,10,10,10
-2.040000e+00,-1.010000e+00,1.608000e+01,5.210000e+00,-1.560000e+00,4.690000e+00,1.066667e+01,10,1.066667e+01
-1.640000e+00,-1.480000e+00,1.635000e+01,5.730000e+00,-1.560000e+00,5.470000e+00,1.133333e+01,10,1.133333e+01
-1.520000e+00,-1.960000e+00,1.661000e+01,5.210000e+00,-1.560000e+00,5.470000e+00,1.200000e+01,10,1.200000e+01
-1.580000e+00,-1.980000e+00,1.663000e+01,6.780000e+00,-1.560000e+00,5.990000e+00,1.266667e+01,10,1.266667e+01
-1.100000e+00,-2.270000e+00,1.680000e+01,6.780000e+00,-1.820000e+00,6.260000e+00,1.333333e+01,10,1.333333e+01
-1.110000e+00,-2.580000e+00,1.685000e+01,7.560000e+00,-1.560000e+00,6.780000e+00,1.400000e+01,10,1.400000e+01
-8.600000e-01,-2.700000e+00,1.698000e+01,7.820000e+00,-1.300000e+00,7.820000e+00,1.466667e+01,10,1.466667e+01
-8.700000e-01,-3,1.710000e+01,9.380000e+00,-1.040000e+00,8.600000e+00,1.533333e+01,10,1.533333e+01
-6.100000e-01,-3.510000e+00,1.725000e+01,9.380000e+00,-1.300000e+00,8.600000e+00,1.600000e+01,10,1.600000e+01
-4.400000e-01,-3.630000e+00,1.727000e+01,1.016000e+01,-2.090000e+00,9.380000e+00,1.666667e+01,10,1.666667e+01
-3.000000e-01,-4.020000e+00,1.741000e+01,9.640000e+00,-1.560000e+00,9.640000e+00,1.733333e+01,10,1.733333e+01
-3.200000e-01,-4.040000e+00,1.747000e+01,1.095000e+01,-1.560000e+00,1.095000e+01,1.800000e+01,10,1.800000e+01
-1.000000e-01,-4.460000e+00,1.756000e+01,1.121000e+01,-1.300000e+00,1.095000e+01,1.866667e+01,10,1.866667e+01
2.000000e-02,-4.590000e+00,1.757000e+01,1.173000e+01,-1.560000e+00,1.147000e+01,1.933333e+01,10,1.933333e+01
1.700000e-01,-4.950000e+00,1.766000e+01,1.199000e+01,-1.560000e+00,1.199000e+01,20,10,20
2.600000e-01,-5,1.772000e+01,1.199000e+01,-1.560000e+00,1.147000e+01,1.933333e+01,10,1.933333e+01
2.600000e-01,-5.040000e+00,1.771000e+01,1.173000e+01,-1.820000e+00,1.095000e+01,1.866667e+01,10,1.866667e+01
4.300000e-01,-4.780000e+00,1.766000e+01,1.173000e+01,-1.820000e+00,1.069000e+01,1.800000e+01,10,1.800000e+01
3.700000e-01,-4.770000e+00,1.765000e+01,9.900000e+00,-1.300000e+00,9.900000e+00,1.733333e+01,10,1.733333e+01
-1.000000e-01,-4.430000e+00,1.756000e+01,9.900000e+00,-1.560000e+00,9.900000e+00,1.666667e+01,10,1.666667e+01
-1.800000e-01,-4.370000e+00,1.755000e+01,9.640000e+00,-2.090000e+00,9.380000e+00,1.600000e+01,10,1.600000e+01
-1.200000e-01,-4.250000e+00,1.749000e+01,8.600000e+00,-1.560000e+00,8.340000e+00,1.533333e+01,10,1.533333e+01
-2.800000e-01,-4,1.739000e+01,7.560000e+00,-1.300000e+00,7.300000e+00,1.466667e+01,10,1.466667e+01
-5.500000e-01,-3.570000e+00,1.730000e+01,8.080000e+00,-1.560000e+00,7.560000e+00,1.400000e+01,10,1.400000e+01
-6.600000e-01,-3.500000e+00,1.730000e+01,6.520000e+00,-1.560000e+00,6.520000e+00,1.333333e+01,10,1.333333e+01
-8.400000e-01,-3.150000e+00,1.714000e+01,6.520000e+00,-2.090000e+00,6.260000e+00,1.266667e+01,10,1.266667e+01
-8.600000e-01,-3.120000e+00,1.709000e+01,5.470000e+00,-1.560000e+00,5.210000e+00,1.200000e+01,10,1.200000e+01
-1.100000e+00,-2.710000e+00,1.694000e+01,5.470000e+00,-1.560000e+00,5.210000e+00,1.133333e+01,10,1.133333e+01
-1.220000e+00,-2.620000e+00,1.694000e+01,4.430000e+00,-1.560000e+00,4.430000e+00,1.066667e+01,10,1.066667e+01
-1.400000e+00,-2.200000e+00,1.674000e+01,4.430000e+00,-1.300000e+00,3.910000e+00,10,10,10
-1.360000e+00,-2.050000e+00,1.668000e+01,3.650000e+00,-1.820000e+00,3.130000e+00,9.333333e+00,10,9.333333e+00
-1.700000e+00,-1.620000e+00,1.647000e+01,3.130000e+00,-1.560000e+00,2.870000e+00,8.666667e+00,10,8.666667e+00
-1.810000e+00,-1.540000e+00,1.645000e+01,2.350000e+00,-1.560000e+00,2.090000e+00,8.000000e+00,10,8.000000e+00
-2.110000e+00,-1.040000e+00,1.618000e+01,2.350000e+00,-1.560000e+00,2.090000e+00,7.333333e+00,10,7.333333e+00
-2.140000e+00,-1.030000e+00,1.613000e+01,1.560000e+00,-1.820000e+00,1.040000e+00,6.666667e+00,10,6.666667e+00
-2.450000e+00,-5.600000e-01,1.583000e+01,1.300000e+00,-1.560000e+00,7.800000e-01,6.000000e+00,10,6.000000e+00
-2.910000e+00,1.400000e-01,1.543000e+01,-7.800000e-01,-1.560000e+00,-1.040000e+00,4.666667e+00,10,4.666667e+00
-3.290000e+00,6.800000e-01,1.498000e+01,-1.040000e+00,-1.820000e+00,-1.560000e+00,4.000000e+00,10,4.000000e+00
-3.330000e+00,7.100000e-01,1.490000e+01,-1.040000e+00,-1.560000e+00,-1.300000e+00,3.333333e+00,10,3.333333e+00
-3.360000e+00,7.700000e-01,1.485000e+01,-2.090000e+00,-1.560000e+00,-2.090000e+00,2.666667e+00,10,2.666667e+00
-3.800000e+00,1.410000e+00,1.432000e+01,-2.090000e+00,-1.560000e+00,-2.350000e+00,2.000000e+00,10,2.000000e+00
-4.060000e+00,1.490000e+00,1.417000e+01,-3.130000e+00,-1.560000e+00,-7.820000e+00,1.333333e+00,10,1.333333e+00
-1.600000e+00,4.810000e+00,1.143000e+01,-3.910000e+00,-1.560000e+00,-8.080000e+00,6.666667e-01,10,6.666667e-01
-1.930000e+00,5.020000e+00,1.051000e+01,-4.430000e+00,-1.560000e+00,-7.820000e+00,1.333333e+00,10,1.333333e+00
-2.410000e+00,5.070000e+00,1.005000e+01,-4.690000e+00,-1.300000e+00,-8.080000e+00,2.000000e+00,10,2.000000e+00
-2.750000e+00,5.150000e+00,9.600000e+00,-4.950000e+00,-1.560000e+00,-8.080000e+00,2.666667e+00,10,2.666667e+00
-3.030000e+00,5.160000e+00,9.290000e+00,-1.040000e+00,-1.820000e+00,-1.040000e+00,3.333333e+00,10,3.333333e+00
-3.640000e+00,1.870000e+00,1.403000e+01,-5.200000e-01,-1.560000e+00,-7.800000e-01,4.000000e+00,10,4.000000e+00
-3.590000e+00,1.210000e+00,1.451000e+01,-2.600000e-01,-1.820000e+00,-1.300000e+00,4.666667e+00,10,4.666667e+00
-3.750000e+00,9.400000e-01,1.467000e+01,1.560000e+00,-1.560000e+00,1.040000e+00,6.000000e+00,10,6.000000e+00
-2.880000e+00,2.600000e-01,1.533000e+01,1.560000e+00,-1.300000e+00,1.300000e+00,6.666667e+00,10,6.666667e+00
-2.880000e+00,2.400000e-01,1.535000e+01,1.300000e+00,-1.560000e+00,1.560000e+00,7.333333e+00,10,7.333333e+00
-2.970000e+00,1.600000e-01,1.540000e+01,2.610000e+00,-1.820000e+00,2.090000e+00,8.000000e+00,10,8.000000e+00
-2.550000e+00,-2.600000e-01,1.576000e+01,3.910000e+00,-1.560000e+00,2.870000e+00,8.666667e+00,10,8.666667e+00
-2.020000e+00,-5.800000e-01,1.602000e+01,3.390000e+00,-1.560000e+00,3.650000e+00,9.333333e+00,10,9.333333e+00
-2.140000e+00,-8.900000e-01,1.610000e+01,3.910000e+00,-1.560000e+00,3.650000e+00,10,10,10
-1.980000e+00,-9.800000e-01,1.622000e+01,4.950000e+00,-1.560000e+00,4.170000e+00,1.066667e+01,10,1.066667e+01
-1.780000e+00,-1.330000e+00,1.645000e+01,5.730000e+00,-1.300000e+00,5.470000e+00,1.133333e+01,10,1.133333e+01
-1.600000e+00,-1.870000e+00,1.671000e+01,5.210000e+00,-1.560000e+00,5.470000e+00,1.200000e+01,10,1.200000e+01
-1.590000e+00,-2.040000e+00,1.673000e+01,6.260000e+00,-1.560000e+00,6.260000e+00,1.266667e+01,10,1.266667e+01
-1.480000e+00,-2.290000e+00,1.680000e+01,6.780000e+00,-1.820000e+00,6.520000e+00,1.333333e+01,10,1.333333e+01
-1.200000e+00,-2.460000e+00,1.695000e+01,7.820000e+00,-1.300000e+00,7.300000e+00,1.400000e+01,10,1.400000e+01
-9.200000e-01,-2.670000e+00,1.715000e+01,7.560000e+00,-1.300000e+00,7.820000e+00,1.466667e+01,10,1.466667e+01
-1.020000e+00,-2.860000e+00,1.723000e+01,8.600000e+00,-1.040000e+00,8.600000e+00,1.533333e+01,10,1.533333e+01
-7.900000e-01,-3.310000e+00,1.735000e+01,9.640000e+00,-1.560000e+00,8.860000e+00,1.600000e+01,10,1.600000e+01
-5.800000e-01,-3.520000e+00,1.738000e+01,9.900000e+00,-1.820000e+00,9.640000e+00,1.666667e+01,10,1.666667e+01
-3.400000e-01,-3.970000e+00,1.748000e+01,9.900000e+00,-1.560000e+00,1.016000e+01,1.733333e+01,10,1.733333e+01
-3.500000e-01,-4.040000e+00,1.752000e+01,1.069000e+01,-1.560000e+00,1.069000e+01,1.800000e+01,10,1.800000e+01
-2.100000e-01,-4.340000e+00,1.765000e+01,1.121000e+01,-1.300000e+00,1.069000e+01,1.866667e+01,10,1.866667e+01
-8.000000e-02,-4.490000e+00,1.767000e+01,1.173000e+01,-1.820000e+00,1.147000e+01,1.933333e+01,10,1.933333e+01
1.500000e-01,-4.830000e+00,1.772000e+01,1.199000e+01,-1.560000e+00,1.199000e+01,20,10,20
1.900000e-01,-4.930000e+00,1.780000e+01,1.199000e+01,-1.300000e+00,1.173000e+01,1.933333e+01,10,1.933333e+01
1.200000e-01,-4.890000e+00,1.783000e+01,1.173000e+01,-1.040000e+00,1.095000e+01,1.866667e+01,10,1.866667e+01
2.100000e-01,-4.590000e+00,1.781000e+01,1.121000e+01,-1.300000e+00,1.069000e+01,1.800000e+01,10,1.800000e+01
2.300000e-01,-4.570000e+00,1.778000e+01,1.016000e+01,-1.560000e+00,9.640000e+00,1.733333e+01,10,1.733333e+01
-1.700000e-01,-4.300000e+00,1.762000e+01,9.640000e+00,-1.820000e+00,9.640000e+00,1.666667e+01,10,1.666667e+01
-2.200000e-01,-4.340000e+00,1.758000e+01,9.640000e+00,-1.820000e+00,9.380000e+00,1.600000e+01,10,1.600000e+01
-2.800000e-01,-4.200000e+00,1.759000e+01,8.860000e+00,-1.560000e+00,8.860000e+00,1.533333e+01,10,1.533333e+01
-4.700000e-01,-3.820000e+00,1.751000e+01,7.560000e+00,-1.560000e+00,7.560000e+00,1.466667e+01,10,1.466667e+01
-6.600000e-01,-3.480000e+00,1.737000e+01,7.560000e+00,-1.560000e+00,7.560000e+00,1.400000e+01,10,1.400000e+01
-6.900000e-01,-3.480000e+00,1.733000e+01,6.780000e+00,-1.820000e+00,6.520000e+00,1.333333e+01,10,1.333333e+01
-8.800000e-01,-3.080000e+00,1.719000e+01,6.520000e+00,-1.560000e+00,6.260000e+00,1.266667e+01,10,1.266667e+01
-9.900000e-01,-2.970000e+00,1.719000e+01,5.990000e+00,-1.560000e+00,5.470000e+00,1.200000e+01,10,1.200000e+01
-1.210000e+00,-2.570000e+00,1.704000e+01,5.730000e+00,-1.820000e+00,5.470000e+00,1.133333e+01,10,1.133333e+01
-1.260000e+00,-2.550000e+00,1.700000e+01,5.210000e+00,-1.560000e+00,4.950000e+00,1.066667e+01,10,1.066667e+01
-1.240000e+00,-2.430000e+00,1.692000e+01,3.910000e+00,-1.560000e+00,3.910000e+00,10,10,10
-1.640000e+00,-1.960000e+00,1.668000e+01,3.390000e+00,-1.560000e+00,3.130000e+00,9.333333e+00,10,9.333333e+00
-1.910000e+00,-1.500000e+00,1.651000e+01,3.130000e+00,-1.560000e+00,3.130000e+00,8.666667e+00,10,8.666667e+00
-1.980000e+00,-1.450000e+00,1.648000e+01,2.350000e+00,-1.820000e+00,2.350000e+00,8.000000e+00,10,8.000000e+00
-2.190000e+00,-1.010000e+00,1.622000e+01,2.350000e+00,-1.820000e+00,2.350000e+00,7.333333e+00,10,7.333333e+00
-2.220000e+00,-1,1.617000e+01,1.300000e+00,-1.300000e+00,1.300000e+00,6.666667e+00,10,6.666667e+00
-2.490000e+00,-4.600000e-01,1.590000e+01,1.040000e+00,-1.560000e+00,1.040000e+00,6.000000e+00,10,6.000000e+00
-2.950000e+00,1.900000e-01,1.546000e+01,-5.200000e-01,-1.820000e+00,-1.300000e+00,4.666667e+00,10,4.666667e+00
-3.270000e+00,7.100000e-01,1.503000e+01,-1.040000e+00,-1.820000e+00,-1.040000e+00,4.000000e+00,10,4.000000e+00
-3.360000e+00,7.800000e-01,1.495000e+01,-7.800000e-01,-1.560000e+00,-1.300000e+00,3.333333e+00,10,3.333333e+00
-3.460000e+00,9.100000e-01,1.491000e+01,-1.820000e+00,-1.300000e+00,-1.820000e+00,2.666667e+00,10,2.666667e+00
-3.980000e+00,1.550000e+00,1.433000e+01,-1.820000e+00,-1.300000e+00,-2.090000e+00,2.000000e+00,10,2.000000e+00
-4.100000e+00,1.640000e+00,1.423000e+01,-3.130000e+00,-1.560000e+00,-7.300000e+00,1.333333e+00,10,1.333333e+00
-1.680000e+00,4.860000e+00,1.155000e+01,-4.170000e+00,-1.560000e+00,-7.820000e+00,6.666667e-01,10,6.666667e-01
-1.990000e+00,5.100000e+00,1.062000e+01,-4.170000e+00,-1.560000e+00,-7.820000e+00,1.333333e+00,10,1.333333e+00
-2.410000e+00,5.120000e+00,1.014000e+01,-4.690000e+00,-1.560000e+00,-7.820000e+00,2.000000e+00,10,2.000000e+00
-2.790000e+00,5.170000e+00,9.750000e+00,-4.430000e+00,-1.560000e+00,-7.560000e+00,2.666667e+00,10,2.666667e+00
-3.060000e+00,5.180000e+00,9.430000e+00,-5.200000e-01,-1.820000e+00,-7.800000e-01,3.333333e+00,10,3.333333e+00
-3.690000e+00,1.870000e+00,1.409000e+01,-5.200000e-01,-1.820000e+00,-5.200000e-01,4.000000e+00,10,4.000000e+00
-3.570000e+00,1.350000e+00,1.454000e+01,-5.200000e-01,-1.300000e+00,-1.040000e+00,4.666667e+00,10,4.666667e+00
-3.710000e+00,1,1.476000e+01,1.560000e+00,-1.560000e+00,1.300000e+00,6.000000e+00,10,6.000000e+00
-3.010000e+00,3.400000e-01,1.535000e+01,1.300000e+00,-1.560000e+00,1.040000e+00,6.666667e+00,10,6.666667e+00
-2.980000e+00,2.800000e-01,1.538000e+01,2.090000e+00,-1.560000e+00,1.300000e+00,7.333333e+00,10,7.333333e+00
-2.510000e+00,1.700000e-01,1.565000e+01,2.090000e+00,-1.300000e+00,2.090000e+00,8.000000e+00,10,8.000000e+00
-2.680000e+00,-1.400000e-01,1.580000e+01,2.870000e+00,-1.300000e+00,2.610000e+00,8.666667e+00,10,8.666667e+00
-2.530000e+00,-3.800000e-01,1.597000e+01,3.390000e+00,-1.560000e+00,3.130000e+00,9.333333e+00,10,9.333333e+00
-2.260000e+00,-7.800000e-01,1.617000e+01,3.910000e+00,-1.560000e+00,3.390000e+00,10,10,10
-1.990000e+00,-9.000000e-01,1.625000e+01,4.430000e+00,-1.560000e+00,4.170000e+00,1.066667e+01,10,1.066667e+01
-1.840000e+00,-1.340000e+00,1.647000e+01,5.730000e+00,-1.300000e+00,5.730000e+00,1.133333e+01,10,1.133333e+01
-1.650000e+00,-1.830000e+00,1.675000e+01,5.470000e+00,-1.560000e+00,5.470000e+00,1.200000e+01,10,1.200000e+01
-1.590000e+00,-1.910000e+00,1.676000e+01,6.520000e+00,-1.300000e+00,5.730000e+00,1.266667e+01,10,1.266667e+01
-1.360000e+00,-2.190000e+00,1.687000e+01,6.780000e+00,-1.820000e+00,6.520000e+00,1.333333e+01,10,1.333333e+01
-1.230000e+00,-2.460000e+00,1.698000e+01,7.300000e+00,-1.560000e+00,6.520000e+00,1.400000e+01,10,1.400000e+01
-1,-2.620000e+00,1.712000e+01,7.820000e+00,-1.560000e+00,7.300000e+00,1.466667e+01,10,1.466667e+01
-9.900000e-01,-2.930000e+00,1.722000e+01,9.120000e+00,-1.300000e+00,8.600000e+00,1.533333e+01,10,1.533333e+01
-7.600000e-01,-3.420000e+00,1.735000e+01,8.860000e+00,-1.820000e+00,8.860000e+00,1.600000e+01,10,1.600000e+01
-6.500000e-01,-3.540000e+00,1.737000e+01,9.900000e+00,-1.820000e+00,9.380000e+00,1.666667e+01,10,1.666667e+01
-4.600000e-01,-3.900000e+00,1.752000e+01,1.043000e+01,-1.560000e+00,9.640000e+00,1.733333e+01,10,1.733333e+01
-4.400000e-01,-3.950000e+00,1.759000e+01,1.095000e+01,-1.560000e+00,1.043000e+01,1.800000e+01,10,1.800000e+01
-2.200000e-01,-4.310000e+00,1.770000e+01,1.095000e+01,-1.820000e+00,1.069000e+01,1.866667e+01,10,1.866667e+01
-1.300000e-01,-4.460000e+00,1.771000e+01,1.147000e+01,-1.820000e+00,1.173000e+01,1.933333e+01,10,1.933333e+01
7.000000e-02,-4.820000e+00,1.776000e+01,1.173000e+01,-1.820000e+00,1.173000e+01,20,10,20
1.400000e-01,-4.910000e+00,1.783000e+01,1.147000e+01,-1.300000e+00,1.147000e+01,1.933333e+01,10,1.933333e+01
8.000000e-02,-4.870000e+00,1.785000e+01,1.173000e+01,-1.300000e+00,1.069000e+01,1.866667e+01,10,1.866667e+01
2.400000e-01,-4.600000e+00,1.780000e+01,1.199000e+01,-1.560000e+00,1.069000e+01,1.800000e+01,10,1.800000e+01
2.200000e-01,-4.650000e+00,1.777000e+01,9.640000e+00,-1.300000e+00,9.640000e+00,1.733333e+01,10,1.733333e+01
-1.900000e-01,-4.330000e+00,1.763000e+01,9.640000e+00,-1.820000e+00,9.380000e+00,1.666667e+01,10,1.666667e+01
-3.000000e-01,-4.300000e+00,1.764000e+01,9.640000e+00,-1.560000e+00,9.120000e+00,1.600000e+01,10,1.600000e+01
-2.900000e-01,-4.130000e+00,1.761000e+01,8.600000e+00,-1.820000e+00,8.080000e+00,1.533333e+01,10,1.533333e+01
-4.400000e-01,-3.870000e+00,1.752000e+01,7.820000e+00,-1.820000e+00,7.300000e+00,1.466667e+01,10,1.466667e+01
-6.500000e-01,-3.510000e+00,1.738000e+01,7.560000e+00,-1.560000e+00,7.560000e+00,1.400000e+01,10,1.400000e+01
-7.100000e-01,-3.490000e+00,1.735000e+01,6.780000e+00,-1.560000e+00,5.990000e+00,1.333333e+01,10,1.333333e+01
-9.300000e-01,-2.990000e+00,1.725000e+01,6.520000e+00,-1.300000e+00,6.520000e+00,1.266667e+01,10,1.266667e+01
-1.090000e+00,-2.880000e+00,1.726000e+01,5.730000e+00,-1.300000e+00,5.990000e+00,1.200000e+01,10,1.200000e+01
-1.420000e+00,-2.640000e+00,1.711000e+01,5.470000e+00,-2.090000e+00,4.950000e+00,1.133333e+01,10,1.133333e+01
-1.320000e+00,-2.510000e+00,1.703000e+01,4.690000e+00,-1.560000e+00,4.430000e+00,1.066667e+01,10,1.066667e+01
-1.380000e+00,-2.080000e+00,1.685000e+01,4.690000e+00,-1.820000e+00,3.910000e+00,10,10,10
-1.490000e+00,-2,1.678000e+01,3.130000e+00,-1.560000e+00,3.130000e+00,9.333333e+00,10,9.333333e+00
-1.920000e+00,-1.450000e+00,1.656000e+01,3.390000e+00,-1.560000e+00,3.390000e+00,8.666667e+00,10,8.666667e+00
-1.990000e+00,-1.420000e+00,1.652000e+01,2.610000e+00,-1.560000e+00,2.350000e+00,8.000000e+00,10,8.000000e+00
-2.200000e+00,-1,1.626000e+01,2.350000e+00,-1.820000e+00,2.090000e+00,7.333333e+00,10,7.333333e+00
-2.230000e+00,-9.600000e-01,1.621000e+01,1.040000e+00,-1.560000e+00,1.300000e+00,6.666667e+00,10,6.666667e+00
-2.580000e+00,-4.000000e-01,1.593000e+01,1.040000e+00,-1.560000e+00,7.800000e-01,6.000000e+00,10,6.000000e+00
-2.710000e+00,-2.900000e-01,1.589000e+01,2.600000e-01,-1.560000e+00,-2.600000e-01,5.333333e+00,10,5.333333e+00
-3.060000e+00,2.900000e-01,1.551000e+01,-7.800000e-01,-1.560000e+00,-1.040000e+00,4.666667e+00,10,4.666667e+00
-3.390000e+00,8.000000e-01,1.507000e+01,-7.800000e-01,-1.560000e+00,-1.040000e+00,4.000000e+00,10,4.000000e+00
-3.420000e+00,8.300000e-01,1.499000e+01,-1.040000e+00,-1.560000e+00,-1.300000e+00,3.333333e+00,10,3.333333e+00
-3.420000e+00,8.500000e-01,1.494000e+01,-1.820000e+00,-1.560000e+00,-2.090000e+00,2.666667e+00,10,2.666667e+00
-3.980000e+00,1.490000e+00,1.434000e+01,-1.560000e+00,-1.560000e+00,-2.350000e+00,2.000000e+00,10,2.000000e+00
-4.060000e+00,1.600000e+00,1.426000e+01,-3.910000e+00,-1.560000e+00,-7.820000e+00,1.333333e+00,10,1.333333e+00
-2.060000e+00,4.930000e+00,1.130000e+01,-4.430000e+00,-2.090000e+00,-7.820000e+00,6.666667e-01,10,6.666667e-01
-2.450000e+00,5.160000e+00,1.026000e+01,-4.950000e+00,-1.820000e+00,-7.820000e+00,1.333333e+00,10,1.333333e+00
-2.890000e+00,5.190000e+00,9.710000e+00,-4.950000e+00,-1.820000e+00,-7.820000e+00,2.000000e+00,10,2.000000e+00
-3.230000e+00,5.240000e+00,9.290000e+00,-5.470000e+00,-1.560000e+00,-8.080000e+00,2.666667e+00,10,2.666667e+00
-3.490000e+00,5.240000e+00,8.990000e+00,-7.800000e-01,-1.820000e+00,-1.300000e+00,3.333333e+00,10,3.333333e+00
-3.530000e+00,1.950000e+00,1.417000e+01,-2.600000e-01,-1.560000e+00,-2.600000e-01,4.000000e+00,10,4.000000e+00
-3.760000e+00,1.250000e+00,1.457000e+01,-5.200000e-01,-1.820000e+00,-1.040000e+00,4.666667e+00,10,4.666667e+00
-4.030000e+00,1.090000e+00,1.469000e+01,1.300000e+00,-1.560000e+00,1.040000e+00,6.000000e+00,10,6.000000e+00
-3.020000e+00,4.200000e-01,1.544000e+01,1.560000e+00,-1.560000e+00,1.040000e+00,6.666667e+00,10,6.666667e+00
-2.950000e+00,3.400000e-01,1.546000e+01,1.300000e+00,-2.090000e+00,1.300000e+00,7.333333e+00,10,7.333333e+00
-3.020000e+00,1.700000e-01,1.549000e+01,2.610000e+00,-1.820000e+00,2.350000e+00,8.000000e+00,10,8.000000e+00
-2.700000e+00,-2.300000e-01,1.579000e+01,3.650000e+00,-1.560000e+00,2.870000e+00,8.666667e+00,10,8.666667e+00
-2.150000e+00,-4.400000e-01,1.613000e+01,3.650000e+00,-1.040000e+00,3.390000e+00,9.333333e+00,10,9.333333e+00
-2.360000e+00,-6.900000e-01,1.621000e+01,3.910000e+00,-1.820000e+00,3.130000e+00,10,10,10
-2.070000e+00,-7.900000e-01,1.631000e+01,4.690000e+00,-1.560000e+00,4.430000e+00,1.066667e+01,10,1.066667e+01
-1.840000e+00,-1.280000e+00,1.652000e+01,5.470000e+00,-1.820000e+00,5.470000e+00,1.133333e+01,10,1.133333e+01
-1.620000e+00,-1.890000e+00,1.675000e+01,5.990000e+00,-1.560000e+00,5.470000e+00,1.200000e+01,10,1.200000e+01
-1.600000e+00,-1.880000e+00,1.679000e+01,5.990000e+00,-1.820000e+00,5.990000e+00,1.266667e+01,10,1.266667e+01
-1.500000e+00,-2.120000e+00,1.693000e+01,6.780000e+00,-1.560000e+00,6.520000e+00,1.333333e+01,10,1.333333e+01
-1.290000e+00,-2.410000e+00,1.703000e+01,7.560000e+00,-1.820000e+00,6.780000e+00,1.400000e+01,10,1.400000e+01
-8.500000e-01,-2.620000e+00,1.714000e+01,8.340000e+00,-1.300000e+00,7.560000e+00,1.466667e+01,10,1.466667e+01
-9.500000e-01,-2.920000e+00,1.724000e+01,8.600000e+00,-1.560000e+00,8.340000e+00,1.533333e+01,10,1.533333e+01
-8.200000e-01,-3.350000e+00,1.741000e+01,9.120000e+00,-1.300000e+00,8.340000e+00,1.600000e+01,10,1.600000e+01
-6.600000e-01,-3.450000e+00,1.745000e+01,9.640000e+00,-1.820000e+00,9.640000e+00,1.666667e+01,10,1.666667e+01
-4.400000e-01,-3.910000e+00,1.756000e+01,1.016000e+01,-1.820000e+00,9.640000e+00,1.733333e+01,10,1.733333e+01
-4.000000e-01,-4,1.758000e+01,1.069000e+01,-1.560000e+00,1.095000e+01,1.800000e+01,10,1.800000e+01
-2.600000e-01,-4.300000e+00,1.772000e+01,1.121000e+01,-1.300000e+00,1.069000e+01,1.866667e+01,10,1.866667e+01
-2.000000e-01,-4.360000e+00,1.777000e+01,1.199000e+01,-1.300000e+00,1.147000e+01,1.933333e+01,10,1.933333e+01
-2.000000e-02,-4.640000e+00,1.787000e+01,1.199000e+01,-1.300000e+00,1.199000e+01,20,10,20
8.000000e-02,-4.830000e+00,1.789000e+01,1.199000e+01,-1.560000e+00,1.147000e+01,1.933333e+01,10,1.933333e+01
1.000000e-01,-4.880000e+00,1.786000e+01,1.173000e+01,-1.560000e+00,1.069000e+01,1.866667e+01,10,1.866667e+01
2.600000e-01,-4.640000e+00,1.781000e+01,1.147000e+01,-1.560000e+00,1.095000e+01,1.800000e+01,10,1.800000e+01
1.600000e-01,-4.570000e+00,1.783000e+01,1.016000e+01,-1.560000e+00,9.380000e+00,1.733333e+01,10,1.733333e+01
-3.000000e-01,-4.220000e+00,1.772000e+01,9.640000e+00,-1.820000e+00,9.640000e+00,1.666667e+01,10,1.666667e+01
-3.300000e-01,-4.210000e+00,1.767000e+01,9.640000e+00,-1.560000e+00,9.120000e+00,1.600000e+01,10,1.600000e+01
-3.100000e-01,-4.150000e+00,1.763000e+01,8.600000e+00,-1.560000e+00,8.340000e+00,1.533333e+01,10,1.533333e+01
-4.500000e-01,-3.850000e+00,1.754000e+01,7.820000e+00,-1.300000e+00,7.560000e+00,1.466667e+01,10,1.466667e+01
-7.300000e-01,-3.430000e+00,1.743000e+01,7.560000e+00,-1.560000e+00,7.300000e+00,1.400000e+01,10,1.400000e+01
-8.000000e-01,-3.380000e+00,1.741000e+01,6.780000e+00,-1.560000e+00,6.260000e+00,1.333333e+01,10,1.333333e+01
-9.500000e-01,-3.030000e+00,1.725000e+01,7.040000e+00,-1.560000e+00,6.260000e+00,1.266667e+01,10,1.266667e+01
-9.900000e-01,-3.010000e+00,1.722000e+01,5.470000e+00,-1.300000e+00,5.470000e+00,1.200000e+01,10,1.200000e+01
-1.280000e+00,-2.570000e+00,1.708000e+01,5.210000e+00,-1.040000e+00,5.210000e+00,1.133333e+01,10,1.133333e+01
-1.370000e+00,-2.450000e+00,1.707000e+01,4.690000e+00,-1.560000e+00,4.690000e+00,1.066667e+01,10,1.066667e+01
-1.640000e+00,-2.080000e+00,1.687000e+01,4.430000e+00,-1.560000e+00,4.170000e+00,10,10,10
-1.550000e+00,-1.880000e+00,1.679000e+01,3.390000e+00,-1.560000e+00,3.130000e+00,9.333333e+00,10,9.333333e+00
-1.790000e+00,-1.510000e+00,1.659000e+01,3.650000e+00,-1.560000e+00,3.130000e+00,8.666667e+00,10,8.666667e+00
-1.900000e+00,-1.370000e+00,1.656000e+01,2.350000e+00,-1.300000e+00,2.090000e+00,8.000000e+00,10,8.000000e+00
-2.280000e+00,-9.000000e-01,1.630000e+01,2.350000e+00,-1.560000e+00,2.090000e+00,7.333333e+00,10,7.333333e+00
-2.360000e+00,-8.400000e-01,1.626000e+01,1.300000e+00,-1.560000e+00,7.800000e-01,6.666667e+00,10,6.666667e+00
-2.620000e+00,-3.800000e-01,1.595000e+01,1.040000e+00,-1.820000e+00,1.040000e+00,6.000000e+00,10,6.000000e+00
-2.950000e+00,1.500000e-01,1.551000e+01,-7.800000e-01,-1.560000e+00,-7.800000e-01,4.666667e+00,10,4.666667e+00
-3.390000e+00,8.000000e-01,1.509000e+01,-7.800000e-01,-1.560000e+00,-1.300000e+00,4.000000e+00,10,4.000000e+00
-3.510000e+00,9.300000e-01,1.503000e+01,-7.800000e-01,-1.300000e+00,-1.040000e+00,3.333333e+00,10,3.333333e+00
-3.540000e+00,1.040000e+00,1.497000e+01,-1.820000e+00,-1.040000e+00,-2.090000e+00,2.666667e+00,10,2.666667e+00
-4.030000e+00,1.570000e+00,1.439000e+01,-2.090000e+00,-1.300000e+00,-2.090000e+00,2.000000e+00,10,2.000000e+00
-4.080000e+00,1.590000e+00,1.428000e+01,-3.130000e+00,-1.300000e+00,-7.820000e+00,1.333333e+00,10,1.333333e+00
-1.660000e+00,4.860000e+00,1.163000e+01,-3.650000e+00,-1.820000e+00,-7.560000e+00,6.666667e-01,10,6.666667e-01
-2.030000e+00,5.120000e+00,1.073000e+01,-3.910000e+00,-1.300000e+00,-7.820000e+00,1.333333e+00,10,1.333333e+00
-2.510000e+00,5.210000e+00,1.025000e+01,-4.690000e+00,-1.820000e+00,-7.820000e+00,2.000000e+00,10,2.000000e+00
-2.800000e+00,5.220000e+00,9.870000e+00,-4.950000e+00,-1.820000e+00,-7.820000e+00,2.666667e+00,10,2.666667e+00
-3.030000e+00,5.210000e+00,9.550000e+00,-7.800000e-01,-1.560000e+00,-1.300000e+00,3.333333e+00,10,3.333333e+00
-3.690000e+00,1.140000e+00,1.493000e+01,1.560000e+00,-1.300000e+00,1.040000e+00,6.000000e+00,10,6.000000e+00
-3.040000e+00,3.900000e-01,1.545000e+01,1.040000e+00,-1.820000e+00,1.040000e+00,6.666667e+00,10,6.666667e+00
-2.990000e+00,3.100000e-01,1.546000e+01,1.560000e+00,-1.560000e+00,1.040000e+00,7.333333e+00,10,7.333333e+00
-2.910000e+00,2.000000e-01,1.557000e+01,2.610000e+00,-1.560000e+00,2.090000e+00,8.000000e+00,10,8.000000e+00
-2.670000e+00,-1.400000e-01,1.588000e+01,3.390000e+00,-1.300000e+00,2.870000e+00,8.666667e+00,10,8.666667e+00
-2.230000e+00,-4.100000e-01,1.615000e+01,3.130000e+00,-1.560000e+00,3.130000e+00,9.333333e+00,10,9.333333e+00
-2.310000e+00,-7.400000e-01,1.624000e+01,3.910000e+00,-1.300000e+00,3.390000e+00,10,10,10
-2.110000e+00,-8.300000e-01,1.629000e+01,4.950000e+00,-1.820000e+00,4.430000e+00,1.066667e+01,10,1.066667e+01
-1.830000e+00,-1.340000e+00,1.653000e+01,6.260000e+00,-1.820000e+00,5.210000e+00,1.133333e+01,10,1.133333e+01
-1.650000e+00,-1.840000e+00,1.680000e+01,5.470000e+00,-1.560000e+00,5.730000e+00,1.200000e+01,10,1.200000e+01
-1.650000e+00,-1.850000e+00,1.683000e+01,6.260000e+00,-1.560000e+00,5.730000e+00,1.266667e+01,10,1.266667e+01
-1.540000e+00,-2.170000e+00,1.693000e+01,6.520000e+00,-2.090000e+00,6.260000e+00,1.333333e+01,10,1.333333e+01
-1.290000e+00,-2.460000e+00,1.704000e+01,7.560000e+00,-1.560000e+00,6.520000e+00,1.400000e+01,10,1.400000e+01
-9.600000e-01,-2.580000e+00,1.719000e+01,8.080000e+00,-1.300000e+00,7.820000e+00,1.466667e+01,10,1.466667e+01
-1.060000e+00,-2.860000e+00,1.728000e+01,8.860000e+00,-1.560000e+00,8.860000e+00,1.533333e+01,10,1.533333e+01
-9.100000e-01,-3.320000e+00,1.744000e+01,8.860000e+00,-1.300000e+00,8.860000e+00,1.600000e+01,10,1.600000e+01
-7.800000e-01,-3.420000e+00,1.747000e+01,9.900000e+00,-1.820000e+00,9.900000e+00,1.666667e+01,10,1.666667e+01
-5.200000e-01,-3.880000e+00,1.759000e+01,1.043000e+01,-1.820000e+00,9.640000e+00,1.733333e+01,10,1.733333e+01
-4.300000e-01,-4.010000e+00,1.760000e+01,1.069000e+01,-1.820000e+00,1.043000e+01,1.800000e+01,10,1.800000e+01
-2.700000e-01,-4.340000e+00,1.773000e+01,1.095000e+01,-1.560000e+00,1.069000e+01,1.866667e+01,10,1.866667e+01
-2.200000e-01,-4.400000e+00,1.777000e+01,1.173000e+01,-1.820000e+00,1.121000e+01,1.933333e+01,10,1.933333e+01
-4.000000e-02,-4.710000e+00,1.785000e+01,1.199000e+01,-1.820000e+00,1.173000e+01,20,10,20
1.100000e-01,-4.900000e+00,1.787000e+01,1.199000e+01,-1.560000e+00,1.173000e+01,1.933333e+01,10,1.933333e+01
9.000000e-02,-4.920000e+00,1.786000e+01,1.173000e+01,-1.300000e+00,1.043000e+01,1.866667e+01,10,1.866667e+01
1.600000e-01,-4.560000e+00,1.787000e+01,1.147000e+01,-1.560000e+00,1.069000e+01,1.800000e+01,10,1.800000e+01
5.000000e-02,-4.480000e+00,1.790000e+01,9.640000e+00,-1.560000e+00,9.900000e+00,1.733333e+01,10,1.733333e+01
-3.600000e-01,-4.220000e+00,1.776000e+01,9.640000e+00,-1.820000e+00,9.380000e+00,1.666667e+01,10,1.666667e+01
-3.700000e-01,-4.210000e+00,1.771000e+01,9.120000e+00,-1.560000e+00,8.600000e+00,1.600000e+01,10,1.600000e+01
-4.600000e-01,-3.940000e+00,1.760000e+01,8.600000e+00,-2.090000e+00,8.600000e+00,1.533333e+01,10,1.533333e+01
-5.500000e-01,-3.880000e+00,1.755000e+01,7.820000e+00,-1.300000e+00,7.300000e+00,1.466667e+01,10,1.466667e+01
-7.700000e-01,-3.390000e+00,1.749000e+01,7.820000e+00,-1.560000e+00,7.300000e+00,1.400000e+01,10,1.400000e+01
-8.400000e-01,-3.320000e+00,1.747000e+01,6.780000e+00,-1.560000e+00,6.520000e+00,1.333333e+01,10,1.333333e+01
-1.030000e+00,-2.970000e+00,1.730000e+01,6.520000e+00,-1.820000e+00,6.260000e+00,1.266667e+01,10,1.266667e+01
-1.060000e+00,-2.950000e+00,1.725000e+01,5.470000e+00,-1.560000e+00,5.470000e+00,1.200000e+01,10,1.200000e+01
-1.230000e+00,-2.580000e+00,1.710000e+01,5.470000e+00,-1.560000e+00,5.210000e+00,1.133333e+01,10,1.133333e+01
-1.380000e+00,-2.460000e+00,1.710000e+01,4.430000e+00,-1.820000e+00,4.170000e+00,1.066667e+01,10,1.066667e+01
-1.660000e+00,-2,1.692000e+01,4.430000e+00,-1.300000e+00,3.910000e+00,10,10,10
-1.610000e+00,-1.800000e+00,1.684000e+01,3.650000e+00,-2.090000e+00,2.870000e+00,9.333333e+00,10,9.333333e+00
-1.850000e+00,-1.450000e+00,1.662000e+01,3.130000e+00,-1.820000e+00,3.130000e+00,8.666667e+00,10,8.666667e+00
-1.850000e+00,-1.410000e+00,1.657000e+01,2.350000e+00,-1.300000e+00,2.090000e+00,8.000000e+00,10,8.000000e+00
-2.290000e+00,-9.100000e-01,1.631000e+01,2.090000e+00,-1.300000e+00,2.090000e+00,7.333333e+00,10,7.333333e+00
-2.400000e+00,-8.000000e-01,1.628000e+01,1.300000e+00,-1.560000e+00,1.040000e+00,6.666667e+00,10,6.666667e+00
-2.710000e+00,-3.100000e-01,1.599000e+01,1.300000e+00,-1.560000e+00,7.800000e-01,6.000000e+00,10,6.000000e+00
-2.930000e+00,2.100000e-01,1.559000e+01,-7.800000e-01,-1.560000e+00,-7.800000e-01,4.666667e+00,10,4.666667e+00
-3.350000e+00,7.400000e-01,1.511000e+01,-7.800000e-01,-1.820000e+00,-1.040000e+00,4.000000e+00,10,4.000000e+00
-3.430000e+00,8.200000e-01,1.504000e+01,-7.800000e-01,-1.560000e+00,-1.300000e+00,3.333333e+00,10,3.333333e+00
-3.530000e+00,9.900000e-01,1.499000e+01,-2.090000e+00,-1.560000e+00,-2.090000e+00,2.666667e+00,10,2.666667e+00
-4.100000e+00,1.610000e+00,1.440000e+01,-2.090000e+00,-1.560000e+00,-2.350000e+00,2.000000e+00,10,2.000000e+00
-4.140000e+00,1.670000e+00,1.433000e+01,-4.170000e+00,-1.560000e+00,-7.820000e+00,1.333333e+00,10,1.333333e+00
-2.610000e+00,4.950000e+00,1.112000e+01,-4.950000e+00,-1.820000e+00,-8.340000e+00,6.666667e-01,10,6.666667e-01
-3.030000e+00,5.190000e+00,9.950000e+00,-5.470000e+00,-1.820000e+00,-7.820000e+00,1.333333e+00,10,1.333333e+00
-3.370000e+00,5.230000e+00,9.360000e+00,-5.470000e+00,-1.560000e+00,-7.560000e+00,2.000000e+00,10,2.000000e+00
-3.670000e+00,5.270000e+00,8.990000e+00,-5.730000e+00,-1.820000e+00,-7.560000e+00,2.666667e+00,10,2.666667e+00
-3.820000e+00,5.260000e+00,8.750000e+00,-5.200000e-01,-1.820000e+00,-1.040000e+00,3.333333e+00,10,3.333333e+00
-3.800000e+00,1.980000e+00,1.413000e+01,-5.200000e-01,-1.820000e+00,-7.800000e-01,4.000000e+00,10,4.000000e+00
-3.890000e+00,1.390000e+00,1.453000e+01,-7.800000e-01,-1.560000e+00,-1.040000e+00,4.666667e+00,10,4.666667e+00
-3.800000e+00,1.580000e+00,1.452000e+01,-5.200000e-01,-1.300000e+00,-5.200000e-01,5.333333e+00,10,5.333333e+00
-4.170000e+00,1.160000e+00,1.468000e+01,1.300000e+00,-1.820000e+00,1.300000e+00,6.000000e+00,10,6.000000e+00
-3.170000e+00,4.000000e-01,1.546000e+01,1.300000e+00,-1.300000e+00,1.040000e+00,6.666667e+00,10,6.666667e+00
-3.070000e+00,3.500000e-01,1.546000e+01,1.560000e+00,-1.560000e+00,1.040000e+00,7.333333e+00,10,7.333333e+00
-3.090000e+00,1.800000e-01,1.551000e+01,2.350000e+00,-1.820000e+00,2.350000e+00,8.000000e+00,10,8.000000e+00
-2.730000e+00,-1.600000e-01,1.587000e+01,3.390000e+00,-1.300000e+00,2.610000e+00,8.666667e+00,10,8.666667e+00
-2.340000e+00,-3.800000e-01,1.614000e+01,3.650000e+00,-1.560000e+00,3.130000e+00,9.333333e+00,10,9.333333e+00
-2.400000e+00,-6.600000e-01,1.626000e+01,3.650000e+00,-1.820000e+00,3.390000e+00,10,10,10
-2.160000e+00,-7.700000e-01,1.633000e+01,4.690000e+00,-1.820000e+00,4.170000e+00,1.066667e+01,10,1.066667e+01
-1.930000e+00,-1.280000e+00,1.655000e+01,5.730000e+00,-1.560000e+00,5.210000e+00,1.133333e+01,10,1.133333e+01
-1.680000e+00,-1.870000e+00,1.679000e+01,5.730000e+00,-1.300000e+00,5.470000e+00,1.200000e+01,10,1.200000e+01
-1.730000e+00,-1.820000e+00,1.684000e+01,6.780000e+00,-1.560000e+00,5.730000e+00,1.266667e+01,10,1.266667e+01
-1.570000e+00,-2.020000e+00,1.698000e+01,6.780000e+00,-1.560000e+00,5.990000e+00,1.333333e+01,10,1.333333e+01
-1.410000e+00,-2.310000e+00,1.710000e+01,7.560000e+00,-1.820000e+00,7.300000e+00,1.400000e+01,10,1.400000e+01
-1.170000e+00,-2.730000e+00,1.723000e+01,7.820000e+00,-2.090000e+00,7.300000e+00,1.466667e+01,10,1.466667e+01
-1.040000e+00,-2.950000e+00,1.727000e+01,9.120000e+00,-1.560000e+00,8.340000e+00,1.533333e+01,10,1.533333e+01
-8.100000e-01,-3.250000e+00,1.742000e+01,8.860000e+00,-1.560000e+00,8.600000e+00,1.600000e+01,10,1.600000e+01
-8.300000e-01,-3.380000e+00,1.750000e+01,9.900000e+00,-1.820000e+00,1.016000e+01,1.666667e+01,10,1.666667e+01
-5.800000e-01,-3.840000e+00,1.762000e+01,1.016000e+01,-1.820000e+00,9.900000e+00,1.733333e+01,10,1.733333e+01
-4.900000e-01,-3.980000e+00,1.763000e+01,1.069000e+01,-2.090000e+00,1.069000e+01,1.800000e+01,10,1.800000e+01
-2.800000e-01,-4.300000e+00,1.775000e+01,1.095000e+01,-1.560000e+00,1.069000e+01,1.866667e+01,10,1.866667e+01
-2.700000e-01,-4.340000e+00,1.781000e+01,1.147000e+01,-1.820000e+00,1.121000e+01,1.933333e+01,10,1.933333e+01
-9.000000e-02,-4.580000e+00,1.791000e+01,1.173000e+01,-1.560000e+00,1.225000e+01,20,10,20
-1.000000e-02,-4.750000e+00,1.795000e+01,1.199000e+01,-1.820000e+00,1.173000e+01,1.933333e+01,10,1.933333e+01
1.000000e-02,-4.820000e+00,1.793000e+01,1.173000e+01,-1.820000e+00,1.095000e+01,1.866667e+01,10,1.866667e+01
1.900000e-01,-4.560000e+00,1.787000e+01,1.147000e+01,-1.560000e+00,1.069000e+01,1.800000e+01,10,1.800000e+01
1.500000e-01,-4.570000e+00,1.785000e+01,1.016000e+01,-1.560000e+00,9.640000e+00,1.733333e+01,10,1.733333e+01
-3.000000e-01,-4.210000e+00,1.775000e+01,9.380000e+00,-1.300000e+00,9.640000e+00,1.666667e+01,10,1.666667e+01
-3.800000e-01,-4.200000e+00,1.773000e+01,9.380000e+00,-2.090000e+00,9.120000e+00,1.600000e+01,10,1.600000e+01
-3.300000e-01,-4.080000e+00,1.767000e+01,8.600000e+00,-1.820000e+00,8.340000e+00,1.533333e+01,10,1.533333e+01
-4.900000e-01,-3.850000e+00,1.758000e+01,7.560000e+00,-1.560000e+00,7.820000e+00,1.466667e+01,10,1.466667e+01
-7.700000e-01,-3.400000e+00,1.747000e+01,7.560000e+00,-1.300000e+00,7.560000e+00,1.400000e+01,10,1.400000e+01
-8.800000e-01,-3.320000e+00,1.746000e+01,6.260000e+00,-1.820000e+00,6.260000e+00,1.333333e+01,10,1.333333e+01
-1.030000e+00,-2.940000e+00,1.732000e+01,6.780000e+00,-1.560000e+00,6.260000e+00,1.266667e+01,10,1.266667e+01
-1.060000e+00,-2.940000e+00,1.728000e+01,5.470000e+00,-2.090000e+00,5.470000e+00,1.200000e+01,10,1.200000e+01
-1.330000e+00,-2.690000e+00,1.711000e+01,5.730000e+00,-1.820000e+00,5.470000e+00,1.133333e+01,10,1.133333e+01
-1.360000e+00,-2.490000e+00,1.709000e+01,4.690000e+00,-1.820000e+00,4.170000e+00,1.066667e+01,10,1.066667e+01
-1.600000e+00,-1.960000e+00,1.690000e+01,4.690000e+00,-1.820000e+00,3.650000e+00,10,10,10
-1.640000e+00,-1.890000e+00,1.686000e+01,3.390000e+00,-1.820000e+00,3.130000e+00,9.333333e+00,10,9.333333e+00
-1.850000e+00,-1.470000e+00,1.663000e+01,3.650000e+00,-1.820000e+00,3.390000e+00,8.666667e+00,10,8.666667e+00
-1.900000e+00,-1.420000e+00,1.659000e+01,2.090000e+00,-1.820000e+00,2.350000e+00,8.000000e+00,10,8.000000e+00
-2.280000e+00,-9.300000e-01,1.632000e+01,2.610000e+00,-1.820000e+00,1.820000e+00,7.333333e+00,10,7.333333e+00
-2.370000e+00,-8.600000e-01,1.629000e+01,1.300000e+00,-1.300000e+00,1.040000e+00,6.666667e+00,10,6.666667e+00
-2.660000e+00,-4.000000e-01,1.598000e+01,1.300000e+00,-1.820000e+00,1.040000e+00,6.000000e+00,10,6.000000e+00
-3,1.700000e-01,1.555000e+01,-5.200000e-01,-1.560000e+00,-1.040000e+00,4.666667e+00,10,4.666667e+00
-3.390000e+00,7.800000e-01,1.512000e+01,-7.800000e-01,-1.820000e+00,-1.040000e+00,4.000000e+00,10,4.000000e+00
-3.490000e+00,8.800000e-01,1.506000e+01,-5.200000e-01,-1.560000e+00,-1.300000e+00,3.333333e+00,10,3.333333e+00
-3.520000e+00,9.400000e-01,1.500000e+01,-2.090000e+00,-1.820000e+00,-2.350000e+00,2.666667e+00,10,2.666667e+00
-4.040000e+00,1.510000e+00,1.440000e+01,-2.350000e+00,-1.560000e+00,-2.350000e+00,2.000000e+00,10,2.000000e+00
-4.070000e+00,1.540000e+00,1.433000e+01,-3.910000e+00,-1.040000e+00,-7.820000e+00,1.333333e+00,10,1.333333e+00
-2.530000e+00,4.930000e+00,1.124000e+01,-4.950000e+00,-1.820000e+00,-7.820000e+00,6.666667e-01,10,6.666667e-01
-2.990000e+00,5.220000e+00,1.011000e+01,-5.210000e+00,-1.820000e+00,-7.560000e+00,1.333333e+00,10,1.333333e+00
-3.330000e+00,5.260000e+00,9.510000e+00,-5.210000e+00,-1.560000e+00,-7.560000e+00,2.000000e+00,10,2.000000e+00
-3.560000e+00,5.250000e+00,9.130000e+00,-5.470000e+00,-1.820000e+00,-7.560000e+00,2.666667e+00,10,2.666667e+00
-3.730000e+00,5.250000e+00,8.860000e+00,-7.800000e-01,-1.820000e+00,-1.040000e+00,3.333333e+00,10,3.333333e+00
-3.840000e+00,1.980000e+00,1.415000e+01,-5.200000e-01,-1.820000e+00,-5.200000e-01,4.000000e+00,10,4.000000e+00
-4.010000e+00,1.310000e+00,1.458000e+01,-5.200000e-01,-1.560000e+00,-1.040000e+00,4.666667e+00,10,4.666667e+00
-3.790000e+00,1.540000e+00,1.453000e+01,-7.800000e-01,-1.560000e+00,-2.600000e-01,5.333333e+00,10,5.333333e+00
-4.120000e+00,1.050000e+00,1.469000e+01,1.300000e+00,-1.560000e+00,1.300000e+00,6.000000e+00,10,6.000000e+00
-3.020000e+00,3.000000e-01,1.549000e+01,1.300000e+00,-1.820000e+00,1.040000e+00,6.666667e+00,10,6.666667e+00
-2.990000e+00,3.200000e-01,1.551000e+01,1.300000e+00,-1.820000e+00,1.560000e+00,7.333333e+00,10,7.333333e+00
-3.170000e+00,1.900000e-01,1.557000e+01,1.560000e+00,-1.560000e+00,2.350000e+00,8.000000e+00,10,8.000000e+00
-3.240000e+00,-1.200000e-01,1.572000e+01,3.390000e+00,-1.820000e+00,2.870000e+00,8.666667e+00,10,8.666667e+00
-2.270000e+00,-6.000000e-01,1.621000e+01,3.650000e+00,-1.560000e+00,3.650000e+00,9.333333e+00,10,9.333333e+00
-2.310000e+00,-7.700000e-01,1.624000e+01,3.390000e+00,-1.560000e+00,2.870000e+00,10,10,10
-2.290000e+00,-8.500000e-01,1.629000e+01,5.210000e+00,-1.560000e+00,4.170000e+00,1.066667e+01,10,1.066667e+01
-1.830000e+00,-1.240000e+00,1.660000e+01,5.990000e+00,-1.300000e+00,5.470000e+00,1.133333e+01,10,1.133333e+01
-1.760000e+00,-1.800000e+00,1.684000e+01,5.730000e+00,-1.560000e+00,5.730000e+00,1.200000e+01,10,1.200000e+01
-1.790000e+00,-1.950000e+00,1.685000e+01,6.780000e+00,-1.820000e+00,5.990000e+00,1.266667e+01,10,1.266667e+01
-1.270000e+00,-2.190000e+00,1.701000e+01,6.520000e+00,-1.820000e+00,6.520000e+00,1.333333e+01,10,1.333333e+01
-1.340000e+00,-2.390000e+00,1.708000e+01,7.820000e+00,-1.560000e+00,7.300000e+00,1.400000e+01,10,1.400000e+01
-1.190000e+00,-2.720000e+00,1.725000e+01,7.820000e+00,-1.300000e+00,7.560000e+00,1.466667e+01,10,1.466667e+01
-1.110000e+00,-2.860000e+00,1.733000e+01,8.600000e+00,-1.560000e+00,8.340000e+00,1.533333e+01,10,1.533333e+01
-8.100000e-01,-3.250000e+00,1.746000e+01,9.120000e+00,-1.560000e+00,8.600000e+00,1.600000e+01,10,1.600000e+01
-6.900000e-01,-3.460000e+00,1.750000e+01,9.900000e+00,-2.090000e+00,9.640000e+00,1.666667e+01,10,1.666667e+01
-5.100000e-01,-3.840000e+00,1.762000e+01,1.016000e+01,-2.090000e+00,9.380000e+00,1.733333e+01,10,1.733333e+01
-5.300000e-01,-3.910000e+00,1.768000e+01,1.069000e+01,-1.820000e+00,1.043000e+01,1.800000e+01,10,1.800000e+01
-3.300000e-01,-4.240000e+00,1.779000e+01,1.095000e+01,-2.090000e+00,1.043000e+01,1.866667e+01,10,1.866667e+01
-2.200000e-01,-4.370000e+00,1.780000e+01,1.147000e+01,-1.560000e+00,1.147000e+01,1.933333e+01,10,1.933333e+01
2.000000e-02,-4.690000e+00,1.787000e+01,1.225000e+01,-1.560000e+00,1.199000e+01,20,10,20
4.000000e-02,-4.790000e+00,1.794000e+01,1.173000e+01,-1.300000e+00,1.173000e+01,1.933333e+01,10,1.933333e+01
-4.000000e-02,-4.750000e+00,1.798000e+01,1.173000e+01,-1.560000e+00,1.043000e+01,1.866667e+01,10,1.866667e+01
4.000000e-02,-4.420000e+00,1.797000e+01,1.147000e+01,-1.300000e+00,1.069000e+01,1.800000e+01,10,1.800000e+01
2.000000e-02,-4.370000e+00,1.796000e+01,9.640000e+00,-1.560000e+00,9.380000e+00,1.733333e+01,10,1.733333e+01
-3.700000e-01,-4.120000e+00,1.779000e+01,9.120000e+00,-1.560000e+00,9.640000e+00,1.666667e+01,10,1.666667e+01
-4.100000e-01,-4.180000e+00,1.775000e+01,9.640000e+00,-1.820000e+00,8.860000e+00,1.600000e+01,10,1.600000e+01
-2.000000e-01,8.800000e-01,6.020000e+00,-5.470000e+00,-1.095000e+01,-7.820000e+00,10,2.666667e+00,2.666667e+00
-2.000000e-01,8.800000e-01,6.020000e+00,-5.730000e+00,-1.069000e+01,-7.560000e+00,10,3.333333e+00,3.333333e+00
-2.000000e-01,8.800000e-01,6.020000e+00,-5.730000e+00,-1.069000e+01,-7.820000e+00,10,4.000000e+00,4.000000e+00
-2.000000e-01,8.800000e-01,6.020000e+00,-5.730000e+00,-1.069000e+01,-7.820000e+00,10,4.666667e+00,4.666667e+00
-2.300000e-01,8.500000e-01,5.970000e+00,-2.600000e-01,-2.600000e-01,-2.600000e-01,10,5.333333e+00,5.333333e+00
4.000000e-02,-5.200000e-01,1.493000e+01,-2.600000e-01,-1.040000e+00,-5.200000e-01,10,6.000000e+00,6.000000e+00
2.100000e-01,-9.100000e-01,1.512000e+01,-2.600000e-01,-1.300000e+00,-2.600000e-01,10,6.666667e+00,6.666667e+00
1.000000e-02,-1.060000e+00,1.538000e+01,-5.200000e-01,2.600000e-01,1.040000e+00,10,8.000000e+00,8.000000e+00
-5.500000e-01,-1.070000e+00,1.570000e+01,-5.200000e-01,7.800000e-01,1.820000e+00,10,8.666667e+00,8.666667e+00
-1.010000e+00,-8.500000e-01,1.593000e+01,-5.200000e-01,1.300000e+00,2.090000e+00,10,9.333333e+00,9.333333e+00
-1.310000e+00,-1.010000e+00,1.608000e+01,-5.200000e-01,1.040000e+00,2.090000e+00,10,10,10
-1.390000e+00,-1.010000e+00,1.613000e+01,-5.200000e-01,1.820000e+00,2.870000e+00,10,1.066667e+01,1.066667e+01
-2.020000e+00,-1.020000e+00,1.636000e+01,-2.600000e-01,4.170000e+00,4.170000e+00,10,1.133333e+01,1.133333e+01
-3.040000e+00,-6.900000e-01,1.666000e+01,-2.600000e-01,3.130000e+00,3.910000e+00,10,1.200000e+01,1.200000e+01
-2.980000e+00,-8.800000e-01,1.663000e+01,-2.600000e-01,3.650000e+00,4.950000e+00,10,1.266667e+01,1.266667e+01
-3.260000e+00,-1.040000e+00,1.669000e+01,-7.800000e-01,4.690000e+00,5.470000e+00,10,1.333333e+01,1.333333e+01
-3.860000e+00,-7.200000e-01,1.679000e+01,-7.800000e-01,5.210000e+00,5.470000e+00,10,1.400000e+01,1.400000e+01
-4.150000e+00,-6.900000e-01,1.682000e+01,-1.040000e+00,5.210000e+00,6.520000e+00,10,1.466667e+01,1.466667e+01
-4.520000e+00,-8.700000e-01,1.685000e+01,-1.040000e+00,6.520000e+00,7.300000e+00,10,1.533333e+01,1.533333e+01
-5.170000e+00,-8.700000e-01,1.690000e+01,-7.800000e-01,7.560000e+00,7.040000e+00,10,1.600000e+01,1.600000e+01
-5.640000e+00,-4.800000e-01,1.691000e+01,-1.300000e+00,7.820000e+00,8.600000e+00,10,1.666667e+01,1.666667e+01
-6.050000e+00,-7.400000e-01,1.691000e+01,-1.040000e+00,7.820000e+00,8.600000e+00,10,1.733333e+01,1.733333e+01
-6.040000e+00,-7.400000e-01,1.699000e+01,-7.800000e-01,7.820000e+00,9.380000e+00,10,1.800000e+01,1.800000e+01
-6.820000e+00,-7.500000e-01,1.722000e+01,-2.600000e-01,1.069000e+01,1.043000e+01,10,20,20
-7.180000e+00,-4.900000e-01,1.720000e+01,-2.600000e-01,9.900000e+00,1.069000e+01,10,1.933333e+01,1.933333e+01
-7.010000e+00,-7.000000e-01,1.721000e+01,-5.200000e-01,8.340000e+00,9.380000e+00,10,1.866667e+01,1.866667e+01
-6.540000e+00,-7.900000e-01,1.722000e+01,-5.200000e-01,7.560000e+00,8.600000e+00,10,1.733333e+01,1.733333e+01
-6.170000e+00,-7.900000e-01,1.722000e+01,-5.200000e-01,7.560000e+00,8.340000e+00,10,1.666667e+01,1.666667e+01
-6.090000e+00,-8.300000e-01,1.721000e+01,-5.200000e-01,6.520000e+00,7.560000e+00,10,1.600000e+01,1.600000e+01
-5.790000e+00,-8.700000e-01,1.719000e+01,-2.600000e-01,6.520000e+00,7.300000e+00,10,1.533333e+01,1.533333e+01
-5.600000e+00,-8.000000e-01,1.718000e+01,-5.200000e-01,5.470000e+00,6.260000e+00,10,1.466667e+01,1.466667e+01
-5.080000e+00,-8.000000e-01,1.714000e+01,-5.200000e-01,5.470000e+00,6.260000e+00,10,1.400000e+01,1.400000e+01
-5,-8.400000e-01,1.713000e+01,-7.800000e-01,4.170000e+00,4.950000e+00,10,1.333333e+01,1.333333e+01
-4.510000e+00,-8.300000e-01,1.706000e+01,-5.200000e-01,4.430000e+00,4.690000e+00,10,1.266667e+01,1.266667e+01
-4.440000e+00,-8.700000e-01,1.703000e+01,-7.800000e-01,3.650000e+00,4.430000e+00,10,1.200000e+01,1.200000e+01
-4.030000e+00,-8.900000e-01,1.695000e+01,-7.800000e-01,3.130000e+00,3.910000e+00,10,1.133333e+01,1.133333e+01
-3.920000e+00,-8.700000e-01,1.691000e+01,-7.800000e-01,2.350000e+00,2.610000e+00,10,1.066667e+01,1.066667e+01
-3.350000e+00,-8.400000e-01,1.677000e+01,-1.040000e+00,1.040000e+00,3.130000e+00,10,10,10
-2.970000e+00,-1.200000e+00,1.665000e+01,-1.040000e+00,7.800000e-01,1.820000e+00,10,9.333333e+00,9.333333e+00
-2.650000e+00,-8.900000e-01,1.655000e+01,-1.040000e+00,7.800000e-01,1.820000e+00,10,8.666667e+00,8.666667e+00
-2.600000e+00,-9.200000e-01,1.650000e+01,-1.040000e+00,2.600000e-01,7.800000e-01,10,8.000000e+00,8.000000e+00
2.000000e-01,-1.070000e+00,1.574000e+01,-2.600000e-01,-2.870000e+00,-2.350000e+00,10,4.666667e+00,4.666667e+00
9.700000e-01,-1.130000e+00,1.529000e+01,-2.600000e-01,-3.130000e+00,-2.090000e+00,10,4.000000e+00,4.000000e+00
1.070000e+00,-1.160000e+00,1.522000e+01,-2.600000e-01,-4.170000e+00,-2.610000e+00,10,3.333333e+00,3.333333e+00
1.540000e+00,-1.640000e+00,1.489000e+01,-2.600000e-01,-4.170000e+00,-3.910000e+00,10,2.666667e+00,2.666667e+00
1.980000e+00,-1.270000e+00,1.461000e+01,-7.800000e-01,-6.780000e+00,-3.390000e+00,10,2.000000e+00,2.000000e+00
3.290000e+00,-2.930000e+00,1.338000e+01,-5.200000e-01,-7.820000e+00,-9.120000e+00,10,1.333333e+00,1.333333e+00
5.860000e+00,-1.300000e-01,9.800000e+00,-5.200000e-01,-8.080000e+00,-8.860000e+00,10,6.666667e-01,6.666667e-01
5.990000e+00,1.400000e-01,9.070000e+00,-1.040000e+00,-8.080000e+00,-9.120000e+00,10,1.333333e+00,1.333333e+00
6,2.100000e-01,8.730000e+00,-5.200000e-01,-7.820000e+00,-8.860000e+00,10,2.000000e+00,2.000000e+00
5.980000e+00,2.100000e-01,8.550000e+00,-1.040000e+00,-7.820000e+00,-9.120000e+00,10,2.666667e+00,2.666667e+00
5.960000e+00,1.700000e-01,8.440000e+00,-1.040000e+00,-2.350000e+00,-2.610000e+00,10,3.333333e+00,3.333333e+00
1.930000e+00,-5.300000e-01,1.446000e+01,-1.300000e+00,-3.390000e+00,-1.820000e+00,10,4.000000e+00,4.000000e+00
1.600000e+00,-1.270000e+00,1.462000e+01,-1.040000e+00,-3.130000e+00,-2.350000e+00,10,4.666667e+00,4.666667e+00
1.630000e+00,-1.170000e+00,1.459000e+01,-1.300000e+00,-1.300000e+00,-1.300000e+00,10,5.333333e+00,5.333333e+00
4.600000e-01,-1.080000e+00,1.567000e+01,-2.600000e-01,-1.040000e+00,2.600000e-01,10,7.333333e+00,7.333333e+00
2.500000e-01,-1.200000e+00,1.577000e+01,-2.600000e-01,2.600000e-01,7.800000e-01,10,8.000000e+00,8.000000e+00
-4.200000e-01,-1,1.608000e+01,-2.600000e-01,1.040000e+00,1.560000e+00,10,8.666667e+00,8.666667e+00
-1.010000e+00,-9.300000e-01,1.631000e+01,-5.200000e-01,1.300000e+00,2.090000e+00,10,9.333333e+00,9.333333e+00
-1.190000e+00,-9.900000e-01,1.637000e+01,-5.200000e-01,1.040000e+00,1.820000e+00,10,10,10
-1.300000e+00,-1,1.640000e+01,-2.600000e-01,2.350000e+00,2.870000e+00,10,1.066667e+01,1.066667e+01
-1.940000e+00,-9.900000e-01,1.660000e+01,-7.800000e-01,3.910000e+00,4.690000e+00,10,1.133333e+01,1.133333e+01
-2.990000e+00,-6.500000e-01,1.689000e+01,-7.800000e-01,3.130000e+00,3.650000e+00,10,1.200000e+01,1.200000e+01
-2.910000e+00,-8.300000e-01,1.685000e+01,-7.800000e-01,3.390000e+00,4.690000e+00,10,1.266667e+01,1.266667e+01
-3.110000e+00,-9.900000e-01,1.689000e+01,-1.040000e+00,4.690000e+00,4.950000e+00,10,1.333333e+01,1.333333e+01
-3.740000e+00,-7.000000e-01,1.701000e+01,-1.040000e+00,4.950000e+00,5.210000e+00,10,1.400000e+01,1.400000e+01
-4.020000e+00,-6.600000e-01,1.704000e+01,-7.800000e-01,5.470000e+00,6.260000e+00,10,1.466667e+01,1.466667e+01
-4.400000e+00,-8.200000e-01,1.707000e+01,-7.800000e-01,5.990000e+00,7.820000e+00,10,1.533333e+01,1.533333e+01
-4.920000e+00,-9.500000e-01,1.711000e+01,-1.040000e+00,7.040000e+00,7.300000e+00,10,1.600000e+01,1.600000e+01
-5.350000e+00,-6.000000e-01,1.713000e+01,-1.040000e+00,7.560000e+00,8.600000e+00,10,1.666667e+01,1.666667e+01
-5.890000e+00,-6.800000e-01,1.713000e+01,-1.040000e+00,7.300000e+00,8.340000e+00,10,1.733333e+01,1.733333e+01
-5.980000e+00,-7.700000e-01,1.711000e+01,-1.040000e+00,8.080000e+00,9.120000e+00,10,1.800000e+01,1.800000e+01
-6.480000e+00,-7.700000e-01,1.711000e+01,-1.300000e+00,9.120000e+00,9.640000e+00,10,1.866667e+01,1.866667e+01
-6.800000e+00,-5.100000e-01,1.713000e+01,-7.800000e-01,9.640000e+00,1.043000e+01,10,1.933333e+01,1.933333e+01
-7.040000e+00,-6.200000e-01,1.716000e+01,-7.800000e-01,9.900000e+00,1.043000e+01,10,20,20
-7.100000e+00,-6.800000e-01,1.722000e+01,-7.800000e-01,9.640000e+00,1.043000e+01,10,1.933333e+01,1.933333e+01
-7.010000e+00,-6.800000e-01,1.728000e+01,-5.200000e-01,8.600000e+00,9.380000e+00,10,1.866667e+01,1.866667e+01
-6.420000e+00,-7.300000e-01,1.738000e+01,-2.600000e-01,7.820000e+00,8.340000e+00,10,1.733333e+01,1.733333e+01
-6.030000e+00,-7.700000e-01,1.738000e+01,-5.200000e-01,7.300000e+00,8.080000e+00,10,1.666667e+01,1.666667e+01
-5.670000e+00,-9.400000e-01,1.733000e+01,-2.600000e-01,6.260000e+00,7.040000e+00,10,1.533333e+01,1.533333e+01
-5.430000e+00,-7.700000e-01,1.732000e+01,-5.200000e-01,5.470000e+00,5.990000e+00,10,1.466667e+01,1.466667e+01
-4.950000e+00,-7.400000e-01,1.728000e+01,-2.600000e-01,5.210000e+00,5.730000e+00,10,1.400000e+01,1.400000e+01
-4.870000e+00,-8.000000e-01,1.726000e+01,-5.200000e-01,4.170000e+00,4.690000e+00,10,1.333333e+01,1.333333e+01
-4.300000e+00,-8.200000e-01,1.720000e+01,-2.600000e-01,4.170000e+00,4.690000e+00,10,1.266667e+01,1.266667e+01
-4.230000e+00,-8.800000e-01,1.718000e+01,-5.200000e-01,3.390000e+00,4.170000e+00,10,1.200000e+01,1.200000e+01
-3.790000e+00,-8.700000e-01,1.710000e+01,-5.200000e-01,3.130000e+00,3.910000e+00,10,1.133333e+01,1.133333e+01
-3.670000e+00,-8.700000e-01,1.708000e+01,-2.600000e-01,2.090000e+00,2.610000e+00,10,1.066667e+01,1.066667e+01
-3.060000e+00,-8.600000e-01,1.694000e+01,-2.600000e-01,1.300000e+00,3.130000e+00,10,10,10
-2.670000e+00,-1.200000e+00,1.683000e+01,-2.600000e-01,1.300000e+00,1.820000e+00,10,9.333333e+00,9.333333e+00
-2.340000e+00,-9.000000e-01,1.673000e+01,-7.800000e-01,1.040000e+00,2.090000e+00,10,8.666667e+00,8.666667e+00
-2.270000e+00,-9.200000e-01,1.668000e+01,-7.800000e-01,-2.600000e-01,7.800000e-01,10,8.000000e+00,8.000000e+00
-1.690000e+00,-9.300000e-01,1.647000e+01,-5.200000e-01,2.600000e-01,5.200000e-01,10,7.333333e+00,7.333333e+00
-1.630000e+00,-9.600000e-01,1.642000e+01,-7.800000e-01,-5.200000e-01,-2.600000e-01,10,6.666667e+00,6.666667e+00
-1,-9.600000e-01,1.616000e+01,-5.200000e-01,-7.800000e-01,-2.600000e-01,10,6.000000e+00,6.000000e+00
-9.400000e-01,-9.700000e-01,1.611000e+01,-1.300000e+00,-2.090000e+00,-1.300000e+00,10,5.333333e+00,5.333333e+00
-1.600000e-01,-1.030000e+00,1.574000e+01,-1.300000e+00,-3.650000e+00,-2.350000e+00,10,4.666667e+00,4.666667e+00
6.000000e-01,-1.050000e+00,1.532000e+01,-1.300000e+00,-3.390000e+00,-2.350000e+00,10,4.000000e+00,4.000000e+00
7.300000e-01,-1.110000e+00,1.526000e+01,-1.040000e+00,-3.910000e+00,-2.090000e+00,10,3.333333e+00,3.333333e+00
1.370000e+00,-1.650000e+00,1.493000e+01,-2.600000e-01,-4.430000e+00,-3.390000e+00,10,2.666667e+00,2.666667e+00
2,-1.260000e+00,1.466000e+01,-2.600000e-01,-7.820000e+00,-3.390000e+00,10,2.000000e+00,2.000000e+00
3.940000e+00,-3.730000e+00,1.268000e+01,-2.600000e-01,-8.080000e+00,-9.120000e+00,10,1.333333e+00,1.333333e+00
6.130000e+00,1.000000e-01,9.180000e+00,-2.600000e-01,-7.820000e+00,-9.380000e+00,10,1.333333e+00,1.333333e+00
6.140000e+00,1.800000e-01,8.870000e+00,-2.600000e-01,-8.340000e+00,-9.120000e+00,10,2.000000e+00,2.000000e+00
6.130000e+00,2.000000e-01,8.690000e+00,-7.800000e-01,-8.080000e+00,-9.120000e+00,10,2.666667e+00,2.666667e+00
6.090000e+00,1.700000e-01,8.530000e+00,-5.200000e-01,-2.350000e+00,-3.130000e+00,10,3.333333e+00,3.333333e+00
2.100000e+00,-5.400000e-01,1.455000e+01,-1.040000e+00,-3.390000e+00,-1.560000e+00,10,4.000000e+00,4.000000e+00
1.740000e+00,-1.360000e+00,1.472000e+01,-1.300000e+00,-3.130000e+00,-2.350000e+00,10,4.666667e+00,4.666667e+00
1.800000e+00,-1.200000e+00,1.466000e+01,-1.040000e+00,-1.820000e+00,-1.300000e+00,10,5.333333e+00,5.333333e+00
7.000000e-02,-1.020000e+00,1.564000e+01,-1.560000e+00,-1.300000e+00,-2.600000e-01,10,6.666667e+00,6.666667e+00
1.000000e-02,-1.050000e+00,1.564000e+01,-1.040000e+00,-7.800000e-01,-2.600000e-01,10,7.333333e+00,7.333333e+00
-9.000000e-02,-1.100000e+00,1.574000e+01,-5.200000e-01,2.600000e-01,7.800000e-01,10,8.000000e+00,8.000000e+00
-1.080000e+00,-1,1.645000e+01,-2.600000e-01,7.800000e-01,2.090000e+00,10,10,10
-1.980000e+00,-8.100000e-01,1.673000e+01,-5.200000e-01,3.650000e+00,3.910000e+00,10,1.133333e+01,1.133333e+01
-2.760000e+00,-7.700000e-01,1.695000e+01,-2.600000e-01,3.390000e+00,3.910000e+00,10,1.200000e+01,1.200000e+01
-2.730000e+00,-9.000000e-01,1.694000e+01,-5.200000e-01,3.650000e+00,4.690000e+00,10,1.266667e+01,1.266667e+01
-3.050000e+00,-9.300000e-01,1.701000e+01,-2.600000e-01,4.690000e+00,5.210000e+00,10,1.333333e+01,1.333333e+01
-3.580000e+00,-7.200000e-01,1.712000e+01,-5.200000e-01,4.690000e+00,5.990000e+00,10,1.400000e+01,1.400000e+01
-3.940000e+00,-8.400000e-01,1.718000e+01,-2.600000e-01,5.470000e+00,6.520000e+00,10,1.466667e+01,1.466667e+01
-4.130000e+00,-9.300000e-01,1.720000e+01,-2.600000e-01,6.520000e+00,7.300000e+00,10,1.533333e+01,1.533333e+01
-4.730000e+00,-7.900000e-01,1.728000e+01,-5.200000e-01,7.560000e+00,7.300000e+00,10,1.600000e+01,1.600000e+01
-5.190000e+00,-5.000000e-01,1.732000e+01,-2.600000e-01,7.820000e+00,8.600000e+00,10,1.666667e+01,1.666667e+01
-5.550000e+00,-7.600000e-01,1.734000e+01,-5.200000e-01,7.820000e+00,8.340000e+00,10,1.733333e+01,1.733333e+01
-5.710000e+00,-7.600000e-01,1.734000e+01,-7.800000e-01,7.560000e+00,9.380000e+00,10,1.800000e+01,1.800000e+01
-6.020000e+00,-9.800000e-01,1.733000e+01,-5.200000e-01,8.080000e+00,9.900000e+00,10,1.866667e+01,1.866667e+01
-6.240000e+00,-8.900000e-01,1.731000e+01,-7.800000e-01,9.380000e+00,9.900000e+00,10,1.933333e+01,1.933333e+01
-6.840000e+00,-6.400000e-01,1.728000e+01,-1.040000e+00,1.043000e+01,1.043000e+01,10,20,20
-7.300000e+00,-4.400000e-01,1.723000e+01,-1.040000e+00,9.380000e+00,1.043000e+01,10,1.933333e+01,1.933333e+01
-7.190000e+00,-6.900000e-01,1.721000e+01,-1.040000e+00,8.600000e+00,9.380000e+00,10,1.866667e+01,1.866667e+01
-6.840000e+00,-6.900000e-01,1.719000e+01,-1.300000e+00,8.340000e+00,9.380000e+00,10,1.800000e+01,1.800000e+01
-6.810000e+00,-7.200000e-01,1.716000e+01,-1.040000e+00,7.560000e+00,8.340000e+00,10,1.733333e+01,1.733333e+01
-6.450000e+00,-6.900000e-01,1.716000e+01,-1.300000e+00,7.300000e+00,8.340000e+00,10,1.666667e+01,1.666667e+01
-6.340000e+00,-7.700000e-01,1.718000e+01,-7.800000e-01,6.260000e+00,8.080000e+00,10,1.600000e+01,1.600000e+01
-5.970000e+00,-9.500000e-01,1.723000e+01,-7.800000e-01,5.990000e+00,6.780000e+00,10,1.533333e+01,1.533333e+01
-5.560000e+00,-7.700000e-01,1.729000e+01,-5.200000e-01,4.950000e+00,5.990000e+00,10,1.466667e+01,1.466667e+01
-4.800000e+00,-8.400000e-01,1.733000e+01,-2.600000e-01,4.170000e+00,4.950000e+00,10,1.333333e+01,1.333333e+01
-4.240000e+00,-8.300000e-01,1.727000e+01,-5.200000e-01,3.910000e+00,4.950000e+00,10,1.266667e+01,1.266667e+01
-4.180000e+00,-8.800000e-01,1.723000e+01,-2.600000e-01,3.130000e+00,4.170000e+00,10,1.200000e+01,1.200000e+01
-3.690000e+00,-8.500000e-01,1.714000e+01,-2.600000e-01,3.390000e+00,4.430000e+00,10,1.133333e+01,1.133333e+01
-3.610000e+00,-8.900000e-01,1.712000e+01,-2.600000e-01,1.820000e+00,3.390000e+00,10,1.066667e+01,1.066667e+01
-2.480000e+00,-1.140000e+00,1.685000e+01,-2.600000e-01,7.800000e-01,1.820000e+00,10,9.333333e+00,9.333333e+00
-2.190000e+00,-9.400000e-01,1.677000e+01,-2.600000e-01,7.800000e-01,1.820000e+00,10,8.666667e+00,8.666667e+00
-1.520000e+00,-9.200000e-01,1.655000e+01,-5.200000e-01,2.600000e-01,5.200000e-01,10,7.333333e+00,7.333333e+00
-6.400000e-01,-1.030000e+00,1.619000e+01,-5.200000e-01,-2.350000e+00,-1.300000e+00,10,5.333333e+00,5.333333e+00
1.500000e-01,-1.070000e+00,1.582000e+01,-2.600000e-01,-3.130000e+00,-2.610000e+00,10,4.666667e+00,4.666667e+00
9.300000e-01,-1.110000e+00,1.539000e+01,-5.200000e-01,-3.390000e+00,-2.350000e+00,10,4.000000e+00,4.000000e+00
1.010000e+00,-1.160000e+00,1.532000e+01,-5.200000e-01,-4.690000e+00,-2.610000e+00,10,3.333333e+00,3.333333e+00
1.500000e+00,-1.690000e+00,1.496000e+01,-1.040000e+00,-4.170000e+00,-3.650000e+00,10,2.666667e+00,2.666667e+00
1.890000e+00,-1.270000e+00,1.469000e+01,-7.800000e-01,-4.430000e+00,-3.910000e+00,10,2.000000e+00,2.000000e+00
1.980000e+00,-1.290000e+00,1.459000e+01,-7.800000e-01,-8.080000e+00,-9.120000e+00,10,1.333333e+00,1.333333e+00
5.740000e+00,-2.000000e-02,1.006000e+01,-1.040000e+00,-7.820000e+00,-8.860000e+00,10,6.666667e-01,6.666667e-01
