Caracteristiques des modules de la simulation : 
 Hauteur du module (en mm) : , 50
 Pression initiale : , 0
 Module de Young des parties souples : , 12
 Module de Young des parties rigides : , 1875
 Coefficient de Poisson : , 0.45
 Nombre de modules robotiques : ,1
 Nombre de paires de cavites par module : , 3
 Nombre de poutres le long de l ensemble des modules : , 4
 Pression maximale : , 150
 Masse d un module (en kg) : , 0.01
 Application des parties rigides : , 1
 Modele 3D des modules : , model_module_v2_90.vtk
 Modele 3D des chambres : , model_chambres_v2_reg.stl
 K_I : , 0.1
 K_P: , 0.001