[ 0.0 0.0 0.0],[ 783.3723163619908 783.3723163619901 783.3723163619907], [1.4862370491027832]
[ 0.0 0.0 0.0],[ 783.3723163619908 783.3723163619901 783.3723163619907], [2.913365125656128]
[ 0.0 0.1528929836601045 0.15023466146947226],[ 783.3723163619919 783.3723163619915 783.372316361992], [3.0492167472839355]
[ 0.0 0.40178519136953644 0.3901109865288361],[ 783.4991271316936 783.6375411601875 783.6394729545246], [3.1869888305664062]
[ 0.0 0.7440280184363954 0.7228177745319581],[ 783.6805447601276 784.0847766860734 784.0871512115584], [3.3142220973968506]
[ 0.0 1.1807934778419293 1.1477130993305042],[ 783.9150244347031 784.7113729639916 784.7168775376206], [3.4383931159973145]
[ 0.0 1.7106408093708114 1.6631768827822349],[ 784.1989311539487 785.5203989614458 785.5313830536514], [3.5816354751586914]
[ 0.0 2.3354693128763575 2.271139676189779],[ 784.5350382193831 786.5069631710613 786.526429708019], [3.7233996391296387]
[ 0.0 3.0550970888253506 2.9710214935821107],[ 784.9252057489838 787.6752909222855 787.7049993952014], [3.87209153175354]
[ 0.0 3.876829444920784 3.770151936915296],[ 785.3719462832053 789.0232182354954 789.0656357935194], [4.018667936325073]
[ 0.0 4.801298859137678 4.669168204969406],[ 785.8836754350932 790.5632105326907 790.6206920023902], [4.15877366065979]
[ 0.0 5.832256498064257 5.663721923967502],[ 786.4626643685104 792.295962141416 792.3708573708029], [4.302898406982422]
[ 0.0 6.871806493497344 6.588034921889017],[ 787.1114260320652 794.2233902786434 794.31062220262], [4.4540464878082275]
[ 0.0 7.749292439124097 7.509491313267289],[ 787.713482375111 796.1386967552874 796.1662536299357], [4.606061697006226]
[ 0.0 8.849862059668252 8.533082645537014],[ 788.241682611571 797.839665329853 797.930516275231], [4.755551338195801]
[ 0.0 10.057821391126023 9.632646978802018],[ 788.9445115625097 799.8584527742703 799.9389376389647], [4.900754451751709]
[ 0.0 11.359253772420487 10.832507458533549],[ 789.7290333401853 802.0658291473578 802.095645135826], [5.0488550662994385]
[ 0.0 12.727186048484214 12.131222289852143],[ 790.5982679488909 804.4505419811607 804.4264331284347], [5.18965220451355]
[ 0.0 14.137681295464501 13.493946913144292],[ 791.5403828198018 806.9687301222318 806.9204004048111], [5.318143844604492]
[ 0.0 15.599398686573078 14.935774573948953],[ 792.5322934124779 809.5645899618336 809.5204442300862], [5.45185923576355]
[ 0.0 17.134374197425462 16.443933393509134],[ 793.5942839148773 812.2528231161766 812.2473268644261], [5.582104682922363]
[ 0.0 18.81254971976032 18.04195784902365],[ 794.7356560777201 815.0555183579601 815.0920987556902], [5.713929176330566]
[ 0.0 20.563508987590254 19.70970925948985],[ 796.0074686794734 818.0799452014239 818.1134028540893], [5.853043079376221]
[ 0.0 22.326308907275465 21.45228143201379],[ 797.3623733170612 821.2261602655806 821.2435264339148], [5.982802867889404]
[ 0.0 24.055865733592785 23.16967687168173],[ 798.7780198344111 824.4074477091008 824.460466882141], [6.124688625335693]
[ 0.0 25.80414635143987 24.977586149291422],[ 800.1873004604203 827.5098672479066 827.6117385293263], [6.2548980712890625]
[ 0.0 27.571410625214114 26.830456507371455],[ 801.6882451406157 830.6598814340797 830.8740100073055], [6.384491920471191]
[ 0.0 29.448254157789304 28.670138768330133],[ 803.2531701581293 833.8353345664021 834.1895573517363], [6.522712469100952]
[ 0.0 31.37525469670933 30.589203268521405],[ 804.900959901029 837.1346205455296 837.5167387353002], [6.670962572097778]
[ 0.0 33.27635949929931 32.51440799558733],[ 806.6496346779367 840.5279138742269 840.9410472922358], [6.817739248275757]
[ 0.0 35.07564579585553 34.37794764077153],[ 808.4174352023688 843.8692930488694 844.3387952011257], [6.9615607261657715]
[ 0.0 36.759839444100976 36.151159047913545],[ 810.1305615286971 847.0304321795649 847.5866556376936], [7.100184679031372]
[ 0.0 38.35538885398369 37.924131738047],[ 811.7697606489918 849.9873311579115 850.6462375451072], [7.24294376373291]
[ 0.0 39.977221893830446 39.723464899736804],[ 813.3975676227677 852.8216119138532 853.652695252701], [7.376944541931152]
[ 0.0 41.513544062735924 41.41055785171028],[ 815.0861116512675 855.6963834262207 856.6944071137646], [7.52431058883667]
[ 0.0 43.03175833345341 43.08514874427717],[ 816.690641426926 858.4054230006908 859.5299315219734], [7.660539865493774]
[ 0.0 44.442329745349795 44.68119071607177],[ 818.3055601899462 861.0817836048791 862.3295572440774], [7.800506830215454]
[ 0.0 45.77320511891521 46.15950521664448],[ 819.8405660959005 863.5756698396564 864.9688792441657], [7.932122230529785]
[ 0.0 47.01082231351039 47.591813158651554],[ 821.2872606330557 865.911360152295 867.4139043179495], [8.070813417434692]
[ 0.0 48.17150887329793 48.99873157025251],[ 822.6766365294644 868.1057400586637 869.7531291842557], [8.20295000076294]
[ 0.0 49.313615934160474 50.369020867999076],[ 824.0262180841858 870.1873297117608 872.022766713417], [8.333645343780518]
[ 0.0 50.48537693960761 51.73786974290071],[ 825.3602686044455 872.2310446497137 874.228648933898], [8.470425128936768]
[ 0.0 51.54286734756854 52.86600889235711],[ 826.7261637189337 874.3125641441313 876.4348916797361], [8.59739351272583]
[ 0.0 52.521285471057965 53.969918025095815],[ 827.9049534549008 876.134880887468 878.2757583561195], [8.733508348464966]
[ 0.0 53.43596761942099 55.04067498115979],[ 829.0375837419446 877.8384433133755 880.0626800653739], [8.869083642959595]
[ 0.0 54.30801928900174 56.16655768586565],[ 830.126472067175 879.4390913147708 881.7852136530613], [9.004536151885986]
[ 0.0 55.15418115781223 57.24968999680998],[ 831.2327083958994 881.0141888855779 883.5514276195482], [9.13949465751648]
[ 0.0 55.99274616345021 58.31448412783949],[ 832.3095845034319 882.5449585520317 885.2365901236701], [9.270345449447632]
[ 0.0 56.847850797601566 59.32116627957105],[ 833.3813513825219 884.0622679217546 886.8851113595623], [9.409974098205566]
[ 0.0 57.68180677805478 60.285860394520554],[ 834.4396294399002 885.5699279688134 888.4644047193], [9.551307201385498]
[ 0.0 58.483099016956224 61.14660484698938],[ 835.4721092588568 887.0217737145197 889.9843404479676], [9.699196815490723]
[ 0.0 59.43006962535821 62.17173070204733],[ 836.4346494422947 888.3779512830014 891.3634794583286], [9.840347528457642]
[ 0.0 59.96238543802174 62.998684667472105],[ 837.5862833466363 889.9819501586112 893.0158567068421], [9.986065864562988]
[ 0.0 60.14558811782898 63.59655653827089],[ 838.3974572416474 890.9648574242666 894.2296392837784], [10.150532484054565]
[ 0.0 59.908266409831576 63.86258063960178],[ 838.8624046430585 891.4423521835059 895.0121846537824], [10.289433002471924]
[ 0.0 59.35046517850147 63.93121086553212],[ 838.8721340901036 891.2889715106913 895.2022482071918], [10.426254987716675]
[ 0.0 58.6163844834843 63.813750275688925],[ 838.5562560754997 890.6783460413851 895.0270039568193], [10.556557416915894]
[ 0.0 57.79216765466765 63.638666805631985],[ 838.0067803027239 889.7861228986848 894.5586278499361], [10.70262360572815]
[ 1.1204508397670019 57.98815968222079 64.5919757226958],[ 837.3552280602416 888.7641381317778 893.9958120264295], [10.835203409194946]
[ 3.0781599259868964 59.105742448389506 66.57009735003705],[ 839.2476975056279 889.9133173881755 895.6601030273273], [10.979064464569092]
[ 4.887484992530079 60.19504379568322 68.64654086665074],[ 843.3973564251706 893.0866477616921 899.3445020997705], [11.113844871520996]
[ 6.67093511226449 61.2882867652521 70.81655366457966],[ 847.5611470422549 896.3221289673754 903.1216039395093], [11.25292420387268]
[ 8.600804483277148 62.4516614529645 72.87331995397369],[ 851.7885530470384 899.5962571986877 906.9583141018825], [11.383473634719849]
[ 10.614088833317936 63.65640452822333 74.75712317732994],[ 856.1984043542069 902.9629538128517 910.6930657145151], [11.526114463806152]
[ 12.459257332639512 64.77716562748485 76.50708174677496],[ 860.661929947288 906.3363710257568 914.2942534680545], [11.64909291267395]
[ 14.577211076549156 65.76314861264487 78.22531276923358],[ 864.8238517489494 909.4457484203823 917.686304777195], [11.804826498031616]
[ 17.084919821363254 66.66215408660034 79.8641691313725],[ 869.2444616965158 912.4436173921707 921.0779454108034], [11.936827659606934]
[ 19.644069033653807 67.49383425513616 81.3846772333498],[ 874.0350811126632 915.5309792168227 924.5095816907777], [12.082083225250244]
[ 22.271076654949603 68.4218589042605 82.83963645011744],[ 878.7480053581561 918.5859820427272 927.8423080642883], [12.228183031082153]
[ 24.90474139275981 69.38597926178281 84.20942704414908],[ 883.5541501911557 921.7614644096301 931.1729925748989], [12.3774995803833]
[ 27.75910010665357 70.38837446516682 85.4970162807468],[ 888.3453724651293 924.9219208504352 934.461647452802], [12.530075788497925]
[ 30.609015379483573 71.22502101114061 86.82017463103972],[ 893.3894677931768 928.1730541165144 937.7852664983816], [12.673088312149048]
[ 33.54338304420722 72.1082445843482 88.07165217320355],[ 898.3144121517844 931.2561677862908 941.1567008768463], [12.823874235153198]
[ 36.30838493117362 72.93966510787126 89.12622703500973],[ 903.3238146240149 934.4636501017517 944.4184650280305], [12.973451614379883]
[ 39.07916317253709 73.7617639092961 90.1477354011341],[ 907.943996164383 937.4295440143508 947.4215584161614], [13.122169733047485]
[ 41.74982793519908 74.36240999663461 91.17760153569054],[ 912.5755745337655 940.3113614142751 950.3893956230479], [13.25497055053711]
[ 44.23008555285031 74.8006948938427 92.20864090820979],[ 916.9274262325251 942.9087800318724 953.2467618489609], [13.387791156768799]
[ 46.53648386477859 75.20166300243783 93.1290057418293],[ 920.9451522660829 945.2783474088292 955.8653151836288], [13.526036024093628]
[ 48.7037617785639 75.52994442687239 93.89416108331811],[ 924.6642128452153 947.4756958075618 958.2159806943796], [13.653535604476929]
[ 50.724356977348684 75.71434706721092 94.52253790573924],[ 928.0896101347089 949.3939450334962 960.3173340561287], [13.785785913467407]
[ 52.456078870464204 75.79367545229664 94.90056765429193],[ 931.1590725578188 950.9999216967177 962.1254780398638], [13.929276466369629]
[ 53.771910878225164 75.74763095076524 95.10563568329034],[ 933.6534988024906 952.2220899310807 963.4389718129993], [14.056697845458984]
[ 54.705612011686014 75.57720952390628 95.26149519311133],[ 935.4834708681028 952.9290066167194 964.3292519638641], [14.203032732009888]
[ 55.1918480327783 75.28039767768976 95.23078191189883],[ 936.795437807876 953.2448661630696 964.85018509499], [14.33744192123413]
[ 55.342502398233705 74.87483834714581 95.10883550400976],[ 937.4020864306103 953.0817728029847 964.8444207675348], [14.470540046691895]
[ 55.477483527937906 74.33251918266838 95.00265289467194],[ 937.5358732080113 952.496703542159 964.5062353271674], [14.617170333862305]
[ 55.610098777058006 73.55035826749139 94.85315685857614],[ 937.5880439814731 951.7455265159468 964.0665194502254], [14.75054407119751]
[ 55.5507360434158 72.54695436132258 94.64315288398572],[ 937.4190686715909 950.7277381731409 963.4846771788377], [14.881094455718994]
[ 55.418170639253525 71.44374845753661 94.4438351972422],[ 936.8122985881641 949.3848063900915 962.6092668709167], [15.031155586242676]
[ 55.27956723305075 70.24314953043243 94.19411110750171],[ 936.0729913673857 947.8774044908209 961.6337360436355], [15.172449827194214]
[ 55.05263021709545 69.02262389074235 93.82500072250174],[ 935.2029602460067 946.2565100426908 960.5473352473095], [15.301964282989502]
[ 54.59369380567931 67.97992956071717 93.23452319923679],[ 934.1089771198732 944.5152410028564 959.2899677111604], [15.447005033493042]
[ 53.92815096800644 67.16708398414539 92.4295040064913],[ 932.6839282666739 942.7439449462523 957.7582611981633], [15.58796739578247]
[ 53.00145522505291 66.3689535842215 91.5398475266391],[ 931.0554580148873 940.9111861615553 956.057633731792], [15.717389106750488]
[ 52.00418393276786 65.67644995393306 90.65729368633579],[ 929.0844670333448 938.8554234317907 954.2120172741753], [15.851374626159668]
[ 50.990793528405426 64.77079343868817 89.82947285969551],[ 927.1159357931356 936.8773579665865 952.3263734168521], [15.979956865310669]
[ 49.915237802192664 63.671060773523905 89.1443335957114],[ 925.0376388257582 934.6225668807901 950.4875539084918], [16.10878896713257]
[ 48.89665834897722 62.60177673043111 88.4783735606197],[ 922.8171277471826 932.2763791289433 948.6151777139835], [16.241981983184814]
[ 47.863712305805606 61.339009785648834 87.8644420596634],[ 920.6688073600081 930.039572595485 946.7564160288952], [16.378068923950195]
[ 46.86686923696456 60.06443267792201 87.31861132773702],[ 918.4128536124028 927.5670477106203 944.9569666352565], [16.527048587799072]
[ 45.823134037514016 58.83683829273032 86.73350706479629],[ 916.1888433971546 925.2151085941382 943.155268261777], [16.67864990234375]
[ 44.96272117143465 57.75689778155263 86.15486437648332],[ 913.8868140428189 922.8686604131215 941.3639688279259], [16.826420307159424]
[ 44.2693366779085 56.71972144870453 85.54451980815652],[ 911.8942058016228 920.7650796122228 939.7147237946723], [16.978925943374634]
[ 43.74060012745769 55.751261786413544 84.94273149215277],[ 910.0744426978227 918.781517925983 938.2054844000454], [17.13154649734497]
[ 43.22250155830547 54.6077948682344 84.4578807781571],[ 908.4735785405699 916.9821088933421 936.8276409152827], [17.265512943267822]
[ 42.74947449780463 53.51888957222799 84.0931541317884],[ 906.8494652737648 915.0424324552367 935.587690972102], [17.41527009010315]
[ 42.202613687692356 52.48639512456531 83.75174982281021],[ 905.3565396581031 913.3073382132687 934.4423238510142], [17.563140869140625]
[ 41.741287332828946 51.588988739556775 83.46587922903358],[ 903.8133693486573 911.6166225496487 933.3524731746616], [17.707282066345215]
[ 41.18358387655718 50.71360724800101 83.21691246567727],[ 902.5020782314023 910.1284831016723 932.402418569956], [17.856769800186157]
[ 40.717673760452364 49.93090692940693 83.05847682116205],[ 901.0994769911654 908.6447094310595 931.5196877593509], [18.00415015220642]
[ 40.33187766062155 49.21794150909862 82.87280450524891],[ 899.931638202657 907.3437370998403 930.7798314228237], [18.152698516845703]
[ 40.05617479382681 48.63718611067108 82.67314998435857],[ 898.878509760751 906.1572817687384 930.0929076156124], [18.299474954605103]
[ 39.76323226085346 48.18174556308122 82.42973402490321],[ 898.0143795376777 905.1735438241642 929.5144402328373], [18.443207025527954]
[ 39.344711130389285 47.63918218856286 82.25861024115098],[ 897.1715900293693 904.3093999074149 928.9638264413708], [18.594172954559326]
[ 38.82211381239958 47.16342768981901 82.19173553650089],[ 896.198777121262 903.2921359297865 928.4489716214738], [18.730983018875122]
[ 38.32480834623354 46.66145092251405 82.1902554673436],[ 895.1954576010107 902.3729746317005 927.9768910010753], [18.86978554725647]
[ 37.82994164351034 46.29668474049775 82.18836702748354],[ 894.2705662688992 901.4478134241672 927.5710029007212], [19.001678943634033]
[ 37.45704342863694 45.89990560142842 82.21258874929177],[ 893.4055508065046 900.7063303285967 927.2083545549658], [19.141759157180786]
[ 37.21593949587724 45.44498799112909 82.27624154821042],[ 892.7063848285597 899.9739264856491 926.9425440417662], [19.27519989013672]
[ 37.13658392449653 44.92715290994156 82.37768628117936],[ 892.1512426184446 899.2733951378129 926.7573418702837], [19.409668445587158]
[ 37.16302913346272 44.446479581213595 82.49258089638325],[ 891.7582662581441 898.6278477224905 926.6567087585512], [19.548975706100464]
[ 37.31287445353227 43.92677371071251 82.64026907652999],[ 891.4972774859182 898.1183020170612 926.630547440043], [19.695144414901733]
[ 37.54091030792273 43.37428406400411 82.82412334379944],[ 891.389653019424 897.6427700893263 926.6970337273658], [19.83889865875244]
[ 37.72960558928078 42.92148311817786 82.99620021539232],[ 891.373692756203 897.205821399708 926.8235540174264], [19.97365379333496]
[ 37.9156375613728 42.46316205902834 83.20355153497468],[ 891.3353211187238 896.8891467154906 926.9499485638582], [20.10567808151245]
[ 38.06158822360678 42.135748352318366 83.42994382105286],[ 891.3424087991917 896.5572090164985 927.1308997761025], [20.238280057907104]
[ 38.3478307761263 41.88904845867176 83.59382655046967],[ 891.3811056137861 896.375183003289 927.3491062081048], [20.374174118041992]
[ 38.659021679960475 41.60350586807507 83.7451356467758],[ 891.625787063465 896.3024247576276 927.5800827674874], [20.524558305740356]
[ 38.95631632440367 41.433599627639964 83.90545687553075],[ 891.87970966848 896.187613032501 927.8438493012527], [20.663641452789307]
[ 39.1764178747736 41.253638808380586 84.08459109506794],[ 892.1661097873588 896.2286129411241 928.1344047299272], [20.800156354904175]
[ 39.40814309836315 41.05427529705211 84.32132362021352],[ 892.3898234338305 896.2153405619067 928.4303397858182], [20.929160118103027]
[ 39.68430455623651 40.814957928649655 84.59577434762943],[ 892.6752279058728 896.1997480642436 928.7662945531189], [21.063238859176636]
[ 40.01806203350778 40.53804510440223 84.90192266662987],[ 893.0140966228192 896.1902236238379 929.1345435289295], [21.207022190093994]
[ 40.51605613617146 40.413530093027035 85.14051763783173],[ 893.416646630969 896.19425457502 929.5409308501036], [21.339401960372925]
[ 40.89457624068756 40.283313484831915 85.32336893123743],[ 894.0465714160999 896.4418867270025 929.9668499810491], [21.489428758621216]
[ 41.28091467326349 40.15040314586818 85.56010395366103],[ 894.4928064997018 896.597145409601 930.357236180396], [21.634790658950806]
[ 41.70527667262054 39.98082231057212 85.82479274979215],[ 895.0080834402588 896.7598476539838 930.781791066862], [21.763243675231934]
[ 42.20461471362208 39.891631547187146 86.02603587764159],[ 895.5723670282548 896.918673004848 931.2260101418826], [21.901394367218018]
[ 42.68771413532962 39.77621013692216 86.20433764954123],[ 896.221776398629 897.1921227916893 931.6395215094624], [22.041343688964844]
[ 43.21182610879199 39.644573322119236 86.41457018421954],[ 896.8267781469079 897.410730137646 932.0549215059672], [22.178566694259644]
[ 43.765853536479085 39.52372241861326 86.6475306214634],[ 897.502652398912 897.645202898705 932.4984991284217], [22.310203313827515]
[ 44.21923229737237 39.39682340730541 86.89210362137194],[ 898.2235941377902 897.9350112506645 932.9778878329133], [22.44782519340515]
[ 44.69058672959713 39.25337038973106 87.17701255079763],[ 898.823127418765 898.1804872984458 933.4329283973802], [22.580403804779053]
[ 45.18733704307621 39.2181895436305 87.38771697738906],[ 899.4836251055079 898.4232791384491 933.9101944804705], [22.710721492767334]
[ 45.72596002515549 39.13304655382479 87.54584534443416],[ 900.1816945689166 898.7775838336239 934.3331690314452], [22.84841775894165]
[ 46.33527868834102 39.00387752707366 87.7294100398943],[ 900.8899632999559 899.048061799689 934.7410901894541], [22.9884033203125]
[ 46.8508797445774 38.83440812662827 87.92397503323645],[ 901.6715149229534 899.3234447055096 935.181464674451], [23.122960567474365]
[ 47.39933249011036 38.63694920537359 88.15801844634933],[ 902.2970463465508 899.535422812417 935.5794774529703], [23.262150764465332]
[ 47.87441198059767 38.45478999522282 88.37803198088494],[ 902.9922470143762 899.7421135173613 935.997651761151], [23.40568733215332]
[ 48.417015374454465 38.28395766237151 88.57926185567231],[ 903.5863759598043 899.9325533675186 936.3700740638902], [23.547879934310913]
[ 49.00682115010428 38.14108135332944 88.7338969326519],[ 904.275068575837 900.1481099999069 936.7447975474341], [23.69858694076538]
[ 49.54941911574154 38.01475837547922 88.86144713302289],[ 905.0018649412817 900.4001311744622 937.107215427946], [23.844150066375732]
[ 50.10382992331013 37.88301921082327 89.00015754040028],[ 905.6507990565233 900.6367239390881 937.4481321185159], [23.981886386871338]
[ 50.5829391247278 37.79335718373749 89.14856913602311],[ 906.3365843191995 900.8687830061843 937.7957113889239], [24.114120960235596]
[ 51.09158752555223 37.73399188798803 89.29438660953375],[ 906.9472764490279 901.1226923374265 938.1389492188002], [24.254746675491333]
[ 51.45955823628395 37.702328045605896 89.44214720856843],[ 907.631445564726 901.4134672319404 938.4936344267288], [24.37898826599121]
[ 51.843732138048296 37.681037550449524 89.60830762694066],[ 908.1500816668664 901.6673624335804 938.8206920146486], [24.531518936157227]
[ 52.28043791476783 37.6246974166076 89.76854103847312],[ 908.73776692269 901.9332550423317 939.1543456073513], [24.66676354408264]
[ 52.62823355427817 37.54776507860826 89.93839120219631],[ 909.3719141733187 902.1820210077774 939.4924059151309], [24.80407691001892]
[ 53.144865605887915 37.53607010323236 90.04874356142051],[ 909.8617262320086 902.3836609263577 939.807105597031], [24.941561460494995]
[ 53.73331807543207 37.4975989743047 90.08278491810023],[ 910.5845434071133 902.7101022688238 940.1044218541762], [25.084537982940674]
[ 54.274938778001896 37.464852534466715 90.12272896640623],[ 911.3133363498216 903.0033869054411 940.4027683860675], [25.227649450302124]
[ 54.833622076461985 37.413051270341086 90.19348387183712],[ 911.9599607476554 903.3007366190311 940.6977064509903], [25.374695539474487]
[ 55.367636407315075 37.355481446782974 90.26540197584298],[ 912.6576012049014 903.5949179352234 941.0111827855605], [25.51801109313965]
[ 55.88932076875094 37.28065316886 90.34337659500031],[ 913.3185337202696 903.8759715873168 941.3076019065282], [25.655551195144653]
[ 56.44370135676656 37.18020343670495 90.43062728421015],[ 913.9598847013328 904.1346700673054 941.596006611143], [25.801366567611694]
[ 56.905265393421914 37.0982087273174 90.52123213337447],[ 914.6404276571333 904.385227590621 941.888678793696], [25.946770906448364]
[ 57.38234500322547 36.996160329167864 90.62090031190351],[ 915.1957279705802 904.6226689958075 942.1568517940478], [26.09162926673889]
[ 57.91798899405345 36.85816633258059 90.7193004748683],[ 915.797538405867 904.8343171571904 942.4190751151906], [26.25498914718628]
[ 58.38691236955908 36.73211177219367 90.82454635480032],[ 916.4484489884892 905.0377745592413 942.6876069239411], [26.414251565933228]
[ 59.00964874668971 36.7150077596473 90.86396818036658],[ 916.9928379733944 905.2407050181417 942.9497965029607], [26.561960220336914]
[ 59.54364065472472 36.8065583909807 90.84105408945743],[ 917.775748616294 905.6076869080737 943.212686347923], [26.703465223312378]
[ 60.081525587057 36.97777702903467 90.81959186994263],[ 918.4303889287532 906.0181748220475 943.490413239962], [26.835565090179443]
[ 60.505234583639634 37.22800386333324 90.81664669181541],[ 919.1716622660342 906.5047524189681 943.7974033869924], [26.969726085662842]
[ 60.93053132954107 37.49263751636092 90.8316901493031],[ 919.8250850774537 907.0285825952789 944.1247153506974], [27.107415676116943]
[ 61.36183593238435 37.757546883514436 90.87079035085145],[ 920.5412080529354 907.5611931400597 944.4661697294615], [27.244930744171143]
[ 61.811889750019155 38.00352511684417 90.90826559975532],[ 921.2733281261056 908.1164576021426 944.8381937314508], [27.373894453048706]
[ 62.273250815338756 38.17896091963018 90.94853645368909],[ 922.0183048235975 908.6642273577631 945.2035634783163], [27.508628129959106]
[ 62.814162996963354 38.25409248771685 90.98047516853231],[ 922.7375840483361 909.1439624096292 945.5501070506979], [27.649733543395996]
[ 63.31757945461979 38.245200897384194 91.02048506346321],[ 923.4962478631059 909.5544386721112 945.8614992260941], [27.79314947128296]
[ 63.8704047180708 38.099974457265446 91.06110442213162],[ 924.1240642664328 909.8765858134526 946.1379822968911], [27.94085192680359]
[ 64.52488205894161 37.82607258328377 91.09673803879747],[ 924.764915249349 910.0672083075702 946.349278494205], [28.087344646453857]
[ 65.13589092124676 37.586469510036984 91.13249564286113],[ 925.4289084813385 910.1822352894295 946.5346998804582], [28.233014822006226]
[ 65.75515483874607 37.36958854653013 91.158141201937],[ 925.9964406334016 910.3414662072095 946.7119665815585], [28.376644611358643]
[ 66.26118094929112 37.296403022239005 91.2024658217649],[ 926.6147222086063 910.5091819797985 946.8919027946857], [28.51647448539734]
[ 66.73434346999686 37.28895183388773 91.21760641860689],[ 927.1571328304913 910.7920319309358 947.1103873469713], [28.661922931671143]
[ 67.1178484577768 37.376184317577895 91.23935856940136],[ 927.735298357994 911.0883585295228 947.3138227299738], [28.801278829574585]
[ 67.48922159156285 37.496969856899 91.24724657030224],[ 928.2547912376543 911.4383136315427 947.5382656361469], [28.938095331192017]
[ 67.85243002742922 37.64486277769574 91.26151720944833],[ 928.8045152547403 911.7959729452301 947.7558469795971], [29.070683002471924]
[ 68.19110414128161 37.822684941958414 91.27490143689003],[ 929.3612009078724 912.1794467085094 947.9964247857309], [29.201401948928833]
[ 68.5725117492584 38.00453352071768 91.2794394695085],[ 929.9009673111424 912.5847505020636 948.2410520136805], [29.338052988052368]
[ 69.02855881558118 38.1762659496246 91.26486622363095],[ 930.5066336858259 913.0068193956934 948.4946980753735], [29.466237783432007]
[ 69.55503776205747 38.32263366535046 91.23387846217013],[ 931.174299911861 913.4522897796625 948.7655106118372], [29.62044668197632]
[ 70.03231262299765 38.5188254103241 91.22206882528232],[ 931.8849747920002 913.9084361799363 949.0509047547597], [29.75986099243164]
[ 70.50626928698227 38.72177261339257 91.1982005693548],[ 932.5407855807103 914.4190246472234 949.3650985527073], [29.898760557174683]
[ 70.90488812735445 38.95776968669481 91.19456068813408],[ 933.2275703455169 914.9178292787522 949.657945799847], [30.035874843597412]
[ 71.29535925432491 39.10782212956261 91.17115767646163],[ 933.8323310491712 915.426719906305 949.9645586595012], [30.166580200195312]
[ 71.77966062941002 39.14450970893568 91.1225948669953],[ 934.4157064518967 915.8098605313195 950.1926059100681], [30.306614637374878]
[ 72.26098992339682 39.13081284630132 91.0723218390441],[ 935.0284941887173 916.1093297168517 950.371166570833], [30.448458909988403]
[ 72.73451010380502 39.05651545569905 91.01040145020043],[ 935.5508876685336 916.3713455038773 950.5354727058067], [30.595703601837158]
[ 73.1664319230006 39.08077398053641 90.98546982645165],[ 936.0444175573642 916.553096315818 950.6386824975261], [30.74146866798401]
[ 73.55567818733624 39.13046697211505 90.9173704202187],[ 936.5244036467292 916.8553479809289 950.8023069897147], [30.895228147506714]
[ 73.99589877103242 39.19167122899418 90.8280620734258],[ 936.9886109725783 917.1193320901294 950.9153338507588], [31.039021015167236]
[ 74.49030651684501 39.25814948945428 90.70839709002738],[ 937.5137437825753 917.4048039362903 951.0347659866444], [31.185426712036133]
[ 74.92971716716669 39.387230785493806 90.59679369727857],[ 938.070328043492 917.7135569239553 951.1634589505254], [31.334078550338745]
[ 75.35963210960554 39.50648842226917 90.46524209297766],[ 938.5739007957046 918.0722361894746 951.3171170956377], [31.474152326583862]
[ 75.84333302498527 39.649224581814046 90.32290793049778],[ 939.0966465288608 918.3868754319001 951.4330962232486], [31.62090563774109]
[ 76.25091025374081 39.856747714628305 90.1607853753273],[ 939.6747556894396 918.7567220144896 951.5712364446696], [31.753265857696533]
[ 76.56242718036853 39.98435878350482 90.02176778172293],[ 940.1605978058983 919.1495516819126 951.7013160667733], [31.887765884399414]
[ 76.89338278804564 40.01626126557773 89.94893602649114],[ 940.5494515436772 919.3855668136578 951.7841015388449], [32.02133250236511]
[ 77.1756610964465 40.104854274027396 89.93675529735158],[ 940.95560923835 919.5722520930814 951.8636139335116], [32.15478324890137]
[ 77.43273893214734 40.21790680573837 89.91440075450265],[ 941.3202527666862 919.8533716950074 952.0050709528305], [32.28185272216797]
[ 77.75307387714926 40.337792812294545 89.8545820871378],[ 941.714614272994 920.1269628050061 952.1247827033642], [32.43187856674194]
[ 78.02255893819432 40.50717912008029 89.78886948137705],[ 942.1654510036474 920.4204920504114 952.2404089449797], [32.57571315765381]
[ 78.27936509147108 40.64304804455509 89.70093312493906],[ 942.5369735845242 920.7437966556785 952.3754126556022], [32.7198441028595]
[ 78.59745882305793 40.66699894217736 89.55620119109487],[ 942.9114253985246 920.9951894371374 952.4542978952834], [32.865169525146484]
[ 79.01127784003945 40.57188309296912 89.3485664910813],[ 943.2679243655164 921.1213401103284 952.4460247338227], [33.013091802597046]
[ 79.41439089769953 40.53631592890801 89.15626850216943],[ 943.6064862835008 921.1445084684115 952.360693247837], [33.15668225288391]
[ 79.78953050608237 40.56048761347206 88.93481989347505],[ 943.907936105735 921.2563165990233 952.3180519148481], [33.304157733917236]
[ 80.14764476682915 40.571648003417906 88.70735989754147],[ 944.231380361964 921.3894119183377 952.2570923485428], [33.45001149177551]
[ 80.50966208290498 40.54293418684347 88.50420860616055],[ 944.5319460217833 921.4793819243328 952.1942394278617], [33.594292640686035]
[ 80.81162524314271 40.50859262902699 88.35326370052323],[ 944.8274759198962 921.5452471289095 952.1331452033351], [33.76406955718994]
[ 81.08077183741504 40.49152355753071 88.2300726606097],[ 945.0640991320283 921.605508173815 952.0949458351458], [33.919233560562134]
[ 81.36014544266868 40.48147782060509 88.08198789227816],[ 945.3117851917411 921.6830107431585 952.0560660382931], [34.075143575668335]
[ 81.67815522590128 40.507744402078266 87.90960932257784],[ 945.5733961163718 921.7546623575304 951.9975054341604], [34.2076518535614]
[ 82.02025771913013 40.49808076867013 87.69158663160599],[ 945.8741365999867 921.8755621774872 951.9544956988705], [34.34209728240967]
[ 82.35746865495437 40.56527477111856 87.49221894488086],[ 946.1666040427951 921.9351156308344 951.8740784229442], [34.4817590713501]
[ 82.66658073028746 40.67332120530977 87.26824726931792],[ 946.4669923723636 922.1011197771331 951.843435627538], [34.63164949417114]
[ 83.0087187130575 40.78519158685807 87.0196176891764],[ 946.7737044468093 922.2683186572094 951.8033026303068], [34.778438329696655]
[ 83.22119274738432 40.933652869616196 86.87223393202184],[ 947.119282416884 922.4394586153013 951.7525298577851], [34.92066526412964]
[ 83.39666144027086 41.09739114998358 86.77961913312694],[ 947.3328219064299 922.634942807704 951.8054837973999], [35.07945132255554]
[ 83.62695826012104 41.24969238138024 86.63033438155439],[ 947.6271869849938 922.8620039424716 951.8400396735773], [35.233651876449585]
[ 83.92549296126967 41.37704473631193 86.432437408434],[ 947.9481882814198 923.068457328537 951.8479094721165], [35.37953972816467]
[ 84.28915172725125 41.491791566327755 86.18746103130944],[ 948.2872270315107 923.2617777083501 951.8364059055261], [35.53271460533142]
[ 84.63795703027843 41.73998220472455 85.9595729844088],[ 948.6554325544579 923.455691990165 951.8061086505215], [35.67667508125305]
[ 84.82398162058854 41.89720573396448 85.77769208964247],[ 949.04093338055 923.8096218970336 951.861438373174], [35.824540853500366]
[ 85.04151407295547 41.97852380379554 85.66916043748493],[ 949.2572192123004 923.9600515312823 951.8890324427294], [35.965909242630005]
[ 85.3358078605546 42.011389430537896 85.48557684800298],[ 949.5469393215516 924.1140399965822 951.8848054907735], [36.12015962600708]
[ 85.59412827205271 42.06581417649317 85.3172929729676],[ 949.8395557860466 924.2171194042538 951.8285516458736], [36.25652003288269]
[ 85.81198534628398 42.083359732941105 85.12999123744189],[ 950.0600649922718 924.3383386810087 951.7985403441937], [36.38790225982666]
[ 86.07220359544122 42.027381436630115 84.88179220994328],[ 950.2462481391369 924.3777990290934 951.6976308832838], [36.533687353134155]
[ 86.40087761805138 41.89457306058174 84.5601226546895],[ 950.4192884890257 924.3232305717304 951.5011877196813], [36.67097759246826]
[ 86.71637916587807 41.66624008136589 84.25521951519772],[ 950.5612343391244 924.1812190829385 951.2372154356491], [36.80703687667847]
[ 87.02286810634727 41.46799911436751 84.01031924703231],[ 950.621226930578 923.9321117090443 950.9492024984158], [36.94000172615051]
[ 87.28569982590092 41.38301068097521 83.76881465471679],[ 950.7037451976303 923.7652522832499 950.704945569663], [37.09425950050354]
[ 87.52958557142546 41.40491449259298 83.49523740843416],[ 950.812392071556 923.6970868025867 950.491211369085], [37.232327699661255]
[ 87.72815147621566 41.4685482700334 83.25842525822175],[ 950.9562479500547 923.7043994589732 950.3029626886703], [37.38338804244995]
[ 87.90880857233837 41.55697456690901 83.06421093354093],[ 951.0955934048035 923.7347285248763 950.1774716993818], [37.529319524765015]
[ 88.14408470777387 41.672149330436014 82.83657510990996],[ 951.2654062732245 923.8132425590413 950.0877278743228], [37.6609365940094]
[ 88.37427022567874 41.933560166430915 82.62756732979133],[ 951.5198288513003 923.9341501771501 949.9876176378602], [37.797903537750244]
[ 88.59009092103678 42.26428697828995 82.38273756903362],[ 951.7958576026731 924.2272309434817 950.0127974531877], [37.940205812454224]
[ 88.82519392049737 42.588469410385024 82.12829136739435],[ 952.136305818497 924.5573262045871 950.0201043923657], [38.079878091812134]
[ 89.07886804455602 42.87874923329613 81.90358148205203],[ 952.4762603284554 924.8713010532196 950.0590635488942], [38.21472978591919]
[ 89.3708314998516 43.1547934349834 81.67455774182464],[ 952.8356354069406 925.1859238788953 950.1088550374071], [38.364548444747925]
[ 89.71645761293502 43.40202624119066 81.39754829757649],[ 953.2247347736236 925.5116822210665 950.1637495501094], [38.50879192352295]
[ 90.04015863467946 43.69230348346785 81.12491313924392],[ 953.6395355447604 925.8129643648901 950.1729848173018], [38.64858055114746]
[ 90.29988860125135 43.86191422982836 80.81258382032617],[ 954.0018447131625 926.1550202735773 950.2227563059491], [38.78932452201843]
[ 90.57355190537406 43.827130231987596 80.47228655127185],[ 954.2682291984005 926.2911877839622 950.1233940128743], [38.93511343002319]
[ 90.71035251851009 43.63056214852177 80.29887271971788],[ 954.4123036165433 926.1941456818288 949.8941536744965], [39.08562707901001]
[ 90.79501789741563 43.446838945445954 80.2480857640847],[ 954.3384353314461 925.9442926304538 949.693480815053], [39.21924448013306]
[ 90.88839204573948 43.32667524513469 80.13561471500529],[ 954.3239621520072 925.7907090411675 949.506680437247], [39.37829399108887]
[ 91.02916869853381 43.264742272607094 79.92513661182458],[ 954.3470420855149 925.6673398828818 949.2864953594798], [39.53537321090698]
[ 91.2340546114662 43.30793270725174 79.63781641177656],[ 954.3845409103897 925.5693353886893 949.0449553802537], [39.697290897369385]
[ 91.49300361912665 43.46976793109294 79.25746139097272],[ 954.5070840638821 925.5765390075316 948.8082548746063], [39.88186240196228]
[ 91.71618806394842 43.61846436741324 78.89977605825685],[ 954.6882298649093 925.6764824586337 948.6020055663714], [40.05824375152588]
[ 91.89549152417766 43.97224879183623 78.69808219562384],[ 954.8339502673748 925.7272635126664 948.4362803340728], [40.2422981262207]
[ 91.98505371096549 44.401663026708725 78.46339563688522],[ 955.078641279543 926.101103671432 948.4936095167083], [40.41501069068909]
[ 92.11787187538482 44.77761641140556 78.15868851976607],[ 955.3462334807291 926.4659459274906 948.5054358945528], [40.576213121414185]
[ 92.22657890971702 45.01489342416946 77.93587436578974],[ 955.6027834089692 926.7420043514771 948.4589323003961], [40.72923803329468]
[ 92.35565198295319 45.15357592571991 77.764702124917],[ 955.762672329092 926.8904932964045 948.4416457400183], [40.88278651237488]
[ 92.52993449117015 45.22486776078674 77.51575992635586],[ 955.9384466407812 927.0091679497698 948.3808112006388], [41.02977442741394]
[ 92.77261379012643 45.25309735845428 77.18173333808703],[ 956.0931171104863 927.0407784215706 948.2093393184722], [41.16408324241638]
[ 93.01733293353696 45.31524012456097 76.83775240708621],[ 956.2227156798433 927.012097961504 947.9819532644183], [41.308491230010986]
[ 93.14717736104957 45.37375742440968 76.60323138207667],[ 956.3391726329613 927.0230609040976 947.7557331706095], [41.44862413406372]
[ 93.21648817941856 45.37688321410883 76.43880020972877],[ 956.3634657530382 927.0014181739082 947.6332027832567], [41.601927518844604]
[ 93.32900436793713 45.39971163666555 76.2202661346419],[ 956.3985585490758 926.9535942179377 947.4457873118794], [41.76785969734192]
[ 93.48813598213094 45.44895227071215 75.91908582171375],[ 956.4518434383565 926.9187139189374 947.2408884012394], [41.93735933303833]
[ 93.67490831069344 45.52027274842313 75.55517386246675],[ 956.5292235248783 926.8930610937147 946.9811078427362], [42.093103647232056]
[ 93.88463080513117 45.606955305482046 75.14790496625699],[ 956.5911642874854 926.8532751506909 946.7201132787038], [42.237387895584106]
[ 94.16152945043052 45.73952656823339 74.62728209954034],[ 956.6771009105535 926.825723049896 946.4114391671527], [42.38394260406494]
[ 94.38755178379255 45.81533676017666 74.1887360786244],[ 956.7971268281324 926.813285352183 946.0591650581965], [42.53758239746094]
[ 94.61009755796368 45.87503777380444 73.80738503905968],[ 956.8385561451014 926.7225225800076 945.7901554043221], [42.67218852043152]
[ 94.72872237364827 46.047034035638724 73.60824836225085],[ 956.9299827095709 926.6854345783125 945.5092947911921], [42.823864698410034]
[ 94.76983531514733 46.26346240364017 73.45919084403447],[ 957.0090697155584 926.8015369003941 945.4573018065381], [42.96949505805969]
[ 94.85341711509129 46.51346578965278 73.21666225313402],[ 957.1393951648924 926.9701087278406 945.3990839178846], [43.11620569229126]
[ 95.01679711349956 46.79043897631301 72.86327283811512],[ 957.3141332607238 927.1472649835595 945.2616728781628], [43.26158928871155]
[ 95.15275502194777 46.985020019402455 72.60068611953027],[ 957.4969598248656 927.315877656614 945.1138237243346], [43.3952796459198]
[ 95.29817527797226 47.14334860181181 72.38101508769954],[ 957.630938221314 927.4117723920207 945.0345362474459], [43.54016995429993]
[ 95.46609690124394 47.297848369257714 72.0990919749396],[ 957.7957924717037 927.536315432381 944.9382246696487], [43.67936873435974]
[ 95.68280030518915 47.45862192731007 71.73603789781474],[ 957.9608103503222 927.6356778764824 944.7735642314734], [43.82172465324402]
[ 95.88171915705712 47.74401575104204 71.40584804464498],[ 958.1191836954081 927.7126927213998 944.5793956913863], [43.958972692489624]
[ 95.95254476295148 47.97833978740091 71.16756876171993],[ 958.3041167852334 927.9449448031407 944.4689032099632], [44.10397791862488]
[ 95.99416719100641 48.11466154868505 71.0163299346891],[ 958.3908698272153 928.0536075261035 944.4247756503623], [44.2351176738739]
[ 96.06309867486245 48.22130290084686 70.81193749858375],[ 958.4879627647966 928.1372653874284 944.3152404266839], [44.38352584838867]
[ 96.16260400026869 48.29693501044496 70.54274041567605],[ 958.5547637010286 928.1672654927631 944.1651558869808], [44.53013038635254]
[ 96.27917427718587 48.35523527203482 70.29554363324854],[ 958.6091585485678 928.1551960989109 943.9231922569024], [44.6806206703186]
[ 96.38502648698937 48.38311339164555 70.08103317825861],[ 958.6429907951236 928.1188685831374 943.75692968998], [44.821213722229004]
[ 96.51946982136623 48.44520619784909 69.81069212606027],[ 958.6911433635586 928.0940237836323 943.5511331389513], [44.955780029296875]
[ 96.66924223982653 48.53073629716483 69.48132780475557],[ 958.7495081139641 928.0810315622297 943.3393190219801], [45.09735870361328]
[ 96.85827979629491 48.69167028595032 69.06914942676967],[ 958.8132754027089 928.0736928060446 943.0713664439334], [45.2304744720459]
[ 97.01178304174744 49.043551123618414 68.71244616757151],[ 958.8991440053281 928.1091596397254 942.8048387639623], [45.37043261528015]
[ 97.09099898985468 49.48542677425084 68.300498708882],[ 959.0406432325772 928.3679907786848 942.6820161837576], [45.502450704574585]
[ 97.15255231078802 49.9208455265861 67.97680562461635],[ 959.1776796727228 928.625876432639 942.53496220355], [45.650039196014404]
[ 97.220977180669 50.34007005107928 67.68127134524343],[ 959.3351475147971 928.8998905991567 942.4800175299736], [45.78763723373413]
[ 97.30347413315704 50.75630918343497 67.35065604441374],[ 959.5183411573365 929.1929961163144 942.4408305179373], [45.92780661582947]
[ 97.36711113166027 51.046705792723586 67.1348416982073],[ 959.710385275951 929.4878822152539 942.3400838591525], [46.059187173843384]
[ 97.40960256492002 51.194136964212156 66.99824226944912],[ 959.8350183087225 929.6417712342162 942.3748582358824], [46.20386815071106]
[ 97.48238887225062 51.28478943704878 66.80548563000819],[ 959.9484977860311 929.7628137115793 942.2791128242778], [46.33439350128174]
[ 97.55620555146132 51.27234524136682 66.5824110409536],[ 960.0085319950083 929.7774346980158 942.1557459993804], [46.49021792411804]
[ 97.62327008444211 51.12967326820673 66.40287574001596],[ 960.0064464365477 929.6915074276695 941.8998091404733], [46.62750172615051]
[ 97.65915187199455 50.82616227152921 66.32525851918088],[ 959.9139796371037 929.4444373047816 941.6758033785053], [46.77283072471619]
[ 97.72588214259687 50.578497192854705 66.22158529080193],[ 959.7762632656319 929.1148517229951 941.3765876957522], [46.92539429664612]
[ 97.78780809692668 50.44776212047911 66.02363273151384],[ 959.6616522215015 928.8593993242911 941.0915648220687], [47.06070899963379]
[ 97.83657544095104 50.668484243363686 65.8140201202828],[ 959.5722555863334 928.6867454949727 940.7393170394677], [47.199867963790894]
[ 97.79600325082642 51.07245130041743 65.51418141738095],[ 959.5789301062996 928.8507204474807 940.6245536799647], [47.33236742019653]
[ 97.8017567264543 51.60526765914852 65.08012738481305],[ 959.638049750963 929.104111815595 940.4471202768616], [47.47332286834717]
[ 97.82377207395359 52.1661713653958 64.66408174466083],[ 959.737572983724 929.3963202661699 940.293594260539], [47.61119842529297]
[ 97.86609994812879 52.740945037609876 64.2776779977829],[ 959.8736463598384 929.7333731034571 940.1860341172371], [47.75216555595398]
[ 97.91878479388339 53.36190046894687 63.895432491402964],[ 960.046121037735 930.096757351419 940.1669550347261], [47.8922643661499]
[ 97.98553431761653 53.979090735836074 63.473988230386695],[ 960.2773823899593 930.5655457880108 940.1208130458084], [48.029033184051514]
[ 98.01647634630247 54.42406508424291 63.10150401914084],[ 960.4858258826247 930.9576175469847 940.1216300495565], [48.16872215270996]
[ 98.04599637467379 54.61683834472472 62.85794874968149],[ 960.611991187212 931.2023985250803 940.0073802740225], [48.31735014915466]
[ 98.03870006604816 54.524758954714 62.745660428996096],[ 960.6405331131494 931.2034583564526 939.9491269766212], [48.479344844818115]
[ 98.0543248528642 54.29230165189946 62.63083696074937],[ 960.5716272934012 931.0457291695759 939.7273678336913], [48.617873668670654]
[ 98.0679571446146 54.03623663297041 62.71337234377396],[ 960.4212100311366 930.7329519943414 939.4635251137604], [48.76842141151428]
[ 98.05246254866027 53.849721808282624 62.760286662016355],[ 960.3264915512023 930.5488516380727 939.3445819993134], [48.91638994216919]
[ 98.02994598903956 53.79105714539016 62.68296350750176],[ 960.2454335914666 930.4151743417882 939.2059238636076], [49.04912042617798]
[ 98.04688908915358 53.8973730689828 62.43597644328889],[ 960.1779342167836 930.3693316757427 938.9573615298635], [49.18637704849243]
[ 98.05746021123254 54.14293348043128 62.09397643905177],[ 960.1263774088444 930.3598747585427 938.7343239503881], [49.32671785354614]
[ 98.10848973393034 54.561821646907354 61.61241839595014],[ 960.1064897378975 930.4708811083631 938.4388052859641], [49.48239040374756]
[ 98.16450598522131 55.08161733248788 61.06847281212468],[ 960.1351697253402 930.6436632239529 938.2052713484904], [49.62794470787048]
[ 98.25370655555962 55.69409323626419 60.443846146777055],[ 960.2113626915997 930.9194432765853 937.9209197402794], [49.773457288742065]
[ 98.29970159322224 56.210630054486714 59.957489104855945],[ 960.3112137449348 931.1990724907597 937.7138811304696], [49.91927695274353]
[ 98.32595487923588 56.57524738495889 59.543010572661956],[ 960.3958659296003 931.4397817706723 937.5478958947537], [50.066086769104004]
[ 98.30808058372735 56.74055700277864 59.357529421743536],[ 960.4268076711706 931.530948235015 937.3888127625717], [50.212825298309326]
[ 98.25997149717985 56.749137054717124 59.25917066062922],[ 960.4155165082806 931.5564394710342 937.2749359439171], [50.37042164802551]
[ 98.19760012842941 56.746914800471906 59.16851042463891],[ 960.3435721782182 931.4511774293125 937.1547605284214], [50.53720831871033]
[ 98.18182255936397 56.84446430684407 59.073062815431676],[ 960.2634042635578 931.4225055375347 936.9132776683977], [50.68600916862488]
[ 98.1133002486887 56.97576692171082 59.03032943448969],[ 960.2453796295425 931.4397455212091 936.8609928555436], [50.83645153045654]
[ 98.06940262981875 57.20551736111693 58.89692929786115],[ 960.2444394420625 931.5726414818638 936.761461576064], [50.984506130218506]
[ 98.0107196290843 57.473789818978446 58.71249120700497],[ 960.2714498123132 931.7090112485823 936.7175180096012], [51.135465145111084]
[ 98.00881007607855 57.85873423040771 58.4066909350572],[ 960.291861844529 931.9025521618685 936.5645322158329], [51.28236770629883]
[ 97.97535451765351 58.264981414655686 58.068554207432484],[ 960.3488040763782 932.1147101058771 936.4715344874322], [51.43231797218323]
[ 97.9700110895426 58.67785210488112 57.65021442341149],[ 960.3781424471204 932.3566682475025 936.2810965255296], [51.578702449798584]
[ 97.9319394062832 59.01621608040177 57.25233965498059],[ 960.3910461011202 932.4977493400869 936.1162448706173], [51.7290575504303]
[ 97.92242994008318 59.300492854135776 56.89122616090303],[ 960.3463935660585 932.6165102135158 935.8297425401289], [51.86957049369812]
[ 97.83971880685945 59.42936206614258 56.64968452545025],[ 960.2991983080836 932.6295664759075 935.6654648554623], [52.000372648239136]
[ 97.78155020993599 59.48403339937892 56.52158672427072],[ 960.1732127999878 932.5954959845848 935.3881406882887], [52.139246225357056]
[ 97.64419861397106 59.45938652601413 56.47728017502206],[ 960.0701550422883 932.4851882318085 935.2908115497314], [52.28473234176636]
[ 97.54936835021738 59.57129756571351 56.32590961103125],[ 959.9099013453266 932.4222425038329 935.0497994287297], [52.42750883102417]
[ 97.41229697298947 59.74153653976555 56.1202991800915],[ 959.7973932630505 932.4013671710434 934.8763787537326], [52.566303968429565]
[ 97.3241888645522 59.8483621381662 55.715260670882294],[ 959.6582394499944 932.4428479083356 934.5861882411475], [52.70597457885742]
[ 97.29474453528762 59.88304028974602 55.42425533836554],[ 959.4619139043398 932.2256778136557 934.1775950620117], [52.840182304382324]
[ 97.25542697728426 59.9414957184869 55.105823208236025],[ 959.282495111221 932.0908767300984 933.8229111539188], [52.979923248291016]
[ 97.15194868102513 60.041142942198064 54.776309586358224],[ 959.1012299561744 931.92350379738 933.4966385535978], [53.11197018623352]
[ 97.07880007166898 60.25652175101519 54.35165289900982],[ 958.8803946792541 931.8323337642423 933.0523868967083], [53.24528241157532]
[ 96.9573235618519 60.490466845287145 54.02525588531771],[ 958.6967165348501 931.7334812983001 932.6935675218296], [53.384592056274414]
[ 96.84055403422191 60.766144111048675 53.69827367493761],[ 958.5215878344873 931.7412556419536 932.3530526924435], [53.52423810958862]
[ 96.66238373032226 61.037103738518596 53.39193955758285],[ 958.3851665304494 931.7257252130654 932.1194947201494], [53.65604567527771]
[ 96.55007783627889 61.41181591459277 53.14339332624085],[ 958.2055120881663 931.7760716937564 931.7667670276213], [53.78954577445984]
[ 96.35327804058126 61.75243744819664 52.96191687548783],[ 958.1547569059472 931.8964510812132 931.6949019104593], [53.928308963775635]
[ 96.20210240082051 62.15607216349231 52.709003196992676],[ 958.0649244662507 932.0864627129696 931.5107415368856], [54.06511926651001]
[ 96.00555354302571 62.52944231287656 52.47218684465659],[ 958.0169747254467 932.2387516328379 931.4091028634272], [54.202242851257324]
[ 95.85192738480632 62.8478708942458 52.146383695312515],[ 957.9119050967684 932.4233689608997 931.1980215558552], [54.339014291763306]
[ 95.70499396226481 62.953224311043684 51.91797396456719],[ 957.7897933100439 932.4258859654174 930.9784123297487], [54.478739500045776]
[ 95.62688629924114 62.91436713071743 51.79816825021715],[ 957.5994989981377 932.3239598071526 930.6702145798901], [54.61000895500183]
[ 95.48393252840458 62.708463058064 51.78415134569092],[ 957.4408476120695 932.106732269101 930.5053186620645], [54.76831555366516]
[ 95.36513330795219 62.54651936246464 51.71733861229571],[ 957.1804503598421 931.863761994096 930.1957075412585], [54.91897535324097]
[ 95.16942237987354 62.4073402816403 51.63087943995696],[ 956.9343954218369 931.5893267266399 929.931964546921], [55.05349779129028]
[ 95.00024683683124 62.4257369099579 51.42327334538248],[ 956.6087110559253 931.3645076627479 929.5323625992869], [55.19486451148987]
[ 94.76048530447449 62.5694247216618 51.174996857375874],[ 956.3231894587634 931.1748039436281 929.1944785434742], [55.33278203010559]
[ 94.53812325172954 62.83741300751762 50.77467814448622],[ 956.0079887880838 931.121660759896 928.7763845560087], [55.46810865402222]
[ 94.28523751280875 63.07219050930279 50.27256047454085],[ 955.7269909666941 931.0216350101133 928.3708600594671], [55.60432052612305]
[ 94.09610770133322 63.36598320565028 49.64944054071024],[ 955.3483408835714 930.8700433170127 927.7538790888422], [55.73878622055054]
[ 93.88413163210481 63.65457540566152 49.18555191235137],[ 954.9887200892676 930.6630802644213 927.1605541499104], [55.895320892333984]
[ 93.642967126229 63.93980894062463 48.74421185372403],[ 954.6513256044786 930.5658521207152 926.6814202500813], [56.02711582183838]
[ 93.39573253302144 64.15789857167648 48.4839546932886],[ 954.3322407689941 930.429402460824 926.241570947489], [56.16180419921875]
[ 93.14841067742798 64.25770354009998 48.181260147076735],[ 954.0529988572977 930.3569137198217 925.9092732462894], [56.30154275894165]
[ 92.94858023688326 64.26449199629415 48.02875592309696],[ 953.7334260033912 930.1160583557224 925.4836067436014], [56.4358274936676]
[ 92.75352447536805 64.19199566012497 47.93116866337709],[ 953.4477796666359 929.9248964241708 925.1544041187951], [56.574774980545044]
[ 92.5118159712967 64.07085167011583 47.889789098255314],[ 953.1679655218935 929.6602907648092 924.8730179461776], [56.71664643287659]
[ 92.26993477459197 64.0138081907215 47.779726828467524],[ 952.8303792335266 929.4307287761226 924.5241761772821], [56.86358284950256]
[ 91.98220727780175 64.03863635490897 47.63848114315659],[ 952.4980288716974 929.184698260279 924.1830171847245], [57.01312017440796]
[ 91.68329293855402 64.21261977470701 47.384767704457964],[ 952.1307261252218 929.0375023372499 923.781645738877], [57.167354583740234]
[ 91.35612159813076 64.37844434055616 46.9655226504141],[ 951.7811694170307 928.9217842215719 923.394929138973], [57.30575513839722]
[ 91.13230769659698 64.6488267728775 46.56147545579235],[ 951.3439187525897 928.7173916078066 922.7686874157815], [57.44473195075989]
[ 90.84817399234329 64.89680729905703 46.21572932871956],[ 951.028023122732 928.6045033920095 922.3611585674456], [57.57995939254761]
[ 90.54293223377417 65.17587200227372 45.865430207132015],[ 950.6777147826419 928.5275874176051 921.9213795392025], [57.71944880485535]
[ 90.20932936301656 65.38200198255763 45.42151199685081],[ 950.3264826957877 928.4325273252568 921.5151358445052], [57.85942888259888]
[ 89.96921808365613 65.57302366264585 45.01302510245073],[ 949.8887360963282 928.2341805003325 920.8994318525015], [58.002201795578]
[ 89.70112306453993 65.6842064221751 44.72865054678564],[ 949.5258790259708 928.0187636753668 920.426957647998], [58.144253969192505]
[ 89.40745557517748 65.7464897105037 44.479357795129175],[ 949.1445734044651 927.827803871794 919.9864044743122], [58.27801156044006]
[ 89.08121227891107 65.77663887133691 44.28227809488337],[ 948.7450191473235 927.5799721693224 919.5481962923601], [58.40977692604065]
[ 88.80059590305622 65.78068831986623 44.120397836453044],[ 948.3113946295491 927.3427783117731 919.0995268581521], [58.54844069480896]
[ 88.50947867344019 65.75913006693139 43.92358542752009],[ 947.9485771762353 927.0923835319093 918.7191917622473], [58.68517327308655]
[ 88.22086579194988 65.85836675746643 43.661342460586006],[ 947.5356524996497 926.8447217580027 918.2433076251003], [58.82774090766907]
[ 87.90798480674664 65.94318233547867 43.3061862226631],[ 947.1370442256706 926.6764511266606 917.7882350680145], [58.96723747253418]
[ 87.62200147801447 65.99165424893516 42.878338467187284],[ 946.685237276422 926.4181510608688 917.2060280559851], [59.102508544921875]
[ 87.32366566638949 66.03767256611977 42.455844455666096],[ 946.1978742689134 926.067243335405 916.5587327380819], [59.24002552032471]
[ 87.0308962179353 66.1054547304977 42.16421287548967],[ 945.6715350626027 925.729926501873 915.895118295832], [59.378265619277954]
[ 86.69227064433409 66.07496443666551 41.94607760252396],[ 945.2239254912076 925.454589907218 915.415309677898], [59.52364659309387]
[ 86.3336049353349 65.99355711470133 41.73693846586371],[ 944.743807845684 925.1217289561184 914.9034439659018], [59.67283868789673]
[ 86.01041465229034 65.8849716363815 41.61131354270656],[ 944.2157297133818 924.7344724310208 914.356772864507], [59.82746386528015]
[ 85.66804753448244 65.7917427208909 41.498683947410235],[ 943.7494634943755 924.3805639942782 913.9027960130466], [59.98000168800354]
[ 85.29078019915646 65.7434443675599 41.33969620542148],[ 943.2747672920462 924.0666561969683 913.4517519386435], [60.11154127120972]
[ 84.88619729105223 65.79139719320416 41.14542302895506],[ 942.7647048532729 923.7673172935649 912.9492592996387], [60.251657009124756]
[ 84.46202647663573 65.82390323053498 40.843412794683324],[ 942.2501954627445 923.523938534688 912.461658855822], [60.39865732192993]
[ 84.05431188227904 65.89115103657396 40.44750700658829],[ 941.6814252703696 923.1865336852327 911.8324990994037], [60.527841329574585]
[ 83.6550267976283 66.05875962377722 40.08018718684633],[ 941.0812733813278 922.8375775710551 911.1369908305011], [60.677295207977295]
[ 83.23696916056858 66.23739533946224 39.68842924108193],[ 940.5292339097043 922.6072203759196 910.5487423067034], [60.81603288650513]
[ 82.83499945938136 66.38738634528082 39.2076964257204],[ 939.983234063388 922.3611728750288 909.9274715678671], [60.955928325653076]
[ 82.43164882128016 66.60676589400568 38.72280578657644],[ 939.4034779100032 922.0484284560891 909.194191539291], [61.101155281066895]
[ 82.01189231620438 66.7732901119949 38.24132214641829],[ 938.816087199635 921.8059846677013 908.5064638564111], [61.25184512138367]
[ 81.66542816093344 66.85508846142247 37.88935823956229],[ 938.2125847591002 921.4808505763397 907.7831575760571], [61.402547121047974]
[ 81.29219282261559 66.91453675989732 37.596073208466564],[ 937.7044716055844 921.153925546853 907.2011095482981], [61.552361726760864]
[ 80.95656972523457 66.98501892591644 37.42868879503652],[ 937.1711051762411 920.8826669934895 906.629616465484], [61.702669858932495]
[ 80.59997198398483 66.98290286583871 37.204718193286496],[ 936.7509774223585 920.6880526717413 906.235994085936], [61.83523464202881]
[ 80.23981069262518 67.06544146586329 36.95510079352856],[ 936.274761964866 920.4127228952068 905.7013363071555], [61.971588134765625]
[ 79.8446721554659 67.20982265630099 36.684917005228186],[ 935.7829828474574 920.2211846210165 905.1918483301474], [62.112327575683594]
[ 79.41316604523897 67.38367312067808 36.353504729151936],[ 935.2856270439258 920.0553338396676 904.6816463971205], [62.249680519104004]
[ 79.0389512696905 67.57068226001387 36.09450948629858],[ 934.7432205750814 919.8693410013516 904.0984679117317], [62.399853229522705]
[ 78.67291752060304 67.70482185142414 35.890406897651644],[ 934.297925926171 919.7292861298073 903.6546385814668], [62.54327845573425]
[ 78.34781002875911 67.72840666501013 35.66317506705497],[ 933.8680395995955 919.5838653138308 903.2403503580758], [62.6886944770813]
[ 78.0507671438892 67.6712727531107 35.402774311338106],[ 933.4312884190734 919.3335372326545 902.7510014442869], [62.836325883865356]
[ 77.74138464698356 67.65420524554878 35.17340785700485],[ 932.9464526869264 919.0033878498824 902.191759949042], [62.984594106674194]
[ 77.39191177069749 67.731515415303 35.06359566707127],[ 932.4519555897186 918.7414677008124 901.6828529935626], [63.13511276245117]
[ 77.02420316700584 67.77835751437152 34.932656441570465],[ 932.0145668630482 918.6184737945067 901.3471246818978], [63.28445768356323]
[ 76.66264028304931 67.839491308 34.76524660978889],[ 931.5844980709093 918.4455004445585 900.9472596575542], [63.43557143211365]
[ 76.27869651892996 67.9388735634923 34.55939155361094],[ 931.1310814317319 918.2763538714952 900.5231576482411], [63.5840859413147]
[ 75.88866923856665 68.04928657016826 34.29065961023355],[ 930.6449810637979 918.119247747763 900.0690583732128], [63.7286491394043]
[ 75.49979860372295 68.16024269265824 33.945413587316146],[ 930.1384114825711 917.9294329504587 899.5471169653206], [63.868146896362305]
[ 75.10667124755645 68.33682267328678 33.6514159050999],[ 929.5914880128928 917.695642834792 898.9431022183002], [64.00728917121887]
[ 74.6610369723316 68.58225033697036 33.424828996162134],[ 929.0693055703143 917.5477520203617 898.4439849055146], [64.1397135257721]
[ 74.19446040549148 68.84959807768561 33.243989882549215],[ 928.5643018945744 917.4921542232142 898.0291644515519], [64.28357028961182]
[ 73.72307653830512 69.0746997722768 33.00972089738375],[ 928.0903886733089 917.4663816968907 897.6660588699797], [64.42664647102356]
[ 73.29540788172602 69.30590528090839 32.80222605191992],[ 927.581414112201 917.3717792234305 897.2085956161901], [64.57406210899353]
[ 72.87062718805905 69.56119933537403 32.660843208970114],[ 927.1137224282875 917.3110441083682 896.8184005414284], [64.72392296791077]
[ 72.46444929151316 69.7674050950364 32.50831310153364],[ 926.6844827626261 917.3229626273281 896.5211483585344], [64.86969757080078]
[ 72.09602343032901 69.91212748505912 32.31798508912937],[ 926.2690097794848 917.2882510560512 896.1866043343505], [65.01731944084167]
[ 71.77642261471183 69.96670167342786 32.09869026512297],[ 925.8391258356138 917.1879732886042 895.7957516820562], [65.17584156990051]
[ 71.46411223617562 70.0021131436327 31.94760230906615],[ 925.3942801828784 916.9960985069878 895.348920192401], [65.32474279403687]
[ 71.13142227428148 70.00288977875601 31.87787328110009],[ 924.9493188196143 916.8303151739187 894.9770090870735], [65.46910285949707]
[ 70.7626702688544 69.97439347524305 31.864399667739413],[ 924.5092167213663 916.6637077835978 894.6623955333672], [65.61839270591736]
[ 70.42053539586773 69.88207400093313 31.88935817204049],[ 924.0468604019827 916.4872343959731 894.3684565623435], [65.76823425292969]
[ 70.09167906141217 69.72828348680468 31.83780958930213],[ 923.6144924207607 916.2663682937567 894.0935016181647], [65.90291166305542]
[ 69.7221030033063 69.67585981026274 31.730309572215283],[ 923.133241558061 915.9706919690716 893.6927670210843], [66.04514527320862]
[ 69.31223337005694 69.68580490942074 31.547690742247436],[ 922.5917607753224 915.7542272464758 893.2714313657209], [66.18020391464233]
[ 68.88816729815336 69.7201743941068 31.270062079440063],[ 922.0169438609412 915.5271715804117 892.7813195823579], [66.32688474655151]
[ 68.44415085897589 69.86223158808826 31.03528366383221],[ 921.4021187446393 915.2557385716716 892.1905650992034], [66.45769810676575]
[ 67.97070610996208 70.04144900681324 30.852894359564548],[ 920.8088211260531 915.1042963566059 891.7139672086704], [66.5957612991333]
[ 67.4686463520669 70.21557111838224 30.60917007295345],[ 920.2473606812337 914.9967890364001 891.3015670892659], [66.74437522888184]
[ 66.94260479005722 70.4511860746276 30.33757105167484],[ 919.6434493067497 914.8508073482049 890.7899020372778], [66.88816976547241]
[ 66.36193964116934 70.75021410339858 30.045825487629614],[ 919.009577510202 914.7453636056186 890.2755059024324], [67.02847456932068]
[ 65.76927314095647 71.05752413711899 29.715947679389956],[ 918.3359768535515 914.6728789459642 889.7452303947999], [67.18104314804077]
[ 65.23992536940183 71.33860337089054 29.479236801495414],[ 917.64973685703 914.5709649898876 889.1653022568292], [67.38854169845581]
[ 64.79865489985693 71.49050429270744 29.3526727472419],[ 917.056047507064 914.489785636742 888.7196190733054], [67.51467275619507]
[ 64.47371610920742 71.452886867904 29.378600404470316],[ 916.55906608104 914.3678469447166 888.3699628488666], [67.65667772293091]
[ 64.22197303889374 71.2764656103061 29.45768716146596],[ 916.166090298533 914.1760242040012 888.1507174668039], [67.79281854629517]
[ 64.00989854908062 71.12486894832446 29.62139950034506],[ 915.8077395352681 913.9478002274059 887.941058753076], [67.93672823905945]
[ 63.7249760295393 71.06779336738794 29.812131511375227],[ 915.5179186058721 913.8363215823191 887.8716163677622], [68.07430148124695]
[ 63.32162568778903 71.0788502831304 29.86887197938422],[ 915.2029376018389 913.8335573822877 887.8513746298925], [68.20323252677917]
[ 62.873027229192374 71.16266650864435 29.80949607622163],[ 914.7468652673615 913.7870522169644 887.645823386778], [68.34058952331543]
[ 62.407736110230516 71.29661752705185 29.6549022736679],[ 914.221601739565 913.7061241590837 887.3305715276599], [68.4855375289917]
[ 61.89641784867858 71.51348239257851 29.443126605944272],[ 913.6552467811374 913.6064859966779 886.9305097589876], [68.61778330802917]
[ 61.33792769513687 71.78219697754778 29.172795244432233],[ 913.0371310140226 913.5454859641841 886.4942375276345], [68.75469446182251]
[ 60.75898788842499 72.07288675084028 28.884300847875977],[ 912.3685270067064 913.4785561852157 885.994850985129], [68.90142345428467]
[ 60.21728257923425 72.35653336210446 28.728676012336887],[ 911.6798055893768 913.3996248147511 885.4763912067858], [69.0504138469696]
[ 59.69907155592516 72.57915076187598 28.737235915767897],[ 911.0850148463905 913.3706389240989 885.1332662752868], [69.19690084457397]
[ 59.24144606635246 72.68201715758023 28.833923452976016],[ 910.572014346514 913.3769200196523 884.9548743872236], [69.33373022079468]
[ 58.845874485382026 72.69693554899729 28.960190784933687],[ 910.1291173823289 913.3385975702399 884.8320357806685], [69.46372318267822]
[ 58.48136284379835 72.68321454504192 29.030452603935352],[ 909.7216770011008 913.2715064645269 884.725268980655], [69.60632157325745]
[ 58.15985506709756 72.67617473235522 29.0732447315023],[ 909.2990890511576 913.1891307632574 884.5539891106924], [69.73542261123657]
[ 57.86402127368179 72.6589300126738 29.064721638419673],[ 908.90243439009 913.1146196772563 884.3863096056565], [69.87777256965637]
[ 57.554804219913294 72.67024455137269 29.053441195648492],[ 908.5039826751313 913.0167480304043 884.1703744322552], [70.03137731552124]
[ 57.17258995334464 72.73438285810923 29.05642517283226],[ 908.0863503435925 912.9428705947643 883.9700159139877], [70.17801833152771]
[ 56.73012862292644 72.85325449446529 29.080316300757808],[ 907.6138174958389 912.9044328630712 883.7809065821374], [70.32592487335205]
[ 56.25978641134354 72.99081704208851 29.106252396476446],[ 907.1209164723936 912.8999325523998 883.6118439249717], [70.47169637680054]
[ 55.80312087033592 73.11638850092073 29.109613846453158],[ 906.6201680768966 912.8925322832607 883.4374503521772], [70.6172034740448]
[ 55.315196298104134 73.27235551365214 29.106729301891974],[ 906.1256630042915 912.8608073395519 883.2346656295633], [70.76263761520386]
[ 54.82729723822992 73.42916805992284 29.11214063643245],[ 905.5931686695886 912.8546324706901 883.0324882461086], [70.90577459335327]
[ 54.35618513803369 73.57820372719415 29.119220423376852],[ 905.0689534435086 912.8424418038582 882.8392239386123], [71.05186319351196]
[ 53.843945005230054 73.7586017957008 29.11846119873982],[ 904.5644961189403 912.8295351739106 882.6505027176688], [71.21946883201599]
[ 53.306188738019216 73.96409941310557 29.134466121127026],[ 904.013504787768 912.8443338917773 882.4545703205251], [71.36271524429321]
[ 52.78596540716875 74.14889967022665 29.140073750318816],[ 903.4543551726763 912.8747127477736 882.2786871231696], [71.50694870948792]
[ 52.314170511281525 74.29944242815485 29.14802975152962],[ 902.9114550486131 912.877388385024 882.0814840524722], [71.65384101867676]
[ 51.897203366799324 74.40858518880131 29.17959955711655],[ 902.4033433996822 912.8624667722321 881.8951690880315], [71.79630947113037]
[ 51.53592553834102 74.46244191973335 29.216930840347867],[ 901.9408703063722 912.8410487209617 881.7460722988012], [71.93439507484436]
[ 51.239925685616626 74.47706280017886 29.27477831481063],[ 901.5158737682556 912.7937762371644 881.6023808783991], [72.07302069664001]
[ 50.96781428544661 74.47466944097414 29.37398994120851],[ 901.1500565203913 912.7468628446971 881.4987981154463], [72.2149305343628]
[ 50.64227700041224 74.50200724408434 29.5268445501475],[ 900.8135317776542 912.7213148523458 881.4547406106659], [72.36532139778137]
[ 50.21982040328109 74.59449384849478 29.683756191659906],[ 900.4494975841827 912.7451169249437 881.4687323589661], [72.51176142692566]
[ 49.761285614311 74.73669233108964 29.830264660015064],[ 900.0181871610719 912.8099864448029 881.4694975336419], [72.66695022583008]
[ 49.29703665359798 74.84389893628689 29.825870840326346],[ 899.5809644950407 912.890027067414 881.4601264141846], [72.8146722316742]
[ 48.8483173362183 74.9654742771861 29.828257410041108],[ 899.0637038412592 912.8515729828353 881.2408936680501], [72.96264243125916]
[ 48.3794227484203 75.09340283451255 29.84019080936882],[ 898.5435100665496 912.8184764113976 881.0625024096001], [73.11058044433594]
[ 47.92718015890423 75.21022692394169 29.847959479972584],[ 898.0049389235618 912.7973237417349 880.8894313198595], [73.25797295570374]
[ 47.51955566236564 75.29844613985028 29.877041330588796],[ 897.4864693364308 912.7640462937526 880.7067752912797], [73.40505981445312]
[ 47.144040834466836 75.36092009000006 29.930760654650687],[ 897.0128200719206 912.7216917449223 880.5581276188782], [73.55288457870483]
[ 46.797624747437574 75.41011533205473 30.026090202665507],[ 896.5713488179126 912.6853265741802 880.4438297864543], [73.70030808448792]
[ 46.425105988435114 75.45997300659039 30.17257479373056],[ 896.1747212498273 912.671111080476 880.3888902961511], [73.85053849220276]
[ 46.02481292996748 75.53107694959851 30.39776634349155],[ 895.768955622318 912.6791735038612 880.3868596201247], [74.00390887260437]
[ 45.609903248121974 75.60802919897668 30.615656949175197],[ 895.3834997127661 912.7366095082515 880.4747141882314], [74.15318655967712]
[ 45.208638737148235 75.7018688305941 30.81739989253971],[ 894.9981920359095 912.7966928001142 880.5403833794611], [74.30153298377991]
[ 44.83545924641718 75.81653101376669 31.045980838230193],[ 894.6308211349161 912.8690490365587 880.6048286724375], [74.44962167739868]
[ 44.47260169504699 75.87432486751592 31.125321958449124],[ 894.3139482890128 912.982978843028 880.7350485387876], [74.59461116790771]
[ 44.1395082444765 75.93822384386587 31.181002248973538],[ 893.9208933431511 912.9795310693105 880.6550156684705], [74.73474788665771]
[ 43.808199397565 76.0221561269378 31.25509037250842],[ 893.5277126859149 912.9687746664641 880.5808506134069], [74.88235306739807]
[ 43.47135766178728 76.10797562864249 31.3571943352549],[ 893.146312366086 912.9928900523025 880.5485754175328], [75.02277660369873]
[ 43.136268884221266 76.18852680763759 31.4716539701241],[ 892.7779592155794 913.0269815776477 880.5457733271708], [75.15803480148315]
[ 42.775293791814164 76.29848587142084 31.631898395332673],[ 892.4210059487432 913.0616431608927 880.5524739869797], [75.29288029670715]
[ 42.39685481722353 76.42261776290007 31.819399082594554],[ 892.0678542025577 913.1431067658253 880.621338234294], [75.43098139762878]
[ 42.02076467371208 76.55362469500822 32.03715850119684],[ 891.723772424073 913.2443506213277 880.716895063019], [75.56405353546143]
[ 41.601625271868905 76.7115907526519 32.27873609523139],[ 891.4070474621333 913.3634522560368 880.8503989062115], [75.69707775115967]
[ 41.13073482250646 76.89282191364255 32.48551560756258],[ 891.0644006411587 913.5139398806374 881.0101166789552], [75.83648085594177]
[ 40.644394758116775 77.06617648681483 32.626217302653956],[ 890.6635204668689 913.6554079712429 881.1098748235939], [75.97813773155212]
[ 40.19221801341435 77.23939729464703 32.80859032638707],[ 890.2112211141005 913.7380698955599 881.1129466493181], [76.10867738723755]
[ 39.79739803299576 77.37891981096712 33.022689412324475],[ 889.8063773408185 913.8374807842338 881.188900112554], [76.23560619354248]
[ 39.43647991024468 77.50178468800138 33.29927415933589],[ 889.4693146039386 913.9416734892438 881.3116353027539], [76.37036156654358]
[ 39.13396344471661 77.58672511035888 33.657554171879696],[ 889.1896675698105 914.0789626695894 881.5238232555856], [76.50841999053955]
[ 38.91075001344302 77.63753093870194 34.089925115492676],[ 889.0013574349657 914.2361449391085 881.84287181623], [76.63863372802734]
[ 38.77305841280362 77.65669608571733 34.5967152630546],[ 888.932079582056 914.4311901326181 882.2710862476468], [76.80024313926697]
[ 38.70456376123801 77.63075136600362 35.00674863354777],[ 888.9866446697633 914.6697402709071 882.8203166493995], [76.94410157203674]
[ 38.59833039504768 77.64289655772723 35.37666920386847],[ 889.0633818871853 914.8649957071137 883.2623179074665], [77.07888913154602]
[ 38.43108203642265 77.71247168580089 35.75773613643361],[ 889.0721173682989 915.0743828441673 883.6864446916887], [77.2271158695221]
[ 38.178255224391414 77.80066554200369 36.02801871480146],[ 889.0396894864851 915.3166088839756 884.1325837759651], [77.36283993721008]
[ 37.85880224921642 77.94297964355243 36.25396918308917],[ 888.8794413690769 915.489592562093 884.4002323036318], [77.51721692085266]
[ 37.48684687080096 78.14825044864446 36.52034608580655],[ 888.6400287930596 915.6538132780616 884.6154050854541], [77.67856025695801]
[ 37.138427706181304 78.31011285526792 36.70939939720173],[ 888.3884928355213 915.8683444148564 884.8902400911093], [77.81922960281372]
[ 36.871872091715396 78.4415039514229 36.94300621590676],[ 888.1254790348734 915.9967778851541 885.0378068687752], [77.96879935264587]
[ 36.62718168932691 78.54759817993897 37.24901738944112],[ 887.9510828657776 916.1302950359244 885.2724606210107], [78.10390138626099]
[ 36.362113344717024 78.64336276775518 37.645861932204916],[ 887.8166076045404 916.2948117338274 885.6035938341889], [78.2480719089508]
[ 36.063567636600716 78.76148662001133 38.08484549777577],[ 887.7033823421552 916.4916487524763 886.0251216547653], [78.39077949523926]
[ 35.799356207316755 78.86943914070093 38.44988867105298],[ 887.5974111112591 916.7308717262983 886.4818664675844], [78.52054572105408]
[ 35.586869196028864 78.96013360526094 38.78684566709641],[ 887.5065715488781 916.9356465640714 886.8446100561837], [78.66334247589111]
[ 35.33075791781459 79.06252981472 39.113334011117345],[ 887.4409853709499 917.1185237957574 887.2044295520417], [78.8028609752655]
[ 35.094152331305935 79.16454315662659 39.45683443793108],[ 887.3105559427797 917.3049592353258 887.5553063641751], [78.94270277023315]
[ 34.8847970958284 79.2338816831461 39.80207914142311],[ 887.2178667846304 917.4925126717332 887.9255818564329], [79.07610034942627]
[ 34.70707389572456 79.28610328964868 40.23043983037276],[ 887.1442437028958 917.6528531547123 888.2925636106363], [79.21290802955627]
[ 34.5554606070918 79.34035211518048 40.70842099232604],[ 887.1342981620104 917.8446004080304 888.7735706047895], [79.35277152061462]
[ 34.40923124739336 79.40016333303922 41.2230697258223],[ 887.1911049981794 918.0865214953477 889.3220176493033], [79.49022364616394]
[ 34.26759588189524 79.44430577547088 41.636143640030056],[ 887.2823236069831 918.3584605384578 889.9200152543558], [79.63065528869629]
[ 34.13320692991831 79.5062017881533 42.06546647885525],[ 887.3297070421544 918.5758575054593 890.3820624171408], [79.7671844959259]
[ 34.01899925869681 79.54644133429932 42.365116085403535],[ 887.3882008973742 918.807222536412 890.8950132723628], [79.91867733001709]
[ 33.90425789493564 79.60280486528086 42.687514326885534],[ 887.4023831298969 918.969611884719 891.2419798897463], [80.06030535697937]
[ 33.833096533909874 79.65956501870102 43.077195442462376],[ 887.4168053709642 919.1436095631152 891.6472647738734], [80.20260763168335]
[ 33.73034437749865 79.68856295597207 43.34377293410705],[ 887.520595625781 919.3601090641351 892.1527576166168], [80.34915399551392]
[ 33.60463360603116 79.7382536550518 43.6477124974187],[ 887.5250974847104 919.5010068819288 892.4682224948756], [80.48574495315552]
[ 33.4421158437548 79.80518551124133 43.980290371103635],[ 887.5147589842892 919.6495712750498 892.846354286709], [80.62216329574585]
[ 33.23263935565598 79.88052222835094 44.40360948788862],[ 887.4914107936401 919.8169912090771 893.2438965735573], [80.7669677734375]
[ 32.98994508826327 79.94313107533944 44.75668985465744],[ 887.47091701199 920.0092797515199 893.7250133140928], [80.91378998756409]
[ 32.73805276345459 80.01056311698683 45.14943478533502],[ 887.3876812192586 920.153008380618 894.0749571578948], [81.06073379516602]
[ 32.447220735012614 80.08614887794243 45.57043234418538],[ 887.3071300916791 920.2983293277176 894.4794896134895], [81.19428038597107]
[ 32.12714380090142 80.14750541411917 46.017502899959915],[ 887.2001332745064 920.4571519908937 894.9029925340699], [81.33365893363953]
[ 31.818609290390153 80.19638494706517 46.387869222384865],[ 887.0718643108959 920.5954298607345 895.3245139151386], [81.49449443817139]
[ 31.56626963145241 80.24543268261502 46.77670028950369],[ 886.917865781126 920.6950216487638 895.6390661663967], [81.64206147193909]
[ 31.395834908243263 80.27855309443014 47.23202339309135],[ 886.826508103532 920.8126145903002 896.0172871571617], [81.7948088645935]
[ 31.2594077314851 80.30047076644094 47.77929050919954],[ 886.8536992950742 920.9778075446419 896.513451221158], [81.93872690200806]
[ 31.212142928425997 80.27837046720855 48.23458050585093],[ 886.9640875679565 921.2039860889812 897.1353249066971], [82.08861708641052]
[ 31.251387036260475 80.26544370890377 48.739429515654805],[ 887.1266016379705 921.3902571231789 897.6432896193767], [82.23752880096436]
[ 31.33714074561022 80.22903436968376 49.09399248687038],[ 887.4024340326031 921.6396986633321 898.2898904820916], [82.38348388671875]
[ 31.38876172543647 80.20560041120868 49.46640388724668],[ 887.6499940553255 921.8361354369056 898.7632549048429], [82.53767442703247]
[ 31.424104558782904 80.1993921950904 49.91099349948783],[ 887.8515875201239 922.0249592556303 899.2837840621115], [82.71465945243835]
[ 31.44106839194075 80.17879574758764 50.261687367878494],[ 888.0871234150704 922.2507748141719 899.8866618124903], [82.9048581123352]
[ 31.443603869266383 80.1744794404135 50.63956012332622],[ 888.2669398412697 922.4217058693987 900.3327177682486], [83.0795350074768]
[ 31.41267682138581 80.1774508702185 51.068831849460906],[ 888.4397309870437 922.5981933526704 900.8336965884042], [83.24024486541748]
[ 31.384030877623672 80.16221829734613 51.433526793115995],[ 888.6083087566616 922.7906175481717 901.3815616697252], [83.38170766830444]
[ 31.340691318762275 80.14670323759353 51.818628988189936],[ 888.7547314868569 922.9384146874519 901.816877714833], [83.56390476226807]
[ 31.268185437212303 80.13361825134484 52.257217655795074],[ 888.8817675025076 923.0785190802143 902.2891360922138], [83.73515391349792]
[ 31.16917471004566 80.11630929303601 52.74790477171194],[ 889.0062579630288 923.2337864023177 902.8096373146565], [83.8804931640625]
[ 31.073881456208756 80.08327148708798 53.17482518936202],[ 889.1356705485514 923.3989135435656 903.362439157323], [84.07097721099854]
[ 30.95930982617072 80.04944823132571 53.63748637265235],[ 889.2382717229498 923.5246849761096 903.81460812169], [84.23677015304565]
[ 30.82479837006201 80.01520642525932 54.148413395246656],[ 889.3229916921308 923.647716363757 904.3210359100146], [84.39202332496643]
[ 30.72233256984633 79.95778273840845 54.54746262013924],[ 889.4139757303907 923.7859756760784 904.8674797190286], [84.5381965637207]
[ 30.586592678752012 79.89995029105872 54.93185803690231],[ 889.4856889454867 923.8677486179033 905.256480786701], [84.69122076034546]
[ 30.39468710028099 79.86272319388702 55.339401113008535],[ 889.4853601617484 923.9200228397639 905.6506633215866], [84.83186078071594]
[ 30.163705653989055 79.82139779381487 55.57708681857709],[ 889.4418222723829 923.9800246804513 906.0538073272634], [84.96941947937012]
[ 29.890028534894345 79.79887123374782 55.805575196992905],[ 889.2750607499638 923.9461817728766 906.2036780031658], [85.1067304611206]
[ 29.647765425267544 79.76375044544385 55.93910665862086],[ 889.0377140252394 923.8818004316988 906.3699543740813], [85.2471034526825]
[ 29.48149012309149 79.71482681441466 56.10970510150329],[ 888.7871020938383 923.7681364296319 906.4108914664821], [85.39908075332642]
[ 29.392385309785283 79.63711414920772 56.354217673096095],[ 888.6233992592537 923.6762559433926 906.5437793967383], [85.55324697494507]
[ 29.31504288562013 79.54562596723584 56.630749492908706],[ 888.5701209310708 923.6300618114158 906.7926232060883], [85.69094824790955]
[ 29.192893725755532 79.44659325168404 56.984038979770695],[ 888.544763568099 923.617616473088 907.0699077266752], [85.83818817138672]
[ 29.086823565133823 79.34540966434066 57.442420302301954],[ 888.5032171145554 923.6166053119822 907.4176212639983], [85.97710871696472]
[ 29.046020351885982 79.23828585695763 57.84232664433535],[ 888.5491937339059 923.6662445415326 907.8749189830523], [86.12170481681824]
[ 29.068127934904854 79.14035164784613 58.23863151558274],[ 888.6530826653404 923.7305485463435 908.262978633226], [86.26220870018005]
[ 29.10334940383011 79.04469215272294 58.6696983859707],[ 888.8216291610485 923.825516125619 908.7093842705234], [86.39971017837524]
[ 29.132050779931298 78.9468414492286 59.162154579012025],[ 889.0217345430581 923.9473050930443 909.2194563560366], [86.53633761405945]
[ 29.139904028240686 78.8534828912987 59.73194222525296],[ 889.2529521405525 924.0958946581272 909.7922477908587], [86.68199348449707]
[ 29.18167934855071 78.75002285737692 60.218994256441604],[ 889.5112028505778 924.280979867619 910.4428568820939], [86.8162190914154]
[ 29.232325495384508 78.64379321667138 60.67937403110296],[ 889.776439807864 924.4378414120672 910.9762817459936], [86.96302509307861]
[ 29.33235132238689 78.54245774570725 61.0318397118082],[ 890.0218299588679 924.5736636264102 911.5116428374957], [87.10194993019104]
[ 29.411014603348622 78.4464470210925 61.38065073798471],[ 890.2736306428172 924.6846263276261 911.9366674307543], [87.24320220947266]
[ 29.5076761564806 78.3627111528822 61.596055335644394],[ 890.4849348406393 924.7811185786898 912.3857608230246], [87.38464379310608]
[ 29.549541287664905 78.28688549370389 61.78840328335593],[ 890.663519119446 924.8386294223611 912.6690425510089], [87.53349566459656]
[ 29.52378234367967 78.22154374258842 61.9894655592902],[ 890.7515999724511 924.8537875147495 912.9411163546727], [87.69627046585083]
[ 29.31575392129121 78.12278570123426 62.21748097113427],[ 890.7748563180465 924.8463401592924 913.1902193467785], [87.83478164672852]
[ 29.09314007109856 78.00659554722499 62.39913579802353],[ 890.5818751887406 924.7340094252728 913.3647243649768], [87.97626900672913]
[ 28.852742059200175 77.86223590784172 62.610333223179865],[ 890.3567026363498 924.5573081882217 913.4164208072519], [88.12846398353577]
[ 28.61416852975351 77.68868797965996 62.88243664649132],[ 890.0952778277849 924.349161349834 913.5020916542375], [88.2715470790863]
[ 28.408887378023596 77.48134437730755 63.24798596059131],[ 889.8528424123341 924.1412385562943 913.6359851960443], [88.40642833709717]
[ 28.224571756941945 77.24664401149603 63.68127955562278],[ 889.6841609321027 923.9617464113909 913.866509413693], [88.56952905654907]
[ 28.097999986062966 77.00454693683314 64.19764325909205],[ 889.5621136364916 923.8125545342562 914.1657646711008], [88.71819734573364]
[ 28.031318691527503 76.76559471414423 64.72166423415007],[ 889.5522182001944 923.7282899203071 914.5773439911586], [88.86369943618774]
[ 28.012127446196015 76.53821526173431 65.10573405619536],[ 889.6214209264739 923.6961200116282 915.0204519477409], [89.01280808448792]
[ 27.96523227214258 76.32692610257018 65.42631211277998],[ 889.6748066123033 923.6448557999697 915.3256923729184], [89.16133546829224]
[ 27.874379001573956 76.13226459862372 65.75647802206022],[ 889.6505825119153 923.5543749813143 915.597499934059], [89.3102376461029]
[ 27.794268929253303 75.9542036480742 65.96670728494198],[ 889.5884239718513 923.4525586883593 915.8750276176122], [89.45856881141663]
[ 27.679397559232573 75.77601859726259 66.16202998331688],[ 889.4925229784724 923.3194563711002 915.996702147076], [89.622629404068]
[ 27.535462902159384 75.5908741950309 66.39155587352097],[ 889.3301539737467 923.1447914388353 916.127898867272], [89.77281427383423]
[ 27.434936957484975 75.42210965173265 66.47412381503634],[ 889.1519187073538 922.9574734836759 916.2757283281442], [89.92025589942932]
[ 27.28837687651909 75.24036991967617 66.53582363083713],[ 888.9632938408893 922.7528336054529 916.2411873754791], [90.06675672531128]
[ 27.154168282430625 75.068043558802 66.64079573049119],[ 888.6776469226567 922.483663896123 916.2138915996966], [90.22165083885193]
[ 27.088972184931833 74.89452749536024 66.79772293534342],[ 888.4419221004847 922.2417217777696 916.2305840839546], [90.37546300888062]
[ 27.073997947607616 74.70893682488881 67.00297917414746],[ 888.3206590797438 922.0601921466355 916.3271915640296], [90.52747368812561]
[ 27.01999610041635 74.49762659709648 67.25137895280973],[ 888.2772235374247 921.9226370132596 916.5051161344109], [90.67916631698608]
[ 26.907284456011464 74.27468564425325 67.55391952519626],[ 888.1974584228333 921.7755458584979 916.7048898006544], [90.82864308357239]
[ 26.746274036552858 74.04177966120346 67.90702639054768],[ 888.0779048737737 921.6186404963153 916.9212684117284], [90.96273922920227]
[ 26.633780828720305 73.8314792025871 68.13141615718638],[ 887.9306247677844 921.4526650784578 917.1546178332347], [91.10728287696838]
[ 26.542775546153777 73.60925163782422 68.34482690422657],[ 887.7914862351026 921.2800982274415 917.2334189429614], [91.25411701202393]
[ 26.458311638659602 73.35722186600127 68.62855287726612],[ 887.6462852985903 921.0771879818471 917.3567919265175], [91.39979195594788]
[ 26.37740446917459 73.06321373225259 69.02618622035965],[ 887.5303883324708 920.8729007215038 917.556658366315], [91.54377722740173]
[ 26.373649405913003 72.77183151469188 69.36198782376951],[ 887.4626438290604 920.6892692033541 917.8577115891196], [91.69289517402649]
[ 26.367255554149086 72.45778299109682 69.66904229252359],[ 887.4624630458912 920.5355703763618 918.0823146661345], [91.83523535728455]
[ 26.37766563243397 72.15383732790676 70.00460259591797],[ 887.4158718374564 920.3393615087235 918.3033237948848], [91.98057889938354]
[ 26.401305628536104 71.84033287748596 70.34827749456147],[ 887.4115282943831 920.1683911194231 918.5699851581974], [92.13130021095276]
[ 26.482148031453093 71.56210036152603 70.62968434343153],[ 887.4253480614958 920.0006523801236 918.8425155977893], [92.27743554115295]
[ 26.61323703087717 71.32624327950936 70.80785192586617],[ 887.4932551833099 919.8744188844283 919.0756837927066], [92.42207145690918]
[ 26.706787828444494 71.11349276053335 70.939424956522],[ 887.5826164779013 919.7654746484305 919.2501349995205], [92.5750732421875]
[ 26.70620765123188 70.90241470108796 71.06637610177864],[ 887.6074796171969 919.6316959792631 919.4000178346976], [92.72528600692749]
[ 26.563079500352085 70.66328900606057 71.23470417461914],[ 887.5238471366252 919.4438831611092 919.5046759898316], [92.86794590950012]
[ 26.339364128441947 70.40433263495929 71.44603200624485],[ 887.2843813666107 919.1700339624036 919.5735759412488], [93.01442885398865]
[ 26.07420053363823 70.13301220477595 71.68516048422478],[ 886.9728812478894 918.8487260444326 919.6146506193744], [93.16082572937012]
[ 25.874844239927466 69.89274729438074 71.77946018910689],[ 886.6224142470562 918.5084120057772 919.6480351876565], [93.29040813446045]
[ 25.700552947863105 69.64515477648166 71.85218605544375],[ 886.2887058369132 918.1684223286426 919.5244546865041], [93.43253111839294]
[ 25.547670625765477 69.37725291969969 71.97857135795154],[ 885.9484715205987 917.8035672062733 919.443810453291], [93.57463717460632]
[ 25.45034189462147 69.0934994118077 72.14977852251761],[ 885.6516159061208 917.4468890804189 919.429648752933], [93.71335959434509]
[ 25.400765362547705 68.78880283981702 72.34795072009115],[ 885.4376878055501 917.1339207565813 919.4680087442791], [93.8537061214447]
[ 25.343673965553343 68.46922063371298 72.57575455570885],[ 885.2811554119395 916.8429698709782 919.5528610646134], [93.99327492713928]
[ 25.267735658470944 68.1295496749382 72.85680577342384],[ 885.1207478449713 916.5589202013997 919.6667479045889], [94.13157176971436]
[ 25.169098051020352 67.7680241475173 73.17922332455953],[ 884.9594112012627 916.2703837081885 919.820193466339], [94.27490377426147]
[ 25.145853694983316 67.44207593455536 73.38580938838396],[ 884.7850077876168 915.9713565560654 919.991296253331], [94.40418481826782]
[ 25.095820401143204 67.10651360530105 73.57164470461771],[ 884.6580698605457 915.6991587396739 920.0432735245894], [94.53839921951294]
[ 25.056736882626232 66.78201757928008 73.770597983677],[ 884.4676491472425 915.3829919001929 920.1150117243585], [94.67726540565491]
[ 25.065193438373395 66.4548515969182 74.00395771039325],[ 884.3100204656932 915.0799556971327 920.2001728036375], [94.81723499298096]
[ 25.221769301973602 66.18340158041516 74.1412661662754],[ 884.2275153410842 914.8131033444305 920.3445400140615], [94.95548844337463]
[ 25.39659985672941 65.91389414035315 74.23162572942557],[ 884.301055249698 914.6408406387607 920.4477638947649], [95.08588886260986]
[ 25.539259009821457 65.66388829950677 74.31218810786325],[ 884.3588164297873 914.4575967411408 920.563853155722], [95.22627711296082]
[ 25.65407264169782 65.40508176673639 74.44315729942036],[ 884.3885205698595 914.2725088176043 920.6656234891848], [95.36922454833984]
[ 25.706543264048644 65.11780291539024 74.6049160832556],[ 884.4158688308381 914.0798187329867 920.8078004921894], [95.50948071479797]
[ 25.64792040179597 64.78966485719565 74.78656925136148],[ 884.3770743982897 913.844080067619 920.9344530897449], [95.65089964866638]
[ 25.541398164416037 64.47263637187508 74.97974394745746],[ 884.1974454473781 913.5237254145345 921.0041573306835], [95.79255437850952]
[ 25.415874614967617 64.13290777384644 75.19975965394323],[ 883.978407339377 913.1939024278356 921.0446891259365], [95.92895412445068]
[ 25.343113025582788 63.808579942132035 75.37979145323362],[ 883.7413693722315 912.8312867997898 921.1001150235275], [96.07516574859619]
[ 25.296585160753768 63.47485927071337 75.52317188267142],[ 883.5527350632983 912.4946498338627 921.1197610322483], [96.21732449531555]
[ 25.223121935903247 63.14327149364699 75.63811579841705],[ 883.3612881913426 912.1421116190187 921.126822435183], [96.35479521751404]
[ 25.147040356653044 62.806658310519225 75.76865666271185],[ 883.1184989286205 911.7672358054541 921.0998817531861], [96.49142265319824]
[ 25.073517863334622 62.44170033432785 75.92991089624402],[ 882.8794751111494 911.3841753112002 921.0881093696034], [96.6235773563385]
[ 25.029205523315927 62.051328357902236 76.15117442841341],[ 882.6457826219893 910.9826508999491 921.1015281386377], [96.75892114639282]
[ 25.0118505928588 61.653973264159944 76.39220333816787],[ 882.4651863621561 910.5995828434546 921.1812257441866], [96.90005350112915]
[ 25.054679253515825 61.276880554409395 76.61001676607042],[ 882.321920907334 910.2445518596393 921.2824158611982], [97.06229209899902]
[ 25.21095506315927 60.945796033640576 76.75737081546762],[ 882.2467147759611 909.9344653169038 921.3869494498095], [97.20311665534973]
[ 25.327509683944967 60.65312790895766 76.81592441336208],[ 882.2911789589817 909.6944214159221 921.4849102948788], [97.34949827194214]
[ 25.43884687683836 60.386505065272644 76.88677732640619],[ 882.2508850364572 909.446176043697 921.5166896377731], [97.47778344154358]
[ 25.5512351634551 60.110168747914315 76.99827161612302],[ 882.2352112910626 909.2060302053105 921.581034049251], [97.6198182106018]
[ 25.60341905968094 59.77969312577775 77.14760729551776],[ 882.2463963291947 908.9682488770768 921.6891040184322], [97.78125429153442]
[ 25.550698201095788 59.452811134909055 77.27478807899512],[ 882.1792321259273 908.666662493155 921.7882935576304], [97.92535996437073]
[ 25.451750799193363 59.115417809399446 77.43535557346644],[ 881.9753710919424 908.3222351051946 921.7920045048709], [98.06941437721252]
[ 25.36806996307277 58.76597469951092 77.63326907106381],[ 881.7354942890042 907.9395724105547 921.8075154774123], [98.22056031227112]
[ 25.299086922497487 58.378417748971216 77.86284049329635],[ 881.532627339532 907.5606362441356 921.8574124703356], [98.35987567901611]
[ 25.22711396674154 57.96564405116311 78.10289591255398],[ 881.3404418720451 907.167968513233 921.9337231480614], [98.5035011768341]
[ 25.1611607887374 57.543116074226006 78.36414806997205],[ 881.132025904368 906.7597023682041 922.0044229119701], [98.64590644836426]
[ 25.196237726394642 57.17946492206059 78.51564413196073],[ 880.9336424722012 906.3560732394587 922.0967990498588], [98.7819573879242]
[ 25.274785573842735 56.79366456600532 78.64004012491625],[ 880.8239381930105 906.0158378805643 922.1062115227074], [98.9604651927948]
[ 25.38667285917891 56.42390872831055 78.78001975387795],[ 880.7322483684412 905.64723403295 922.1508002884627], [99.09443068504333]
[ 25.53759079286995 56.097038706942584 78.91680223148335],[ 880.6980695146763 905.322557125943 922.2349036586271], [99.23690629005432]
[ 25.692177790986445 55.7552337163943 79.07702291349668],[ 880.7308376069233 905.0742675954375 922.3448943616812], [99.37137150764465]
[ 25.73848497428496 55.45389713083465 79.2073854264563],[ 880.779758200731 904.8155172144873 922.4960078989606], [99.52851963043213]
[ 25.830804570479078 55.2153665299546 79.24167475045769],[ 880.7019724209325 904.553433840364 922.5743674062758], [99.66066813468933]
[ 25.92973594578691 54.96537787678506 79.25868112050705],[ 880.6717056123284 904.314165295651 922.5621106816563], [99.80428385734558]
[ 26.045616679523516 54.691880650921995 79.32411695610827],[ 880.635618347549 904.0379014757928 922.5742849183758], [99.94921875]
[ 26.15630131059985 54.43413218630659 79.39116069734985],[ 880.6380724680467 903.7650551620161 922.6372963370467], [100.08625054359436]
[ 26.25776397638812 54.1587717016325 79.46681130024248],[ 880.6404788097586 903.5276209912406 922.6879095707166], [100.22606873512268]
[ 26.37059613662287 53.85653687797586 79.59795041021664],[ 880.6313056717387 903.2652682379544 922.7418957340305], [100.3620138168335]
[ 26.502095887077832 53.51463427082201 79.76503922977801],[ 880.6567647991116 903.0011927600156 922.8520140986066], [100.49562859535217]
[ 26.66069412945954 53.13732275085473 79.96780947996697],[ 880.7035791614626 902.7273311820762 922.9819817885583], [100.63720345497131]
[ 26.83859748441841 52.74469942524114 80.19646991402865],[ 880.7807668333697 902.4526086507448 923.1432544455826], [100.7737786769867]
[ 26.96663093896664 52.32701037898826 80.43952197645696],[ 880.8841008135317 902.1923197981581 923.3304298076285], [100.90831661224365]
[ 27.010188721094877 51.881419706027756 80.6906376925377],[ 880.9196766317674 901.8948359537073 923.5046584236542], [101.0387773513794]
[ 27.136061105657355 51.537379852317045 80.84609614860699],[ 880.8454705208532 901.526108355644 923.6330266203018], [101.17691707611084]
[ 27.251183363161786 51.214765188309876 80.93929486320874],[ 880.8708181487045 901.2582294619665 923.6884602544009], [101.31353688240051]
[ 27.37144401217494 50.89470599144076 81.03824212690313],[ 880.8570064571754 900.9695122735874 923.7345705855831], [101.45063805580139]
[ 27.512114912599976 50.55281346897315 81.16382269290838],[ 880.863514317299 900.6719522101977 923.7981882810834], [101.60098576545715]
[ 27.686418103563412 50.18270823999838 81.32779070840076],[ 880.8990882651085 900.3730467960667 923.8895885449225], [101.74721813201904]
[ 27.833591816290618 49.85225687331982 81.47258142766938],[ 880.9806196537727 900.0822444003675 924.0250108403521], [101.8902759552002]
[ 28.083256906927495 49.55487451474633 81.5759673785296],[ 881.0311367860653 899.8338808214646 924.1327247362623], [102.03157329559326]
[ 28.32054551262107 49.240537366420746 81.64516721666372],[ 881.2091341278006 899.6357467075734 924.2439786357119], [102.18814373016357]
[ 28.434557880214076 48.969497328795995 81.69428079754314],[ 881.341779055884 899.3982291890704 924.3365808512957], [102.34191393852234]
[ 28.56439273830311 48.70082838413373 81.75929636597475],[ 881.3311462835205 899.1529798321538 924.368860132231], [102.48713397979736]
[ 28.71263245704292 48.41528299720845 81.84475573271135],[ 881.3707524425668 898.8956128660568 924.4136188614949], [102.63608407974243]
[ 28.878441930157525 48.08311767251769 81.96508250655],[ 881.4386436557257 898.6350742631656 924.4883665541656], [102.7832248210907]
[ 29.043383343786036 47.782920786079146 82.10016511006461],[ 881.5190357519181 898.3551392849564 924.589462127194], [102.93538236618042]
[ 29.23522484074204 47.46611284858646 82.24266746275404],[ 881.6152032913891 898.1358526271019 924.7053837973561], [103.08518981933594]
[ 29.446350880655046 47.12654263498807 82.4071229566728],[ 881.7456814960829 897.9080186889934 924.8382412213043], [103.23298931121826]
[ 29.66219814175411 46.75221852769863 82.59393655425876],[ 881.9004542813325 897.6758878683717 924.9975390877023], [103.39309525489807]
[ 29.861057038522194 46.388896835198736 82.7897896129218],[ 882.0513055471215 897.4253196739489 925.1667559664508], [103.56660151481628]
[ 30.032599602980472 46.05086606675008 82.98252843797984],[ 882.1869224105482 897.1934323039142 925.3343631786025], [103.72376918792725]
