[ 0.0 0.0 0.0],[ 168.74997689719996 168.74997689722483 168.74998627219995], [1.4119703769683838]
[ 0.0 0.0 0.0],[ 168.74997689719996 168.74997689722483 168.74998627219995], [1.8575007915496826]
[ 0.0 0.0 0.0],[ 168.74997689719993 168.74997689722483 168.74998627219992], [1.9098658561706543]
[ 0.0 0.0 0.0],[ 168.74997689719993 168.74997689722483 168.74998627219992], [1.9576606750488281]
[ 0.0 0.0 0.0],[ 168.74997689719999 168.7499768972249 168.7499862722], [2.0036284923553467]
[ 0.0 0.0 0.0],[ 168.74997689719984 168.74997689722494 168.74998627220003], [2.0490682125091553]
[ 0.0 0.0 0.0],[ 168.74997689719993 168.74997689722494 168.7499862722], [2.0941779613494873]
[ 0.0 0.0 0.0],[ 168.74997689719993 168.74997689722497 168.74998627219998], [2.1392977237701416]
[ 0.0 0.0 0.0],[ 168.74997689719987 168.7499768972249 168.7499862722], [2.184048891067505]
[ 0.0 0.0 0.0],[ 168.74997689719993 168.74997689722494 168.74998627219998], [2.228440999984741]
[ 0.0 0.0 0.0],[ 168.74997689719993 168.74997689722488 168.74998627219992], [2.274664878845215]
[ 0.0 0.0 0.0],[ 168.74997689719993 168.749976897225 168.7499862722], [2.3194406032562256]
[ 0.0 0.0 0.0],[ 168.74997689719996 168.74997689722497 168.7499862721999], [2.3640694618225098]
[ 0.0 0.0 0.0],[ 168.74997689720004 168.7499768972251 168.74998627219983], [2.409587860107422]
[ 0.0 0.0 0.0],[ 168.74997689719987 168.74997689722508 168.74998627220006], [2.454756498336792]
[ 0.0 0.0 0.0],[ 168.74997689719982 168.74997689722497 168.74998627220015], [2.4996533393859863]
[ 0.0 0.0 0.0],[ 168.74997689719987 168.749976897225 168.74998627220003], [2.5443263053894043]
[ 0.0 0.0 0.0],[ 168.74997689720004 168.74997689722503 168.74998627220006], [2.5902419090270996]
[ 0.0 0.0 0.0],[ 168.74997689719999 168.74997689722503 168.74998627219998], [2.6365299224853516]
[ 0.0 0.0 0.0],[ 168.74997689719999 168.74997689722497 168.74998627219998], [2.6839356422424316]
[ 0.0 0.0 0.0],[ 168.74997689720004 168.749976897225 168.74998627219998], [2.7296645641326904]
[ 0.0 0.0 0.0],[ 168.74997689719996 168.749976897225 168.74998627219995], [2.773869037628174]
[ 0.0 0.0 0.0],[ 168.74997689719987 168.74997689722497 168.74998627219992], [2.8212571144104004]
[ 0.0 0.0 0.0],[ 168.7499768971999 168.74997689722494 168.74998627219992], [2.867406129837036]
[ 0.0 0.0 0.0],[ 168.74997689719993 168.74997689722494 168.74998627219998], [2.91294002532959]
[ 0.0 0.0 0.0],[ 168.74997689720004 168.74997689722503 168.74998627219995], [2.958089828491211]
[ 0.0 0.0 0.0],[ 168.74997689719987 168.74997689722488 168.74998627219998], [3.004697322845459]
[ 0.0 0.0 0.0],[ 168.74997689719996 168.74997689722494 168.74998627219995], [3.051642417907715]
[ 0.0 0.0 0.0],[ 168.74997689719996 168.74997689722497 168.74998627220003], [3.097337484359741]
[ 0.0 0.0 0.0],[ 168.74997689719999 168.749976897225 168.74998627219992], [3.1407597064971924]
[ 0.0 0.0 0.0],[ 168.74997689719993 168.7499768972249 168.7499862722], [3.187999963760376]
[ 0.0 0.0 0.0],[ 168.74997689720004 168.74997689722497 168.74998627219992], [3.2340893745422363]
[ 0.0 0.0 0.0],[ 168.74997689719999 168.74997689722494 168.7499862722], [3.2799317836761475]
[ 0.0 0.0 0.0],[ 168.74997689719999 168.74997689722497 168.74998627219998], [3.3248836994171143]
[ 0.0 0.0 0.0],[ 168.74997689719993 168.7499768972249 168.7499862722001], [3.3713901042938232]
[ 0.0 0.0 0.0],[ 168.74997689719993 168.749976897225 168.74998627220006], [3.4168107509613037]
[ 0.0 0.0 0.0],[ 168.74997689719996 168.74997689722494 168.74998627219992], [3.461840867996216]
[ 0.0 0.0 0.0],[ 168.74997689720004 168.74997689722497 168.74998627220003], [3.5078556537628174]
[ 0.0 0.0 0.0],[ 168.74997689719987 168.74997689722488 168.7499862722001], [3.554361581802368]
[ 0.0 0.0 0.0],[ 168.74997689719999 168.749976897225 168.74998627220003], [3.6008501052856445]
[ 0.0 0.0 0.0],[ 168.74997689719993 168.74997689722497 168.7499862722], [3.6474063396453857]
[ 0.0 0.0 0.0],[ 168.74997689719996 168.74997689722497 168.74998627219992], [3.6926796436309814]
[ 0.0 0.0 0.0],[ 168.7499768972 168.74997689722494 168.74998627219992], [3.736837863922119]
[ 0.0 0.0 0.0],[ 168.74997689719987 168.749976897225 168.74998627219995], [3.7814037799835205]
[ 0.0 0.0 0.0],[ 168.74997689719996 168.74997689722505 168.7499862722], [3.82645320892334]
[ 0.0 0.0 0.0],[ 168.74997689719999 168.74997689722503 168.74998627219998], [3.871469259262085]
[ 0.0 0.0 0.0],[ 168.74997689719996 168.74997689722497 168.74998627219995], [3.917085886001587]
[ 0.0 0.0 0.0],[ 168.74997689719999 168.74997689722505 168.7499862722], [3.962820053100586]
[ 0.0 0.0 0.0],[ 168.74997689719993 168.749976897225 168.7499862722001], [4.007828950881958]
[ 0.0 0.0 0.0],[ 168.74997689719993 168.74997689722497 168.7499862722], [4.057019948959351]
[ 0.0 0.0 0.0],[ 168.74997689719993 168.74997689722494 168.74998627219992], [4.1067304611206055]
[ 0.0 0.0 0.0],[ 168.74997689720004 168.74997689722497 168.7499862721999], [4.156600475311279]
[ 0.0 0.0 0.0],[ 168.74997689720004 168.74997689722497 168.74998627219986], [4.198160648345947]
[ 0.0 0.0 0.0],[ 168.74997689719987 168.749976897225 168.74998627220003], [4.243737697601318]
[ 0.0 0.0 0.0],[ 168.74997689719999 168.74997689722503 168.74998627219992], [4.2876975536346436]
[ 0.0 0.0 0.0],[ 168.74997689719999 168.74997689722497 168.74998627219998], [4.3287951946258545]
[ 0.0 0.0 0.0],[ 168.74997689719993 168.74997689722494 168.74998627219998], [4.374236345291138]
[ 0.0 0.0 0.0],[ 168.74997689719993 168.74997689722494 168.7499862721999], [4.419137239456177]
[ 0.0 0.0 0.0],[ 168.74997689719987 168.749976897225 168.7499862722], [4.462698936462402]
[ 0.0 0.0 0.0],[ 168.74997689720004 168.74997689722494 168.74998627219992], [4.506176948547363]
[ 0.0 0.0 0.0],[ 168.74997689720004 168.749976897225 168.7499862722001], [4.552187204360962]
[ 0.0 0.0 0.0],[ 168.74997689719999 168.74997689722497 168.74998627219998], [4.597753286361694]
[ 0.0 0.0 0.0],[ 168.74997689719999 168.74997689722503 168.74998627220012], [4.6406121253967285]
[ 0.0 0.0 0.0],[ 168.74997689719987 168.74997689722497 168.74998627220006], [4.685967445373535]
[ 0.0 0.0 0.0],[ 168.74997689719999 168.74997689722505 168.7499862722], [4.7288079261779785]
[ 0.0 0.0 0.0],[ 168.74997689719999 168.749976897225 168.74998627219998], [4.770871877670288]
[ 0.0 0.0 0.0],[ 168.7499768972001 168.74997689722505 168.74998627219998], [4.813307046890259]
[ 0.0 0.0 0.0],[ 168.74997689720004 168.74997689722508 168.7499862722001], [4.8548431396484375]
[ 0.0 0.0 0.0],[ 168.74997689719987 168.74997689722505 168.74998627220012], [4.896197080612183]
[ 0.0 0.0 0.0],[ 168.7499768971999 168.74997689722505 168.7499862722], [4.939748048782349]
[ 0.0 0.0 0.0],[ 168.74997689720004 168.749976897225 168.7499862722], [4.98029351234436]
[ 0.0 0.0 0.0],[ 168.74997689719984 168.7499768972249 168.7499862722001], [5.021783113479614]
[ 0.0 0.0 0.0],[ 168.74997689719987 168.74997689722497 168.7499862722001], [5.062497138977051]
[ 0.0 0.0 0.0],[ 168.74997689719987 168.74997689722494 168.74998627219998], [5.106986999511719]
[ 0.0 0.0 0.0],[ 168.74997689720007 168.749976897225 168.74998627220012], [5.149035692214966]
[ 0.0 0.0 0.0],[ 168.74997689719993 168.74997689722494 168.74998627219992], [5.189551830291748]
[ 0.0 0.0 0.0],[ 168.74997689719999 168.7499768972249 168.74998627219998], [5.232053995132446]
[ 0.0 0.0 0.0],[ 168.74997689719999 168.74997689722497 168.7499862722], [5.277266263961792]
[ 0.0 0.0 0.0],[ 168.74997689719987 168.74997689722488 168.74998627219998], [5.326256275177002]
[ 0.0 0.0 0.0],[ 168.74997689719993 168.7499768972249 168.74998627220003], [5.3668365478515625]
[ 0.0 0.0 0.0],[ 168.74997689719987 168.74997689722488 168.74998627220003], [5.410892963409424]
[ 0.0 0.0 0.0],[ 168.74997689720004 168.7499768972249 168.74998627219995], [5.449761867523193]
[ 0.0 0.0 0.0],[ 168.74997689719987 168.74997689722497 168.74998627219986], [5.491222381591797]
[ 0.0 0.0 0.0],[ 168.74997689719993 168.74997689722494 168.74998627219992], [5.533902645111084]
[ 0.0 0.0 0.0],[ 168.74997689720004 168.749976897225 168.74998627220003], [5.574961185455322]
[ 0.0 0.0 0.0],[ 168.7499768972 168.74997689722503 168.74998627219992], [5.6259214878082275]
[ 0.0 0.0 0.0],[ 168.7499768972 168.74997689722503 168.74998627219995], [5.6730217933654785]
[ 0.0 0.0 0.0],[ 168.74997689719996 168.749976897225 168.7499862722], [5.724942445755005]
[ 0.0 0.0 0.0],[ 168.74997689719999 168.749976897225 168.7499862721999], [5.77295446395874]
[ 0.0 0.0 0.0],[ 168.74997689719996 168.74997689722497 168.74998627219998], [5.818217515945435]
[ 0.0 0.0 0.0],[ 168.74997689719999 168.74997689722503 168.74998627220003], [5.8610100746154785]
[ 0.0 0.0 0.0],[ 168.74997689719999 168.74997689722503 168.74998627219992], [5.899671792984009]
[ 0.0 0.0 0.0],[ 168.74997689719993 168.74997689722503 168.7499862722], [5.943022966384888]
[ 0.0 0.0 0.0],[ 168.74997689719996 168.74997689722505 168.74998627220006], [5.98639702796936]
[ 0.0 0.0 0.0],[ 168.7499768972 168.74997689722497 168.7499862722], [6.024832248687744]
[ 0.0 0.0 0.0],[ 168.7499768971999 168.74997689722488 168.7499862722], [6.066545486450195]
[ 0.0 0.0 0.0],[ 168.74997689719982 168.74997689722494 168.74998627220003], [6.110972881317139]
[ 0.0 0.0 0.0],[ 168.74997689719999 168.7499768972249 168.74998627220003], [6.1512720584869385]
[ 0.0 0.0 0.0],[ 168.7499768972001 168.74997689722503 168.7499862721999], [6.191467761993408]
[ 0.0 0.0 0.0],[ 168.74997689719996 168.749976897225 168.7499862722], [6.232514142990112]
[ 0.0 0.0 0.0],[ 168.74997689720004 168.74997689722494 168.74998627219998], [6.2734215259552]
[ 0.0 0.0 0.0],[ 168.74997689719999 168.74997689722503 168.7499862722], [6.320310592651367]
[ 0.0 0.0 0.0],[ 168.74997689719999 168.7499768972249 168.74998627219998], [6.361893177032471]
[ 0.0 0.0 0.0],[ 168.74997689719999 168.74997689722497 168.74998627219998], [6.409566879272461]
[ 0.0 0.0 0.0],[ 168.74997689719999 168.74997689722497 168.7499862722001], [6.44885778427124]
[ 0.0 0.0 0.0],[ 168.74997689720004 168.74997689722497 168.74998627219995], [6.48798942565918]
[ 0.0 0.0 0.0],[ 168.7499768971999 168.749976897225 168.74998627219992], [6.531641006469727]
[ 0.0 0.0 0.0],[ 168.74997689720004 168.74997689722503 168.74998627219998], [6.572000503540039]
[ 0.0 0.0 0.0],[ 168.74997689720004 168.749976897225 168.7499862721998], [6.610960245132446]
[ 0.0 0.0 0.0],[ 168.74997689719999 168.74997689722503 168.74998627219998], [6.6531102657318115]
[ 0.0 0.0 0.0],[ 168.74997689719996 168.74997689722503 168.74998627220006], [6.697490930557251]
[ 0.0 0.0 0.0],[ 168.7499768972 168.749976897225 168.74998627220003], [6.7366392612457275]
[ 0.0 0.0 0.0],[ 168.74997689720004 168.74997689722494 168.7499862721999], [6.777349948883057]
[ 0.0 0.0 0.0],[ 168.74997689719987 168.74997689722497 168.74998627219998], [6.815964698791504]
[ 1.0 0.0 0.0],[ 168.7499768971998 168.74997689722505 168.74998627219992], [6.858757019042969]
[ 1.0 0.0 0.0],[ 168.74997689719984 168.74997689722494 168.7499862722001], [6.902988910675049]
[ 1.0 0.0 0.0],[ 168.9510282774027 168.78767209794722 168.7876814740962], [6.944406986236572]
[ 1.0 0.0 0.0],[ 169.1082605934201 168.81189593476876 168.81190531113214], [6.991933822631836]
[ 1.0 0.0 0.0],[ 169.22592668374546 168.82913421372805 168.8291435864519], [7.032251596450806]
[ 1.0 0.0 0.0],[ 169.31351455236265 168.8417605040139 168.84176986532617], [7.070999622344971]
[ 1.0 0.0 0.0],[ 169.378720465639 168.85111708734306 168.85112642751508], [7.11186957359314]
[ 1.0 0.0 0.0],[ 169.42730054824878 168.8580987809682 168.85810809059907], [7.157740592956543]
[ 1.0 0.0 0.0],[ 169.46351857391664 168.86333341688103 168.86334268844726], [7.196899890899658]
[ 1.0 0.0 0.0],[ 169.49053466905352 168.86727166623558 168.86728089477063], [7.242297410964966]
[ 1.0 0.0 0.0],[ 169.51069499093484 168.87024184255094 168.87025102567375], [7.2833757400512695]
[ 1.0 0.0 0.0],[ 169.5257440029095 168.87248575578818 168.87249489335488], [7.324774503707886]
[ 1.0 0.0 0.0],[ 169.53698029882716 168.8741829844716 168.87419207807287], [7.365768909454346]
[ 1.0 0.0 0.0],[ 169.54537141954816 168.87546771898948 168.8754767714269], [7.411247730255127]
[ 1.0 0.0 0.0],[ 169.55163873138525 168.87644069057282 168.8764497053933], [7.457713842391968]
[ 1.0 0.0 0.0],[ 169.55632033359188 168.87717776319306 168.87718674431005], [7.501246690750122]
[ 1.0 0.0 0.0],[ 169.55981777302887 168.8777362061836 168.877745157594], [7.545447587966919]
[ 1.0 0.0 0.0],[ 169.56243078521464 168.87815932229273 168.878168247875], [7.5894763469696045]
[ 1.0 0.0 0.0],[ 169.56438315939516 168.87847988995046 168.87848879333612], [7.633821249008179]
[ 1.0 0.0 0.0],[ 169.56584201142925 168.87872273899757 168.87873162349626], [7.678967237472534]
[ 1.0 0.0 0.0],[ 169.56693215367267 168.87890668651158 168.87891555507733], [7.722749948501587]
[ 1.0 0.0 0.0],[ 169.56774681428402 168.8790459963133 168.87905485153803], [7.7682740688323975]
[ 1.0 0.0 0.0],[ 169.56835563626436 168.8791514818159 168.87916032594367], [7.814029932022095]
[ 1.0 0.0 0.0],[ 169.56881064821962 168.8792313406583 168.87924017560877], [7.856641530990601]
[ 1.0 0.0 0.0],[ 169.56915072211038 168.87929178700443 168.8793006144045], [7.9016008377075195]
[ 1.0 0.0 0.0],[ 169.56940490195197 168.87933753087702 168.87934635209422], [7.945955514907837]
[ 1.0 0.0 0.0],[ 169.56959488976528 168.8793721416751 168.87938095785034], [7.9900970458984375]
[ 1.0 0.0 0.0],[ 169.56973690234602 168.8793983239122 168.87940713599085], [8.035005807876587]
[ 1.0 0.0 0.0],[ 169.56984305821905 168.8794181263845 168.87942693514682], [8.080198526382446]
[ 1.0 0.0 0.0],[ 169.5699224137365 168.8794331008397 168.8794419069251], [8.12419080734253]
[ 1.0 0.0 0.0],[ 169.5699817371219 168.87944442231844 168.87945322624967], [8.168383359909058]
[ 1.0 0.0 0.0],[ 169.5700260867795 168.87945298042197 168.87946178262425], [8.213482141494751]
[ 1.0 0.0 0.0],[ 169.57005924338262 168.87945944851037 168.87946824932794], [8.259660959243774]
[ 1.0 0.0 0.0],[ 169.57008403272906 168.87946433616133 168.87947313587284], [8.303024530410767]
[ 1.0 0.0 0.0],[ 169.57010256699195 168.8794680289297 168.8794768277594], [8.347159624099731]
[ 1.0 0.0 0.0],[ 169.57011642499546 168.87947081847483 168.879479616603], [8.391599416732788]
[ 1.0 0.0 0.0],[ 169.57012678693468 168.87947292538442 168.87948172295566], [8.439733982086182]
[ 1.0 0.0 0.0],[ 169.5701345350544 168.87947451646204 168.8794833135913], [8.487866401672363]
[ 1.0 0.0 0.0],[ 169.5701403288946 168.87947571781697 168.87948451459664], [8.529977083206177]
[ 1.0 0.0 0.0],[ 169.57014466152333 168.87947662477598 168.87948542127916], [8.570521593093872]
[ 1.0 0.0 0.0],[ 169.57014790156938 168.87947730938373 168.87948610566886], [8.61007809638977]
[ 1.0 0.0 0.0],[ 169.57015032463676 168.87947782607972 168.87948662219293], [8.64818286895752]
[ 1.0 0.0 0.0],[ 169.57015213678795 168.87947821599414 168.87948701197206], [8.688988447189331]
[ 1.0 0.0 0.0],[ 169.57015349209547 168.8794785101965 168.87948730606786], [8.729030132293701]
[ 1.0 0.0 0.0],[ 169.57015450576347 168.87947873215205 168.87948752793977], [8.76746940612793]
[ 1.0 0.0 0.0],[ 169.57015526393573 168.8794788995812 168.8794876953035], [8.810052156448364]
[ 1.0 0.0 0.0],[ 169.57015583102904 168.87947902586362 168.87948782153435], [8.849265575408936]
[ 1.0 0.0 0.0],[ 169.57015625521402 168.87947912109965 168.87948791673034], [8.888523817062378]
[ 1.0 0.0 0.0],[ 169.57015657251407 168.8794791929136 168.87948798851272], [8.928263902664185]
[ 1.0 0.0 0.0],[ 169.5701568098696 168.87947924705963 168.87948804263422], [8.968789339065552]
[ 1.0 0.0 0.0],[ 169.57015698742842 168.87947928787995 168.87948808343523], [9.008174896240234]
[ 1.0 0.0 0.0],[ 169.57015712025935 168.8794793186505 168.8794881141909], [9.047322034835815]
[ 1.0 0.0 0.0],[ 169.5701572196329 168.87947934184314 168.87948813737182], [9.088671445846558]
[ 1.0 0.0 0.0],[ 169.57015729397847 168.8794793593222 168.8794881548419], [9.130054473876953]
[ 1.0 0.0 0.0],[ 169.57015734960152 168.87947937249393 168.87948816800647], [9.170979499816895]
[ 1.0 0.0 0.0],[ 169.57015739121786 168.8794793824188 168.87948817792588], [9.213446378707886]
[ 1.0 0.0 0.0],[ 169.570157422356 168.87947938989632 168.8794881853989], [9.252322673797607]
[ 1.0 0.0 0.0],[ 169.5701574456546 168.87947939552944 168.8794881910288], [9.29088044166565]
[ 1.0 0.0 0.0],[ 169.57015746308804 168.8794793997728 168.87948819526957], [9.331595420837402]
[ 1.0 0.0 0.0],[ 169.57015747613323 168.8794794029689 168.8794881984636], [9.377065420150757]
[ 1.0 0.0 0.0],[ 169.57015748589498 168.87947940537595 168.8794882008692], [9.418646097183228]
[ 1.0 0.0 0.0],[ 169.57015749319999 168.8794794071887 168.87948820268065], [9.46331238746643]
[ 1.0 0.0 0.0],[ 169.57015749866673 168.8794794085537 168.87948820404483], [9.503605127334595]
[ 1.0 0.0 0.0],[ 169.570157502758 168.8794794095814 168.87948820507188], [9.549908638000488]
[ 1.0 0.0 0.0],[ 169.57015750581968 168.87947941035526 168.8794882058451], [9.61076283454895]
[ 1.0 0.0 0.0],[ 169.57015750811115 168.87947941093773 168.87948820642723], [9.652473211288452]
[ 1.0 0.0 0.0],[ 169.5701575098263 168.87947941137625 168.87948820686532], [9.695865631103516]
[ 1.0 0.0 0.0],[ 169.57015751110984 168.87947941170626 168.87948820719507], [9.744611024856567]
[ 1.0 0.0 0.0],[ 169.57015751207064 168.8794794119546 168.87948820744327], [9.789360046386719]
[ 1.0 0.0 0.0],[ 169.57015751279002 168.8794794121415 168.87948820763015], [9.837167263031006]
[ 1.0 0.0 0.0],[ 169.57015751332827 168.87947941228225 168.87948820777066], [9.877949237823486]
[ 1.0 0.0 0.0],[ 169.57015751373112 168.87947941238818 168.87948820787648], [9.925912618637085]
[ 1.0 0.0 0.0],[ 169.5701575140327 168.87947941246782 168.87948820795583], [9.968466758728027]
[ 1.0 0.0 0.0],[ 169.57015751425857 168.87947941252764 168.87948820801594], [10.009835720062256]
[ 1.0 0.0 0.0],[ 169.57015751442776 168.87947941257266 168.87948820806105], [10.051190614700317]
[ 1.0 0.0 0.0],[ 169.57015751455424 168.87947941260657 168.87948820809484], [10.099634647369385]
[ 1.0 0.0 0.0],[ 169.5701575146488 168.87947941263218 168.87948820812034], [10.141707420349121]
[ 1.0 0.0 0.0],[ 169.57015751471988 168.87947941265136 168.87948820813943], [10.185551643371582]
[ 1.0 0.0 0.0],[ 169.57015751477297 168.87947941266583 168.87948820815382], [10.23394227027893]
[ 1.0 0.0 0.0],[ 169.57015751481273 168.8794794126767 168.87948820816476], [10.278523206710815]
[ 1.0 0.0 0.0],[ 169.57015751484244 168.8794794126848 168.87948820817283], [10.322869062423706]
[ 1.0 0.0 0.0],[ 169.5701575148648 168.87947941269098 168.87948820817905], [10.367896318435669]
[ 1.0 0.0 0.0],[ 169.57015751488154 168.87947941269564 168.87948820818363], [10.414686679840088]
[ 1.0 0.0 0.0],[ 169.57015751489385 168.87947941269906 168.87948820818698], [10.458526611328125]
[ 1.0 0.0 0.0],[ 169.57015751490343 168.87947941270178 168.87948820818966], [10.503493309020996]
[ 1.0 0.0 0.0],[ 169.57015751491048 168.87947941270372 168.87948820819156], [10.54215931892395]
[ 1.0 0.0 0.0],[ 169.57015751491556 168.87947941270497 168.87948820819304], [10.583353042602539]
[ 1.0 0.0 0.0],[ 169.57015751491966 168.8794794127063 168.87948820819432], [10.62861943244934]
[ 1.0 0.0 0.0],[ 169.57015751492247 168.87947941270707 168.87948820819517], [10.671947240829468]
[ 1.0 0.0 0.0],[ 169.5701575149248 168.8794794127076 168.87948820819557], [10.717575073242188]
[ 1.0 0.0 0.0],[ 169.5701575149264 168.87947941270824 168.87948820819625], [10.765546321868896]
[ 1.0 0.0 0.0],[ 169.57015751492756 168.8794794127084 168.87948820819645], [10.815298795700073]
[ 1.0 0.0 0.0],[ 169.57015751492855 168.8794794127088 168.87948820819662], [10.856971979141235]
[ 1.0 0.0 0.0],[ 169.57015751492935 168.87947941270912 168.87948820819705], [10.901498794555664]
[ 1.0 0.0 0.0],[ 169.57015751492978 168.87947941270903 168.87948820819702], [10.942249059677124]
[ 1.0 0.0 0.0],[ 169.57015751493017 168.87947941270932 168.8794882081972], [10.98247480392456]
[ 1.0 0.0 0.0],[ 169.57015751493023 168.8794794127093 168.8794882081971], [11.025367498397827]
[ 1.0 0.0 0.0],[ 169.57015751493068 168.8794794127095 168.87948820819733], [11.072931051254272]
[ 1.0 0.0 0.0],[ 169.57015751493083 168.87947941270943 168.8794882081974], [11.116785764694214]
[ 1.0 0.0 0.0],[ 169.57015751493094 168.8794794127096 168.8794882081974], [11.16077733039856]
[ 1.0 0.0 0.0],[ 169.5701575149309 168.87947941270954 168.87948820819742], [11.202253103256226]
[ 1.0 0.0 0.0],[ 169.57015751493108 168.87947941270957 168.87948820819744], [11.241925477981567]
[ 1.0 0.0 0.0],[ 169.57015751493105 168.8794794127096 168.87948820819747], [11.284200191497803]
[ 1.0 0.0 0.0],[ 169.57015751493117 168.87947941270951 168.87948820819753], [11.327502727508545]
[ 1.0 0.0 0.0],[ 169.5701575149311 168.87947941270954 168.87948820819744], [11.371926307678223]
[ 1.0 0.0 0.0],[ 169.57015751493117 168.87947941270951 168.87948820819756], [11.414090394973755]
[ 1.0 0.0 0.0],[ 169.57015751493122 168.87947941270966 168.87948820819767], [11.453272104263306]
[ 1.0 0.0 0.0],[ 169.5701575149314 168.87947941270954 168.87948820819764], [11.495381593704224]
[ 1.0 0.0 0.0],[ 169.5701575149314 168.8794794127095 168.87948820819759], [11.537245512008667]
[ 1.0 0.0 0.0],[ 169.57015751493134 168.8794794127096 168.87948820819764], [11.578598260879517]
[ 1.0 0.0 0.0],[ 169.57015751493128 168.87947941270977 168.87948820819759], [11.618322134017944]
[ 2.0 0.0 0.0],[ 169.57015751493122 168.87947941270968 168.8794882081976], [11.661933183670044]
[ 2.0 0.0 0.0],[ 169.57015751493128 168.87947941270966 168.8794882081976], [11.707746744155884]
[ 2.0 0.0 0.0],[ 169.77115749357466 168.91716674191966 168.9171755600315], [11.748756408691406]
[ 2.0 0.0 0.0],[ 169.92827813605714 168.9414010724485 168.94140983438066], [11.79194712638855]
[ 2.0 0.0 0.0],[ 170.04584585798884 168.95865601182942 168.95866462779338], [11.83197832107544]
[ 2.0 0.0 0.0],[ 170.1333616203027 168.9712988126246 168.97130720826877], [11.875087022781372]
[ 2.0 0.0 0.0],[ 170.19852000726002 168.98066899359347 168.98067711536098], [11.917842149734497]
[ 2.0 0.0 0.0],[ 170.24707240565763 168.98766031624083 168.98766813161345], [11.958067417144775]
[ 2.0 0.0 0.0],[ 170.2832776983432 168.99290054258634 168.992908037837], [11.999460935592651]
[ 2.0 0.0 0.0],[ 170.31029174844605 168.99684082255456 168.99684799922065], [12.040381908416748]
[ 2.0 0.0 0.0],[ 170.33045725755466 168.9998101916401 168.99981706262832], [12.081093549728394]
[ 2.0 0.0 0.0],[ 170.34551601438193 169.0020512274092 169.00205781333196], [12.124438762664795]
[ 2.0 0.0 0.0],[ 170.35676461835615 169.00374421009286 169.00375053615042], [12.165521383285522]
[ 2.0 0.0 0.0],[ 170.36516917537688 169.0050239147598 169.00503000827675], [12.2136070728302]
[ 2.0 0.0 0.0],[ 170.37145005940482 169.00599152698757 169.00599741558736], [12.265645980834961]
[ 2.0 0.0 0.0],[ 170.37614471684986 169.006723242479 169.0067289528187], [12.313177347183228]
[ 2.0 0.0 0.0],[ 170.37965429496782 169.00727655727474 169.0072821142335], [12.359135150909424]
[ 2.0 0.0 0.0],[ 170.38227831328314 169.00769491646693 169.00770034268788], [12.402884483337402]
[ 2.0 0.0 0.0],[ 170.38424047404104 169.008011176454 169.00801649214222], [12.449259042739868]
[ 2.0 0.0 0.0],[ 170.38570789329177 169.008250198172 169.00825542107262], [12.496317863464355]
[ 2.0 0.0 0.0],[ 170.38680543951534 169.00843079730652 169.00843594280244], [12.545405149459839]
[ 2.0 0.0 0.0],[ 170.38762643012262 169.0085672150809 169.00857229636196], [12.591327667236328]
[ 2.0 0.0 0.0],[ 170.3882406142822 169.0086702296052 169.00867525787706], [12.635965585708618]
[ 2.0 0.0 0.0],[ 170.3887001325269 169.0087479966854 169.008752981392], [12.680222749710083]
[ 2.0 0.0 0.0],[ 170.38904396712977 169.00880668643538 169.0088116354813], [12.725588083267212]
[ 2.0 0.0 0.0],[ 170.38930126620662 169.00885096548873 169.0088558854497], [12.77228569984436]
[ 2.0 0.0 0.0],[ 170.38949382705977 169.00888436231946 169.0088892586371], [12.822298526763916]
[ 2.0 0.0 0.0],[ 170.3896379517243 169.0089095440063 169.00891442116222], [12.867435693740845]
[ 2.0 0.0 0.0],[ 170.38974583363859 169.00892852588245 169.00893338755162], [12.912438869476318]
[ 2.0 0.0 0.0],[ 170.38982659405497 169.008942830311 169.0089476794955], [12.959761619567871]
[ 2.0 0.0 0.0],[ 170.38988705676633 169.00895360690077 169.0089584460442], [13.004850625991821]
[ 2.0 0.0 0.0],[ 170.38993232728495 169.00896172349994 169.00896655458558], [13.053402662277222]
[ 2.0 0.0 0.0],[ 170.389966225884 169.00896783504695 169.0089726596795], [13.099464416503906]
[ 2.0 0.0 0.0],[ 170.38999161140683 169.008972435652 169.00897725512613], [13.144574642181396]
[ 2.0 0.0 0.0],[ 170.3900106234256 169.00897589797634 169.00898071333452], [13.19015121459961]
[ 2.0 0.0 0.0],[ 170.3900248633535 169.0089785030004 169.0089833150799], [13.2394540309906]
[ 2.0 0.0 0.0],[ 170.39003552991568 169.00898046251814 169.00898527198956], [13.284219980239868]
[ 2.0 0.0 0.0],[ 170.39004352048903 169.00898193612616 169.00898674352655], [13.327861309051514]
[ 2.0 0.0 0.0],[ 170.39004950691984 169.00898304405575 169.00898784981348], [13.372665405273438]
[ 2.0 0.0 0.0],[ 170.3900539922469 169.00898387685737 169.00898868131387], [13.415886402130127]
[ 2.0 0.0 0.0],[ 170.39005735315155 169.00898450270958 169.00898930613693], [13.456904172897339]
[ 2.0 0.0 0.0],[ 170.39005987172047 169.00898497293355 169.00898977554752], [13.499300718307495]
[ 2.0 0.0 0.0],[ 170.3900617592199 169.00898532615068 169.00899012812263], [13.542349815368652]
[ 2.0 0.0 0.0],[ 170.39006317388865 169.00898559141822 169.00899039288421], [13.584394454956055]
[ 2.0 0.0 0.0],[ 170.39006423425843 169.0089857905927 169.00899059166005], [13.627768516540527]
[ 2.0 0.0 0.0],[ 170.39006502912508 169.00898594011025 169.0089907408637], [13.669798374176025]
[ 2.0 0.0 0.0],[ 170.3900656250143 169.00898605232715 169.0089908528342], [13.712361812591553]
[ 2.0 0.0 0.0],[ 170.39006607177 169.008986136532 169.00899093684532], [13.756856679916382]
[ 2.0 0.0 0.0],[ 170.39006640674222 169.00898619970414 169.00899099986532], [13.799494981765747]
[ 2.0 0.0 0.0],[ 170.3900666579193 169.00898624708773 169.00899104712977], [13.842252969741821]
[ 2.0 0.0 0.0],[ 170.3900668462774 169.0089862826217 169.00899108257028], [13.887785196304321]
[ 2.0 0.0 0.0],[ 170.39006698753818 169.00898630926406 169.0089911091397], [13.928330421447754]
[ 2.0 0.0 0.0],[ 170.39006709348564 169.00898632923585 169.00899112905415], [13.97195053100586]
[ 2.0 0.0 0.0],[ 170.3900671729537 169.00898634420426 169.00899114397762], [14.013732194900513]
[ 2.0 0.0 0.0],[ 170.39006723256443 169.00898635542057 169.00899115515904], [14.057993650436401]
[ 2.0 0.0 0.0],[ 170.39006727728307 169.00898636382382 169.00899116353492], [14.100224256515503]
[ 2.0 0.0 0.0],[ 170.39006731083265 169.00898637011835 169.00899116980807], [14.142863273620605]
[ 2.0 0.0 0.0],[ 170.39006733600405 169.0089863748322 169.00899117450535], [14.185630559921265]
[ 2.0 0.0 0.0],[ 170.39006735489133 169.0089863783618 169.00899117802211], [14.230843305587769]
[ 2.0 0.0 0.0],[ 170.39006736906393 169.00898638100426 169.00899118065433], [14.278417825698853]
[ 2.0 0.0 0.0],[ 170.39006737969984 169.00898638298196 169.00899118262424], [14.320292711257935]
[ 2.0 0.0 0.0],[ 170.39006738768208 169.00898638446213 169.0089911840982], [14.365553140640259]
[ 2.0 0.0 0.0],[ 170.3900673936729 169.00898638556944 169.00899118520078], [14.407052040100098]
[ 2.0 0.0 0.0],[ 170.39006739816952 169.0089863863979 169.00899118602547], [14.44655728340149]
[ 2.0 0.0 0.0],[ 170.39006740154528 169.00898638701742 169.00899118664233], [14.48856258392334]
[ 2.0 0.0 0.0],[ 170.39006740407933 169.00898638748072 169.0089911871034], [14.5356125831604]
[ 2.0 0.0 0.0],[ 170.39006740598143 169.00898638782718 169.00899118744803], [14.57654619216919]
[ 2.0 0.0 0.0],[ 170.39006740740953 169.00898638808619 169.0089911877056], [14.62411618232727]
[ 2.0 0.0 0.0],[ 170.39006740848214 169.0089863882795 169.00899118789812], [14.670266151428223]
[ 2.0 0.0 0.0],[ 170.39006740928735 169.0089863884242 169.00899118804182], [14.71081018447876]
[ 2.0 0.0 0.0],[ 170.39006740989188 169.0089863885323 169.00899118814925], [14.757935523986816]
[ 2.0 0.0 0.0],[ 170.39006741034584 169.0089863886128 169.00899118822952], [14.803400754928589]
[ 2.0 0.0 0.0],[ 170.3900674106872 169.00898638867324 169.00899118828917], [14.843915462493896]
[ 2.0 0.0 0.0],[ 170.39006741094323 169.00898638871809 169.00899118833377], [14.887851238250732]
[ 2.0 0.0 0.0],[ 170.39006741113565 169.0089863887519 169.00899118836745], [14.928807258605957]
[ 2.0 0.0 0.0],[ 170.3900674112803 169.00898638877675 169.0089911883922], [14.967900514602661]
[ 2.0 0.0 0.0],[ 170.39006741138877 169.00898638879565 169.0089911884109], [15.008795738220215]
[ 2.0 0.0 0.0],[ 170.3900674114704 169.00898638880952 169.0089911884246], [15.051676273345947]
[ 3.0 0.0 0.0],[ 170.3900674115315 169.00898638881995 169.00899118843495], [15.092911005020142]
[ 3.0 0.0 0.0],[ 170.39006741157775 169.00898638882765 169.00899118844262], [15.141385316848755]
[ 3.0 0.0 0.0],[ 170.59098787616864 169.04667717557624 169.04668206560987], [15.183127403259277]
[ 3.0 0.0 0.0],[ 170.74795634618843 169.07093970570264 169.07094439064508], [15.225589275360107]
[ 3.0 0.0 0.0],[ 170.86538736635183 169.0882292573606 169.08823345118302], [15.27123475074768]
[ 3.0 0.0 0.0],[ 170.9528013782384 169.10090322969046 169.10090673100362], [15.320116996765137]
[ 3.0 0.0 0.0],[ 171.01789299351884 169.1102970376189 169.11029972483738], [15.364099264144897]
[ 3.0 0.0 0.0],[ 171.06640817099424 169.1173033698348 169.11730518645152], [15.409913778305054]
[ 3.0 0.0 0.0],[ 171.10259919883518 169.12255056537919 169.12255150468224], [15.451980352401733]
[ 3.0 0.0 0.0],[ 171.12961570738608 169.12649114664035 169.12649123773284], [15.49191164970398]
[ 3.0 0.0 0.0],[ 171.1497950842174 169.12945577545673 169.12945507132105], [15.535288095474243]
[ 3.0 0.0 0.0],[ 171.16487486198747 169.13168859520127 169.13168716307328], [15.582838773727417]
[ 3.0 0.0 0.0],[ 171.1761483904141 169.13337123509206 169.13336914908868], [15.63283109664917]
[ 3.0 0.0 0.0],[ 171.1845793996958 169.1346395466762 169.1346368824276], [15.677150249481201]
[ 3.0 0.0 0.0],[ 171.1908866054003 169.13559552164836 169.13559235260254], [15.719675779342651]
[ 3.0 0.0 0.0],[ 171.1956063601027 169.1363159226807 169.13631231773394], [15.760222911834717]
[ 3.0 0.0 0.0],[ 171.19913914605155 169.13685861607286 169.1368546382049], [15.807531833648682]
[ 3.0 0.0 0.0],[ 171.201784132644 169.1372672639695 169.1372629696127], [15.84880518913269]
[ 3.0 0.0 0.0],[ 171.20376489500327 169.1375748259977 169.1375702649176], [15.891982555389404]
[ 3.0 0.0 0.0],[ 171.20524857337483 169.1378061856332 169.13780140114653], [15.937547445297241]
[ 3.0 0.0 0.0],[ 171.2063601574165 169.13798012687906 169.13797515628224], [15.980275630950928]
[ 3.0 0.0 0.0],[ 171.20719314265952 169.13811082534664 169.13810570045882], [16.02407431602478]
[ 3.0 0.0 0.0],[ 171.20781748470904 169.13820897459865 169.13820372235264], [16.066373348236084]
[ 3.0 0.0 0.0],[ 171.2082855390737 169.1382826376304 169.13827728066846], [16.10790467262268]
[ 3.0 0.0 0.0],[ 171.20863649846635 169.1383378907756 169.13833244801887], [16.154276847839355]
[ 3.0 0.0 0.0],[ 171.20889970878224 169.13837931063966 169.13837379781674], [16.197370290756226]
[ 3.0 0.0 0.0],[ 171.20909714787916 169.1384103422547 169.13840477237952], [16.24074125289917]
[ 3.0 0.0 0.0],[ 171.20924527905362 169.13843357732773 169.13842796112195], [16.281951665878296]
[ 3.0 0.0 0.0],[ 171.20935643731713 169.13845096444086 169.1384453107056], [16.32854413986206]
[ 3.0 0.0 0.0],[ 171.20943986650153 169.1384639677635 169.13845828369782], [16.372105836868286]
[ 3.0 0.0 0.0],[ 171.20950249531828 169.1384736868168 169.13846797829066], [16.416881561279297]
[ 3.0 0.0 0.0],[ 171.20954951821935 169.13848094679403 169.13847521858114], [16.458361387252808]
[ 3.0 0.0 0.0],[ 171.20958483025066 169.13848636663866 169.13848062260988], [16.505474090576172]
[ 3.0 0.0 0.0],[ 171.2096113526697 169.13849041031753 169.13848465360496], [16.550788402557373]
[ 3.0 0.0 0.0],[ 171.20963127681952 169.1384934254216 169.13848765855352], [16.593092918395996]
[ 3.0 0.0 0.0],[ 171.20964624681935 169.13849567220285 169.13848989721578], [16.638020515441895]
[ 3.0 0.0 0.0],[ 171.20965749644938 169.13849734540491 169.13849156393633], [16.68071150779724]
[ 3.0 0.0 0.0],[ 171.20966595173434 169.13849859066778 169.1384928040319], [16.722890853881836]
[ 3.0 0.0 0.0],[ 171.20967230783728 169.13849951684423 169.13849372609405], [16.766281366348267]
[ 3.0 0.0 0.0],[ 171.20967708670952 169.1385002052443 169.13849441122198], [16.810234308242798]
[ 3.0 0.0 0.0],[ 171.20968068031866 169.1385007165684 169.13849491994708], [16.853333950042725]
[ 3.0 0.0 0.0],[ 171.20968338307128 169.13850109610405 169.13849529742038], [16.896680116653442]
[ 3.0 0.0 0.0],[ 171.2096854161352 169.1385013776195 169.13849557730092], [16.939735889434814]
[ 3.0 0.0 0.0],[ 171.20968694568677 169.13850158627784 169.13849578466463], [16.979581594467163]
[ 3.0 0.0 0.0],[ 171.20968809660556 169.13850174081878 169.13849593818136], [17.03199601173401]
[ 3.0 0.0 0.0],[ 171.2096889627533 169.13850185518956 169.13849605174258], [17.075292348861694]
[ 3.0 0.0 0.0],[ 171.20968961468947 169.13850193976378 169.1384961356773], [17.11456322669983]
[ 3.0 0.0 0.0],[ 171.2096901054652 169.13850200225215 169.138496197661], [17.162253618240356]
[ 3.0 0.0 0.0],[ 171.20969047497474 169.1385020483818 169.1384962433929], [17.206486701965332]
[ 3.0 0.0 0.0],[ 171.2096907532222 169.13850208240484 169.1384962771023], [17.24642014503479]
[ 3.0 0.0 0.0],[ 171.20969096277813 169.13850210747486 169.13849630192533], [17.291518688201904]
[ 4.0 0.0 0.0],[ 171.20969112062258 169.1385021259292 169.1384963201853], [17.333484649658203]
[ 4.0 0.0 0.0],[ 171.20969123953319 169.13850213949985 169.1384963336032], [17.373894691467285]
[ 4.0 0.0 0.0],[ 171.4105042984571 169.17620769681665 169.1762020979628], [17.42070508003235]
[ 4.0 0.0 0.0],[ 171.56728046625238 169.20051607882502 169.2005100446983], [17.470323085784912]
[ 4.0 0.0 0.0],[ 171.6845368594763 169.2178581004584 169.2178510471125], [17.510295629501343]
[ 4.0 0.0 0.0],[ 171.77181982267425 169.23057779638958 169.2305693410233], [17.550946950912476]
[ 4.0 0.0 0.0],[ 171.83682565097496 169.2400051657366 169.23999509772676], [17.591610193252563]
[ 4.0 0.0 0.0],[ 171.8852941719045 169.24703182668142 169.24702006534554], [17.631144523620605]
[ 4.0 0.0 0.0],[ 171.92146938722456 169.25228734967217 169.2522739073443], [17.67222309112549]
[ 4.0 0.0 0.0],[ 171.94849274969073 169.2562265211087 169.25621147309556], [17.71250009536743]
[ 4.0 0.0 0.0],[ 171.96869450318783 169.25918252566265 169.2591659866928], [17.758923292160034]
[ 4.0 0.0 0.0],[ 171.98380637024508 169.26140186050972 169.26138396691726], [17.79926824569702]
[ 4.0 0.0 0.0],[ 171.99511721879722 169.26306814101764 169.26304903777125], [17.83877468109131]
[ 4.0 0.0 0.0],[ 172.00358748057786 169.2643187783655 169.2642986100276], [17.885321378707886]
[ 4.0 0.0 0.0],[ 172.00993355939102 169.26525691556867 169.26523582033016], [17.932148456573486]
[ 4.0 0.0 0.0],[ 172.0146902808789 169.26596011308487 169.2659382191241], [17.976380586624146]
[ 4.0 0.0 0.0],[ 172.01825720084318 169.26648674851847 169.26646417206769], [18.019815921783447]
[ 4.0 0.0 0.0],[ 172.02093300534233 169.26688077481208 169.26685761942156], [18.061725616455078]
[ 4.0 0.0 0.0],[ 172.02294110101246 169.26717528026606 169.2671516368881], [18.105398893356323]
[ 4.0 0.0 0.0],[ 172.02444867363985 169.26739516329485 169.26737111088838], [18.150527715682983]
[ 4.0 0.0 0.0],[ 172.02558089564965 169.2675591473474 169.26753475379238], [18.195250988006592]
[ 4.0 0.0 0.0],[ 172.02643152576826 169.26768130104492 169.26765662421482], [18.236435651779175]
[ 4.0 0.0 0.0],[ 172.02707082251635 169.26777218583393 169.26774727471846], [18.28311848640442]
[ 4.0 0.0 0.0],[ 172.02755145587025 169.26783972251914 169.26781461833227], [18.32690930366516]
[ 4.0 0.0 0.0],[ 172.0279129259215 169.2678898453641 169.26786458258815], [18.369088172912598]
[ 4.0 0.0 0.0],[ 172.0281848672735 169.26792699555384 169.26790160290062], [18.41298794746399]
[ 4.0 0.0 0.0],[ 172.02838952132237 169.26795449320085 169.26792899447352], [18.457529067993164]
[ 4.0 0.0 0.0],[ 172.0285435867954 169.26797481753815 169.26794923239422], [18.499565601348877]
[ 4.0 0.0 0.0],[ 172.02865960549784 169.2679898177589 169.26796416237624], [18.547891855239868]
[ 4.0 0.0 0.0],[ 172.02874700042992 169.26800087151082 169.26797515916053], [18.595833778381348]
[ 4.0 0.0 0.0],[ 172.02881285379416 169.26800900391032 169.2679832454483], [18.640296697616577]
[ 4.0 0.0 0.0],[ 172.02886249028688 169.2680149768186 169.26798918110094], [18.68247890472412]
[ 4.0 0.0 0.0],[ 172.02889991457937 169.2680193557354 169.26799352996915], [18.72404170036316]
[ 4.0 0.0 0.0],[ 172.02892813954804 169.26802255986598 169.26799670990331], [18.770578622817993]
[ 4.0 0.0 0.0],[ 172.02894943264104 169.26802489955207 169.26799903013486], [18.816768884658813]
[ 4.0 0.0 0.0],[ 172.02896550084898 169.268026604225 169.2680007191879], [18.860061407089233]
[ 4.0 0.0 0.0],[ 172.02897762964355 169.26802784325577 169.26800194569446], [18.90630269050598]
[ 4.0 0.0 0.0],[ 172.02898678736415 169.26802874148862 169.2680028338983], [18.94758129119873]
[ 4.0 0.0 0.0],[ 172.0289937036801 169.26802939080312 169.26800347519048], [18.9926598072052]
[ 4.0 0.0 0.0],[ 172.02899892858105 169.2680298587048 169.26800393668282], [19.036835432052612]
[ 4.0 0.0 0.0],[ 172.02900287674527 169.26803019470333 169.26800426756606], [19.079036712646484]
[ 4.0 0.0 0.0],[ 172.02900586092156 169.2680304350433 169.26800450382765], [19.122238397598267]
[ 4.0 0.0 0.0],[ 172.02900811705098 169.26803060620406 169.26800467174], [19.168365478515625]
[ 4.0 0.0 0.0],[ 172.02900982318081 169.26803072748953 169.26800479044024], [19.209079027175903]
[ 5.0 0.0 0.0],[ 172.02901111370707 169.26803081293986 169.268004873835], [19.25244426727295]
[ 5.0 0.0 0.0],[ 172.0290120901042 169.2680308727413 169.26800493200338], [19.30466651916504]
[ 5.0 0.0 0.0],[ 172.22969050517955 169.3057624907316 169.3057369244137], [19.34580421447754]
[ 5.0 0.0 0.0],[ 172.3862349992906 169.33013428545425 169.33010798400645], [19.391098022460938]
[ 5.0 0.0 0.0],[ 172.50327958759883 169.34754648410538 169.34751847344543], [19.432403326034546]
[ 5.0 0.0 0.0],[ 172.59040282440822 169.3603262888833 169.36029595693816], [19.47407579421997]
[ 5.0 0.0 0.0],[ 172.65530428314293 169.36979701347107 169.36976404291536], [19.515392065048218]
[ 5.0 0.0 0.0],[ 172.70371694461838 169.37684923429427 169.3768135207804], [19.562126636505127]
[ 5.0 0.0 0.0],[ 172.73987485237868 169.38211441639137 169.38207600208762], [19.601728916168213]
[ 5.0 0.0 0.0],[ 172.7669093733193 169.38605049715864 169.38600951970994], [19.649898529052734]
[ 5.0 0.0 0.0],[ 172.78714181986186 169.38899406832755 169.38895072267294], [19.697041511535645]
[ 5.0 0.0 0.0],[ 172.80229659042124 169.39119475372712 169.39114926429303], [19.73913311958313]
[ 5.0 0.0 0.0],[ 172.81365687341625 169.39283877731359 169.3927913783978], [19.782999515533447]
[ 5.0 0.0 0.0],[ 172.8221789062743 169.3940655806165 169.39401650309537], [19.825098276138306]
[ 5.0 0.0 0.0],[ 172.828576146985 169.39497979379246 169.3949292565939], [19.867536544799805]
[ 5.0 0.0 0.0],[ 172.83338147359538 169.39565999961022 169.39560820469143], [19.91046643257141]
[ 5.0 0.0 0.0],[ 172.83699326069487 169.39616522447818 169.39611235430831], [19.953656911849976]
[ 5.0 0.0 0.0],[ 172.83970957999944 169.39653978453063 169.3964860013094], [19.995527267456055]
[ 5.0 0.0 0.0],[ 172.8417536272584 169.39681692246293 169.39676236849377], [20.036056756973267]
[ 5.0 0.0 0.0],[ 172.84329265196016 169.39702154540538 169.39696634419406], [20.082283973693848]
[ 5.0 0.0 0.0],[ 172.84445206642954 169.3971722894108 169.39711654718124], [20.12442708015442]
[ 5.0 0.0 0.0],[ 172.8453259726315 169.3972830770803 169.39722688449032], [20.167116165161133]
[ 5.0 0.0 0.0],[ 172.8459850233644 169.39736429257925 169.39730772648844], [20.209158897399902]
[ 5.0 0.0 0.0],[ 172.84648229770627 169.39742366743604 169.39736679262776], [20.25261425971985]
[ 5.0 0.0 0.0],[ 172.84685769568057 169.39746694762806 169.3974098184288], [20.293691635131836]
[ 5.0 0.0 0.0],[ 172.84714122771663 169.3974983953302 169.39744105709175], [20.336914539337158]
[ 5.0 0.0 0.0],[ 172.84735547853603 169.39752116576196 169.3974636561905], [20.378632068634033]
[ 5.0 0.0 0.0],[ 172.847517453878 169.39753758979614 169.39747994012737], [20.425034046173096]
[ 5.0 0.0 0.0],[ 172.84763996552527 169.39754938554796 169.3974916215724], [20.475379705429077]
[ 5.0 0.0 0.0],[ 172.84773267070238 169.397557816525 169.39749995947267], [20.517455339431763]
[ 5.0 0.0 0.0],[ 172.8478028525642 169.39756380962936 169.39750587692973], [20.559322118759155]
[ 5.0 0.0 0.0],[ 172.84785600660285 169.39756804304778 169.3975100489731], [20.602198362350464]
[ 5.0 0.0 0.0],[ 172.84789628149653 169.3975710115901 169.3975129678008], [20.644440412521362]
[ 5.0 0.0 0.0],[ 172.84792681070982 169.39757307517252 169.39751499117466], [20.68723440170288]
[ 5.0 0.0 0.0],[ 172.84794996205662 169.39757449472077 169.3975163782494], [20.72980308532715]
[ 5.0 0.0 0.0],[ 172.84796752562613 169.3975754587061 169.39751731604295], [20.769246816635132]
[ 5.0 0.0 0.0],[ 172.84798085536534 169.3975761027132 169.39751793895175], [20.813059329986572]
[ 6.0 0.0 0.0],[ 172.84799097580492 169.3975765238392 169.39751834310184], [20.854841709136963]
[ 6.0 0.0 0.0],[ 172.84799866255327 169.3975767912618 169.39751859688067], [20.898703575134277]
[ 6.0 0.0 0.0],[ 173.04851935612496 169.43534586388242 169.43528825784415], [20.942302703857422]
[ 6.0 0.0 0.0],[ 173.2047962735841 169.45979856001446 169.4597398567455], [20.9855477809906]
[ 6.0 0.0 0.0],[ 173.3215947205235 169.4772984450511 169.47723719914507], [21.02512216567993]
[ 6.0 0.0 0.0],[ 173.40853178041996 169.49015250364494 169.4900878333918], [21.066565990447998]
[ 6.0 0.0 0.0],[ 173.47331193633116 169.49967616342877 169.4996076310779], [21.10682249069214]
[ 6.0 0.0 0.0],[ 173.52166067406466 169.5067590286508 169.5066865077847], [21.14668107032776]
[ 6.0 0.0 0.0],[ 173.55780049327146 169.51203513628207 169.5119587087295], [21.1895592212677]
[ 6.0 0.0 0.0],[ 173.58485085870723 169.51596645682483 169.51588633642297], [21.228574514389038]
[ 6.0 0.0 0.0],[ 173.60512245141047 169.51889385770588 169.51881033506106], [21.268922328948975]
[ 6.0 0.0 0.0],[ 173.62033090918382 169.52107084264898 169.52098424596525], [21.31512761116028]
[ 6.0 0.0 0.0],[ 173.63175260728784 169.52268684745857 169.52259751552324], [21.356863975524902]
[ 6.0 0.0 0.0],[ 173.64033874300785 169.5238837984458 169.5237920626977], [21.40165138244629]
[ 6.0 0.0 0.0],[ 173.6467992312378 169.5247681363477 169.5246743096061], [21.443592309951782]
[ 6.0 0.0 0.0],[ 173.65166460699848 169.5254196823656 169.52532405236377], [21.485727310180664]
[ 6.0 0.0 0.0],[ 173.65533182467541 169.52589824432516 169.5258010706146], [21.527787685394287]
[ 6.0 0.0 0.0],[ 173.65809821906518 169.526248571907 169.52615008506908], [21.56948494911194]
[ 6.0 0.0 0.0],[ 173.66018673565048 169.52650408799173 169.52640449036343], [21.612004041671753]
[ 6.0 0.0 0.0],[ 173.66176470506258 169.52668970370917 169.52658917104813], [21.654430866241455]
[ 6.0 0.0 0.0],[ 173.6629578335606 169.52682394326092 169.52672262693955], [21.696516275405884]
[ 6.0 0.0 0.0],[ 173.66386064194938 169.52692054701444 169.52681857645504], [21.741748332977295]
[ 6.0 0.0 0.0],[ 173.66454426366832 169.52698967961646 169.5268871647846], [21.785714626312256]
[ 6.0 0.0 0.0],[ 173.6650622764981 169.52703883904454 169.52693587285913], [21.827285766601562]
[ 6.0 0.0 0.0],[ 173.66545506823005 169.52707353933602 169.52697019993477], [21.87180185317993]
[ 6.0 0.0 0.0],[ 173.665753108045 169.5270978222946 169.52699417510215], [21.915982007980347]
[ 6.0 0.0 0.0],[ 173.6659794002044 169.527114640149 169.52701073973626], [21.958691358566284]
[ 6.0 0.0 0.0],[ 173.66615132610252 169.52712614104672 169.52702203277292], [22.003241300582886]
[ 6.0 0.0 0.0],[ 173.6662820283684 169.52713388152202 169.52702960297233], [22.04468846321106]
[ 6.0 0.0 0.0],[ 173.6663814517485 169.52713898421857 169.5270345664473], [22.09117603302002]
[ 6.0 0.0 0.0],[ 173.6664571265388 169.527142254654 169.52703772325287], [22.1348979473114]
[ 6.0 0.0 0.0],[ 173.66651475871674 169.52714426742614 169.5270396434349], [22.176819801330566]
[ 6.0 0.0 0.0],[ 173.66655867482902 169.5271454296635 169.52704073034204], [22.218903303146362]
[ 6.0 0.0 0.0],[ 173.66659215763548 169.52714602758658 169.52704126706462], [22.262934923171997]
[ 6.0 0.0 0.0],[ 173.6666176995289 169.52714626055715 169.52704145038103], [22.306608200073242]
[ 6.0 0.0 0.0],[ 173.66663719401978 169.52714626588988 169.52704141547716], [22.35027503967285]
[ 6.0 0.0 0.0],[ 173.66665208052157 169.52714613686015 169.52704125388075], [22.39395809173584]
[ 6.0 0.0 0.0],[ 173.66666345391084 169.52714593571613 169.52704102640806], [22.4364275932312]
[ 6.0 0.0 0.0],[ 173.66667214748307 169.52714570304389 169.5270407724708], [22.47732663154602]
[ 7.0 0.0 0.0],[ 173.66667879581226 169.52714546445574 169.52704051672458], [22.52444362640381]
[ 7.0 0.0 0.0],[ 173.66668388241033 169.52714523535437 169.52704027379218], [22.571707248687744]
[ 7.0 0.0 0.0],[ 173.86701241859015 169.56496220315213 169.56485811136966], [22.612704038619995]
[ 7.0 0.0 0.0],[ 174.02297769755975 169.58951259550642 169.58940701042565], [22.657718658447266]
[ 7.0 0.0 0.0],[ 174.13948977776482 169.60711714371988 169.60700807498526], [22.702136278152466]
[ 7.0 0.0 0.0],[ 174.226209847817 169.62005920212144 169.6199454624523], [22.74228310585022]
[ 7.0 0.0 0.0],[ 174.29084841305342 169.62964511484478 169.62952613364493], [22.788134336471558]
[ 7.0 0.0 0.0],[ 174.33912247768546 169.63676358397424 169.6366392132355], [22.832075595855713]
[ 7.0 0.0 0.0],[ 174.37524120184344 169.64205188339665 169.64192225169978], [22.87280535697937]
[ 7.0 0.0 0.0],[ 174.40231020707276 169.64597687555676 169.64584228311185], [22.91357445716858]
[ 7.0 0.0 0.0],[ 174.42262777144617 169.64888454355335 169.64874538799006], [22.96037268638611]
[ 7.0 0.0 0.0],[ 174.4378992949624 169.65103299537935 169.65088972020243], [23.00104570388794]
[ 7.0 0.0 0.0],[ 174.4493931818501 169.6526154564054 169.6524685160755], [23.04398512840271]
[ 7.0 0.0 0.0],[ 174.4580547267562 169.65377677176875 169.65362660887666], [23.092833757400513]
[ 7.0 0.0 0.0],[ 174.4645896901178 169.6546255014612 169.65447253261075], [23.134409427642822]
[ 7.0 0.0 0.0],[ 174.46952585453081 169.6552429117503 169.65508751960013], [23.177034616470337]
[ 7.0 0.0 0.0],[ 174.47325850045416 169.65568971945555 169.65553224904448], [23.22156524658203]
[ 7.0 0.0 0.0],[ 174.4760840876615 169.65601117659767 169.65585193456394], [23.264806747436523]
[ 7.0 0.0 0.0],[ 174.47822525608413 169.65624091298133 169.6560801686672], [23.310123443603516]
[ 7.0 0.0 0.0],[ 174.47984941918062 169.65640384163396 169.65624182934792], [23.356815576553345]
[ 7.0 0.0 0.0],[ 174.48108261609354 169.65651835402952 169.6563552759545], [23.404543161392212]
[ 7.0 0.0 0.0],[ 174.482019848063 169.65659797609464 169.65643400548822], [23.450570106506348]
[ 7.0 0.0 0.0],[ 174.48273280288097 169.65665261478298 169.65648789922759], [23.495422840118408]
[ 7.0 0.0 0.0],[ 174.48327563550558 169.6566894940901 169.65652415864093], [23.542343854904175]
[ 7.0 0.0 0.0],[ 174.48368929976365 169.65671385593365 169.65654800606922], [23.590845108032227]
[ 7.0 0.0 0.0],[ 174.4840047984725 169.6567294834059 169.6565632077272], [23.636046409606934]
[ 7.0 0.0 0.0],[ 174.4842456250329 169.65673909018787 169.65657246284587], [23.682734966278076]
[ 7.0 0.0 0.0],[ 174.48442959982398 169.6567446094056 169.65657769225285], [23.729321002960205]
[ 7.0 0.0 0.0],[ 174.48457025300803 169.65674740714812 169.65658025162364], [23.777902126312256]
[ 7.0 0.0 0.0],[ 174.48467786695062 169.6567484397206 169.65658108848666], [23.82400107383728]
[ 7.0 0.0 0.0],[ 174.4847602629032 169.65674836900396 169.65658085735566], [23.871503353118896]
[ 7.0 0.0 0.0],[ 174.4848233953238 169.65674764673267 169.65658000380384], [23.915042638778687]
[ 7.0 0.0 0.0],[ 174.48487180133583 169.65674657577782 169.65657882556562], [23.96112823486328]
[ 7.0 0.0 0.0],[ 174.4849089409834 169.656745354492 169.65657751672592], [24.009477615356445]
[ 7.0 0.0 0.0],[ 174.48493745506357 169.6567441086211 169.65657619949113], [24.056204795837402]
[ 7.0 0.0 0.0],[ 174.4849593606961 169.6567429141169 169.65657494688705], [24.10113501548767]
[ 7.0 0.0 0.0],[ 174.48497619980125 169.6567418133384 169.65657379886045], [24.14655065536499]
[ 7.0 0.0 0.0],[ 174.48498915192857 169.65674082645668 169.65657277359415], [24.196210384368896]
[ 7.0 0.0 0.0],[ 174.48499912007583 169.65673995940227 169.65657187538605], [24.242570400238037]
[ 7.0 0.0 0.0],[ 174.48500679601523 169.65673920934276 169.65657110006418], [24.289198875427246]
[ 7.0 0.0 0.0],[ 174.48501271006768 169.6567385683949 169.65657043864925], [24.335549116134644]
[ 7.0 0.0 0.0],[ 174.48501726905246 169.65673802609982 169.65656987978537], [24.384029150009155]
[ 7.0 0.0 0.0],[ 174.48502078525266 169.65673757102547 169.65656941130783], [24.42890954017639]
[ 7.0 0.0 0.0],[ 174.48502349853393 169.6567371917694 169.6565690212168], [24.47541856765747]
[ 7.0 0.0 0.0],[ 174.48502559325033 169.65673687755086 169.65656869824622], [24.520697593688965]
[ 7.0 0.0 0.0],[ 174.48502721117492 169.6567366185318 169.65656843216112], [24.571146965026855]
[ 7.0 0.0 0.0],[ 174.4850284614003 169.65673640595304 169.6565682138813], [24.618415594100952]
[ 7.0 0.0 0.0],[ 174.48502942791455 169.6567362321611 169.65656803549209], [24.663554668426514]
[ 7.0 0.0 0.0],[ 174.48503017541844 169.65673609056324 169.65656789018945], [24.70912456512451]
[ 7.0 0.0 0.0],[ 174.48503075377673 169.65673597554627 169.65656777218788], [24.75396728515625]
[ 7.0 0.0 0.0],[ 174.48503120144247 169.65673588237343 169.6565676766123], [24.798052549362183]
[ 7.0 0.0 0.0],[ 174.48503154808273 169.65673580708153 169.65656759938642], [24.844433307647705]
[ 7.0 0.0 0.0],[ 174.48503181659635 169.65673574637265 169.65656753712216], [24.889638900756836]
[ 7.0 0.0 0.0],[ 174.48503202466694 169.65673569752047 169.6565674870194], [24.934563636779785]
[ 7.0 0.0 0.0],[ 174.4850321859576 169.6567356582815 169.65656744677463], [24.97969651222229]
[ 7.0 0.0 0.0],[ 174.4850323110269 169.65673562681616 169.65656741450152], [25.02509832382202]
[ 7.0 0.0 0.0],[ 174.48503240804237 169.65673560162347 169.65656738865988], [25.06969690322876]
[ 7.0 0.0 0.0],[ 174.4850324833193 169.6567355814813 169.65656736799644], [25.116103887557983]
[ 7.0 0.0 0.0],[ 174.4850325417475 169.65673556539812 169.65656735149466], [25.16092824935913]
[ 7.0 0.0 0.0],[ 174.48503258711168 169.65673555257032 169.65656733833237], [25.20526099205017]
[ 7.0 0.0 0.0],[ 174.4850326223422 169.65673554235184 169.6565673278448], [25.249438524246216]
[ 7.0 0.0 0.0],[ 174.48503264971131 169.65673553421954 169.65656731949656], [25.29462742805481]
[ 7.0 0.0 0.0],[ 174.4850326709787 169.65673552775337 169.65656731285782], [25.339033603668213]
[ 8.0 0.0 0.0],[ 174.4850326875081 169.65673552261725 169.65656730758275], [25.38549017906189]
[ 8.0 0.0 0.0],[ 174.4850327003595 169.65673551854061 169.65656730339498], [25.4345862865448]
[ 8.0 0.0 0.0],[ 174.68514013476482 169.69461189907088 169.69444490795198], [25.480336904525757]
[ 8.0 0.0 0.0],[ 174.8407542355895 169.71927741226872 169.7191085144258], [25.527282238006592]
[ 8.0 0.0 0.0],[ 174.95694338888205 169.73700390550613 169.7368305024894], [25.572062969207764]
[ 8.0 0.0 0.0],[ 175.0434184956699 169.75004784155936 169.74986841095546], [25.617110013961792]
[ 8.0 0.0 0.0],[ 175.10789725144025 169.75970540484926 169.75951923343973], [25.660751581192017]
[ 8.0 0.0 0.0],[ 175.15608728471065 169.76686453983453 169.76667145841165], [25.704959869384766]
[ 8.0 0.0 0.0],[ 175.19218273707807 169.77216645508412 169.77196664417934], [25.749677896499634]
[ 8.0 0.0 0.0],[ 175.21927356990702 169.7760837673358 169.77587762077042], [25.79403257369995]
[ 8.0 0.0 0.0],[ 175.2396440051491 169.77896840218648 169.7787564325215], [25.839367389678955]
[ 8.0 0.0 0.0],[ 175.2549878321333 169.78108377621453 169.7808665502012], [25.88469123840332]
[ 8.0 0.0 0.0],[ 175.26656441228522 169.7826274615153 169.78240555699554], [25.929908275604248]
[ 8.0 0.0 0.0],[ 175.27531234207058 169.78374763855572 169.78352161663682], [25.976715087890625]
[ 8.0 0.0 0.0],[ 175.2819326650486 169.78455528225095 169.7843256702983], [26.025246381759644]
[ 8.0 0.0 0.0],[ 175.2869500352977 169.78513330227273 169.78490058444942], [26.071168422698975]
[ 8.0 0.0 0.0],[ 175.2907578261241 169.78554344791968 169.78530806093028], [26.118232488632202]
[ 8.0 0.0 0.0],[ 175.29365149477195 169.78583154161973 169.78559387393062], [26.16487455368042]
[ 8.0 0.0 0.0],[ 175.29585332367046 169.78603144857752 169.78579184189996], [26.214479207992554]
[ 8.0 0.0 0.0],[ 175.29753080913522 169.78616808497668 169.78592683712463], [26.260109186172485]
[ 8.0 0.0 0.0],[ 175.29881035732257 169.78625969297275 169.78601706149345], [26.306912183761597]
[ 8.0 0.0 0.0],[ 175.29978750494115 169.78631955652313 169.7860757626626], [26.353675603866577]
[ 8.0 0.0 0.0],[ 175.30053456057217 169.78635729136485 169.78611252409664], [26.403974771499634]
[ 8.0 0.0 0.0],[ 175.30110632754452 169.78637981146483 169.78613423138682], [26.450096368789673]
[ 8.0 0.0 0.0],[ 175.30154439718407 169.78639205038166 169.78614579337062], [26.49552893638611]
[ 8.0 0.0 0.0],[ 175.30188037475733 169.78639749757454 169.78615067814], [26.54192090034485]
[ 8.0 0.0 0.0],[ 175.30213830719896 169.7863985954912 169.78615130979435], [26.59105610847473]
[ 8.0 0.0 0.0],[ 175.30233651289018 169.78639703228475 169.7861493608218], [26.63698434829712]
[ 8.0 0.0 0.0],[ 175.30248896276473 169.7863939565876 169.7861459665486], [26.68347668647766]
[ 8.0 0.0 0.0],[ 175.30260632423494 169.78639013431143 169.78614188163317], [26.731152057647705]
[ 8.0 0.0 0.0],[ 175.30269675134014 169.7863860624982 169.78613759363577], [26.779930114746094]
[ 8.0 0.0 0.0],[ 175.3027664836099 169.78638205147587 169.78613340492868], [26.82615852355957]
[ 8.0 0.0 0.0],[ 175.30282030054 169.78637828375903 169.7861294913678], [26.872968435287476]
[ 8.0 0.0 0.0],[ 175.30286186691373 169.78637485593626 169.78612594398842], [26.919362783432007]
[ 8.0 0.0 0.0],[ 175.30289399552967 169.78637180820098 169.78612279835912], [26.968534469604492]
[ 8.0 0.0 0.0],[ 175.3029188473049 169.78636914493708 169.78612005502666], [27.0144259929657]
[ 8.0 0.0 0.0],[ 175.30293808387142 169.78636684889568 169.78611769356334], [27.06111764907837]
[ 8.0 0.0 0.0],[ 175.3029529840651 169.7863648907884 169.78611568205267], [27.106832027435303]
[ 8.0 0.0 0.0],[ 175.3029645329584 169.78636323564876 169.78611398335914], [27.155010223388672]
[ 8.0 0.0 0.0],[ 175.30297348996686 169.78636184692894 169.7861125591483], [27.202144861221313]
[ 8.0 0.0 0.0],[ 175.30298044101363 169.78636068902705 169.78611137234748], [27.248035192489624]
[ 8.0 0.0 0.0],[ 175.3029858385152 169.78635972874972 169.78611038855658], [27.29456114768982]
[ 8.0 0.0 0.0],[ 175.30299003206335 169.78635893605954 169.7861095767478], [27.343274116516113]
[ 8.0 0.0 0.0],[ 175.3029932919913 169.78635828435944 169.78610890951322], [27.3903865814209]
[ 8.0 0.0 0.0],[ 175.3029958274904 169.78635775048298 169.78610836302138], [27.435641050338745]
[ 8.0 0.0 0.0],[ 175.30299780054693 169.78635731450967 169.7861079168096], [27.48111343383789]
[ 8.0 0.0 0.0],[ 175.30299933667902 169.78635695948807 169.7861075534829], [27.530186414718628]
[ 8.0 0.0 0.0],[ 175.30300053320695 169.78635667111683 169.7861072583786], [27.579299926757812]
[ 8.0 0.0 0.0],[ 175.30300146563357 169.7863564374149 169.78610701922074], [27.620834350585938]
[ 8.0 0.0 0.0],[ 175.30300219256924 169.7863562484079 169.78610682579418], [27.662691354751587]
[ 8.0 0.0 0.0],[ 175.3030027595408 169.78635609583282 169.78610666964119], [27.710216522216797]
[ 8.0 0.0 0.0],[ 175.30300320192856 169.78635597287555 169.7861065437886], [27.751063346862793]
[ 8.0 0.0 0.0],[ 175.3030035472427 169.78635587394103 169.7861064425118], [27.795030117034912]
[ 8.0 0.0 0.0],[ 175.30300381688525 169.78635579444907 169.78610636112552], [27.835449695587158]
[ 8.0 0.0 0.0],[ 175.3030040275152 169.78635573066185 169.78610629580686], [27.874634504318237]
[ 8.0 0.0 0.0],[ 175.30300419210445 169.78635567953793 169.78610624344606], [27.914631128311157]
[ 8.0 0.0 0.0],[ 175.30300432076106 169.7863556386093 169.7861062015177], [27.954190254211426]
[ 8.0 0.0 0.0],[ 175.30300442136178 169.78635560587605 169.78610616797695], [27.997976779937744]
[ 8.0 0.0 0.0],[ 175.30300450004742 169.7863555797221 169.78610614117136], [28.040021896362305]
[ 8.0 0.0 0.0],[ 175.30300456161137 169.78635555884338 169.78610611976677], [28.081096649169922]
[ 9.0 0.0 0.0],[ 175.3030046097933 169.78635554218974 169.78610610268822], [28.12556767463684]
[ 9.0 0.0 0.0],[ 175.30300464751224 169.78635552891575 169.78610608907218], [28.171284198760986]
[ 9.0 0.0 0.0],[ 175.50286829122726 169.82430210385257 169.8240542968948], [28.213374376296997]
[ 9.0 0.0 0.0],[ 175.6580969508518 169.849099320589 169.84884917438328], [28.255895614624023]
[ 9.0 0.0 0.0],[ 175.77393098785598 169.86696415076082 169.86670840991505], [28.300559043884277]
[ 9.0 0.0 0.0],[ 175.8601366238857 169.88012301472423 169.8798598012235], [28.341732263565063]
[ 9.0 0.0 0.0],[ 175.92443995221666 169.88986094681354 169.8895893997298], [28.387787103652954]
[ 9.0 0.0 0.0],[ 175.97253842169712 169.89706531991982 169.896785250782], [28.43095636367798]
[ 9.0 0.0 0.0],[ 176.00860959957956 169.90238197726396 169.90209362325675], [28.471648454666138]
[ 9.0 0.0 0.0],[ 176.03572610576913 169.9062901283763 169.90599398244643], [28.513261556625366]
[ 9.0 0.0 0.0],[ 176.0561565848533 169.90914843142335 169.90884512660367], [28.55817413330078]
[ 9.0 0.0 0.0],[ 176.0715819603405 169.9112262761548 169.91091650775718], [28.602187871932983]
[ 9.0 0.0 0.0],[ 176.08325157728632 169.91272610203373 169.9124105763323], [28.646939992904663]
[ 9.0 0.0 0.0],[ 176.09209661562517 169.9137998111997 169.9134792126464], [28.691107511520386]
[ 9.0 0.0 0.0],[ 176.09881289686308 169.91456106635695 169.91423603771864], [28.732850790023804]
[ 9.0 0.0 0.0],[ 176.10392161019996 169.91509460316695 169.91476573459215], [28.777029037475586]
[ 9.0 0.0 0.0],[ 176.10781401389355 169.91546331721403 169.9151311413925], [28.8216233253479]
[ 9.0 0.0 0.0],[ 176.11078444924775 169.91571366454355 169.915378655924], [28.863667011260986]
[ 9.0 0.0 0.0],[ 176.11305479502823 169.91587977297027 169.91554234959773], [28.908073902130127]
[ 9.0 0.0 0.0],[ 176.1147926304407 169.91598656429284 169.9156470912527], [28.954991340637207]
[ 9.0 0.0 0.0],[ 176.11612475903758 169.9160521175252 169.9157109112705], [28.99947500228882]
[ 9.0 0.0 0.0],[ 176.11714730210298 169.91608945072883 169.9157467838055], [29.04228162765503]
[ 9.0 0.0 0.0],[ 176.11793324851175 169.91610785883645 169.91576396467795], [29.085145711898804]
[ 9.0 0.0 0.0],[ 176.11853811403637 169.91611391362972 169.91576899120116], [29.131726503372192]
[ 9.0 0.0 0.0],[ 176.11900419218063 169.91611220768175 169.91576642584408], [29.174373626708984]
[ 9.0 0.0 0.0],[ 176.1193637533507 169.91610590510984 169.91575940663012], [29.217322826385498]
[ 9.0 0.0 0.0],[ 176.11964145712213 169.91609714718416 169.91575005235597], [29.256568431854248]
[ 9.0 0.0 0.0],[ 176.11985617448417 169.91608734939206 169.91573975926622], [29.29966902732849]
[ 9.0 0.0 0.0],[ 176.1200223668262 169.91607741770602 169.91572941692866], [29.343357801437378]
[ 9.0 0.0 0.0],[ 176.12015113127794 169.91606790497886 169.91571956428123], [29.384820222854614]
[ 9.0 0.0 0.0],[ 176.12025099444472 169.91605912322765 169.9157105015761], [29.428977012634277]
[ 9.0 0.0 0.0],[ 176.12032851607134 169.9160512235507 169.91570237000278], [29.471964120864868]
[ 9.0 0.0 0.0],[ 176.12038874885954 169.91604425247013 169.91569520775963], [29.51689839363098]
[ 9.0 0.0 0.0],[ 176.1204355892446 169.91603819117023 169.9156889890632], [29.563241720199585]
[ 9.0 0.0 0.0],[ 176.12047204539076 169.91603298245383 169.91568365089313], [29.60867190361023]
[ 9.0 0.0 0.0],[ 176.12050044220962 169.9160285489093 169.91567911098522], [29.656452655792236]
[ 9.0 0.0 0.0],[ 176.12052257844027 169.91602480487455 169.91567527964187], [29.706912755966187]
[ 9.0 0.0 0.0],[ 176.1205398471314 169.91602166405306 169.91567206721575], [29.751524448394775]
[ 9.0 0.0 0.0],[ 176.12055332819662 169.91601904412352 169.91566938861106], [29.796067476272583]
[ 9.0 0.0 0.0],[ 176.12056385958576 169.91601686932208 169.915667165763], [29.836116313934326]
[ 9.0 0.0 0.0],[ 176.12057209209024 169.91601507164603 169.9156653287749], [29.880368947982788]
[ 9.0 0.0 0.0],[ 176.12057853157958 169.91601359120133 169.915663816185], [29.922138690948486]
[ 9.0 0.0 0.0],[ 176.12058357160862 169.91601237598945 169.9156625747047], [29.96538257598877]
[ 9.0 0.0 0.0],[ 176.12058751859885 169.91601138138506 169.91566155864678], [30.00740623474121]
[ 9.0 0.0 0.0],[ 176.12059061131507 169.9160105694443 169.91566072919628], [30.052627563476562]
[ 9.0 0.0 0.0],[ 176.12059303594148 169.91600990816116 169.9156600536278], [30.09281039237976]
[ 9.0 0.0 0.0],[ 176.12059493776826 169.91600937070464 169.91565950452403], [30.1361346244812]
[ 9.0 0.0 0.0],[ 176.12059643024978 169.91600893471454 169.91565905904102], [30.17583703994751]
[ 9.0 0.0 0.0],[ 176.1205976020399 169.91600858164153 169.91565869823424], [30.220627546310425]
[ 9.0 0.0 0.0],[ 176.12059852245736 169.91600829616215 169.9156584064574], [30.265642642974854]
[ 9.0 0.0 0.0],[ 176.12059924573555 169.91600806566532 169.91565817083384], [30.312087297439575]
[ 9.0 0.0 0.0],[ 176.12059981433197 169.91600787980286 169.9156579808005], [30.35829520225525]
[ 9.0 0.0 0.0],[ 176.12060026150317 169.9160077301115 169.91565782771642], [30.403846979141235]
[ 9.0 0.0 0.0],[ 176.1206006133099 169.91600760968387 169.91565770453028], [30.44905114173889]
[ 9.0 0.0 0.0],[ 176.12060089018863 169.91600751289815 169.91565760550108], [30.493551015853882]
[ 10.0 0.0 0.0],[ 176.12060110817256 169.91600743518381 169.91565752596534], [30.53898572921753]
[ 10.0 0.0 0.0],[ 176.12060127984464 169.91600737283812 169.91565746213928], [30.58767533302307]
[ 10.0 0.0 0.0],[ 176.32019498916264 169.95403486521974 169.95368706529095], [30.634972095489502]
[ 10.0 0.0 0.0],[ 176.47500187074348 169.97898018949755 169.9786296237709], [30.681921005249023]
[ 10.0 0.0 0.0],[ 176.59044738986228 169.99699947867873 169.99664219531894], [30.727229356765747]
[ 10.0 0.0 0.0],[ 176.67635824406918 170.01028604980937 170.00991979947392], [30.77357840538025]
[ 10.0 0.0 0.0],[ 176.740469838527 170.02011287941082 170.0197366494111], [30.818387508392334]
[ 10.0 0.0 0.0],[ 176.7884684853194 170.02736700018983 170.02698058333644], [30.86270833015442]
[ 10.0 0.0 0.0],[ 176.82451356687906 170.03269959788256 170.03230328993197], [30.90839409828186]
[ 10.0 0.0 0.0],[ 176.85165868520392 170.03659729524685 170.03619169032396], [30.950352430343628]
[ 10.0 0.0 0.0],[ 176.87215542104988 170.0394262417893 170.0390120952615], [30.99222469329834]
[ 10.0 0.0 0.0],[ 176.88767062176208 170.04146243035026 170.04104056779272], [31.033124923706055]
[ 10.0 0.0 0.0],[ 176.89944268528498 170.04291365661672 170.04248491439668], [31.073448419570923]
[ 10.0 0.0 0.0],[ 176.90839469132615 170.04393590500445 170.04350109265175], [31.122686624526978]
[ 10.0 0.0 0.0],[ 176.91521675834113 170.04464578016905 170.0442056577204], [31.169634342193604]
[ 10.0 0.0 0.0],[ 176.92042628811743 170.04513001436803 170.0446852799847], [31.20986294746399]
[ 10.0 0.0 0.0],[ 176.92441222083428 170.04545275702114 170.04500404154962], [31.252792835235596]
[ 10.0 0.0 0.0],[ 176.92746766628218 170.04566115922552 170.04520902537743], [31.296398401260376]
[ 10.0 0.0 0.0],[ 176.92981404622907 170.04578964005785 170.04533458456814], [31.34014630317688]
[ 10.0 0.0 0.0],[ 176.93161901242073 170.04586313299006 170.04540559059205], [31.383235931396484]
[ 10.0 0.0 0.0],[ 176.93300978411537 170.04589954489876 170.04543989331], [31.425130128860474]
[ 10.0 0.0 0.0],[ 176.93408310367968 170.04591160941447 170.04545017478708], [31.465811014175415]
[ 10.0 0.0 0.0],[ 176.93491268748556 170.04590827653013 170.0454453389762], [31.509406805038452]
[ 10.0 0.0 0.0],[ 176.9355548163744 170.04589574886052 170.04543154782462], [31.552316904067993]
[ 10.0 0.0 0.0],[ 176.93605254044994 170.04587825007454 170.0454129893909], [31.59464383125305]
[ 10.0 0.0 0.0],[ 176.93643884904253 170.0458585913525 170.04539244390173], [31.63717246055603]
[ 10.0 0.0 0.0],[ 176.93673906593477 170.045838586339 170.04537169826762], [31.689189195632935]
[ 10.0 0.0 0.0],[ 176.9369726631144 170.0458193530575 170.0453518475452], [31.730976343154907]
[ 10.0 0.0 0.0],[ 176.9371546371182 170.04580153192708 170.04533351252098], [31.774898767471313]
[ 10.0 0.0 0.0],[ 176.93729655555236 170.04578544188976 170.04531699542244], [31.818272352218628]
[ 10.0 0.0 0.0],[ 176.93740735439064 170.04577119112164 170.0453023902526], [31.85830307006836]
[ 10.0 0.0 0.0],[ 176.9374939465461 170.04575875466207 170.04528966006612], [31.901409149169922]
[ 10.0 0.0 0.0],[ 176.93756168723397 170.04574802808216 170.04527869033726], [31.943567514419556]
[ 10.0 0.0 0.0],[ 176.93761473044881 170.04573886395892 170.04526932515387], [31.98672652244568]
[ 10.0 0.0 0.0],[ 176.93765630249678 170.0457310960998 170.0452613912095], [32.027865171432495]
[ 10.0 0.0 0.0],[ 176.937688912225 170.0457245551539 170.04525471319587], [32.073984146118164]
[ 10.0 0.0 0.0],[ 176.93771451285195 170.04571907820986 170.04524912323396], [32.118091106414795]
[ 10.0 0.0 0.0],[ 176.93773462672542 170.0457145142978 170.04524446620823], [32.163740158081055]
[ 10.0 0.0 0.0],[ 176.93775044165332 170.04571072712113 170.04524060237435], [32.210206031799316]
[ 10.0 0.0 0.0],[ 176.9377628853777 170.04570759598343 170.04523740817254], [32.25319266319275]
[ 10.0 0.0 0.0],[ 176.93777268323245 170.04570501558024 170.04523477592247], [32.298526763916016]
[ 10.0 0.0 0.0],[ 176.93778040284278 170.04570289511233 170.04523261285544], [32.34101319313049]
[ 10.0 0.0 0.0],[ 176.93778648881988 170.04570115702666 170.0452308397898], [32.38213109970093]
[ 10.0 0.0 0.0],[ 176.9377912897274 170.04569973560677 170.0452293896623], [32.42432928085327]
[ 10.0 0.0 0.0],[ 176.9377950790559 170.04569857553318 170.04522820603964], [32.473398208618164]
[ 10.0 0.0 0.0],[ 176.93779807156307 170.04569763049653 170.04522724169493], [32.515307664871216]
[ 10.0 0.0 0.0],[ 176.93780043601978 170.04569686191948 170.0452264572944], [32.56228852272034]
[ 10.0 0.0 0.0],[ 176.9378023051494 170.04569623779636 170.04522582020968], [32.60293626785278]
[ 10.0 0.0 0.0],[ 176.93780378340642 170.04569573167495 170.04522530347464], [32.64390230178833]
[ 10.0 0.0 0.0],[ 176.9378049530449 170.0456953217597 170.04522488487177], [32.69141244888306]
[ 10.0 0.0 0.0],[ 176.93780587888696 170.04569499014386 170.04522454614744], [32.73728060722351]
[ 10.0 0.0 0.0],[ 176.93780661204084 170.04569472215235 170.0452242723415], [32.78119945526123]
[ 10.0 0.0 0.0],[ 176.9378071928297 170.04569450578768 170.0452240512224], [32.82720375061035]
[ 10.0 0.0 0.0],[ 176.93780765308415 170.04569433125837 170.0452238728067], [32.8711793422699]
[ 10.0 0.0 0.0],[ 176.93780801794398 170.04569419059052 170.04522372896312], [32.912926197052]
[ 10.0 0.0 0.0],[ 176.9378083072755 170.04569407729912 170.0452236130775], [32.955488443374634]
[ 10.0 0.0 0.0],[ 176.93780853678362 170.04569398612068 170.04522351978017], [32.99973773956299]
[ 10.0 0.0 0.0],[ 176.93780871889152 170.0456939127855 170.0452234447151], [33.03989386558533]
[ 10.0 0.0 0.0],[ 176.93780886342816 170.0456938538375 170.04522338435393], [33.087185859680176]
[ 10.0 0.0 0.0],[ 176.93780897817607 170.0456938064793 170.04522333584327], [33.135008096694946]
[ 10.0 0.0 0.0],[ 176.93780906929626 170.04569376845205 170.0452232968756], [33.17747497558594]
[ 10.0 0.0 0.0],[ 176.93780914167135 170.04569373793169 170.04522326558848], [33.21913266181946]
[ 10.0 0.0 0.0],[ 176.93780919917035 170.04569371344718 170.0452232404786], [33.263959884643555]
[ 10.0 0.0 0.0],[ 176.93780924486074 170.0456936938132 170.04522322033404], [33.310919761657715]
[ 10.0 0.0 0.0],[ 176.93780928117448 170.04569367807503 170.0452232041796], [33.35451793670654]
[ 10.0 0.0 0.0],[ 176.93780931004167 170.04569366546306 170.0452231912287], [33.39774227142334]
[ 10.0 0.0 0.0],[ 176.9378093329937 170.04569365535977 170.04522318084943], [33.43850111961365]
[ 10.0 0.0 0.0],[ 176.93780935124505 170.04569364726953 170.04522317253424], [33.48316836357117]
[ 10.0 0.0 0.0],[ 176.9378093657616 170.04569364079305 170.04522316587392], [33.527113914489746]
[ 10.0 0.0 0.0],[ 176.93780937730838 170.04569363560876 170.0452231605409], [33.57463216781616]
[ 10.0 0.0 0.0],[ 176.93780938649493 170.04569363146092 170.04522315627125], [33.62852239608765]
[ 10.0 0.0 0.0],[ 176.93780939380443 170.04569362814283 170.04522315285402], [33.69363856315613]
[ 10.0 0.0 0.0],[ 176.93780939962176 170.04569362548912 170.0452231501198], [33.73714470863342]
[ 10.0 0.0 0.0],[ 176.9378094042514 170.0456936233666 170.0452231479321], [33.780197620391846]
[ 10.0 0.0 0.0],[ 176.93780940793627 170.04569362167024 170.04522314618222], [33.82041811943054]
[ 10.0 0.0 0.0],[ 176.93780941086948 170.04569362031387 170.04522314478245], [33.86125326156616]
[ 10.0 0.0 0.0],[ 176.9378094132047 170.04569361923038 170.04522314366343], [33.903369426727295]
[ 10.0 0.0 0.0],[ 176.9378094150648 170.0456936183647 170.0452231427684], [33.94308352470398]
[ 10.0 0.0 0.0],[ 176.93780941654484 170.04569361767145 170.04522314205326], [33.98700475692749]
[ 10.0 0.0 0.0],[ 176.93780941772457 170.04569361711992 170.04522314148136], [34.03793263435364]
[ 10.0 0.0 0.0],[ 176.93780941866356 170.0456936166779 170.04522314102437], [34.07915806770325]
[ 10.0 0.0 0.0],[ 176.93780941941174 170.04569361632585 170.0452231406593], [34.122042655944824]
[ 10.0 0.0 0.0],[ 176.93780942000723 170.04569361604317 170.04522314036757], [34.163434743881226]
[ 10.0 0.0 0.0],[ 176.93780942048193 170.04569361581952 170.04522314013406], [34.20279669761658]
[ 10.0 0.0 0.0],[ 176.93780942086028 170.04569361563975 170.04522313994798], [34.24317455291748]
[ 10.0 0.0 0.0],[ 176.93780942116123 170.0456936154969 170.04522313979948], [34.28211307525635]
[ 10.0 0.0 0.0],[ 176.93780942140134 170.045693615382 170.04522313968064], [34.322591066360474]
[ 10.0 0.0 0.0],[ 176.93780942159214 170.04569361529116 170.04522313958566], [34.36675310134888]
[ 10.0 0.0 0.0],[ 176.9378094217447 170.0456936152174 170.0452231395097], [34.406766414642334]
[ 10.0 0.0 0.0],[ 176.93780942186575 170.0456936151597 170.04522313944918], [34.44855046272278]
[ 10.0 0.0 0.0],[ 176.93780942196264 170.04569361511284 170.0452231394009], [34.49218440055847]
[ 10.0 0.0 0.0],[ 176.93780942204015 170.04569361507606 170.04522313936238], [34.533488035202026]
[ 10.0 0.0 0.0],[ 176.93780942210182 170.04569361504667 170.04522313933185], [34.57430386543274]
[ 10.0 0.0 0.0],[ 176.9378094221511 170.0456936150228 170.04522313930707], [34.61842918395996]
[ 10.0 0.0 0.0],[ 176.9378094221898 170.0456936150043 170.04522313928715], [34.6654212474823]
[ 10.0 0.0 0.0],[ 176.93780942222125 170.04569361498883 170.0452231392714], [34.714611530303955]
[ 10.0 0.0 0.0],[ 176.93780942224578 170.04569361497713 170.0452231392588], [34.765968561172485]
[ 10.0 0.0 0.0],[ 176.93780942226562 170.04569361496775 170.04522313924883], [34.81127953529358]
[ 10.0 0.0 0.0],[ 176.9378094222818 170.04569361495894 170.0452231392413], [34.85547089576721]
[ 10.0 0.0 0.0],[ 176.93780942229435 170.04569361495368 170.0452231392347], [34.9054012298584]
[ 10.0 0.0 0.0],[ 176.93780942230373 170.04569361494947 170.04522313922956], [34.95820951461792]
[ 10.0 0.0 0.0],[ 176.93780942231209 170.04569361494492 170.04522313922539], [35.007251024246216]
[ 10.0 0.0 0.0],[ 176.93780942231842 170.04569361494197 170.04522313922206], [35.05310583114624]
[ 10.0 0.0 0.0],[ 176.93780942232297 170.04569361493967 170.0452231392194], [35.098297119140625]
[ 10.0 0.0 0.0],[ 176.93780942232726 170.045693614938 170.04522313921765], [35.145063400268555]
[ 10.0 0.0 0.0],[ 176.93780942233067 170.04569361493648 170.0452231392158], [35.18949770927429]
[ 10.0 0.0 0.0],[ 176.93780942233315 170.04569361493546 170.0452231392141], [35.23509073257446]
[ 10.0 0.0 0.0],[ 176.9378094223355 170.04569361493427 170.0452231392134], [35.278258323669434]
[ 10.0 0.0 0.0],[ 176.93780942233633 170.04569361493327 170.04522313921262], [35.320417642593384]
[ 10.0 0.0 0.0],[ 176.9378094223374 170.04569361493319 170.04522313921234], [35.36073851585388]
[ 10.0 0.0 0.0],[ 176.93780942233866 170.0456936149327 170.0452231392118], [35.40178918838501]
[ 10.0 0.0 0.0],[ 176.93780942234002 170.04569361493168 170.0452231392112], [35.440776109695435]
[ 10.0 0.0 0.0],[ 176.93780942234056 170.04569361493165 170.04522313921103], [35.48185610771179]
[ 10.0 0.0 0.0],[ 176.93780942234076 170.04569361493122 170.04522313921075], [35.523606300354004]
[ 10.0 0.0 0.0],[ 176.93780942234167 170.04569361493074 170.0452231392104], [35.567158460617065]
[ 10.0 0.0 0.0],[ 176.93780942234156 170.0456936149308 170.04522313921052], [35.612749338150024]
[ 10.0 0.0 0.0],[ 176.93780942234216 170.04569361493023 170.04522313921], [35.654897928237915]
[ 10.0 0.0 0.0],[ 176.93780942234267 170.0456936149304 170.04522313920953], [35.70086860656738]
[ 10.0 0.0 0.0],[ 176.93780942234272 170.04569361493031 170.04522313920953], [35.74473834037781]
[ 10.0 0.0 0.0],[ 176.9378094223431 170.04569361493006 170.04522313920967], [35.78867697715759]
[ 10.0 0.0 0.0],[ 176.9378094223431 170.0456936149301 170.04522313920975], [35.83414006233215]
[ 10.0 0.0 0.0],[ 176.93780942234235 170.04569361493063 170.04522313920978], [35.877747774124146]
[ 10.0 0.0 0.0],[ 176.93780942234295 170.04569361493077 170.04522313920947], [35.92155408859253]
[ 10.0 0.0 0.0],[ 176.93780942234307 170.04569361493006 170.04522313920967], [35.97732639312744]
[ 10.0 0.0 0.0],[ 176.93780942234318 170.04569361493017 170.04522313920944], [36.02712821960449]
[ 10.0 0.0 0.0],[ 176.93780942234315 170.04569361493068 170.04522313920944], [36.07325839996338]
[ 10.0 0.0 0.0],[ 176.9378094223427 170.04569361493074 170.0452231392096], [36.11866807937622]
[ 10.0 0.0 0.0],[ 176.93780942234326 170.04569361493031 170.04522313920953], [36.16205430030823]
[ 10.0 0.0 0.0],[ 176.93780942234338 170.04569361493077 170.04522313920933], [36.21148419380188]
[ 10.0 0.0 0.0],[ 176.93780942234287 170.04569361493049 170.04522313920944], [36.25565981864929]
[ 10.0 0.0 0.0],[ 176.93780942234255 170.04569361493054 170.0452231392093], [36.29670977592468]
[ 10.0 0.0 0.0],[ 176.93780942234335 170.04569361493049 170.045223139209], [36.358075857162476]
[ 10.0 0.0 0.0],[ 176.9378094223436 170.04569361493108 170.0452231392094], [36.40997791290283]
[ 10.0 0.0 0.0],[ 176.9378094223429 170.04569361493057 170.04522313920904], [36.46794414520264]
[ 10.0 0.0 0.0],[ 176.9378094223437 170.04569361493034 170.04522313920918], [36.52597141265869]
[ 10.0 0.0 0.0],[ 176.93780942234272 170.04569361492958 170.04522313920938], [36.57697248458862]
[ 10.0 0.0 0.0],[ 176.93780942234318 170.0456936149303 170.04522313920938], [36.62603402137756]
[ 10.0 0.0 0.0],[ 176.93780942234318 170.04569361493012 170.04522313920916], [36.67294192314148]
[ 10.0 0.0 0.0],[ 176.937809422343 170.0456936149306 170.04522313920938], [36.72481822967529]
[ 10.0 0.0 0.0],[ 176.93780942234326 170.04569361493034 170.04522313920924], [36.769654989242554]
[ 10.0 0.0 0.0],[ 176.93780942234258 170.04569361493014 170.0452231392092], [36.8150417804718]
[ 10.0 0.0 0.0],[ 176.9378094223436 170.04569361493057 170.04522313920933], [36.856385231018066]
[ 10.0 0.0 0.0],[ 176.9378094223431 170.04569361493094 170.04522313920913], [36.89795923233032]
[ 10.0 0.0 0.0],[ 176.93780942234287 170.04569361492963 170.04522313920916], [36.943729400634766]
[ 10.0 0.0 0.0],[ 176.93780942234335 170.04569361493037 170.0452231392095], [36.986851930618286]
[ 10.0 0.0 0.0],[ 176.93780942234343 170.0456936149295 170.0452231392094], [37.02841353416443]
[ 10.0 0.0 0.0],[ 176.93780942234304 170.0456936149303 170.04522313920936], [37.072253704071045]
[ 10.0 0.0 0.0],[ 176.93780942234287 170.04569361493026 170.0452231392092], [37.11437678337097]
[ 10.0 0.0 0.0],[ 176.9378094223435 170.0456936149302 170.04522313920933], [37.15782880783081]
[ 10.0 0.0 0.0],[ 176.93780942234366 170.04569361493054 170.04522313920953], [37.2046799659729]
[ 10.0 0.0 0.0],[ 176.93780942234326 170.04569361492986 170.04522313920972], [37.24817085266113]
[ 10.0 0.0 0.0],[ 176.93780942234298 170.0456936149302 170.04522313920953], [37.29078698158264]
[ 10.0 0.0 0.0],[ 176.93780942234244 170.04569361493083 170.04522313920944], [37.33668351173401]
[ 10.0 0.0 0.0],[ 176.93780942234295 170.0456936149307 170.04522313920964], [37.38409399986267]
[ 10.0 0.0 0.0],[ 176.93780942234267 170.04569361493074 170.04522313920972], [37.43136811256409]
[ 10.0 0.0 0.0],[ 176.93780942234278 170.0456936149307 170.0452231392097], [37.47229218482971]
[ 10.0 0.0 0.0],[ 176.9378094223425 170.04569361492983 170.04522313920964], [37.516157388687134]
[ 10.0 0.0 0.0],[ 176.93780942234275 170.0456936149305 170.04522313921004], [37.56333327293396]
[ 10.0 0.0 0.0],[ 176.9378094223428 170.04569361493057 170.04522313920972], [37.62137961387634]
[ 10.0 0.0 0.0],[ 176.93780942234275 170.04569361493037 170.04522313920958], [37.67824029922485]
[ 10.0 0.0 0.0],[ 176.93780942234244 170.04569361492997 170.04522313920975], [37.72630548477173]
[ 10.0 0.0 0.0],[ 176.937809422343 170.04569361493063 170.0452231392096], [37.77288579940796]
[ 10.0 0.0 0.0],[ 176.93780942234332 170.0456936149297 170.04522313920938], [37.82559633255005]
[ 10.0 0.0 0.0],[ 176.93780942234235 170.04569361493012 170.0452231392097], [37.87009596824646]
[ 10.0 0.0 0.0],[ 176.93780942234244 170.04569361493034 170.04522313920967], [37.92288064956665]
[ 10.0 0.0 0.0],[ 176.93780942234295 170.04569361493037 170.04522313920955], [37.97467565536499]
[ 10.0 0.0 0.0],[ 176.93780942234255 170.0456936149307 170.04522313920947], [38.02327251434326]
[ 10.0 0.0 0.0],[ 176.93780942234224 170.04569361493105 170.0452231392096], [38.07045245170593]
[ 10.0 0.0 0.0],[ 176.93780942234278 170.04569361493057 170.04522313920972], [38.113200426101685]
[ 10.0 0.0 0.0],[ 176.93780942234255 170.04569361493043 170.0452231392098], [38.15412425994873]
[ 10.0 0.0 0.0],[ 176.93780942234272 170.04569361493043 170.0452231392094], [38.19616150856018]
[ 10.0 0.0 0.0],[ 176.9378094223426 170.04569361493034 170.04522313920984], [38.237258195877075]
[ 10.0 0.0 0.0],[ 176.93780942234213 170.04569361493046 170.0452231392096], [38.277246713638306]
[ 10.0 0.0 0.0],[ 176.93780942234258 170.045693614931 170.04522313920944], [38.31699085235596]
[ 10.0 0.0 0.0],[ 176.93780942234272 170.0456936149307 170.04522313920975], [38.35682797431946]
