[0. 0. 0.], [16.04196310043335]
[-2.e-02 -3.e-02  5.e+01], [17.331799507141113]
[-1.000e-02 -2.000e-02  4.999e+01], [17.492868185043335]
[-1.000e-02 -1.000e-02  4.999e+01], [17.647409439086914]
[-2.000e-02 -3.000e-02  4.999e+01], [17.801289081573486]
[-3.000e-02 -3.000e-02  4.999e+01], [17.953351497650146]
[-4.000e-02 -4.000e-02  4.999e+01], [18.104257822036743]
[ 3.600e-01 -1.000e-02  5.015e+01], [18.267711639404297]
[5.000e-01 3.000e-02 5.016e+01], [18.45662498474121]
[ 5.800e-01 -1.000e-02  5.014e+01], [18.61911129951477]
[ 0.63 -0.09 50.17], [18.769288063049316]
[ 1.09 -0.17 50.22], [18.92031693458557]
[ 1.26 -0.29 50.25], [19.075818300247192]
[ 1.65 -0.28 50.35], [19.261455059051514]
[ 2.1  -0.36 50.49], [19.42053461074829]
[ 2.43 -0.47 50.51], [19.573413610458374]
[ 2.95 -0.4  50.53], [19.729417324066162]
[ 3.07 -0.68 50.58], [19.880894899368286]
[ 3.43 -0.53 50.61], [20.03295612335205]
[ 3.8  -0.52 50.67], [20.183769941329956]
[ 4.23 -0.4  50.71], [20.333632230758667]
[ 4.67 -1.03 50.66], [20.483056783676147]
[ 5.24 -0.53 50.72], [20.632002592086792]
[ 5.45 -0.59 50.78], [20.782165050506592]
[ 6.8  -0.35 50.62], [20.931145906448364]
[ 7.55 -0.78 50.7 ], [21.109421491622925]
[ 8.33 -0.89 50.74], [21.257696628570557]
[ 8.66 -0.98 50.63], [21.406189441680908]
[ 9.61 -0.65 50.46], [21.626527547836304]
[10.32 -0.83 50.41], [21.779165506362915]
[10.89 -1.08 50.19], [21.932333946228027]
[11.62 -0.81 50.01], [22.084046363830566]
[12.11 -1.15 49.95], [22.236246585845947]
[13.21 -0.55 49.67], [22.392459869384766]
[13.53 -1.26 49.57], [22.541664361953735]
[13.98 -0.83 49.36], [22.691425800323486]
[14.08 -0.88 49.41], [22.841437816619873]
[14.26 -0.4  49.37], [22.99389410018921]
[14.14 -0.11 49.42], [23.14725136756897]
[14.21 -0.06 49.34], [23.299427270889282]
[13.8   0.41 49.55], [23.453218460083008]
[13.83  0.56 49.54], [23.605518102645874]
[14.27  1.08 49.25], [23.757807970046997]
[14.12  0.98 49.42], [23.910359382629395]
[14.23  1.04 49.33], [24.063846588134766]
[14.34  1.15 49.31], [24.215124368667603]
[14.38  1.3  49.3 ], [24.39646005630493]
[14.31  1.92 49.31], [24.57006072998047]
[14.2   2.22 49.28], [24.72163200378418]
[14.19  2.14 49.27], [24.877630710601807]
[14.13  2.23 49.24], [25.03395652770996]
[14.05  2.34 49.25], [25.187702894210815]
[14.33  2.76 49.14], [25.340413093566895]
[14.58  3.12 48.99], [25.49614191055298]
[14.47  4.16 49.  ], [25.645658016204834]
[14.94  4.45 48.87], [25.798470735549927]
[14.87  4.64 48.96], [25.984212398529053]
[15.41  4.74 48.77], [26.171671390533447]
[15.41  5.3  48.73], [26.324125289916992]
[15.01  5.49 49.06], [26.475677251815796]
[14.87  6.23 49.09], [26.627899885177612]
[14.64  6.37 49.18], [26.7819664478302]
[14.85  7.06 49.17], [26.960979223251343]
[14.68  6.61 49.36], [27.130117893218994]
[14.63  6.68 49.38], [27.287291765213013]
[14.63  6.72 49.42], [27.454415321350098]
[14.65  6.74 49.44], [27.62297034263611]
[14.49  6.83 49.61], [27.806825876235962]
[14.34  7.08 49.56], [27.980361223220825]
[14.67  7.62 49.38], [28.137997150421143]
[14.34  7.68 49.5 ], [28.287556886672974]
[14.09  7.74 49.63], [28.437742471694946]
[13.98  7.83 49.53], [28.58946967124939]
[13.41  8.4  49.91], [28.76752996444702]
[13.51  8.59 49.73], [28.934226036071777]
[13.33  8.67 49.78], [29.08296799659729]
[13.3   8.67 49.78], [29.23242712020874]
[13.26  8.75 49.76], [29.382990837097168]
[12.97  8.99 49.79], [29.564332485198975]
[12.95  9.22 49.76], [29.7138032913208]
[12.49  9.52 49.97], [29.862560987472534]
[12.4   9.56 49.91], [30.01310968399048]
[11.97  9.98 50.1 ], [30.195430755615234]
[11.88 10.16 50.  ], [30.344339847564697]
[11.64 10.34 50.01], [30.492666244506836]
[11.65 10.28 49.96], [30.641586780548096]
[11.28 10.73 50.06], [30.79094099998474]
[11.17 10.69 50.11], [30.940860509872437]
[11.   10.7  50.14], [31.089472770690918]
[10.47 10.88 50.29], [31.24096703529358]
[10.3  11.15 50.21], [31.39014196395874]
[10.35 10.98 50.2 ], [31.539244413375854]
[10.18 10.97 50.3 ], [31.68898034095764]
[10.05 10.91 50.31], [31.839269399642944]
[ 9.91 10.95 50.46], [31.989691257476807]
[ 9.43 11.05 50.54], [32.14068579673767]
[ 9.32 11.34 50.58], [32.290082693099976]
[ 9.3  11.34 50.43], [32.44052529335022]
[ 9.19 11.49 50.4 ], [32.59015941619873]
[ 9.22 11.88 50.37], [32.74141836166382]
[ 8.8  11.8  50.43], [32.891698360443115]
[ 8.71 12.04 50.37], [33.04323673248291]
[ 8.62 11.98 50.38], [33.193035364151]
[ 7.95 12.27 50.57], [33.3431441783905]
[ 7.79 12.27 50.59], [33.492111682891846]
[ 7.49 12.58 50.52], [33.642027378082275]
[ 7.27 12.85 50.38], [33.79245042800903]
[ 7.15 13.05 50.32], [33.943260192871094]
[ 7.08 12.97 50.28], [34.09375834465027]
[ 6.96 12.96 50.36], [34.27400207519531]
[ 6.81 12.89 50.44], [34.44919395446777]
[ 6.16 13.35 50.42], [34.61951804161072]
[ 6.16 13.25 50.37], [34.769577980041504]
[ 5.51 13.64 50.4 ], [34.9205367565155]
[ 5.35 13.62 50.36], [35.071110010147095]
[ 5.3  13.63 50.31], [35.25523328781128]
[ 5.04 13.75 50.23], [35.41708707809448]
[ 5.01 13.91 50.22], [35.5674192905426]
[ 4.48 14.13 50.29], [35.71737337112427]
[ 4.42 14.18 50.19], [35.868072271347046]
[ 3.95 14.29 50.26], [36.01919174194336]
[ 3.89 14.26 50.25], [36.16876459121704]
[ 3.86 14.25 50.23], [36.31832981109619]
[ 3.62 14.44 50.13], [36.471811056137085]
[ 3.17 14.5  50.22], [36.622421741485596]
[ 3.12 14.53 50.13], [36.77221465110779]
[ 2.71 14.57 50.24], [36.92484974861145]
[ 2.72 14.55 50.17], [37.07535409927368]
[ 2.21 14.87 50.25], [37.224891662597656]
[ 2.28 14.77 50.15], [37.37540411949158]
[ 2.21 14.71 50.2 ], [37.52761721611023]
[ 1.65 14.7  50.3 ], [37.676218032836914]
[ 1.69 14.7  50.25], [37.82723259925842]
[ 1.52 14.68 50.3 ], [37.97761273384094]
[ 0.91 15.05 50.18], [38.127970933914185]
[ 0.66 15.13 49.95], [38.27661156654358]
[ 0.41 15.16 50.01], [38.43679094314575]
[ 0.38 15.16 49.96], [38.58720850944519]
[ 0.27 15.14 49.97], [38.738600969314575]
[ 0.15 15.13 49.95], [38.889384508132935]
[-1.000e-02  1.509e+01  4.998e+01], [39.04046607017517]
[-0.37 15.11 50.11], [39.190847396850586]
[-1.04 15.23 50.07], [39.34128499031067]
[-1.1  15.15 50.06], [39.49101543426514]
[-1.61 15.14 50.07], [39.64116287231445]
[-1.62 15.1  50.08], [39.795196533203125]
[-1.69 15.11 50.05], [39.94556427001953]
[-1.77 15.02 50.1 ], [40.09676647186279]
[-2.24 15.04 50.19], [40.25142288208008]
[-2.39 14.9  50.16], [40.402891874313354]
[-2.68 14.97 50.15], [40.55332016944885]
[-2.71 14.95 50.16], [40.703654050827026]
[-2.88 14.88 50.15], [40.85332226753235]
[-2.99 14.82 50.18], [41.0027711391449]
[-3.57 14.61 50.24], [41.18583822250366]
[-4.32 14.45 50.25], [41.33701825141907]
[-4.38 14.37 50.22], [41.486987352371216]
[-4.41 14.41 50.25], [41.64165949821472]
[-4.49 14.34 50.28], [41.82519221305847]
[-5.1  14.27 50.21], [41.974613428115845]
[-5.12 14.28 50.2 ], [42.1249566078186]
[-5.22 14.18 50.22], [42.27757954597473]
[-5.3  14.09 50.24], [42.42845606803894]
[-5.84 14.06 50.25], [42.57809615135193]
[-6.   13.77 50.26], [42.74073815345764]
[-5.97 13.86 50.3 ], [42.891127586364746]
[-6.12 13.68 50.3 ], [43.04183840751648]
[-6.71 13.59 50.25], [43.192599058151245]
[-6.84 13.37 50.23], [43.37439823150635]
[-6.82 13.38 50.26], [43.524877071380615]
[-6.9  13.25 50.31], [43.67624568939209]
[-7.39 12.95 50.3 ], [43.82728815078735]
[-7.33 12.97 50.31], [43.97881007194519]
[-7.42 12.87 50.34], [44.13086986541748]
[-8.03 12.7  50.22], [44.28124451637268]
[-8.34 12.36 50.22], [44.436251401901245]
[-8.46 12.39 50.2 ], [44.587095737457275]
[-8.39 12.35 50.28], [44.73854875564575]
[-8.53 12.17 50.3 ], [44.888556480407715]
[-9.2  11.99 50.2 ], [45.04076910018921]
[-9.18 11.88 50.2 ], [45.19545316696167]
[-9.22 11.92 50.2 ], [45.34769415855408]
[-9.36 11.75 50.2 ], [45.50539493560791]
[-9.44 11.64 50.21], [45.663166522979736]
[-9.77 11.23 50.19], [45.821616411209106]
[-9.74 11.21 50.23], [46.045814990997314]
[-10.17  10.63  50.24], [46.20231103897095]
[-10.19  10.63  50.24], [46.35596776008606]
[-10.85  10.48  50.1 ], [46.51287364959717]
[-10.96  10.24  50.09], [46.6840136051178]
[-11.23   9.99  50.01], [46.84435439109802]
[-11.2   10.    50.07], [47.00932598114014]
[-11.33   9.85  50.06], [47.23052382469177]
[-11.41   9.73  50.06], [47.40818405151367]
[-11.56   9.54  50.06], [47.564034938812256]
[-11.63   9.44  50.07], [47.716559171676636]
[-12.1    8.92  49.98], [47.87288808822632]
[-12.22   8.78  49.99], [48.026933431625366]
[-12.36   8.51  49.93], [48.18013596534729]
[-12.45   8.36  49.98], [48.330753564834595]
[-12.39   8.39  49.99], [48.502636194229126]
[-12.53   8.22  49.98], [48.652050256729126]
[-12.64   8.13  49.95], [48.805115938186646]
[-12.66   8.05  49.96], [48.95991516113281]
[-13.07   7.58  49.82], [49.11441206932068]
[-13.02   7.55  49.87], [49.267728090286255]
[-13.13   7.4   49.85], [49.4550039768219]
[-13.26   7.27  49.81], [49.608476638793945]
[-13.3    7.19  49.8 ], [49.76272201538086]
[-13.34   7.15  49.79], [49.950231075286865]
[-13.48   6.48  49.97], [50.10316276550293]
[-13.44   6.45  50.  ], [50.25265145301819]
[-13.78   6.25  49.93], [50.403682708740234]
[-13.8    6.3   49.93], [50.55378818511963]
[-13.77   6.28  49.93], [50.74507713317871]
[-13.84   6.12  49.94], [50.895784854888916]
[-13.93   5.94  49.95], [51.046342849731445]
[-13.98   5.86  49.93], [51.19874024391174]
[-14.04   5.76  49.93], [51.3526406288147]
[-14.15   5.17  49.93], [51.50789213180542]
[-14.11   5.31  49.99], [51.66067624092102]
[-14.41   4.7   49.98], [51.81496596336365]
[-14.32   4.79  50.  ], [51.96803593635559]
[-14.53   4.16  49.96], [52.12100172042847]
[-14.77   3.84  49.86], [52.27354121208191]
[-14.84   3.29  49.92], [52.42627429962158]
[-14.89   3.37  49.89], [52.5791540145874]
[-15.1    3.16  49.87], [52.745197772979736]
[-15.07   3.14  49.85], [52.89537191390991]
[-15.17   3.06  49.82], [53.05174803733826]
[-15.28   2.54  49.7 ], [53.20523762702942]
[-15.39   2.51  49.68], [53.362890005111694]
[-15.58   1.83  49.6 ], [53.51389694213867]
[-15.64   1.75  49.56], [53.672240018844604]
[-15.61   1.72  49.57], [53.82759141921997]
[-15.65   1.57  49.58], [53.980618953704834]
[-15.64   1.41  49.59], [54.13732123374939]
[-15.66   1.24  49.56], [54.338215351104736]
[-15.75   1.01  49.49], [54.491679668426514]
[-15.76   0.84  49.47], [54.645034074783325]
[-15.75   0.61  49.48], [54.81741118431091]
[-15.73   0.36  49.46], [54.968491554260254]
[-15.77  -0.28  49.35], [55.11949133872986]
[-15.94  -0.4   49.36], [55.27265286445618]
[-15.88  -0.36  49.34], [55.423288345336914]
[-15.83  -0.79  49.3 ], [55.575236320495605]
[-15.78  -1.05  49.31], [55.727954387664795]
[-15.75  -1.35  49.25], [55.879157066345215]
[-15.7   -1.62  49.25], [56.03263807296753]
[-15.65  -2.11  49.28], [56.187230348587036]
[-15.53  -2.7   49.24], [56.33760046958923]
[-15.48  -2.92  49.22], [56.4879264831543]
[-15.36  -3.43  49.17], [56.640538692474365]
[-15.02  -3.52  49.45], [56.792577505111694]
[-14.96  -3.91  49.32], [57.01482534408569]
[-14.83  -4.11  49.46], [57.1716513633728]
[-15.27  -4.11  49.23], [57.33015418052673]
[-15.03  -4.74  49.35], [57.48909592628479]
[-14.93  -5.27  49.35], [57.6454598903656]
[-14.38  -5.41  49.68], [57.795775413513184]
[-14.51  -5.26  49.66], [57.94693660736084]
[-14.45  -5.59  49.53], [58.095542907714844]
[-15.08  -5.54  49.21], [58.245434522628784]
[-14.85  -6.22  49.15], [58.396045446395874]
[-14.85  -6.19  49.34], [58.55014777183533]
[-14.75  -6.48  49.33], [58.72974252700806]
[-14.3   -6.48  49.59], [58.88192367553711]
[-14.24  -6.65  49.53], [59.061625242233276]
[-14.01  -7.34  49.57], [59.237467765808105]
[-14.11  -7.23  49.6 ], [59.388803243637085]
[-13.73  -7.74  49.61], [59.54057264328003]
[-13.79  -7.71  49.58], [59.6917040348053]
[-13.66  -8.22  49.51], [59.845126152038574]
[-13.67  -8.17  49.52], [60.001699686050415]
[-13.45  -8.81  49.39], [60.15521597862244]
[-12.91  -9.01  49.83], [60.31148147583008]
[-12.6   -9.01  49.89], [60.46583318710327]
[-12.16  -9.6   49.81], [60.6167471408844]
[-12.04  -9.75  49.85], [60.790345430374146]
[-12.06  -9.67  49.82], [60.94438362121582]
[-12.04  -9.73  49.81], [61.097665786743164]
[-12.02  -9.78  49.81], [61.24839782714844]
[-12.01  -9.82  49.79], [61.405431032180786]
[-11.46 -10.33  49.86], [61.558069467544556]
[-11.61 -10.11  49.87], [61.70963001251221]
[-11.33 -10.59  49.85], [61.86114740371704]
[-10.68 -10.83  50.12], [62.01384353637695]
[-10.49 -11.49  49.9 ], [62.16503858566284]
[-10.53 -11.34  49.89], [62.31578779220581]
[-10.48 -11.25  49.88], [62.47113394737244]
[-10.24 -11.3   49.91], [62.62416934967041]
[-10.17 -11.38  49.96], [62.77548789978027]
[-10.16 -11.41  49.94], [62.926302671432495]
[ -9.46 -12.03  49.76], [63.07748007774353]
[ -9.68 -11.84  49.81], [63.22871208190918]
[ -9.12 -12.5   50.  ], [63.38011431694031]
[ -9.06 -12.51  49.87], [63.53105187416077]
[ -8.97 -12.49  49.9 ], [63.68152928352356]
[ -9.11 -12.46  50.03], [63.833698749542236]
[ -8.32 -12.37  50.26], [63.985084533691406]
[ -8.06 -13.2   49.89], [64.13824200630188]
[ -7.67 -13.07  50.16], [64.28939032554626]
[ -7.82 -12.86  50.03], [64.44141554832458]
[ -7.72 -12.99  50.04], [64.59352016448975]
[ -7.65 -13.04  50.06], [64.75000357627869]
[ -7.21 -13.23  50.28], [64.90719819068909]
[ -7.21 -13.12  50.12], [65.06267094612122]
[ -6.2  -13.86  49.95], [65.21875524520874]
[ -6.31 -13.79  50.12], [65.36770033836365]
[ -5.9  -13.92  50.16], [65.54483103752136]
[ -5.89 -13.79  50.2 ], [65.71411848068237]
[ -5.94 -13.83  50.15], [65.86846709251404]
[ -5.48 -13.89  50.25], [66.01805877685547]
[ -5.49 -13.8   50.14], [66.17084646224976]
[ -5.14 -14.01  50.22], [66.32421684265137]
[ -4.93 -14.02  50.33], [66.47987365722656]
[ -4.86 -13.98  50.22], [66.63054752349854]
[ -4.81 -14.    50.21], [66.80822539329529]
[ -4.54 -14.07  50.4 ], [66.9599883556366]
[ -4.09 -14.65  50.09], [67.11171555519104]
[ -3.84 -14.59  50.17], [67.26169013977051]
[ -3.75 -14.55  50.17], [67.41265177726746]
[ -3.12 -14.62  50.24], [67.56192970275879]
[ -3.06 -14.66  50.15], [67.71178126335144]
[ -2.94 -14.59  50.21], [67.86207103729248]
[ -2.79 -14.56  50.25], [68.0125720500946]
[ -2.53 -14.65  50.24], [68.16282081604004]
[ -2.4  -14.65  50.3 ], [68.31310486793518]
[ -2.26 -14.64  50.23], [68.46541500091553]
[ -2.08 -14.69  50.34], [68.6156713962555]
[ -1.85 -14.85  50.17], [68.7655336856842]
[ -1.87 -14.74  50.22], [68.91585063934326]
[ -1.36 -14.81  50.38], [69.06654357910156]
[ -0.98 -14.73  50.39], [69.21781873703003]
[ -0.82 -14.73  50.31], [69.3681583404541]
[ -0.48 -14.95  50.24], [69.52287650108337]
[ -0.09 -14.88  50.35], [69.67383646965027]
[-1.000e-02 -1.488e+01  5.025e+01], [69.82808923721313]
[  0.41 -14.82  50.34], [70.00910305976868]
[  0.42 -14.78  50.24], [70.15995693206787]
[  0.42 -14.62  50.4 ], [70.31041407585144]
[  0.62 -14.51  50.44], [70.4622893333435]
[  1.06 -14.54  50.41], [70.61358976364136]
[  1.1  -14.55  50.4 ], [70.76615715026855]
[  1.12 -14.49  50.34], [70.92010855674744]
[  1.75 -14.48  50.35], [71.07379579544067]
[  1.77 -14.41  50.31], [71.22536206245422]
[  2.08 -14.48  50.3 ], [71.41343474388123]
[  2.16 -14.41  50.26], [71.56542134284973]
[  2.46 -14.41  50.32], [71.71594405174255]
[  2.63 -14.35  50.29], [71.86594676971436]
[  2.77 -14.44  50.21], [72.01596689224243]
[  3.24 -14.35  50.23], [72.16640448570251]
[  3.45 -14.45  50.08], [72.3427186012268]
[  3.39 -14.37  50.19], [72.49330449104309]
[  3.33 -14.39  50.17], [72.64433765411377]
[  3.63 -14.34  50.19], [72.79445004463196]
[  3.59 -14.28  50.27], [72.9451117515564]
[  3.84 -14.26  50.15], [73.09480834007263]
[  4.09 -14.16  50.2 ], [73.24971103668213]
[  4.2  -14.15  50.15], [73.40511226654053]
[  4.76 -14.42  50.08], [73.55745697021484]
[  4.87 -14.5   50.03], [73.70913124084473]
[  5.11 -14.26  50.09], [73.8628294467926]
[  5.13 -14.23  50.13], [74.01443028450012]
[  5.25 -14.09  50.13], [74.16895413398743]
[  5.27 -13.84  50.19], [74.41894769668579]
[  5.64 -13.87  50.09], [74.56991648674011]
[  5.65 -13.85  50.07], [74.82077121734619]
[  6.18 -13.64  50.04], [74.97758483886719]
[  6.25 -13.7   50.  ], [75.13347482681274]
[  6.91 -13.35  50.  ], [75.28520655632019]
[  7.12 -13.29  50.01], [75.43655180931091]
[  7.75 -12.86  49.98], [75.58781886100769]
[  7.87 -12.96  49.95], [75.7397301197052]
[  7.82 -12.99  49.97], [75.89102149009705]
[  7.94 -12.95  49.96], [76.04321575164795]
[  8.04 -12.9   49.97], [76.23514103889465]
[  8.57 -12.53  50.09], [76.38574028015137]
[  8.9  -12.45  49.94], [76.53718781471252]
[  8.88 -12.28  49.96], [76.68787455558777]
[  9.33 -11.59  50.13], [76.8395483493805]
[  9.29 -11.56  50.16], [76.98998713493347]
[  9.43 -11.49  50.17], [77.17248511314392]
[  9.48 -11.53  50.13], [77.32309484481812]
[ 10.14 -11.61  49.85], [77.47243332862854]
[ 10.34 -11.1   49.97], [77.62441635131836]
[ 10.4  -11.08  50.  ], [77.7769660949707]
[ 10.72 -10.71  49.99], [77.92928504943848]
[ 10.62 -10.7   50.04], [78.08649444580078]
[ 10.79 -10.27  50.11], [78.24264240264893]
[ 10.81 -10.41  50.1 ], [78.40033793449402]
[ 11.05 -10.5   49.91], [78.55289459228516]
[11.73 -9.91 49.88], [78.70426416397095]
[11.6  -9.85 50.02], [78.85666632652283]
[11.87 -9.5  49.95], [79.00913143157959]
[11.8  -9.48 50.05], [79.16044235229492]
[11.82 -9.58 49.99], [79.31107974052429]
[11.72 -9.42 50.09], [79.46162033081055]
[12.31 -9.03 50.04], [79.61173152923584]
[12.87 -8.67 49.8 ], [79.76252102851868]
[12.75 -8.61 49.93], [79.93880486488342]
[13.12 -8.43 49.89], [80.12456750869751]
[13.12 -8.22 49.93], [80.27468729019165]
[13.05 -8.01 49.97], [80.45773601531982]
[13.27 -7.56 50.  ], [80.608713388443]
[13.22 -7.59 50.03], [80.76139307022095]
[13.44 -7.04 50.05], [80.91086792945862]
[13.42 -7.24 50.05], [81.06286287307739]
[13.84 -6.68 50.02], [81.21529173851013]
[13.7  -6.66 50.14], [81.36845183372498]
[13.57 -6.56 50.13], [81.52218651771545]
[14.04 -5.9  50.09], [81.67515468597412]
[13.86 -6.04 50.2 ], [81.86323976516724]
[13.73 -5.77 50.25], [82.01687979698181]
[14.33 -5.14 50.11], [82.21199035644531]
[14.27 -5.26 50.16], [82.39118933677673]
[14.26 -5.17 50.13], [82.56981801986694]
[14.27 -5.1  50.12], [82.72004652023315]
[14.59 -4.65 50.01], [82.87111711502075]
[14.5  -4.57 50.09], [83.02080607414246]
[14.99 -3.94 49.95], [83.17039752006531]
[14.63 -3.78 50.17], [83.3205394744873]
[14.49 -3.67 50.21], [83.47187662124634]
[14.63 -3.35 50.14], [83.62185716629028]
[15.01 -2.89 50.04], [83.77097916603088]
[14.79 -2.93 50.17], [83.92375612258911]
[14.67 -2.87 50.21], [84.07431077957153]
[14.57 -2.73 50.27], [84.22782897949219]
[14.87 -2.34 50.15], [84.37839150428772]
[14.9  -2.22 50.16], [84.53202867507935]
[15.28 -1.71 49.97], [84.6826057434082]
[15.09 -1.73 50.12], [84.83666944503784]
[14.98 -1.62 50.18], [85.02228140830994]
[15.36 -1.26 50.09], [85.17481398582458]
[15.2  -1.2  50.09], [85.32563376426697]
[15.3  -1.14 50.07], [85.50380492210388]
[15.08 -0.83 50.13], [85.65473103523254]
[1.514e+01 3.000e-02 5.005e+01], [85.80540108680725]
[14.87  0.11 50.26], [85.95875978469849]
[15.32  0.5  50.02], [86.1094799041748]
[15.12  0.46 50.14], [86.30437445640564]
[14.99  0.61 50.17], [86.45489048957825]
[14.97  0.58 50.16], [86.60494804382324]
[15.27  1.17 50.04], [86.75641894340515]
[15.06  1.23 50.14], [86.91074419021606]
[15.08  1.41 50.1 ], [87.09253334999084]
[15.17  2.08 50.04], [87.243483543396]
[15.08  2.07 49.97], [87.42645311355591]
[14.95  2.41 49.95], [87.57677268981934]
[14.94  2.57 49.99], [87.7281506061554]
[15.18  3.03 49.92], [87.87930035591125]
[14.95  3.15 49.97], [88.03499722480774]
[14.86  3.38 49.99], [88.18622422218323]
[14.69  3.32 50.08], [88.33830618858337]
[14.55  3.95 50.15], [88.4938952922821]
[14.66  4.01 50.03], [88.64835858345032]
[14.57  4.48 50.05], [88.80394530296326]
[14.22  4.39 50.11], [88.95734596252441]
[14.51  5.35 50.07], [89.11013436317444]
[14.31  5.23 50.08], [89.26378464698792]
[14.16  5.27 50.13], [89.41918683052063]
[14.15  5.28 50.15], [89.57272505760193]
[14.01  5.46 50.19], [89.7267165184021]
[13.7   5.91 50.25], [89.92224192619324]
[13.55  6.11 50.24], [90.07569026947021]
[13.47  6.22 50.26], [90.23178434371948]
[13.59  7.02 50.16], [90.38575172424316]
[13.42  6.82 50.18], [90.53944206237793]
[13.25  7.12 50.15], [90.70415043830872]
[13.05  7.21 50.25], [90.90143084526062]
[13.2   7.66 50.06], [91.05526924133301]
[12.92  7.53 50.18], [91.2091281414032]
[13.1   7.76 50.08], [91.36244678497314]
[12.93  7.7  50.08], [91.51762008666992]
[12.88  7.73 50.13], [91.67127776145935]
[12.78  7.79 50.16], [91.86081218719482]
[12.69  7.94 50.19], [92.01356363296509]
[12.4   8.52 50.2 ], [92.16771697998047]
[12.13  8.62 50.23], [92.32216763496399]
[12.3   9.3  50.04], [92.50933527946472]
[12.11  9.04 50.08], [92.66313862800598]
[11.98  9.12 50.16], [92.81671524047852]
[11.88  9.28 50.17], [92.97058010101318]
[11.78  9.31 50.24], [93.12522888183594]
[11.77  9.39 50.17], [93.27825665473938]
[11.69  9.48 50.17], [93.4335024356842]
[11.41  9.78 50.18], [93.58726906776428]
[11.2  10.22 50.14], [93.74123048782349]
[10.88 10.34 50.15], [93.89764022827148]
[10.83 10.64 49.93], [94.05161666870117]
[10.66 10.81 50.06], [94.20540738105774]
[10.4  10.84 50.14], [94.35803198814392]
[10.15 11.12 50.1 ], [94.51173067092896]
[10.19 11.13 50.17], [94.66557693481445]
[ 9.87 11.46 50.06], [94.82133269309998]
[ 9.61 11.64 50.09], [94.97484612464905]
[ 9.6  11.71 50.04], [95.12782001495361]
[ 9.58 12.   49.98], [95.28255605697632]
[ 9.33 12.01 50.01], [95.47264361381531]
[ 9.29 12.08 50.  ], [95.72597575187683]
[ 8.67 12.7  49.87], [95.88054203987122]
[ 8.65 12.79 49.87], [96.03290796279907]
[ 8.01 13.15 49.95], [96.18436193466187]
[ 7.88 13.48 49.83], [96.36694025993347]
[ 7.88 13.37 49.81], [96.51814150810242]
[ 7.92 13.64 49.84], [96.66943669319153]
[ 7.44 13.75 49.91], [96.85277509689331]
[ 7.39 13.7  49.87], [97.00409293174744]
[ 6.8  13.82 50.02], [97.15517377853394]
[ 6.71 13.7  50.01], [97.3070068359375]
[ 6.3  13.88 50.06], [97.4577386379242]
[ 6.1  13.91 50.1 ], [97.60929226875305]
[ 5.92 13.89 50.14], [97.76066660881042]
[ 5.48 14.11 50.27], [97.91237807273865]
[ 5.55 14.39 50.16], [98.06305766105652]
[ 5.42 14.34 50.08], [98.21444988250732]
[ 4.99 14.38 50.18], [98.3662679195404]
[ 4.89 14.33 50.15], [98.51757073402405]
[ 4.85 14.33 50.15], [98.67031741142273]
[ 4.75 14.27 50.21], [98.8217945098877]
[ 3.9  14.79 50.14], [98.97266697883606]
[ 3.65 14.9  49.98], [99.12473917007446]
[ 3.57 14.91 49.94], [99.27837109565735]
[ 3.39 14.9  49.98], [99.43391227722168]
[ 3.26 14.85 50.01], [99.58974552154541]
[ 2.65 14.89 50.15], [99.7824399471283]
[ 2.65 14.85 50.1 ], [99.96905422210693]
[ 2.2  14.87 50.18], [100.12076616287231]
[ 2.14 14.89 50.17], [100.31365013122559]
[ 2.07 14.88 50.2 ], [100.46654844284058]
[ 1.99 14.89 50.15], [100.65395784378052]
[ 1.9  14.98 50.11], [100.80697441101074]
[ 1.79 14.98 50.15], [100.96025562286377]
[ 1.16 15.02 50.23], [101.11501002311707]
[ 0.67 15.12 50.27], [101.29543423652649]
[ 0.65 15.08 50.27], [101.44600176811218]
[ 0.56 15.13 50.22], [101.59623503684998]
[ 0.41 15.22 50.23], [101.74747228622437]
[4.000e-02 1.534e+01 5.024e+01], [101.89800095558167]
[-0.09 15.34 50.22], [102.04858040809631]
[-0.32 15.34 50.26], [102.23308181762695]
[-0.38 15.36 50.22], [102.41508054733276]
[-0.78 15.27 50.29], [102.56527662277222]
[-1.36 15.36 50.36], [102.71540188789368]
[-1.53 15.33 50.31], [102.86571526527405]
[-2.09 15.35 50.3 ], [103.01589012145996]
[-2.1  15.28 50.32], [103.16585230827332]
[-2.12 15.31 50.3 ], [103.31547546386719]
[-2.23 15.22 50.34], [103.46516394615173]
[-2.32 15.14 50.38], [103.61579918861389]
[-2.88 15.11 50.45], [103.76674365997314]
[-2.86 15.09 50.39], [103.91943573951721]
[-3.48 15.01 50.45], [104.06880474090576]
[-3.52 14.9  50.41], [104.24922108650208]
[-3.95 14.68 50.41], [104.43038153648376]
[-4.25 14.7  50.42], [104.58234453201294]
[-4.29 14.67 50.48], [104.73699474334717]
[-4.4  14.55 50.52], [104.88928890228271]
[-4.49 14.44 50.55], [105.04204893112183]
[-4.89 14.27 50.59], [105.19512796401978]
[-4.92 14.28 50.57], [105.34852862358093]
[-5.82 13.94 50.56], [105.50071930885315]
[-5.85 13.8  50.54], [105.65300107002258]
[-5.86 13.88 50.59], [105.80268096923828]
[-6.   13.67 50.65], [105.99308609962463]
[-6.15 13.49 50.67], [106.14620876312256]
[-6.6  13.39 50.64], [106.29692316055298]
[-6.76 13.37 50.58], [106.44658994674683]
[-7.07 13.3  50.58], [106.62695741653442]
[-7.06 13.3  50.54], [106.77787590026855]
[-7.16 13.2  50.55], [106.92950892448425]
[-7.2  13.12 50.61], [107.07972073554993]
[-7.66 12.53 50.61], [107.27053761482239]
[-8.18 12.42 50.58], [107.42267608642578]
[-8.22 12.43 50.61], [107.57450914382935]
[-8.32 12.35 50.6 ], [107.76578330993652]
[-8.41 12.23 50.59], [107.91890263557434]
[-9.15 12.01 50.48], [108.0694808959961]
[-9.22 11.88 50.51], [108.22015523910522]
[-9.45 11.55 50.52], [108.37106466293335]
[-9.33 11.68 50.56], [108.52281618118286]
[-9.46 11.51 50.55], [108.6747133731842]
[-9.54 11.43 50.55], [108.8283462524414]
[-9.6  11.35 50.55], [108.9811224937439]
[-10.    10.8   50.51], [109.1340081691742]
[-10.15  10.68  50.53], [109.28636980056763]
[-10.09  10.68  50.57], [109.44074130058289]
[-10.85  10.39  50.45], [109.59349465370178]
[-11.04  10.08  50.42], [109.74900913238525]
[-10.97  10.19  50.43], [109.9023015499115]
[-11.08  10.06  50.44], [110.05949592590332]
[-11.26   9.84  50.42], [110.22007036209106]
[-11.64   9.34  50.38], [110.37820863723755]
[-11.88   9.04  50.36], [110.53423380851746]
[-11.95   8.93  50.35], [110.81053376197815]
[-11.99   8.81  50.38], [111.0136923789978]
[-12.14   8.65  50.35], [111.17047166824341]
[-12.21   8.57  50.33], [111.32489442825317]
[-12.24   8.5   50.32], [111.47459197044373]
[-12.34   8.33  50.31], [111.64471364021301]
[-12.66   7.87  50.29], [111.80207586288452]
[-12.83   7.7   50.24], [112.0544159412384]
[-12.91   7.59  50.24], [112.25779843330383]
[-13.15   7.22  50.18], [112.43903422355652]
[-13.19   7.15  50.18], [112.59662246704102]
[-13.24   7.07  50.17], [112.75896573066711]
[-13.36   6.9   50.15], [112.92083692550659]
[-13.44   6.77  50.13], [113.07944846153259]
[-13.24   6.54  50.17], [113.28669357299805]
[-13.29   6.51  50.19], [113.44026613235474]
[-13.35   6.46  50.15], [113.59265732765198]
[-13.35   6.4   50.14], [113.75581789016724]
[-13.66   5.98  50.09], [113.91436243057251]
[-13.61   6.    50.08], [114.06727600097656]
[-13.63   5.9   50.11], [114.22333145141602]
[-13.4    5.69  50.12], [114.3782331943512]
[-13.44   5.72  50.11], [114.53421807289124]
[-13.83   5.2   49.97], [114.68966102600098]
[-14.04   4.85  49.93], [114.84545469284058]
[-14.11   4.61  49.94], [115.05250954627991]
[-14.2    4.21  49.83], [115.31018447875977]
[-14.1    4.01  49.82], [115.4935519695282]
[-14.21   3.82  49.76], [115.69766879081726]
[-14.45   3.51  49.65], [115.89602088928223]
[-14.67   3.19  49.56], [116.08325552940369]
[-14.46   3.06  49.59], [116.25262832641602]
[-14.61   2.94  49.46], [116.40883874893188]
[-14.24   2.68  49.59], [116.55882263183594]
[-14.44   2.7   49.44], [116.72081732749939]
[-14.47   2.52  49.44], [116.87811470031738]
[-13.81   2.41  49.59], [117.03221082687378]
[-14.42   1.73  49.14], [117.18446683883667]
[-14.48   1.55  49.14], [117.34135961532593]
[-14.47   1.51  49.15], [117.49191236495972]
[-14.5    1.48  49.13], [117.64195322990417]
[-14.51   1.44  49.11], [117.7926869392395]
[-14.52   1.43  49.1 ], [117.94473242759705]
[-14.5    1.43  49.09], [118.09483695030212]
[-14.51   1.4   49.08], [118.24475741386414]
[-14.52   1.39  49.07], [118.39864826202393]
[-14.54   0.53  48.99], [118.55017232894897]
[-14.87   0.88  48.99], [118.73910665512085]
[-15.21   0.33  49.02], [118.93126273155212]
[-15.51  -0.25  48.92], [119.11411118507385]
[-15.63  -0.65  48.82], [119.2663950920105]
[-15.54  -0.65  48.82], [119.42991232872009]
[-15.55  -0.94  48.8 ], [119.58374571800232]
[-15.54  -1.15  48.78], [119.73788690567017]
[-15.46  -1.59  48.78], [119.89541816711426]
[-15.49  -1.54  48.78], [120.05359506607056]
[-15.47  -1.75  48.78], [120.2238416671753]
[-15.43  -1.94  48.76], [120.3748927116394]
[-15.38  -2.11  48.74], [120.64710092544556]
[-15.26  -2.87  48.72], [120.79887247085571]
[-15.81  -2.85  48.49], [120.94936180114746]
[-15.61  -3.27  48.54], [121.10010480880737]
[-15.53  -3.66  48.54], [121.276535987854]
[-15.53  -3.88  48.5 ], [121.43382596969604]
[-15.44  -4.43  48.43], [121.59233689308167]
[-15.31  -4.8   48.27], [121.7423689365387]
[-15.09  -5.03  48.36], [121.89269948005676]
[-14.74  -6.24  48.29], [122.04968619346619]
[-14.38  -5.51  49.12], [122.19920539855957]
[-14.35  -6.96  48.89], [122.34896087646484]
[-14.35  -7.04  48.56], [122.52694988250732]
[-14.54  -7.36  48.63], [122.67865324020386]
[-14.32  -7.06  48.96], [122.82947731018066]
[-14.66  -7.32  48.8 ], [122.97851634025574]
[-14.13  -7.69  49.16], [123.12953877449036]
[-13.84  -7.67  49.42], [123.30119752883911]
[-13.71  -7.79  49.47], [123.45501565933228]
[-14.39  -7.65  49.14], [123.60530972480774]
[-14.2   -7.97  49.14], [123.77668929100037]
[-14.15  -7.98  49.22], [123.95299458503723]
[-13.63  -8.36  49.47], [124.10304737091064]
[-13.57  -8.63  49.38], [124.25420212745667]
[-13.39  -9.14  49.27], [124.40335941314697]
[-13.09  -9.76  49.22], [124.55681824684143]
[-12.67  -9.57  49.76], [124.71123218536377]
[-12.44 -10.02  49.53], [124.86517596244812]
[-12.46 -10.08  49.48], [125.0187337398529]
[-12.27 -10.04  49.72], [125.17474722862244]
[-11.87 -10.8   49.57], [125.37497043609619]
[-11.9  -10.47  49.59], [125.54758882522583]
[-11.9  -10.55  49.63], [125.70193290710449]
[-10.65 -11.21  49.93], [125.9129114151001]
[-10.87 -10.95  49.86], [126.12503051757812]
[-10.81 -11.34  49.92], [126.329674243927]
[-10.7  -11.45  49.74], [126.49026584625244]
[-10.7  -11.37  49.77], [126.68697047233582]
[-10.31 -11.58  49.88], [126.88203620910645]
[-10.23 -11.64  49.91], [127.05064940452576]
[-10.16 -11.63  49.86], [127.21303987503052]
[ -9.78 -12.37  49.7 ], [127.39847779273987]
[ -9.76 -12.04  49.83], [127.60324287414551]
[ -9.36 -12.34  49.91], [127.77562642097473]
[ -8.89 -12.73  50.02], [127.93231725692749]
[ -8.45 -12.6   50.35], [128.08669209480286]
[ -8.42 -12.51  50.23], [128.23814034461975]
[ -8.36 -12.68  50.12], [128.38956546783447]
[ -8.39 -12.57  50.14], [128.54087233543396]
[ -8.22 -12.58  50.17], [128.69407629966736]
[ -7.64 -12.83  50.42], [128.84976482391357]
[ -7.57 -12.91  50.27], [129.0016748905182]
[ -6.89 -13.38  50.28], [129.19085097312927]
[ -6.5  -13.27  50.31], [129.34292578697205]
[ -6.5  -13.32  50.21], [129.506502866745]
[ -6.49 -13.39  50.27], [129.6612310409546]
[ -6.02 -13.25  50.41], [129.8208966255188]
[ -5.87 -13.44  50.32], [130.0152189731598]
[ -5.65 -13.52  50.34], [130.20162200927734]
[ -5.62 -13.34  50.34], [130.35305738449097]
[ -5.37 -13.33  50.38], [130.50807285308838]
[ -5.33 -13.39  50.4 ], [130.65892386436462]
[ -5.25 -13.46  50.52], [130.81069588661194]
[ -4.89 -13.61  50.35], [130.96216797828674]
[ -4.46 -14.21  50.21], [131.114093542099]
[ -4.4  -14.15  50.21], [131.3060622215271]
[ -3.73 -14.13  50.32], [131.46093821525574]
[ -3.8  -14.11  50.25], [131.61247730255127]
[ -3.72 -14.15  50.31], [131.7645103931427]
[ -3.58 -14.18  50.34], [131.9151885509491]
[ -3.26 -14.24  50.33], [132.06762290000916]
[ -3.14 -14.29  50.34], [132.21975421905518]
[ -2.66 -14.3   50.35], [132.3716323375702]
[ -2.6  -14.3   50.33], [132.5248920917511]
[ -2.67 -14.28  50.34], [132.67573046684265]
[ -2.2  -14.3   50.29], [132.82731747627258]
[ -2.09 -14.8   50.13], [132.97959566116333]
[ -1.59 -14.92  50.15], [133.13331937789917]
[ -1.54 -14.91  50.14], [133.28555536270142]
[ -1.32 -14.88  50.24], [133.43794584274292]
[ -1.28 -14.8   50.12], [133.58868503570557]
[ -0.72 -14.98  50.13], [133.74095177650452]
[ -0.59 -15.05  50.09], [133.89327597618103]
[ -0.13 -14.87  50.26], [134.04508304595947]
[ -0.18 -14.89  50.24], [134.19629096984863]
[  0.12 -14.91  50.27], [134.3484914302826]
[  0.13 -14.83  50.2 ], [134.58690786361694]
[  0.51 -14.74  50.21], [134.74067378044128]
[  0.38 -14.62  50.33], [134.91923475265503]
[  0.68 -14.48  50.38], [135.06979060173035]
[  0.99 -14.94  50.09], [135.22173619270325]
[  1.24 -14.91  50.19], [135.38659763336182]
[  1.62 -14.96  50.13], [135.55218362808228]
[  1.99 -14.69  50.25], [135.71796345710754]
[  2.31 -14.68  50.21], [135.87696599960327]
[  2.36 -14.65  50.19], [136.03197693824768]
[  2.52 -14.65  50.25], [136.19286012649536]
[  2.56 -14.59  50.24], [136.38038539886475]
[  2.84 -14.31  50.3 ], [136.64565777778625]
[  2.82 -14.23  50.3 ], [136.8170018196106]
[  2.97 -14.23  50.26], [136.9773142337799]
[  2.98 -14.18  50.31], [137.13275814056396]
[  2.99 -14.18  50.31], [137.29614090919495]
[  3.71 -14.73  49.96], [137.47783279418945]
