[1.11022302e-14 0.00000000e+00 5.00000000e+01], [16.040822744369507]
[1.49944319e-14 1.19719783e-14 5.00000000e+01], [17.331319570541382]
[3.84554514e-02 2.88600315e-03 5.00218752e+01], [17.492489099502563]
[1.19375191e-01 4.73252922e-03 5.00553426e+01], [17.647042751312256]
[2.44527728e-01 5.53032051e-03 5.00985219e+01], [17.800745248794556]
[4.15312464e-01 8.25838337e-03 5.01507810e+01], [17.95298719406128]
[6.32359229e-01 1.09413178e-02 5.02114012e+01], [18.103970289230347]
[8.96222335e-01 1.45566731e-02 5.02797457e+01], [18.267316818237305]
[1.17014492e+00 1.51554319e-02 5.03345525e+01], [18.456299543380737]
[1.47442308e+00 1.16523463e-02 5.03986353e+01], [18.618762731552124]
[1.81769616e+00 1.19739075e-02 5.04709188e+01], [18.76892328262329]
[2.20217646e+00 2.02106646e-02 5.05484658e+01], [18.9199481010437]
[2.59676823e+00 3.65687076e-02 5.06128247e+01], [19.075270652770996]
[ 3.0199098   0.06500465 50.68329975], [19.261128902435303]
[ 3.4546317   0.09275792 50.74556918], [19.420233964920044]
[ 3.89245753  0.12847231 50.80004061], [19.573012828826904]
[ 4.34629303  0.17546482 50.85629104], [19.7288658618927]
[ 4.80332041  0.21600188 50.90373187], [19.88049864768982]
[ 5.29210959  0.28425607 50.96009472], [20.032634019851685]
[ 5.79900341  0.33887561 51.00902088], [20.18333625793457]
[ 6.32071362  0.39203767 51.05198034], [20.333279132843018]
[ 6.8529553   0.433415   51.08775839], [20.48270869255066]
[ 7.39779848  0.53712847 51.11848137], [20.63157558441162]
[ 7.94142448  0.59455129 51.13604987], [20.781763076782227]
[ 8.5110141   0.65546333 51.15782398], [20.93074870109558]
[ 9.02412944  0.69284581 51.13994141], [21.109061002731323]
[ 9.51331636  0.772017   51.11858142], [21.257336378097534]
[ 9.97870713  0.86492156 51.08893885], [21.40582823753357]
[10.46247906  0.96750585 51.06853574], [21.626131772994995]
[10.91698134  1.03743334 51.02839666], [21.778788089752197]
[11.35498847  1.12327225 50.98410673], [21.931986331939697]
[11.79341173  1.23494132 50.94064581], [22.08366870880127]
[12.17413973  1.36711653 50.87269479], [22.2358660697937]
[12.51013174  1.55718276 50.79770661], [22.392024517059326]
[12.75255945  1.71221126 50.70159744], [22.54123830795288]
[12.9594764   1.95828878 50.61563059], [22.69106125831604]
[13.12229587  2.18763903 50.52949846], [22.841089963912964]
[13.26453795  2.44275856 50.45134505], [22.993537187576294]
[13.38196862  2.67297633 50.37696346], [23.146867275238037]
[13.49953056  2.89565007 50.31380361], [23.298976182937622]
[13.60550532  3.13448518 50.25122092], [23.452834844589233]
[13.735471    3.35094436 50.20172502], [23.605170726776123]
[13.85808136  3.5732109  50.1474687 ], [23.757457971572876]
[13.94098726  3.76296228 50.08688264], [23.910062789916992]
[14.025405    3.9855875  50.03431982], [24.06337261199951]
[14.09553584  4.2233709  49.97835987], [24.21474552154541]
[14.14907558  4.47124893 49.92048745], [24.396116018295288]
[14.19160149  4.72529008 49.86332922], [24.5697238445282]
[14.23166802  4.93939072 49.81320311], [24.72115731239319]
[14.27454321  5.14462641 49.76771292], [24.877232551574707]
[14.30934867  5.37934785 49.72736765], [25.033547401428223]
[14.31281907  5.63971132 49.79702773], [25.18725895881653]
[14.31663161  5.91111785 49.86575065], [25.340014934539795]
[14.28481723  6.16277538 49.94633405], [25.495802879333496]
[14.21967596  6.40043232 50.04161951], [25.64527988433838]
[14.15705547  6.55636523 50.13650235], [25.797913551330566]
[14.03863378  6.70536224 50.24466974], [25.983849048614502]
[13.91790369  6.85679837 50.34383175], [26.17119860649109]
[13.7337693   7.01963771 50.46233268], [26.32373571395874]
[13.53973875  7.14774785 50.58471405], [26.475250959396362]
[13.37555736  7.27831371 50.67525142], [26.627328395843506]
[13.21458989  7.35605648 50.76353002], [26.78150773048401]
[13.06532475  7.44070122 50.84257769], [26.96057105064392]
[12.88404224  7.47723335 50.92381366], [27.129616260528564]
[12.7079766   7.57904129 50.98572327], [27.286865949630737]
[12.52488888  7.6936867  51.04616624], [27.454100370407104]
[12.32956937  7.82432919 51.10293518], [27.622626066207886]
[12.11947386  7.97253858 51.15747094], [27.80643320083618]
[11.91248589  8.13131161 51.19548473], [27.9800808429718]
[11.70697412  8.28438192 51.23822665], [28.13756036758423]
[11.45502603  8.40284972 51.29912711], [28.28712034225464]
[11.22209171  8.53427739 51.34753453], [28.437403440475464]
[10.99988947  8.6784248  51.38360599], [28.58910036087036]
[10.77386977  8.83180962 51.42902937], [28.767186164855957]
[10.59041621  8.94705469 51.4384878 ], [28.93379497528076]
[10.38148368  9.06138471 51.46524552], [29.082561254501343]
[10.17518064  9.18537936 51.48681509], [29.23205065727234]
[ 9.95621353  9.32682475 51.50842979], [29.382583618164062]
[ 9.72531809  9.47739337 51.53189469], [29.56402564048767]
[ 9.50717     9.6210139  51.55236987], [29.713456392288208]
[ 9.27451151  9.75851926 51.57594689], [29.862161874771118]
[ 9.07120568  9.88283315 51.57932339], [30.012749910354614]
[ 8.85962099 10.01931799 51.58827927], [30.195024728775024]
[ 8.67393081 10.13010833 51.57936372], [30.34395933151245]
[ 8.47946791 10.23864109 51.57988986], [30.492259979248047]
[ 8.29119413 10.34456464 51.57928592], [30.6412193775177]
[ 8.08385628 10.47148398 51.58330431], [30.79061269760132]
[ 7.89543419 10.56850707 51.57816505], [30.940507650375366]
[ 7.69942854 10.68421119 51.56795417], [31.089115142822266]
[ 7.50170847 10.81300524 51.55472861], [31.240623950958252]
[ 7.33802084 10.93794862 51.52712494], [31.389798641204834]
[ 7.17195885 11.04962162 51.50733312], [31.538907527923584]
[ 6.98153946 11.19148729 51.4880426 ], [31.68863534927368]
[ 6.7887303  11.34736138 51.45922278], [31.838953733444214]
[ 6.58911444 11.52184411 51.42921272], [31.989322185516357]
[ 6.38368712 11.7049373  51.38504288], [32.14034843444824]
[ 6.20596494 11.89017447 51.33292643], [32.289791107177734]
[ 6.01887424 12.05855526 51.27749391], [32.44021773338318]
[ 5.81312584 12.23808474 51.23577173], [32.589805603027344]
[ 5.59775182 12.41377022 51.19702976], [32.74095916748047]
[ 5.358661   12.56162873 51.16172977], [32.89128565788269]
[ 5.14039069 12.72787011 51.11981241], [33.04283285140991]
[ 4.90984457 12.8803503  51.0841135 ], [33.19266390800476]
[ 4.66693465 13.04854141 51.0469555 ], [33.34275722503662]
[ 4.46946905 13.19769214 50.99202889], [33.491827726364136]
[ 4.26609387 13.35603985 50.93491064], [33.64167809486389]
[ 4.07084897 13.49222689 50.88471055], [33.79214262962341]
[ 3.87552817 13.60989984 50.84786026], [33.94287419319153]
[ 3.67011398 13.71575869 50.81677363], [34.093422412872314]
[ 3.44950781 13.83717095 50.7890598 ], [34.27365589141846]
[ 3.21868588 13.96707897 50.75377765], [34.448800802230835]
[ 2.98047007 14.1110666  50.71067099], [34.61921310424805]
[ 2.78455583 14.21611884 50.67011555], [34.7691433429718]
[ 2.56581732 14.33735943 50.63366143], [34.92015600204468]
[ 2.38926445 14.42594632 50.5949796 ], [35.07065439224243]
[ 2.20567391 14.52213225 50.55967468], [35.25491642951965]
[ 2.00421265 14.62239292 50.52902748], [35.416743516922]
[ 1.80576704 14.71552117 50.5060717 ], [35.56701922416687]
[ 1.5872911  14.79740396 50.48429628], [35.7170524597168]
[ 1.398603   14.86185196 50.45608257], [35.86766171455383]
[ 1.19260013 14.92499401 50.43720588], [36.01885104179382]
[ 1.01027725 14.9808188  50.41178695], [36.16839814186096]
[ 0.81058187 15.04272025 50.38715298], [36.318020820617676]
[ 0.59063447 15.10822448 50.36430995], [36.47139072418213]
[ 0.37132002 15.15712408 50.35128037], [36.62204122543335]
[ 0.17343113 15.20232137 50.32967003], [36.77186036109924]
[-4.29692742e-02  1.52459652e+01  5.03165092e+01], [36.924530267715454]
[-0.24189828 15.28716282 50.2929854 ], [37.074968576431274]
[-0.46532911 15.33107632 50.27592979], [37.22458028793335]
[-0.66136012 15.34413902 50.25206796], [37.37503123283386]
[-0.88791306 15.36701356 50.23702957], [37.527185916900635]
[-1.1308476  15.39565548 50.2171761 ], [37.67594027519226]
[-1.34144147 15.42500759 50.1879815 ], [37.82689929008484]
[-1.5795819  15.45327021 50.16338118], [37.9772264957428]
[-1.82412927 15.48228362 50.13395582], [38.12767028808594]
[-2.03134194 15.47294866 50.11684508], [38.27627778053284]
[-2.23710037 15.4531496  50.12120249], [38.43643522262573]
[-2.44132178 15.42816222 50.11996951], [38.586830854415894]
[-2.66582261 15.40027568 50.12337182], [38.73827052116394]
[-2.90254095 15.37125155 50.12577533], [38.88890862464905]
[-3.15045318 15.33968646 50.13005301], [39.040159940719604]
[-3.40554234 15.30828466 50.13140817], [39.19049406051636]
[-3.64792843 15.27106015 50.12069364], [39.34091925621033]
[-3.84669489 15.2174324  50.11422398], [39.49062657356262]
[-4.06253527 15.16669776 50.10824048], [39.64082217216492]
[-4.25040702 15.1117531  50.10160889], [39.794708013534546]
[-4.46013593 15.05512001 50.09382551], [39.945228099823]
[-4.68546463 14.99137978 50.0888881 ], [40.096383571624756]
[-4.9253633  14.93030603 50.07903126], [40.251054763793945]
[-5.14102356 14.86086012 50.06108748], [40.402506589889526]
[-5.36378228 14.79770081 50.0472529 ], [40.552966594696045]
[-5.57863748 14.71879312 50.04134193], [40.703197717666626]
[-5.81129783 14.63245952 50.04167026], [40.85300660133362]
[-6.04924012 14.54495751 50.04247238], [41.00241231918335]
[-6.29779787 14.45432495 50.04314373], [41.185420751571655]
[-6.5105468  14.37573321 50.03865864], [41.33667349815369]
[-6.67157902 14.30535859 50.02774428], [41.48664474487305]
[-6.84776723 14.23266501 50.02210902], [41.6411612033844]
[-7.0420557  14.1456289  50.01617451], [41.824923038482666]
[-7.24903425 14.05438126 50.01154427], [41.97422671318054]
[-7.41853016 13.96261042 50.00077288], [42.12460398674011]
[-7.60661354 13.85854353 49.99297858], [42.277103424072266]
[-7.80501341 13.75226905 49.9868055 ], [42.4280788898468]
[-8.01582035 13.6430074  49.98037298], [42.57771944999695]
[-8.19432945 13.5265602  49.9671856 ], [42.7403781414032]
[-8.37594386 13.42477137 49.96081015], [42.89063572883606]
[-8.58081219 13.30178842 49.94999301], [43.04144048690796]
[-8.79048692 13.18328814 49.940652  ], [43.19204258918762]
[-8.96242628 13.06353881 49.92526881], [43.373833656311035]
[-9.14022085 12.95133195 49.91507484], [43.524407386779785]
[-9.33928215 12.82446943 49.90172321], [43.675737619400024]
[-9.54909222 12.69534313 49.88783982], [43.82679080963135]
[-9.7291095  12.58212322 49.87344904], [43.978450536727905]
[-9.93362325 12.45288057 49.85626426], [44.13054847717285]
[-10.14763747  12.3181536   49.83744015], [44.28083848953247]
[-10.32006873  12.18901913  49.81598252], [44.43575167655945]
[-10.47867078  12.07684487  49.80035593], [44.5867018699646]
[-10.64319999  11.94794938  49.77978941], [44.73818254470825]
[-10.83169697  11.80521443  49.75826336], [44.888166666030884]
[-11.02335843  11.66361908  49.73619464], [45.04027724266052]
[-11.16572477  11.52688983  49.71221759], [45.19505500793457]
[-11.32599841  11.38369481  49.69097087], [45.347306966781616]
[-11.49885687  11.22089024  49.66447086], [45.50482892990112]
[-11.67367738  11.05744322  49.63884249], [45.66279602050781]
[-11.85612777  10.88780255  49.61102005], [45.8213427066803]
[-12.0209195   10.74017415  49.58820426], [46.04548501968384]
[-12.20361125  10.5775087   49.55890647], [46.202038049697876]
[-12.3582472   10.4510876   49.53876003], [46.355626583099365]
[-12.5251547   10.3089724   49.51043202], [46.51257276535034]
[-12.64086552  10.16723159  49.48261746], [46.683658838272095]
[-12.75903656  10.02914589  49.46100089], [46.84373235702515]
[-12.863757     9.89842542  49.44160823], [47.008925676345825]
[-12.98465937   9.74777434  49.41613485], [47.230183601379395]
[-13.1056293    9.59289161  49.39043073], [47.40776491165161]
[-13.23114409   9.4309925   49.36285841], [47.563682079315186]
[-13.35400353   9.26817259  49.335348  ], [47.716076612472534]
[-13.481768     9.09602874  49.30487391], [47.87235379219055]
[-13.57431607   8.95453612  49.28578379], [48.0265851020813]
[-13.66608605   8.80733034  49.26401423], [48.17941761016846]
[-13.75468714   8.66720933  49.24523219], [48.33036828041077]
[-13.84513069   8.52092858  49.22330345], [48.5019748210907]
[-13.9516319    8.3530621   49.19380561], [48.651657581329346]
[-14.05410436   8.18154382  49.16441631], [48.80480885505676]
[-14.15610829   7.99104052  49.15740866], [48.95948123931885]
[-14.26613629   7.78291382  49.16132665], [49.11377549171448]
[-14.34433801   7.59994774  49.17888806], [49.26720428466797]
[-14.43644984   7.39819854  49.19155949], [49.454517126083374]
[-14.52606492   7.18954603  49.20628788], [49.60807514190674]
[-14.61081448   6.97183326  49.22490781], [49.76198649406433]
[-14.69934275   6.7399495   49.24444892], [49.9498610496521]
[-14.79130577   6.48982633  49.26499544], [50.10283851623535]
[-14.87667751   6.28421375  49.2682071 ], [50.25232672691345]
[-14.97269156   6.0589714   49.26835474], [50.4033842086792]
[-15.04134674   5.83114843  49.27579784], [50.553465604782104]
[-15.11405034   5.57566981  49.28313223], [50.74472761154175]
[-15.1953842    5.29944983  49.29042699], [50.89489245414734]
[-15.27506916   5.0163613   49.29683032], [51.045796394348145]
[-15.35076683   4.7282622   49.30229883], [51.19794797897339]
[-15.42601478   4.42508981  49.30963084], [51.35217022895813]
[-15.49952407   4.10881536  49.31699066], [51.50735402107239]
[-15.56585647   3.82814515  49.32416006], [51.66015386581421]
[-15.6396955    3.5102457   49.32546559], [51.81422209739685]
[-15.68698426   3.2299484   49.32818091], [51.96759486198425]
[-15.74581809   2.91725972  49.3284594 ], [52.120511054992676]
[-15.78620619   2.64402984  49.33289046], [52.272993087768555]
[-15.80451813   2.37917943  49.34687991], [52.42578887939453]
[-15.81767518   2.14568089  49.35505801], [52.57841157913208]
[-15.82701307   1.88071412  49.36604614], [52.74485158920288]
[-15.81660968   1.61330557  49.37948253], [52.89465641975403]
[-15.80960608   1.32442504  49.3945358 ], [53.05138158798218]
[-15.79289164   1.02008255  49.41272846], [53.20475244522095]
[-15.7648112    0.74407783  49.44234481], [53.36256170272827]
[-15.72518624   0.4475335   49.47388257], [53.51335573196411]
[-15.66575826   0.19530975  49.51337963], [53.67185711860657]
[-15.59884743  -0.07246137  49.55639472], [53.82725191116333]
[-15.53333693  -0.36061644  49.59846284], [53.97974681854248]
[-15.4618716   -0.65714272  49.63969059], [54.136826515197754]
[-15.38901372  -0.96105673  49.67988647], [54.33783960342407]
[-15.31133418  -1.27131781  49.7229176 ], [54.49129009246826]
[-15.22148571  -1.58189991  49.77271868], [54.644460678100586]
[-15.12709614  -1.89873401  49.82430471], [54.81711983680725]
[-15.02986466  -2.21577791  49.87489749], [54.96819043159485]
[-14.93032107  -2.53097444  49.92727506], [55.119168281555176]
[-14.82206153  -2.80539682  49.99024642], [55.27238941192627]
[-14.69196319  -3.09088806  50.05228908], [55.423017740249634]
[-14.56250299  -3.40314501  50.11598924], [55.57496404647827]
[-14.43215714  -3.69517698  50.18323555], [55.72741436958313]
[-14.30064362  -3.98397612  50.24917529], [55.87885546684265]
[-14.16566365  -4.26541839  50.32081655], [56.03211855888367]
[-14.02892627  -4.54240537  50.39234555], [56.18692421913147]
[-13.89023627  -4.79296174  50.46116396], [56.337275981903076]
[-13.75596569  -5.00700399  50.53365798], [56.487618923187256]
[-13.61881083  -5.22131486  50.60790594], [56.640217542648315]
[-13.48550731  -5.40678156  50.68704652], [56.791937589645386]
[-13.37786511  -5.60532212  50.73894261], [57.01439690589905]
[-13.26721636  -5.78664063  50.80358704], [57.17127227783203]
[-13.16059013  -5.96975484  50.85473821], [57.329792499542236]
[-13.00050899  -6.17423074  50.92847681], [57.48877763748169]
[-12.85500886  -6.33726737  50.99078134], [57.644991397857666]
[-12.70917442  -6.46876818  51.05303561], [57.79541063308716]
[-12.60796672  -6.60758819  51.08317514], [57.94652199745178]
[-12.48285008  -6.78212868  51.11557938], [58.09518337249756]
[-12.35261116  -6.94423905  51.16057004], [58.245112895965576]
[-12.14783306  -7.13164062  51.23652792], [58.39567804336548]
[-11.95455709  -7.27148646  51.31826468], [58.549784660339355]
[-11.74921787  -7.43466527  51.38152703], [58.729315757751465]
[-11.54164571  -7.58884498  51.44614336], [58.88154363632202]
[-11.36626208  -7.76280281  51.48513662], [59.06129312515259]
[-11.18370108  -7.93925415  51.53026047], [59.23709774017334]
[-11.0109311   -8.06638178  51.57190258], [59.38846278190613]
[-10.81441354  -8.223714    51.61027937], [59.539976596832275]
[-10.64205764  -8.3490463   51.64795034], [59.691349267959595]
[-10.44918526  -8.49601693  51.68813086], [59.844828844070435]
[-10.25498962  -8.61060699  51.73559545], [60.00135660171509]
[-10.0448161   -8.74837152  51.7815245 ], [60.15491080284119]
[-9.84160033 -8.84025899 51.84048001], [60.310870885849]
[-9.67712033 -8.93049843 51.85696004], [60.46555781364441]
[-9.52766956 -9.03821788 51.86758344], [60.61626362800598]
[-9.40602969 -9.1042732  51.88608169], [60.78992962837219]
[-9.28000788 -9.17257344 51.9005872 ], [60.94385862350464]
[-9.13555077 -9.26550989 51.9179235 ], [61.097270488739014]
[-8.97649573 -9.36881541 51.93634778], [61.248029947280884]
[-8.80253005 -9.48329024 51.95477558], [61.40503787994385]
[-8.61237543 -9.60962774 51.97508162], [61.55746912956238]
[-8.4597026  -9.70088056 51.98881985], [61.7093288898468]
[-8.27403759 -9.82948031 52.00116665], [61.86054491996765]
[-8.09865942 -9.9253656  52.01610404], [62.013522148132324]
[ -7.96985742 -10.01247305  52.00472122], [62.16468644142151]
[ -7.84122595 -10.04831494  52.01498641], [62.31537437438965]
[ -7.68982735 -10.11340823  52.02547555], [62.470773696899414]
[ -7.52470397 -10.20126852  52.03707007], [62.62357544898987]
[ -7.36446067 -10.29767122  52.04571731], [62.77511215209961]
[ -7.19192785 -10.39952092  52.04977682], [62.92556953430176]
[ -7.0009093  -10.51135503  52.05566506], [63.07711720466614]
[ -6.85984283 -10.57389455  52.07871409], [63.22832918167114]
[ -6.67663689 -10.66797326  52.09660775], [63.379807472229004]
[ -6.52975132 -10.70886751  52.09757141], [63.530754804611206]
[ -6.3680063  -10.76031077  52.10993071], [63.681185722351074]
[ -6.19496232 -10.82531927  52.11971374], [63.833316802978516]
[ -5.98749154 -10.90458445  52.11733017], [63.98474049568176]
[ -5.8381327  -11.00372476  52.09249312], [64.13790345191956]
[ -5.69318184 -11.03028262  52.10377159], [64.28878474235535]
[ -5.5660073  -11.08053322  52.08849949], [64.44090676307678]
[ -5.40237286 -11.16111324  52.08550481], [64.59290623664856]
[ -5.22752935 -11.23825595  52.08197974], [64.7495174407959]
[ -5.03806556 -11.31956429  52.07640547], [64.90685844421387]
[ -4.87091549 -11.39115816  52.05019657], [65.06215357780457]
[ -4.68153711 -11.48176584  52.03856098], [65.21840739250183]
[ -4.57086865 -11.50670679  52.04379628], [65.36734557151794]
[ -4.42669917 -11.54679555  52.03237598], [65.54446339607239]
[ -4.30140359 -11.58147986  52.0175001 ], [65.71378087997437]
[ -4.15456816 -11.63609272  51.99842666], [65.86814761161804]
[ -3.98041627 -11.69340832  51.98443713], [66.01769351959229]
[ -3.82963558 -11.75120255  51.96078581], [66.17048239707947]
[ -3.65494421 -11.82369235  51.94727864], [66.32361316680908]
[ -3.49255504 -11.88116147  51.92664858], [66.47959399223328]
[ -3.32814665 -11.94308371  51.89533258], [66.63019299507141]
[ -3.14771199 -12.01368174  51.87427504], [66.80792093276978]
[ -2.94931364 -12.08684219  51.85423671], [66.95933389663696]
[ -2.75487364 -12.15761582  51.81636364], [67.11126375198364]
[ -2.5819683  -12.17413059  51.80838884], [67.26129293441772]
[ -2.41063071 -12.20032546  51.7922087 ], [67.4122564792633]
[ -2.22500462 -12.23358708  51.77613503], [67.56153798103333]
[ -2.07890338 -12.26273983  51.75349125], [67.71121311187744]
[ -1.91519669 -12.29010171  51.73925405], [67.8616988658905]
[ -1.74018315 -12.32659359  51.71929457], [68.01222324371338]
[ -1.55673857 -12.36772714  51.69553011], [68.16246247291565]
[ -1.37578431 -12.40120279  51.67284901], [68.31271243095398]
[ -1.18430255 -12.43570702  51.64439339], [68.46506834030151]
[ -0.98332476 -12.4716034   51.62246949], [68.615229845047]
[ -0.77684838 -12.50295462  51.59031078], [68.76507067680359]
[ -0.56979446 -12.51792329  51.57430349], [68.91525101661682]
[ -0.33727485 -12.54335857  51.55324729], [69.06616497039795]
[ -0.13220112 -12.56126906  51.51744901], [69.21730852127075]
[  0.05862459 -12.58573881  51.48029858], [69.36781454086304]
[  0.25697942 -12.608427    51.45080568], [69.52254557609558]
[  0.44482766 -12.60724462  51.42842201], [69.67326831817627]
[  0.61724962 -12.61084497  51.3953643 ], [69.82772302627563]
[  0.80506576 -12.61142859  51.37167156], [70.00875663757324]
[  0.97426404 -12.61510213  51.33958459], [70.15971040725708]
[  1.16574537 -12.61894635  51.31667178], [70.31007051467896]
[  1.38031036 -12.63518555  51.27859344], [70.46194458007812]
[  1.59799713 -12.65815733  51.23670153], [70.61317610740662]
[  1.79490197 -12.67353664  51.19779079], [70.76582670211792]
[  2.01085407 -12.6829187   51.1596159 ], [70.91971445083618]
[  2.24758988 -12.69288551  51.12704171], [71.07295036315918]
[  2.44433758 -12.69831957  51.09385169], [71.22491240501404]
[  2.66189796 -12.70444617  51.06392556], [71.41293668746948]
[  2.87111515 -12.69740793  51.03541353], [71.56502509117126]
[  3.09486367 -12.69044705  51.01033622], [71.71555542945862]
[  3.31111674 -12.67664188  50.97989616], [71.86558437347412]
[  3.53271827 -12.66125346  50.95206656], [72.01554846763611]
[  3.76248828 -12.62907713  50.93204704], [72.16579389572144]
[  3.96747484 -12.5978559   50.91018442], [72.34225463867188]
[  4.17344828 -12.54792166  50.90257577], [72.49289393424988]
[  4.40717848 -12.49735933  50.88434621], [72.64384818077087]
[  4.66841863 -12.43564651  50.86814161], [72.79398512840271]
[  4.92122128 -12.36956193  50.85022822], [72.94459772109985]
[  5.19939466 -12.29964501  50.82442452], [73.09429025650024]
[  5.47365394 -12.22134685  50.80995592], [73.24938464164734]
[  5.74400733 -12.14244721  50.7903097 ], [73.40478825569153]
[  6.02419523 -12.05362035  50.77535941], [73.55677795410156]
[  6.26933384 -11.92698927  50.76798029], [73.7087836265564]
[  6.52400298 -11.7808033   50.76492215], [73.8624861240387]
[  6.77504207 -11.64683974  50.75600901], [74.0140872001648]
[  7.0442291  -11.50371637  50.74322246], [74.16861915588379]
[  7.32128862 -11.36212098  50.73030537], [74.41847395896912]
[  7.61601568 -11.23260492  50.71120841], [74.56956672668457]
[  7.8933497  -11.08703134  50.70211832], [74.82043957710266]
[  8.18893045 -10.92999119  50.69447139], [74.9769651889801]
[  8.45078687 -10.78032045  50.68999337], [75.13312363624573]
[  8.72454439 -10.61054418  50.68906   ], [75.28490400314331]
[  8.95123483 -10.46158924  50.68843853], [75.43592548370361]
[  9.17553694 -10.30390904  50.68662906], [75.58738708496094]
[  9.35527388 -10.17433545  50.68786557], [75.73923015594482]
[  9.54111509 -10.01953507  50.69195325], [75.89063763618469]
[ 9.74961162 -9.84653795 50.69410108], [76.04284477233887]
[ 9.96356511 -9.66191295 50.69727144], [76.23484253883362]
[10.18476251 -9.46637147 50.69942555], [76.38510584831238]
[10.37037701 -9.29174282 50.69046854], [76.53670310974121]
[10.5397329  -9.10830917 50.69569175], [76.68698000907898]
[10.72746899 -8.92508093 50.69859022], [76.83903408050537]
[10.88677343 -8.79380455 50.68540523], [76.9895408153534]
[11.06604401 -8.64805195 50.66913321], [77.17196583747864]
[11.24702152 -8.49198433 50.65216091], [77.32267355918884]
[11.43831044 -8.31414762 50.63887834], [77.47205018997192]
[11.57881879 -8.11039277 50.65319082], [77.62407326698303]
[11.71431694 -7.93924574 50.65521396], [77.77658486366272]
[11.85847919 -7.7516298  50.65466596], [77.9289014339447]
[11.98496467 -7.58230307 50.6551263 ], [78.08600068092346]
[12.13537087 -7.3949846  50.65048047], [78.24181127548218]
[12.28249179 -7.23157042 50.63918233], [78.39989042282104]
[12.44099605 -7.03479623 50.62892841], [78.55247044563293]
[12.58836088 -6.80959659 50.63701059], [78.70362782478333]
[12.68088036 -6.62356243 50.64830869], [78.8559901714325]
[12.79896203 -6.42343684 50.64566755], [79.00884366035461]
[12.90211887 -6.23817186 50.65003157], [79.16008138656616]
[13.02416297 -6.03455656 50.64458535], [79.31075620651245]
[13.15552343 -5.80059135 50.64497564], [79.46127104759216]
[13.30797035 -5.56201337 50.63540832], [79.61130118370056]
[13.4126578  -5.3415505  50.63152027], [79.76206636428833]
[13.47186082 -5.13570468 50.650517  ], [79.93848323822021]
[13.55335069 -4.91468326 50.65661746], [80.12421536445618]
[13.60793168 -4.69044229 50.66733128], [80.27432441711426]
[13.6719715  -4.46560012 50.67367623], [80.45739197731018]
[13.75206623 -4.24008069 50.67603114], [80.60835218429565]
[13.81915278 -4.03767362 50.67580101], [80.76097178459167]
[13.8996877  -3.81029058 50.67245408], [80.91048288345337]
[13.96646443 -3.61582015 50.66736771], [81.0625331401825]
[14.04303531 -3.3791223  50.66217807], [81.21494817733765]
[14.08529576 -3.17618477 50.66036432], [81.36776876449585]
[14.14872475 -2.95267178 50.64654561], [81.52178645133972]
[14.23157089 -2.71674896 50.63343866], [81.6747567653656]
[14.27417485 -2.52402147 50.62493121], [81.86289477348328]
[14.34080969 -2.29448139 50.60525377], [82.01649785041809]
[14.42590481 -2.06924759 50.58058793], [82.21132564544678]
[14.45669128 -1.88384134 50.57034161], [82.39082050323486]
[14.49843974 -1.6633814  50.55467006], [82.56944251060486]
[14.54560596 -1.42904123 50.54182787], [82.71941113471985]
[14.59594047 -1.1786013  50.52986968], [82.87069749832153]
[14.61821857 -0.94988354 50.52882461], [83.02040410041809]
[14.65302759 -0.7058232  50.51968793], [83.16990280151367]
[14.6422266  -0.50133246 50.52486377], [83.32002902030945]
[14.67018347 -0.28929286 50.507956  ], [83.47147226333618]
[14.71436162 -0.06494658 50.48730843], [83.62143182754517]
[14.74654142  0.15088288 50.4735541 ], [83.77057981491089]
[14.74265201  0.34435422 50.46989586], [83.92318081855774]
[14.76202054  0.56531243 50.45307158], [84.07393336296082]
[14.79417984  0.80360987 50.43238424], [84.22743105888367]
[14.83685312  1.05138731 50.40580778], [84.37799978256226]
[14.84982265  1.28377434 50.39126233], [84.53175067901611]
[14.85964838  1.52774025 50.37546331], [84.68201327323914]
[14.83101846  1.74431708 50.37849626], [84.83632946014404]
[14.82054072  1.98644841 50.36652195], [85.02194356918335]
[14.81970701  2.24093294 50.34880891], [85.17452621459961]
[14.77956198  2.48299581 50.34057217], [85.32523441314697]
[14.75310526  2.74245686 50.33143368], [85.50347423553467]
[14.71434433  3.01922767 50.32459203], [85.65438032150269]
[14.69465481  3.28835367 50.31146559], [85.80498576164246]
[14.66588882  3.49517147 50.30656104], [85.95834970474243]
[14.66071481  3.71749316 50.28103501], [86.10906314849854]
[14.60676101  3.92401182 50.27949724], [86.30380702018738]
[14.56858131  4.15763769 50.26560102], [86.45445680618286]
[14.53878199  4.39924317 50.24898194], [86.60449695587158]
[14.50594374  4.66674924 50.23319307], [86.7558696269989]
[14.4380996   4.89831932 50.22976529], [86.91033339500427]
[14.38553676  5.14682243 50.21602519], [87.09204483032227]
[14.32488515  5.39998486 50.20634124], [87.24298191070557]
[14.24905463  5.60906481 50.20290698], [87.42598915100098]
[14.17513393  5.84164435 50.20548207], [87.5761981010437]
[14.10702585  6.06258609 50.21001137], [87.72762298583984]
[14.03260074  6.28997125 50.21083386], [87.87886023521423]
[13.92667818  6.49371286 50.2190661 ], [88.03418731689453]
[13.83548035  6.70754313 50.22181161], [88.18570399284363]
[13.74478742  6.92032822 50.22281883], [88.33789491653442]
[13.66219109  7.16083177 50.21477898], [88.49346613883972]
[13.58465904  7.3602571  50.20059289], [88.64806294441223]
[13.48643273  7.57523097 50.19771782], [88.8033595085144]
[13.38751631  7.76466541 50.19314832], [88.95703864097595]
[13.31306931  7.98420859 50.18193835], [89.10973596572876]
[13.19977974  8.12936746 50.17646543], [89.26335144042969]
[13.0953068   8.30735588 50.16870787], [89.41857194900513]
[12.9946228   8.50185505 50.15620525], [89.57235884666443]
[12.88352875  8.71584639 50.14186482], [89.72639322280884]
[12.77464886  8.93215637 50.12362585], [89.92189860343933]
[12.68463005  9.12385505 50.09968746], [90.07530784606934]
[12.59696894  9.31558392 50.07651036], [90.23141527175903]
[12.5045254   9.51604576 50.05132929], [90.38519334793091]
[12.38739029  9.65654157 50.03690864], [90.53907060623169]
[12.27347234  9.83613795 50.01916588], [90.70377492904663]
[12.16283767 10.00478437 50.00459149], [90.9011378288269]
[12.05826781 10.18349259 49.98025412], [91.05486106872559]
[11.92445824 10.33596169 49.97482037], [91.20877480506897]
[11.80396701 10.51978775 49.95693027], [91.36210107803345]
[11.65079012 10.69888155 49.94942897], [91.5169186592102]
[11.49931186 10.90172346 49.94115133], [91.67093276977539]
[11.33752643 11.11932146 49.92824834], [91.86046624183655]
[11.17006346 11.34837434 49.91233116], [92.01321697235107]
[10.99570583 11.5797555  49.89361161], [92.16709733009338]
[10.83417135 11.77049433 49.87430764], [92.32182359695435]
[10.68290553 11.96803901 49.85162384], [92.5089476108551]
[10.49808101 12.11442304 49.84839547], [92.66271305084229]
[10.31498179 12.30269866 49.83996513], [92.81604170799255]
[10.12774419 12.49895016 49.82420532], [92.9702639579773]
[ 9.93303269 12.69496058 49.80754414], [93.12484931945801]
[ 9.73060244 12.90340716 49.78400811], [93.27789807319641]
[ 9.5111307  13.11882896 49.76715165], [93.4328932762146]
[ 9.28145084 13.34004694 49.75018556], [93.58695220947266]
[ 9.06128024 13.54594606 49.73233947], [93.74082732200623]
[ 8.84338221 13.72240362 49.71867993], [93.89717936515808]
[ 8.63834496 13.90075695 49.70353824], [94.05094146728516]
[ 8.41900033 14.06259538 49.70973946], [94.20500659942627]
[ 8.19747812 14.22111014 49.70348729], [94.35768222808838]
[ 7.98234768 14.3896841  49.68928697], [94.51136612892151]
[ 7.7723901  14.5430742  49.67915437], [94.66495943069458]
[ 7.53858547 14.70804611 49.66226085], [94.82052683830261]
[ 7.31653077 14.8520237  49.65597333], [94.97450733184814]
[ 7.10007252 14.99000812 49.64677465], [95.12742257118225]
[ 6.86405888 15.13235303 49.64230149], [95.28189969062805]
[ 6.60949712 15.25701329 49.64399608], [95.47223567962646]
[ 6.35900229 15.39139636 49.64229751], [95.72558331489563]
[ 6.09149896 15.529276   49.64169025], [95.88014531135559]
[ 5.86464075 15.6155333  49.654048  ], [96.0325403213501]
[ 5.61832231 15.70280706 49.6662151 ], [96.18402791023254]
[ 5.41441825 15.76385602 49.67092698], [96.36652088165283]
[ 5.2017222  15.80129697 49.68752974], [96.51764345169067]
[ 4.96720948 15.85819379 49.7053823 ], [96.66901206970215]
[ 4.70705973 15.8970208  49.72119957], [96.85241460800171]
[ 4.47276967 15.93305447 49.72995557], [97.00377345085144]
[ 4.22118127 15.98169072 49.74235303], [97.15484666824341]
[ 4.0062223  16.02600481 49.74043271], [97.30660915374756]
[ 3.77769154 16.08920971 49.73910771], [97.45735263824463]
[ 3.56760355 16.14129234 49.73325327], [97.60881614685059]
[ 3.35480578 16.19687727 49.72346833], [97.76003098487854]
[ 3.13725485 16.26040311 49.70966764], [97.91200947761536]
[ 2.94085551 16.30813294 49.68391953], [98.06263518333435]
[ 2.714541   16.33331513 49.66907264], [98.21381545066833]
[ 2.47825434 16.36802725 49.66123338], [98.36561131477356]
[ 2.26183997 16.4035595  49.64396855], [98.51721286773682]
[ 2.03220002 16.44810388 49.62932594], [98.66999244689941]
[ 1.78343877 16.49642844 49.61463975], [98.82146549224854]
[ 1.52149697 16.55424983 49.59404135], [98.97214317321777]
[ 1.32099458 16.56369179 49.5811232 ], [99.12419080734253]
[ 1.12183675 16.56465915 49.58308979], [99.27790236473083]
[ 0.90730044 16.56682557 49.58870497], [99.4330620765686]
[ 0.68738783 16.57208815 49.59048427], [99.58923697471619]
[ 0.45703536 16.58396216 49.58925929], [99.78204464912415]
[ 0.26403582 16.59348773 49.5748641 ], [99.96869134902954]
[ 0.053399   16.60456346 49.58165274], [100.12033939361572]
[-0.1331274  16.61281151 49.58910904], [100.31322717666626]
[-0.33506837 16.61804084 49.60445202], [100.46590423583984]
[-0.55120309 16.62261414 49.6245709 ], [100.65359663963318]
[-0.78365082 16.62574066 49.64816603], [100.80658888816833]
[-1.0318524  16.61933981 49.673199  ], [100.95985293388367]
[-1.29116523 16.61054827 49.70001505], [101.11430597305298]
[-1.51380062 16.59751744 49.7128559 ], [101.29514408111572]
[-1.71254915 16.57365436 49.71849642], [101.44533586502075]
[-1.93020319 16.54965008 49.73319398], [101.59584784507751]
[-2.16345105 16.51811225 49.75026762], [101.74676847457886]
[-2.40536771 16.47432551 49.76720325], [101.89758634567261]
[-2.63552065 16.41600042 49.7791094 ], [102.0482087135315]
[-2.87556787 16.35333133 49.79548396], [102.23270750045776]
[-3.115636   16.28577443 49.81095942], [102.41469883918762]
[-3.37335353 16.21154504 49.82971682], [102.56476783752441]
[-3.61440512 16.1406713  49.84383815], [102.71490526199341]
[-3.82209872 16.0569251  49.84726241], [102.86526489257812]
[-4.03579884 15.97057056 49.8559182 ], [103.01540064811707]
[-4.21904344 15.87771743 49.85743386], [103.1653835773468]
[-4.42149086 15.78378383 49.86680231], [103.31497478485107]
[-4.64500761 15.67932751 49.87878477], [103.46462965011597]
[-4.87935309 15.57508586 49.89260105], [103.61529517173767]
[-5.12664531 15.46999109 49.90706715], [103.76638507843018]
[-5.34187861 15.36051241 49.91208948], [103.91904616355896]
[-5.5812126  15.24520524 49.9223831 ], [104.0684244632721]
[-5.78262363 15.12942607 49.92418868], [104.24887299537659]
[-6.00102833 15.01588361 49.93140156], [104.43000483512878]
[-6.19969728 14.91466105 49.9358313 ], [104.5819640159607]
[-6.39037047 14.80323109 49.93562826], [104.73658418655396]
[-6.59757048 14.68301495 49.93828429], [104.88891124725342]
[-6.81504705 14.56283256 49.94209354], [105.04178476333618]
[-7.04481556 14.44186596 49.94566174], [105.19465470314026]
[-7.25656442 14.3264199  49.94525657], [105.34780025482178]
[-7.48637676 14.1995864  49.94411389], [105.50021028518677]
[-7.64950059 14.09565684 49.93785788], [105.65245699882507]
[-7.82747921 13.99508613 49.93552984], [105.80238437652588]
[-8.02578546 13.87304125 49.92972076], [105.99270749092102]
[-8.23035405 13.75689221 49.92609445], [106.1456310749054]
[-8.44006254 13.64503739 49.92146103], [106.2965579032898]
[-8.62619707 13.53160951 49.9113696 ], [106.44621992111206]
[-8.81624225 13.40887824 49.90072311], [106.62656879425049]
[-8.99583162 13.27949459 49.88827092], [106.77719712257385]
[-9.1957372  13.13707022 49.87624282], [106.92921185493469]
[-9.40586491 12.98897906 49.86348942], [107.07937526702881]
[-9.63084039 12.83282664 49.84877626], [107.2702202796936]
[-9.82879977 12.71771283 49.83980809], [107.42233300209045]
[-9.99179298 12.60227008 49.82325771], [107.57390570640564]
[-10.16802693  12.47067381  49.80595826], [107.76530027389526]
[-10.35341324  12.33081687  49.78809917], [107.91838669776917]
[-10.54798675  12.18674151  49.76936283], [108.0689582824707]
[-10.68751645  12.05107241  49.74896022], [108.21979331970215]
[-10.83407444  11.91248936  49.73195806], [108.37070035934448]
[-10.97488025  11.78738029  49.71845922], [108.52248787879944]
[-11.14325241  11.63371314  49.69693165], [108.67402863502502]
[-11.31739091  11.47766034  49.67573401], [108.82782888412476]
[-11.49949609  11.31291455  49.65136168], [108.9806261062622]
[-11.6921613   11.13817822  49.62406759], [109.13362336158752]
[-11.86080013  10.99805988  49.60475667], [109.28592109680176]
[-12.02694353  10.85379815  49.58045522], [109.44024085998535]
[-12.21436632  10.69074782  49.55066753], [109.59282207489014]
[-12.34252444  10.53955531  49.52366012], [109.74835062026978]
[-12.46223243  10.40184044  49.50459623], [109.90177845954895]
[-12.60212611  10.23591287  49.47684084], [110.05913233757019]
[-12.74675205  10.06185635  49.44837139], [110.2195975780487]
[-12.88679213   9.89015594  49.42106334], [110.37774562835693]
[-13.00135461   9.74679676  49.40227007], [110.5338613986969]
[-13.10181808   9.61472738  49.38514934], [110.8101155757904]
[-13.20642699   9.47478024  49.36478121], [111.01326417922974]
[-13.31957248   9.32581421  49.34159229], [111.17012548446655]
[-13.42998583   9.17295921  49.31720799], [111.3245279788971]
[-13.54443521   9.00911007  49.2896889 ], [111.474205493927]
[-13.66731478   8.83226876  49.25862826], [111.64440727233887]
[-13.79156323   8.65121372  49.22684452], [111.80170178413391]
[-13.89440415   8.4924517   49.20330389], [112.05396032333374]
[-13.98753409   8.3326771   49.17857318], [112.25726532936096]
[-14.08181458   8.16300483  49.1513685 ], [112.43882250785828]
[-14.16172905   8.00774799  49.13095867], [112.5963134765625]
[-14.24458786   7.84045013  49.10562095], [112.75863599777222]
[-14.33149635   7.65987478  49.07670651], [112.92044401168823]
[-14.41508692   7.47460789  49.04792893], [113.07891321182251]
[-14.49805965   7.28145873  49.01762269], [113.28639388084412]
[-14.60848746   7.08738344  48.98598404], [113.43989562988281]
[-14.72170009   6.87570575  48.9440701 ], [113.59229826927185]
[-14.83566604   6.64903479  48.8981052 ], [113.75552558898926]
[-14.95586691   6.4074663   48.8481718 ], [113.91401767730713]
[-15.05208238   6.18268017  48.80793437], [114.06698489189148]
[-15.1555829    5.93838534  48.75974699], [114.2230076789856]
[-15.26329733   5.68023435  48.70751829], [114.37786173820496]
[-15.39861108   5.42020657  48.65273654], [114.53381657600403]
[-15.53395108   5.13881887  48.58515369], [114.68936657905579]
[-15.6349634    4.88468601  48.53415221], [114.84514021873474]
[-15.71574008   4.64392946  48.49032887], [115.05210471153259]
[-15.79142557   4.40412425  48.44680391], [115.30981206893921]
[-15.86006186   4.18231842  48.41089102], [115.49317955970764]
[-15.9391834    3.96065265  48.37016323], [115.69728493690491]
[-16.00883344   3.73801964  48.32697878], [115.89567303657532]
[-16.05531325   3.5254571   48.29124997], [116.08297061920166]
[-16.07973212   3.3234439   48.26368391], [116.25218296051025]
[-16.12437523   3.11363041  48.2300012 ], [116.4085304737091]
[-16.15368609   2.89895713  48.19382577], [116.55841946601868]
[-16.22062837   2.6836672   48.15358394], [116.72031831741333]
[-16.26540589   2.45422306  48.10400367], [116.87769174575806]
[-16.30636871   2.21959478  48.05669021], [117.03184986114502]
[-16.41155618   1.98838114  48.00195552], [117.18407225608826]
[-16.45266561   1.82512215  47.97828307], [117.34099555015564]
[-16.48207322   1.69578149  47.96676133], [117.49157691001892]
[-16.50835916   1.58761839  47.95850876], [117.64161968231201]
[-16.52783787   1.49303692  47.95174324], [117.79233407974243]
[-16.54275042   1.40832217  47.94661679], [117.94439744949341]
[-16.55784785   1.29392322  47.96607409], [118.09450554847717]
[-16.5957938    0.97376431  48.10744278], [118.24441528320312]
[-16.62375005   0.61207148  48.22128611], [118.39831924438477]
[-16.64562027   0.22392008  48.32886114], [118.54983711242676]
[-16.65787686  -0.12906909  48.40225907], [118.73866081237793]
[-16.63593883  -0.52206686  48.50387403], [118.9309778213501]
[-16.57390439  -0.89397287  48.58852989], [119.11369395256042]
[-16.47609535  -1.24212716  48.66526044], [119.26602172851562]
[-16.36053434  -1.5782395   48.74332499], [119.4296247959137]
[-16.24866881  -1.92968045  48.83231214], [119.58331489562988]
[-16.12889938  -2.27932826  48.91422058], [119.7375841140747]
[-16.00338808  -2.6315391   48.99455552], [119.89507293701172]
[-15.87839491  -2.96793313  49.06296199], [120.05323958396912]
[-15.74377797  -3.32444429  49.14164024], [120.22347354888916]
[-15.60303999  -3.68331254  49.2162342 ], [120.37455415725708]
[-15.45821204  -4.04613089  49.28866979], [120.64674139022827]
[-15.31004909  -4.41440655  49.35963569], [120.79845881462097]
[-15.16474782  -4.74091481  49.40582449], [120.9490134716034]
[-14.95609668  -5.09169958  49.46963056], [121.09974908828735]
[-14.75839836  -5.42172217  49.52568389], [121.27619361877441]
[-14.55943443  -5.73554169  49.57413932], [121.4334626197815]
[-14.35187049  -6.00828979  49.71019507], [121.59189343452454]
[-14.1428869   -6.24381166  49.86015648], [121.74197959899902]
[-13.93573123  -6.46312465  50.0251015 ], [121.89227366447449]
[-13.73952501  -6.68016109  50.18124048], [122.04932832717896]
[-13.56683691  -6.79709213  50.34452484], [122.19886136054993]
[-13.41909185  -7.00773513  50.42735981], [122.34862923622131]
[-13.26270494  -7.09394418  50.53444946], [122.52661800384521]
[-13.09276004  -7.19184663  50.67134475], [122.67828226089478]
[-12.89203347  -7.27792796  50.80299515], [122.82913541793823]
[-12.70051216  -7.41347458  50.9022342 ], [122.97814679145813]
[-12.46200145  -7.54232561  51.01806463], [123.12922596931458]
[-12.26321019  -7.65362236  51.09883781], [123.30084729194641]
[-12.07945949  -7.78601161  51.1546295 ], [123.4546914100647]
[-11.89452914  -7.925095    51.20588089], [123.60499334335327]
[-11.62706155  -8.09630212  51.28916039], [123.77637100219727]
[-11.36415073  -8.25369797  51.3722803 ], [123.95258927345276]
[-11.09105291  -8.42807029  51.44744795], [124.10273885726929]
[-10.85482351  -8.58252607  51.49885051], [124.25389099121094]
[-10.6085264   -8.72748263  51.55872359], [124.40303111076355]
[-10.36427695  -8.83888266  51.62930566], [124.55650901794434]
[-10.13362694  -8.9055614   51.70457189], [124.71091532707214]
[-9.92885443 -9.00857723 51.72793292], [124.86486339569092]
[-9.7299413  -9.08283157 51.77362047], [125.01837182044983]
[-9.51194501 -9.16734756 51.82383233], [125.17426943778992]
[-9.29608572 -9.27202161 51.85127396], [125.37464666366577]
[-9.10247277 -9.31643872 51.89338854], [125.5471134185791]
[-8.88783774 -9.40921184 51.93268854], [125.7016019821167]
[-8.65561737 -9.50909316 51.96888752], [125.91255950927734]
[-8.52997473 -9.5582227  51.9760091 ], [126.12466096878052]
[-8.36322079 -9.64781803 51.98949934], [126.32933926582336]
[-8.18441637 -9.71300151 51.99830905], [126.4898328781128]
[-7.99735064 -9.7808279  52.02346504], [126.68662166595459]
[-7.79132669 -9.87035235 52.04589236], [126.88143658638]
[-7.60504753 -9.95231979 52.05788992], [127.05027294158936]
[ -7.40711108 -10.0414014   52.06698483], [127.2127628326416]
[ -7.19643232 -10.14408408  52.08068868], [127.39815926551819]
[ -7.00372948 -10.18537139  52.11021982], [127.60294246673584]
[ -6.79273926 -10.27185578  52.12640891], [127.77530455589294]
[ -6.60161627 -10.34029589  52.13569527], [127.93200206756592]
[ -6.43677111 -10.38156435  52.13449059], [128.08637142181396]
[ -6.29516045 -10.44740062  52.10153795], [128.23759722709656]
[ -6.13546471 -10.53265865  52.07988921], [128.38923168182373]
[ -5.96082777 -10.61133327  52.06893954], [128.54053449630737]
[ -5.76207899 -10.71111157  52.05579398], [128.69368982315063]
[ -5.55909059 -10.81967634  52.03983841], [128.84937644004822]
[ -5.39259633 -10.91319646  52.00032367], [129.00108551979065]
[ -5.21108909 -11.00765873  51.97474219], [129.19052839279175]
[ -5.07571435 -11.06428037  51.94857556], [129.34254455566406]
[ -4.95694252 -11.14027307  51.91873594], [129.50606107711792]
[ -4.8160956  -11.21928493  51.89875126], [129.66092801094055]
[ -4.65427721 -11.29923483  51.87321523], [129.8204402923584]
[ -4.51711366 -11.40061393  51.83390005], [130.01481103897095]
[ -4.37235383 -11.48998717  51.80345106], [130.20120644569397]
[ -4.22706729 -11.57821478  51.77099386], [130.35270714759827]
[ -4.06212455 -11.6906142   51.73814586], [130.50769472122192]
[ -3.89951877 -11.81002145  51.70159565], [130.6584711074829]
[ -3.71809863 -11.92913386  51.6632126 ], [130.81033897399902]
[ -3.52193049 -12.04684656  51.61358755], [130.96181058883667]
[ -3.33860177 -12.1542204   51.5798729 ], [131.11367678642273]
[ -3.17501394 -12.20649537  51.5601912 ], [131.3055338859558]
[ -2.99416745 -12.26900012  51.53986601], [131.4604847431183]
[ -2.85703203 -12.3374821   51.50912501], [131.61209678649902]
[ -2.6894722  -12.41123052  51.48494097], [131.76417207717896]
[ -2.50682467 -12.48433289  51.45530998], [131.9148449897766]
[ -2.31484731 -12.55721214  51.42276456], [132.06697940826416]
[ -2.13141248 -12.62650197  51.3911643 ], [132.21946048736572]
[ -1.93649252 -12.69286441  51.35861955], [132.37091398239136]
[ -1.76600526 -12.75989296  51.3250131 ], [132.52449870109558]
[ -1.57793212 -12.8281284   51.29323231], [132.67525053024292]
[ -1.35952333 -12.89933309  51.26054146], [132.82692551612854]
[ -1.16454639 -12.96896514  51.23250243], [132.97920632362366]
[ -0.9569396  -12.98898603  51.22045117], [133.1328125]
[ -0.77571117 -12.99707632  51.20631179], [133.28492164611816]
[ -0.57587324 -13.00553731  51.19299001], [133.43757820129395]
[ -0.37459274 -13.0163039   51.17031412], [133.58826327323914]
[ -0.15383572 -13.03337767  51.15869776], [133.740473985672]
[ 3.44818680e-02 -1.30311291e+01  5.11468005e+01], [133.89291954040527]
[  0.23338426 -13.01979765  51.13852169], [134.04470825195312]
[  0.40977307 -13.02432065  51.11400936], [134.19583678245544]
[  0.61454972 -13.023922    51.09133861], [134.34814548492432]
[  0.81260371 -13.01861297  51.06606761], [134.58623695373535]
[  1.03291267 -13.01750704  51.04706042], [134.7403314113617]
[  1.23845053 -13.02157524  51.02720296], [134.91878294944763]
[  1.48011387 -13.03343446  50.99565816], [135.0693802833557]
[  1.71480823 -13.05476699  50.95942095], [135.22144722938538]
[  1.9416015  -13.02501819  50.95138953], [135.3861436843872]
[  2.16641048 -12.99326706  50.93360491], [135.55172276496887]
[  2.37616598 -12.95080072  50.92169922], [135.71733045578003]
[  2.57182428 -12.92928149  50.8979305 ], [135.87660765647888]
[  2.75823987 -12.90226582  50.87809211], [136.03150272369385]
[  2.96216698 -12.87145284  50.85999013], [136.1923623085022]
[  3.17252603 -12.83377458  50.8364353 ], [136.38002252578735]
[  3.40114713 -12.794575    50.8136586 ], [136.64530205726624]
[  3.62398563 -12.77550499  50.78492093], [136.81668400764465]
[  3.8708554  -12.75613035  50.7560199 ], [136.97695779800415]
[  4.12460189 -12.72830863  50.73107984], [137.1323699951172]
[  4.39912681 -12.69670622  50.70124007], [137.29574823379517]
[  4.69422914 -12.65598273  50.67144004], [137.47749638557434]
