[6.006, 5.852, 2.992]::[0, 0, 0]::[0.013333333333333334, 0, 0]
[5.997, 5.841, 2.968]::[1.04, 0.0, 0.26]::[0.020000000000000004, 0, 0]
[5.997, 5.841, 2.968]::[1.3, 0.0, 0.26]::[0.02666666666666667, 0, 0]
[5.997, 5.841, 2.968]::[1.3, 0.0, 0.26]::[0.03333333333333333, 0, 0]
[5.997, 5.841, 2.968]::[0.0, -0.26, 0.52]::[0.04000000000000001, 0, 0]
[5.997, 5.841, 2.968]::[-0.26, -0.26, 0.26]::[0.04666666666666667, 0, 0]
[5.997, 5.841, 2.968]::[0.0, 0.0, 1.04]::[0.05333333333333334, 0, 0]
[5.997, 5.841, 2.968]::[-0.26, 0.0, 0.26]::[0.060000000000000005, 0, 0]
[5.997, 5.841, 2.968]::[0.0, 0.0, 0.52]::[0.06666666666666667, 0, 0]
[5.997, 5.841, 2.968]::[-0.26, 0.0, 0.52]::[0.07333333333333333, 0, 0]
[5.997, 5.841, 2.968]::[0.0, 0.0, 0.78]::[0.08000000000000002, 0, 0]
[5.997, 5.841, 2.968]::[-0.52, 0.0, 0.78]::[0.08666666666666667, 0, 0]
[5.997, 5.841, 2.968]::[0.0, 0.0, 0.52]::[0.09333333333333334, 0, 0]
[5.997, 5.841, 2.968]::[-0.26, 0.0, 0.26]::[0.1, 0, 0]
[5.997, 5.841, 2.968]::[0.0, 0.0, 0.26]::[0.10666666666666667, 0, 0]
[5.997, 5.841, 2.968]::[-0.26, 0.0, 0.52]::[0.11333333333333334, 0, 0]
[5.997, 5.841, 2.968]::[0.26, 0.0, 0.52]::[0.12000000000000001, 0, 0]
[5.997, 5.841, 2.968]::[0.0, 0.26, 0.52]::[0.12666666666666668, 0, 0]
[5.997, 5.841, 2.968]::[-0.26, -0.26, 0.52]::[0.13333333333333333, 0, 0]
[5.997, 5.841, 2.968]::[-0.26, 0.0, 0.52]::[0.14, 0, 0]
[5.997, 5.841, 2.968]::[-0.26, 0.0, 0.52]::[0.14666666666666667, 0, 0]
[5.997, 5.841, 2.968]::[-0.26, -0.52, 0.52]::[0.15333333333333335, 0, 0]
[5.997, 5.841, 2.968]::[0.0, 0.0, 0.26]::[0.16000000000000003, 0, 0]
[5.997, 5.841, 2.968]::[-0.26, 0.0, 0.52]::[0.16666666666666666, 0, 0]
[5.997, 5.841, 2.968]::[-0.26, 0.0, 0.52]::[0.17333333333333334, 0, 0]
[5.997, 5.841, 2.968]::[0.0, 0.0, 0.26]::[0.18000000000000002, 0, 0]
[5.997, 5.841, 2.968]::[0.0, 0.0, 0.52]::[0.18666666666666668, 0, 0]
[5.997, 5.841, 2.968]::[0.0, -0.26, 0.78]::[0.19333333333333336, 0, 0]
[5.997, 5.841, 2.968]::[0.0, -0.26, 0.52]::[0.2, 0, 0]
[5.997, 5.841, 2.968]::[0.0, -0.26, 0.52]::[0.19333333333333336, 0, 0]
[5.997, 5.841, 2.968]::[-0.26, -0.26, 0.78]::[0.18666666666666668, 0, 0]
[5.997, 5.841, 2.968]::[0.0, 0.0, 0.52]::[0.18000000000000002, 0, 0]
[5.997, 5.841, 2.968]::[-0.26, -0.26, 0.78]::[0.17333333333333334, 0, 0]
[5.997, 5.841, 2.968]::[0, 0, 0]::[0.013333333333333334, 0, 0]
[6.031, 5.842, 2.987]::[1.56, -0.26, 0.52]::[0.020000000000000004, 0, 0]
[6.031, 5.842, 2.987]::[1.56, 0.0, 0.52]::[0.02666666666666667, 0, 0]
[6.031, 5.842, 2.987]::[1.56, 0.0, 0.52]::[0.03333333333333333, 0, 0]
[6.031, 5.842, 2.987]::[1.56, 0.0, 0.78]::[0.04000000000000001, 0, 0]
[6.031, 5.842, 2.987]::[1.56, 0.0, 0.52]::[0.04666666666666667, 0, 0]
[6.031, 5.842, 2.987]::[1.56, -0.26, 0.52]::[0.05333333333333334, 0, 0]
[6.031, 5.842, 2.987]::[1.56, 0.0, 0.52]::[0.060000000000000005, 0, 0]
[6.031, 5.842, 2.987]::[1.56, 0.0, 0.52]::[0.06666666666666667, 0, 0]
[6.032, 5.842, 2.986]::[1.56, 0.0, 0.78]::[0.07333333333333333, 0, 0]
[6.031, 5.842, 2.987]::[1.56, 0.0, 0.52]::[0.08000000000000002, 0, 0]
[6.031, 5.842, 2.987]::[1.56, -0.26, 0.52]::[0.08666666666666667, 0, 0]
[6.031, 5.842, 2.987]::[1.56, 0.0, 0.52]::[0.09333333333333334, 0, 0]
[6.031, 5.842, 2.987]::[1.56, 0.0, 0.52]::[0.1, 0, 0]
[6.031, 5.842, 2.987]::[-0.26, 0.26, 0.26]::[0.10666666666666667, 0, 0]
[6.561, 5.765, 3.152]::[0.78, 0.52, 0.0]::[0.11333333333333334, 0, 0]
[6.602, 5.759, 3.158]::[1.04, 0.0, 0.0]::[0.12000000000000001, 0, 0]
[6.612, 5.758, 3.159]::[1.82, 0.26, 0.0]::[0.12666666666666668, 0, 0]
[6.64, 5.754, 3.161]::[1.82, 0.26, 0.0]::[0.13333333333333333, 0, 0]
[6.645, 5.753, 3.162]::[2.87, 0.52, 0.0]::[0.14, 0, 0]
[6.67, 5.749, 3.162]::[3.13, 0.52, 0.0]::[0.14666666666666667, 0, 0]
[6.675, 5.748, 3.162]::[4.17, 0.78, -0.26]::[0.15333333333333335, 0, 0]
[6.695, 5.745, 3.162]::[4.17, 0.26, 0.0]::[0.16000000000000003, 0, 0]
[6.701, 5.744, 3.162]::[4.95, 0.26, 0.26]::[0.16666666666666666, 0, 0]
[6.721, 5.741, 3.161]::[4.95, 0.52, 0.0]::[0.17333333333333334, 0, 0]
[6.726, 5.74, 3.16]::[6.52, 0.26, 0.0]::[0.18000000000000002, 0, 0]
[6.744, 5.737, 3.158]::[5.99, 0.52, 0.0]::[0.18666666666666668, 0, 0]
[6.748, 5.736, 3.158]::[7.3, 0.52, 0.26]::[0.19333333333333336, 0, 0]
[6.766, 5.733, 3.156]::[7.04, 0.0, 0.26]::[0.2, 0, 0]
[6.77, 5.732, 3.156]::[7.3, 0.78, 0.26]::[0.19333333333333336, 0, 0]
[6.772, 5.732, 3.155]::[7.3, 0.52, 0.26]::[0.18666666666666668, 0, 0]
[6.772, 5.732, 3.155]::[6.78, 0.52, 0.26]::[0.18000000000000002, 0, 0]
[6.771, 5.732, 3.155]::[5.21, 0.52, 0.0]::[0.17333333333333334, 0, 0]
[6.749, 5.736, 3.158]::[4.95, 0.78, 0.26]::[0.16666666666666666, 0, 0]
[6.746, 5.736, 3.158]::[4.69, 0.52, 0.26]::[0.16000000000000003, 0, 0]
[6.744, 5.737, 3.158]::[3.65, 0.26, 0.0]::[0.15333333333333335, 0, 0]
[6.732, 5.739, 3.159]::[2.87, 0.78, 0.0]::[0.14666666666666667, 0, 0]
[6.716, 5.741, 3.16]::[2.87, 0.52, 0.26]::[0.14, 0, 0]
[6.713, 5.742, 3.159]::[2.35, 0.26, 0.26]::[0.13333333333333333, 0, 0]
[6.699, 5.744, 3.16]::[2.09, 0.52, 0.26]::[0.12666666666666668, 0, 0]
[6.695, 5.745, 3.16]::[1.04, 0.78, 0.26]::[0.12000000000000001, 0, 0]
[6.679, 5.748, 3.16]::[0.78, 0.52, 0.0]::[0.11333333333333334, 0, 0]
[6.675, 5.748, 3.16]::[0.78, 0.52, 0.0]::[0.10666666666666667, 0, 0]
[6.672, 5.749, 3.159]::[-1.04, 0.52, 0.0]::[0.1, 0, 0]
[6.644, 5.753, 3.158]::[-1.04, 0.52, 0.0]::[0.09333333333333334, 0, 0]
[6.63, 5.755, 3.157]::[-1.56, 0.52, 0.26]::[0.08666666666666667, 0, 0]
[6.626, 5.756, 3.157]::[-2.61, 0.26, -0.26]::[0.08000000000000002, 0, 0]
[6.603, 5.759, 3.155]::[-2.35, 0.52, 0.0]::[0.07333333333333333, 0, 0]
[6.598, 5.76, 3.154]::[-3.13, 0.26, 0.26]::[0.06666666666666667, 0, 0]
[6.573, 5.764, 3.151]::[-3.39, 0.26, 0.0]::[0.060000000000000005, 0, 0]
[6.568, 5.765, 3.15]::[-4.43, 0.52, 0.0]::[0.05333333333333334, 0, 0]
[6.537, 5.769, 3.145]::[-5.47, 0.52, 0.26]::[0.04666666666666667, 0, 0]
[6.502, 5.775, 3.139]::[-5.47, 0.26, 0.0]::[0.04000000000000001, 0, 0]
[6.496, 5.775, 3.137]::[-5.21, 0.52, 0.26]::[0.03333333333333333, 0, 0]
[6.492, 5.776, 3.136]::[-7.04, 0.52, 0.26]::[0.02666666666666667, 0, 0]
[6.448, 5.783, 3.127]::[-7.04, 0.26, 0.0]::[0.020000000000000004, 0, 0]
[6.433, 5.786, 3.123]::[-8.34, 0.78, 0.0]::[0.013333333333333334, 0, 0]
[6.368, 5.797, 3.107]::[-9.12, 0.0, 0.0]::[0.006666666666666667, 0, 0]
[6.308, 5.808, 3.091]::[-9.64, 0.52, 0.0]::[0.013333333333333334, 0, 0]
[6.262, 5.817, 3.076]::[-9.64, 0.52, 0.0]::[0.020000000000000004, 0, 0]
[6.227, 5.823, 3.064]::[-9.9, 0.52, 0.0]::[0.02666666666666667, 0, 0]
[6.201, 5.827, 3.054]::[-5.73, 0.26, -0.26]::[0.03333333333333333, 0, 0]
[6.425, 5.787, 3.122]::[-5.47, 0.52, -0.26]::[0.04000000000000001, 0, 0]
[6.442, 5.784, 3.126]::[-5.47, 0.26, 0.0]::[0.04666666666666667, 0, 0]
[6.448, 5.783, 3.127]::[-4.17, 0.0, 0.26]::[0.05333333333333334, 0, 0]
[6.496, 5.774, 3.136]::[-3.39, 0.26, 0.0]::[0.060000000000000005, 0, 0]
[6.521, 5.77, 3.14]::[-3.39, 0.52, -0.26]::[0.06666666666666667, 0, 0]
[6.526, 5.769, 3.141]::[-2.61, 0.26, 0.26]::[0.07333333333333333, 0, 0]
[6.556, 5.765, 3.147]::[-2.35, 0.26, 0.0]::[0.08000000000000002, 0, 0]
[6.559, 5.764, 3.147]::[-1.3, 0.26, 0.0]::[0.08666666666666667, 0, 0]
[6.59, 5.76, 3.152]::[-1.3, 0.26, 0.0]::[0.09333333333333334, 0, 0]
[6.593, 5.76, 3.153]::[-0.26, 0.52, 0.0]::[0.1, 0, 0]
[6.616, 5.757, 3.155]::[-0.26, 0.52, 0.0]::[0.10666666666666667, 0, 0]
[6.623, 5.756, 3.156]::[1.04, 0.52, 0.0]::[0.11333333333333334, 0, 0]
[6.645, 5.752, 3.158]::[0.78, 0.26, 0.26]::[0.12000000000000001, 0, 0]
[6.648, 5.752, 3.158]::[2.09, 0.52, 0.26]::[0.12666666666666668, 0, 0]
[6.671, 5.748, 3.159]::[1.82, 0.26, 0.0]::[0.13333333333333333, 0, 0]
[6.672, 5.748, 3.159]::[3.13, 0.52, 0.26]::[0.14, 0, 0]
[6.694, 5.745, 3.159]::[3.13, 0.26, -0.26]::[0.14666666666666667, 0, 0]
[6.697, 5.744, 3.159]::[4.17, 0.52, -0.26]::[0.15333333333333335, 0, 0]
[6.719, 5.741, 3.159]::[4.17, 0.52, 0.0]::[0.16000000000000003, 0, 0]
[6.72, 5.74, 3.159]::[5.21, 0.52, 0.0]::[0.16666666666666666, 0, 0]
[6.737, 5.738, 3.158]::[4.95, 0.52, 0.0]::[0.17333333333333334, 0, 0]
[6.74, 5.737, 3.158]::[5.99, 0.0, 0.0]::[0.18000000000000002, 0, 0]
[6.758, 5.734, 3.156]::[6.26, 0.52, 0.0]::[0.18666666666666668, 0, 0]
[6.76, 5.734, 3.156]::[7.3, 0.52, 0.0]::[0.19333333333333336, 0, 0]
[6.778, 5.73, 3.154]::[7.3, 0.78, 0.0]::[0.2, 0, 0]
[6.781, 5.73, 3.153]::[7.56, 0.52, 0.0]::[0.19333333333333336, 0, 0]
[6.782, 5.73, 3.153]::[6.78, 0.52, 0.0]::[0.18666666666666668, 0, 0]
[6.78, 5.73, 3.153]::[6.52, 0.52, 0.0]::[0.18000000000000002, 0, 0]
[6.779, 5.73, 3.153]::[4.95, 0.52, 0.26]::[0.17333333333333334, 0, 0]
[6.758, 5.734, 3.156]::[4.95, 0.52, 0.0]::[0.16666666666666666, 0, 0]
[6.755, 5.734, 3.156]::[4.95, 0.26, 0.26]::[0.16000000000000003, 0, 0]
[6.753, 5.735, 3.156]::[3.65, 0.26, 0.0]::[0.15333333333333335, 0, 0]
[6.741, 5.737, 3.157]::[2.87, 0.0, 0.0]::[0.14666666666666667, 0, 0]
[6.725, 5.74, 3.158]::[2.87, 0.26, 0.0]::[0.14, 0, 0]
[6.721, 5.74, 3.158]::[2.09, 0.26, 0.26]::[0.13333333333333333, 0, 0]
[6.709, 5.742, 3.158]::[1.82, 0.78, 0.0]::[0.12666666666666668, 0, 0]
[6.704, 5.743, 3.158]::[1.04, 0.52, 0.0]::[0.12000000000000001, 0, 0]
[6.687, 5.746, 3.159]::[0.52, 0.52, 0.0]::[0.11333333333333334, 0, 0]
[6.683, 5.746, 3.158]::[0.26, 0.52, 0.26]::[0.10666666666666667, 0, 0]
[6.68, 5.747, 3.158]::[-0.78, 0.26, 0.0]::[0.1, 0, 0]
[6.66, 5.75, 3.158]::[-1.3, 0.26, 0.0]::[0.09333333333333334, 0, 0]
[6.638, 5.754, 3.157]::[-1.3, 0.78, 0.26]::[0.08666666666666667, 0, 0]
[6.634, 5.754, 3.156]::[-2.61, 0.26, 0.0]::[0.08000000000000002, 0, 0]
[6.613, 5.757, 3.154]::[-2.35, 0.26, 0.0]::[0.07333333333333333, 0, 0]
[6.608, 5.758, 3.154]::[-3.39, 0.52, -0.26]::[0.06666666666666667, 0, 0]
[6.583, 5.762, 3.151]::[-3.65, 0.52, 0.26]::[0.060000000000000005, 0, 0]
[6.579, 5.763, 3.15]::[-4.43, 0.52, 0.0]::[0.05333333333333334, 0, 0]
[6.549, 5.767, 3.146]::[-5.47, 0.26, 0.0]::[0.04666666666666667, 0, 0]
[6.515, 5.773, 3.141]::[-5.73, 0.52, 0.26]::[0.04000000000000001, 0, 0]
[6.509, 5.773, 3.139]::[-5.73, 0.26, 0.0]::[0.03333333333333333, 0, 0]
[6.505, 5.774, 3.138]::[-6.78, 0.52, -0.26]::[0.02666666666666667, 0, 0]
[6.456, 5.782, 3.128]::[-6.78, 0.26, 0.0]::[0.020000000000000004, 0, 0]
[6.45, 5.783, 3.127]::[-8.6, 0.52, 0.0]::[0.013333333333333334, 0, 0]
[6.365, 5.799, 3.107]::[-9.12, 0.52, 0.0]::[0.006666666666666667, 0, 0]
[6.301, 5.811, 3.089]::[-9.64, 0.26, 0.0]::[0.013333333333333334, 0, 0]
[6.255, 5.819, 3.075]::[-9.9, 0.78, 0.26]::[0.020000000000000004, 0, 0]
[6.221, 5.824, 3.062]::[-10.43, 0.52, 0.0]::[0.02666666666666667, 0, 0]
[6.196, 5.828, 3.053]::[-5.47, 0.26, 0.0]::[0.03333333333333333, 0, 0]
[6.438, 5.785, 3.124]::[-5.47, 0.52, 0.26]::[0.04000000000000001, 0, 0]
[6.454, 5.782, 3.128]::[-5.73, 0.26, -0.26]::[0.04666666666666667, 0, 0]
[6.46, 5.781, 3.129]::[-3.65, 0.26, 0.0]::[0.05333333333333334, 0, 0]
[6.508, 5.772, 3.137]::[-3.39, 0.26, 0.0]::[0.060000000000000005, 0, 0]
[6.535, 5.768, 3.142]::[-3.39, 0.52, 0.26]::[0.06666666666666667, 0, 0]
[6.536, 5.768, 3.142]::[-2.35, 0.52, 0.0]::[0.07333333333333333, 0, 0]
[6.564, 5.764, 3.147]::[-2.61, 0.26, 0.26]::[0.08000000000000002, 0, 0]
[6.569, 5.763, 3.148]::[-1.56, 0.52, 0.26]::[0.08666666666666667, 0, 0]
[6.596, 5.759, 3.152]::[-1.3, 0.78, 0.26]::[0.09333333333333334, 0, 0]
[6.601, 5.759, 3.153]::[-0.52, 0.52, 0.0]::[0.1, 0, 0]
[6.623, 5.756, 3.155]::[0.0, 0.26, 0.26]::[0.10666666666666667, 0, 0]
[6.631, 5.754, 3.156]::[0.78, 0.26, 0.0]::[0.11333333333333334, 0, 0]
[6.651, 5.751, 3.157]::[0.78, 0.26, 0.0]::[0.12000000000000001, 0, 0]
[6.656, 5.75, 3.158]::[2.09, 0.26, 0.0]::[0.12666666666666668, 0, 0]
[6.676, 5.747, 3.158]::[1.82, 0.0, 0.0]::[0.13333333333333333, 0, 0]
[6.68, 5.747, 3.158]::[2.87, 0.52, -0.26]::[0.14, 0, 0]
[6.699, 5.744, 3.158]::[2.61, 0.26, 0.26]::[0.14666666666666667, 0, 0]
[6.703, 5.743, 3.158]::[3.91, 0.26, 0.0]::[0.15333333333333335, 0, 0]
[6.721, 5.74, 3.158]::[3.65, 0.78, 0.0]::[0.16000000000000003, 0, 0]
[6.723, 5.74, 3.158]::[4.95, 0.26, 0.0]::[0.16666666666666666, 0, 0]
[6.742, 5.736, 3.156]::[4.95, 0.26, 0.26]::[0.17333333333333334, 0, 0]
[6.745, 5.736, 3.156]::[6.26, 0.26, 0.0]::[0.18000000000000002, 0, 0]
[6.763, 5.733, 3.154]::[5.99, 0.26, 0.26]::[0.18666666666666668, 0, 0]
[6.764, 5.733, 3.154]::[7.04, 0.26, 0.0]::[0.19333333333333336, 0, 0]
[6.781, 5.729, 3.152]::[7.04, 0.52, 0.26]::[0.2, 0, 0]
[6.785, 5.729, 3.152]::[7.3, 0.52, 0.0]::[0.19333333333333336, 0, 0]
[6.785, 5.728, 3.152]::[6.78, 0.26, 0.0]::[0.18666666666666668, 0, 0]
[6.784, 5.729, 3.152]::[6.52, 0.26, 0.0]::[0.18000000000000002, 0, 0]
[6.783, 5.729, 3.152]::[4.95, 0.52, 0.0]::[0.17333333333333334, 0, 0]
[6.762, 5.733, 3.154]::[4.69, 0.26, 0.0]::[0.16666666666666666, 0, 0]
[6.758, 5.733, 3.154]::[4.43, 0.52, 0.0]::[0.16000000000000003, 0, 0]
[6.756, 5.734, 3.154]::[4.17, 0.52, 0.26]::[0.15333333333333335, 0, 0]
[6.745, 5.736, 3.155]::[2.87, 0.52, -0.26]::[0.14666666666666667, 0, 0]
[6.729, 5.739, 3.156]::[2.87, 0.52, 0.0]::[0.14, 0, 0]
[6.726, 5.739, 3.157]::[1.56, 0.52, 0.0]::[0.13333333333333333, 0, 0]
[6.711, 5.742, 3.157]::[1.56, 0.26, 0.0]::[0.12666666666666668, 0, 0]
[6.708, 5.742, 3.157]::[0.78, 0.26, 0.0]::[0.12000000000000001, 0, 0]
[6.693, 5.745, 3.157]::[0.78, 0.52, -0.26]::[0.11333333333333334, 0, 0]
[6.688, 5.745, 3.157]::[0.78, 0.52, -0.26]::[0.10666666666666667, 0, 0]
[6.685, 5.746, 3.157]::[-0.78, 0.26, 0.0]::[0.1, 0, 0]
[6.662, 5.749, 3.157]::[-1.56, 0.26, 0.0]::[0.09333333333333334, 0, 0]
[6.644, 5.752, 3.156]::[-1.56, 0.52, 0.0]::[0.08666666666666667, 0, 0]
[6.64, 5.753, 3.155]::[-2.35, 0.52, 0.0]::[0.08000000000000002, 0, 0]
[6.618, 5.756, 3.154]::[-2.61, 0.52, 0.0]::[0.07333333333333333, 0, 0]
[6.613, 5.757, 3.153]::[-3.39, 0.26, 0.52]::[0.06666666666666667, 0, 0]
[6.588, 5.761, 3.151]::[-3.65, 0.26, 0.0]::[0.060000000000000005, 0, 0]
[6.584, 5.762, 3.15]::[-4.69, 0.0, 0.0]::[0.05333333333333334, 0, 0]
[6.555, 5.766, 3.146]::[-5.47, 0.26, 0.26]::[0.04666666666666667, 0, 0]
[6.522, 5.772, 3.141]::[-5.47, 0.52, 0.0]::[0.04000000000000001, 0, 0]
[6.515, 5.772, 3.139]::[-5.47, 0.26, 0.0]::[0.03333333333333333, 0, 0]
[6.511, 5.773, 3.138]::[-6.52, 0.52, 0.0]::[0.02666666666666667, 0, 0]
[6.466, 5.781, 3.13]::[-6.78, 0.26, 0.0]::[0.020000000000000004, 0, 0]
[6.459, 5.781, 3.128]::[-7.82, 0.52, 0.0]::[0.013333333333333334, 0, 0]
[6.397, 5.793, 3.114]::[-8.6, 0.52, 0.0]::[0.006666666666666667, 0, 0]
[6.341, 5.803, 3.1]::[-8.86, 0.52, 0.0]::[0.013333333333333334, 0, 0]
[6.299, 5.811, 3.088]::[-9.64, 0.52, 0.26]::[0.020000000000000004, 0, 0]
[6.266, 5.817, 3.078]::[-9.64, 0.78, 0.26]::[0.02666666666666667, 0, 0]
[6.24, 5.821, 3.069]::[-5.47, 0.52, 0.26]::[0.03333333333333333, 0, 0]
[6.455, 5.782, 3.126]::[-5.73, 0.26, 0.26]::[0.04000000000000001, 0, 0]
[6.465, 5.78, 3.129]::[-5.73, 0.52, 0.0]::[0.04666666666666667, 0, 0]
[6.471, 5.779, 3.13]::[-4.17, 0.26, 0.0]::[0.05333333333333334, 0, 0]
[6.521, 5.77, 3.139]::[-3.39, 0.26, 0.0]::[0.060000000000000005, 0, 0]
[6.54, 5.767, 3.142]::[-3.65, 0.26, 0.0]::[0.06666666666666667, 0, 0]
[6.544, 5.766, 3.143]::[-2.61, 0.26, 0.0]::[0.07333333333333333, 0, 0]
[6.571, 5.763, 3.147]::[-2.35, 0.26, -0.26]::[0.08000000000000002, 0, 0]
[6.576, 5.762, 3.148]::[-1.3, 0.52, 0.0]::[0.08666666666666667, 0, 0]
[6.603, 5.758, 3.152]::[-1.3, 0.26, 0.0]::[0.09333333333333334, 0, 0]
[6.608, 5.757, 3.152]::[-0.52, 0.26, -0.26]::[0.1, 0, 0]
[6.624, 5.755, 3.154]::[-0.26, 0.26, 0.0]::[0.10666666666666667, 0, 0]
[6.637, 5.753, 3.155]::[0.52, 0.0, 0.0]::[0.11333333333333334, 0, 0]
[6.657, 5.75, 3.156]::[0.52, 0.26, 0.0]::[0.12000000000000001, 0, 0]
[6.661, 5.75, 3.157]::[1.82, 0.26, 0.26]::[0.12666666666666668, 0, 0]
[6.682, 5.746, 3.157]::[1.82, 0.26, 0.0]::[0.13333333333333333, 0, 0]
[6.684, 5.746, 3.157]::[2.87, 0.52, 0.0]::[0.14, 0, 0]
[6.705, 5.743, 3.157]::[2.87, 0.26, -0.26]::[0.14666666666666667, 0, 0]
[6.707, 5.742, 3.157]::[4.17, 0.52, 0.0]::[0.15333333333333335, 0, 0]
[6.727, 5.739, 3.156]::[4.17, 0.0, 0.0]::[0.16000000000000003, 0, 0]
[6.734, 5.738, 3.156]::[4.95, 0.26, 0.0]::[0.16666666666666666, 0, 0]
[6.746, 5.736, 3.155]::[4.95, 0.52, 0.0]::[0.17333333333333334, 0, 0]
[6.749, 5.735, 3.155]::[6.26, 0.26, -0.26]::[0.18000000000000002, 0, 0]
[6.766, 5.732, 3.153]::[6.26, 0.52, 0.0]::[0.18666666666666668, 0, 0]
[6.768, 5.732, 3.153]::[7.3, 0.52, 0.26]::[0.19333333333333336, 0, 0]
[6.785, 5.728, 3.151]::[7.04, 0.26, 0.0]::[0.2, 0, 0]
[6.788, 5.728, 3.151]::[7.04, 0.52, 0.0]::[0.19333333333333336, 0, 0]
[6.789, 5.728, 3.15]::[7.04, 0.52, -0.26]::[0.18666666666666668, 0, 0]
[6.788, 5.728, 3.15]::[6.78, 0.52, -0.26]::[0.18000000000000002, 0, 0]
