[5.831, 5.789, 4.293]::[-10.95, -11.47, 0]::[0.013333333333333334, 0.013333333333333334, 0]
[6.029, 5.888, 3.07]::[-11.47, -11.47, 0]::[0.020000000000000004, 0.020000000000000004, 0]
[6.029, 5.888, 3.07]::[-7.82, -10.69, -11.21]::[0.02666666666666667, 0.02666666666666667, 0]
[6.029, 5.888, 3.07]::[-8.08, -10.69, -11.21]::[0.03333333333333333, 0.03333333333333333, 0]
[6.029, 5.888, 3.07]::[-8.34, -10.95, -11.47]::[0.04000000000000001, 0.04000000000000001, 0]
[6.029, 5.888, 3.07]::[-11.47, -10.95, -11.47]::[0.04666666666666667, 0.04666666666666667, 0]
[6.029, 5.888, 3.07]::[-7.82, -10.69, -11.21]::[0.05333333333333334, 0.05333333333333334, 0]
[6.029, 5.888, 3.07]::[-8.08, -10.69, -11.21]::[0.060000000000000005, 0.060000000000000005, 0]
[6.029, 5.888, 3.07]::[-8.34, -10.95, -11.47]::[0.06666666666666667, 0.06666666666666667, 0]
[6.029, 5.888, 3.07]::[-8.34, -10.95, -11.47]::[0.07333333333333333, 0.07333333333333333, 0]
[6.029, 5.887, 3.07]::[-0.26, 0.0, 0.0]::[0.08000000000000002, 0.08000000000000002, 0]
[6.259, 6.283, 3.654]::[1.04, -0.52, -0.26]::[0.08666666666666667, 0.08666666666666667, 0]
[6.327, 6.274, 3.684]::[0.78, 0.52, -0.26]::[0.09333333333333334, 0.09333333333333334, 0]
[6.306, 6.314, 3.711]::[2.09, 0.26, -0.26]::[0.1, 0.1, 0]
[6.343, 6.311, 3.729]::[2.09, 2.35, 0.0]::[0.10666666666666667, 0.10666666666666667, 0]
[6.297, 6.378, 3.765]::[3.13, 2.61, -0.26]::[0.11333333333333334, 0.11333333333333334, 0]
[6.329, 6.379, 3.785]::[3.13, 2.61, -0.26]::[0.12000000000000001, 0.12000000000000001, 0]
[6.333, 6.385, 3.791]::[4.17, 2.87, 0.0]::[0.12666666666666668, 0.12666666666666668, 0]
[6.359, 6.391, 3.812]::[4.43, 4.17, -0.26]::[0.13333333333333333, 0.13333333333333333, 0]
[6.336, 6.422, 3.826]::[5.21, 4.17, -0.26]::[0.14, 0.14, 0]
[6.371, 6.416, 3.84]::[4.95, 4.17, -0.26]::[0.14666666666666667, 0.14666666666666667, 0]
[6.368, 6.427, 3.848]::[6.52, 6.52, -0.26]::[0.15333333333333335, 0.15333333333333335, 0]
[6.349, 6.478, 3.88]::[6.26, 5.99, 0.26]::[0.16000000000000003, 0.16000000000000003, 0]
[6.363, 6.467, 3.88]::[7.56, 6.26, -0.26]::[0.16666666666666666, 0.16666666666666666, 0]
[6.382, 6.477, 3.898]::[7.3, 6.78, -0.26]::[0.17333333333333334, 0.17333333333333334, 0]
[6.372, 6.493, 3.906]::[8.34, 7.3, -0.26]::[0.18000000000000002, 0.18000000000000002, 0]
[6.396, 6.496, 3.922]::[8.6, 7.82, -0.52]::[0.18666666666666668, 0.18666666666666668, 0]
[6.384, 6.513, 3.928]::[9.38, 8.08, 0.0]::[0.19333333333333336, 0.19333333333333336, 0]
[6.407, 6.515, 3.943]::[9.12, 9.12, 0.26]::[0.2, 0.2, 0]
[6.394, 6.534, 3.95]::[9.38, 8.6, -0.26]::[0.19333333333333336, 0.19333333333333336, 0]
[6.395, 6.535, 3.951]::[9.38, 7.56, 0.0]::[0.18666666666666668, 0.18666666666666668, 0]
[6.412, 6.515, 3.946]::[9.38, 7.56, 0.0]::[0.18000000000000002, 0.18000000000000002, 0]
[6.413, 6.511, 3.943]::[8.08, 6.78, -0.26]::[0.17333333333333334, 0.17333333333333334, 0]
[6.404, 6.503, 3.932]::[7.04, 6.52, -0.26]::[0.16666666666666666, 0.16666666666666666, 0]
[6.384, 6.506, 3.923]::[7.04, 5.73, -0.26]::[0.16000000000000003, 0.16000000000000003, 0]
[6.398, 6.487, 3.915]::[6.26, 5.47, -0.26]::[0.15333333333333335, 0.15333333333333335, 0]
[6.378, 6.489, 3.906]::[5.21, 4.43, -0.26]::[0.14666666666666667, 0.14666666666666667, 0]
[6.369, 6.474, 3.889]::[5.21, 4.43, -0.26]::[0.14, 0.14, 0]
[6.369, 6.469, 3.885]::[4.17, 3.65, -0.26]::[0.13333333333333333, 0.13333333333333333, 0]
[6.365, 6.451, 3.867]::[4.17, 3.65, -0.26]::[0.12666666666666668, 0.12666666666666668, 0]
[6.364, 6.446, 3.863]::[3.13, 2.35, -0.26]::[0.12000000000000001, 0.12000000000000001, 0]
[6.352, 6.433, 3.845]::[2.87, 2.35, -0.26]::[0.11333333333333334, 0.11333333333333334, 0]
[6.351, 6.428, 3.84]::[2.87, 1.3, 0.0]::[0.10666666666666667, 0.10666666666666667, 0]
[6.371, 6.401, 3.829]::[1.82, 1.3, -0.26]::[0.1, 0.1, 0]
[6.347, 6.401, 3.814]::[0.78, 0.26, 0.0]::[0.09333333333333334, 0.09333333333333334, 0]
[6.328, 6.383, 3.787]::[0.78, -0.26, -0.26]::[0.08666666666666667, 0.08666666666666667, 0]
[6.341, 6.362, 3.776]::[-0.52, -0.78, -0.26]::[0.08000000000000002, 0.08000000000000002, 0]
[6.318, 6.355, 3.757]::[0.0, -0.52, -0.52]::[0.07333333333333333, 0.07333333333333333, 0]
[6.316, 6.35, 3.751]::[-1.3, -1.82, 0.0]::[0.06666666666666667, 0.06666666666666667, 0]
[6.301, 6.328, 3.722]::[-1.04, -2.09, -0.52]::[0.060000000000000005, 0.060000000000000005, 0]
[6.299, 6.323, 3.717]::[-2.35, -2.87, -0.26]::[0.05333333333333334, 0.05333333333333334, 0]
[6.287, 6.292, 3.68]::[-3.39, -4.17, -0.26]::[0.04666666666666667, 0.04666666666666667, 0]
[6.272, 6.257, 3.637]::[-3.39, -4.17, -0.26]::[0.04000000000000001, 0.04000000000000001, 0]
[6.27, 6.251, 3.63]::[-3.39, -5.21, -0.26]::[0.03333333333333333, 0.03333333333333333, 0]
[6.297, 6.215, 3.607]::[-4.43, -5.21, 0.0]::[0.02666666666666667, 0.02666666666666667, 0]
[6.241, 6.213, 3.573]::[-4.17, -5.21, -0.26]::[0.020000000000000004, 0.020000000000000004, 0]
[6.238, 6.209, 3.566]::[-6.52, -9.12, -0.26]::[0.013333333333333334, 0.013333333333333334, 0]
[6.283, 5.994, 3.326]::[-7.56, -9.38, 0.0]::[0.006666666666666667, 0.006666666666666667, 0]
[6.219, 5.978, 3.276]::[-7.56, -9.12, -0.26]::[0.013333333333333334, 0.013333333333333334, 0]
[6.173, 5.967, 3.244]::[-7.56, -9.12, -0.26]::[0.020000000000000004, 0.020000000000000004, 0]
[6.141, 5.959, 3.219]::[-8.08, -9.38, -0.52]::[0.02666666666666667, 0.02666666666666667, 0]
[6.121, 5.95, 3.199]::[-3.39, -2.87, 0.0]::[0.03333333333333333, 0.03333333333333333, 0]
[6.218, 6.226, 3.569]::[-3.13, -4.17, 0.0]::[0.04000000000000001, 0.04000000000000001, 0]
[6.25, 6.209, 3.57]::[-3.39, -4.17, 0.0]::[0.04666666666666667, 0.04666666666666667, 0]
[6.252, 6.21, 3.572]::[-2.09, -2.09, -0.26]::[0.05333333333333334, 0.05333333333333334, 0]
[6.235, 6.279, 3.633]::[-1.04, -1.82, -0.26]::[0.060000000000000005, 0.060000000000000005, 0]
[6.283, 6.281, 3.662]::[-1.04, -1.82, 0.0]::[0.06666666666666667, 0.06666666666666667, 0]
[6.279, 6.287, 3.666]::[-0.26, -1.82, -0.26]::[0.07333333333333333, 0.07333333333333333, 0]
[6.325, 6.281, 3.686]::[0.0, -1.04, 0.0]::[0.08000000000000002, 0.08000000000000002, 0]
[6.311, 6.303, 3.7]::[0.52, 0.52, 0.0]::[0.08666666666666667, 0.08666666666666667, 0]
[6.297, 6.345, 3.731]::[1.04, 0.52, 0.0]::[0.09333333333333334, 0.09333333333333334, 0]
[6.32, 6.343, 3.743]::[1.56, 0.26, -0.26]::[0.1, 0.1, 0]
[6.327, 6.347, 3.751]::[2.09, 1.3, -0.26]::[0.10666666666666667, 0.10666666666666667, 0]
[6.334, 6.372, 3.777]::[3.13, 3.39, 0.0]::[0.11333333333333334, 0.11333333333333334, 0]
[6.326, 6.416, 3.811]::[2.87, 2.35, 0.0]::[0.12000000000000001, 0.12000000000000001, 0]
[6.335, 6.408, 3.809]::[3.91, 2.87, -0.26]::[0.12666666666666668, 0.12666666666666668, 0]
[6.369, 6.405, 3.826]::[4.17, 4.17, -0.26]::[0.13333333333333333, 0.13333333333333333, 0]
[6.339, 6.442, 3.841]::[4.69, 3.91, 0.26]::[0.14, 0.14, 0]
[6.361, 6.439, 3.85]::[5.21, 4.17, 0.0]::[0.14666666666666667, 0.14666666666666667, 0]
[6.371, 6.443, 3.86]::[6.26, 5.99, -0.26]::[0.15333333333333335, 0.15333333333333335, 0]
[6.361, 6.482, 3.886]::[6.52, 6.52, 0.0]::[0.16000000000000003, 0.16000000000000003, 0]
[6.352, 6.497, 3.894]::[7.3, 7.04, 0.26]::[0.16666666666666666, 0.16666666666666666, 0]
[6.38, 6.494, 3.907]::[7.3, 7.3, 0.0]::[0.17333333333333334, 0.17333333333333334, 0]
[6.372, 6.509, 3.914]::[8.86, 7.82, 0.0]::[0.18000000000000002, 0.18000000000000002, 0]
[6.388, 6.516, 3.929]::[8.6, 8.08, 0.0]::[0.18666666666666668, 0.18666666666666668, 0]
[6.385, 6.525, 3.934]::[9.12, 7.82, -0.52]::[0.19333333333333336, 0.19333333333333336, 0]
[6.411, 6.519, 3.944]::[9.64, 8.34, -0.26]::[0.2, 0.2, 0]
[6.411, 6.527, 3.95]::[9.38, 8.86, -0.52]::[0.19333333333333336, 0.19333333333333336, 0]
[6.39, 6.549, 3.955]::[9.12, 7.82, 0.0]::[0.18666666666666668, 0.18666666666666668, 0]
[6.411, 6.525, 3.949]::[9.12, 7.56, -0.26]::[0.18000000000000002, 0.18000000000000002, 0]
[6.412, 6.521, 3.946]::[7.3, 6.78, -0.26]::[0.17333333333333334, 0.17333333333333334, 0]
[6.387, 6.515, 3.928]::[7.3, 6.52, 0.0]::[0.16666666666666666, 0.16666666666666666, 0]
[6.385, 6.512, 3.924]::[7.04, 6.52, -0.26]::[0.16000000000000003, 0.16000000000000003, 0]
[6.387, 6.506, 3.92]::[6.26, 5.73, -0.26]::[0.15333333333333335, 0.15333333333333335, 0]
[6.381, 6.496, 3.909]::[5.47, 4.43, 0.0]::[0.14666666666666667, 0.14666666666666667, 0]
[6.375, 6.479, 3.892]::[4.95, 4.43, -0.26]::[0.14, 0.14, 0]
[6.374, 6.474, 3.888]::[3.91, 3.39, -0.26]::[0.13333333333333333, 0.13333333333333333, 0]
[6.367, 6.458, 3.871]::[4.17, 3.39, -0.26]::[0.12666666666666668, 0.12666666666666668, 0]
[6.366, 6.453, 3.866]::[3.13, 2.61, 0.0]::[0.12000000000000001, 0.12000000000000001, 0]
[6.356, 6.439, 3.848]::[2.87, 2.35, -0.26]::[0.11333333333333334, 0.11333333333333334, 0]
[6.355, 6.435, 3.844]::[2.61, 1.3, -0.26]::[0.10666666666666667, 0.10666666666666667, 0]
[6.373, 6.409, 3.832]::[1.56, 0.52, -0.52]::[0.1, 0.1, 0]
[6.355, 6.389, 3.805]::[1.04, 0.26, 0.0]::[0.09333333333333334, 0.09333333333333334, 0]
[6.335, 6.388, 3.793]::[0.78, 0.0, -0.26]::[0.08666666666666667, 0.08666666666666667, 0]
[6.334, 6.384, 3.788]::[0.26, -0.78, -0.26]::[0.08000000000000002, 0.08000000000000002, 0]
[6.317, 6.365, 3.761]::[-0.52, -1.04, -0.26]::[0.07333333333333333, 0.07333333333333333, 0]
[6.315, 6.36, 3.756]::[-1.3, -1.82, -0.26]::[0.06666666666666667, 0.06666666666666667, 0]
[6.303, 6.336, 3.727]::[-1.56, -1.56, 0.0]::[0.060000000000000005, 0.060000000000000005, 0]
[6.302, 6.331, 3.722]::[-2.35, -2.87, 0.0]::[0.05333333333333334, 0.05333333333333334, 0]
[6.291, 6.299, 3.685]::[-3.13, -4.17, -0.52]::[0.04666666666666667, 0.04666666666666667, 0]
[6.274, 6.266, 3.644]::[-3.65, -4.17, -0.26]::[0.04000000000000001, 0.04000000000000001, 0]
[6.272, 6.261, 3.637]::[-3.39, -4.95, 0.0]::[0.03333333333333333, 0.03333333333333333, 0]
[6.301, 6.221, 3.612]::[-4.43, -5.47, -0.26]::[0.02666666666666667, 0.02666666666666667, 0]
[6.246, 6.223, 3.582]::[-4.43, -9.12, -0.26]::[0.020000000000000004, 0.020000000000000004, 0]
[6.405, 5.992, 3.389]::[-5.73, -9.12, -0.26]::[0.013333333333333334, 0.013333333333333334, 0]
[6.346, 5.98, 3.341]::[-6.52, -9.12, -0.26]::[0.006666666666666667, 0.006666666666666667, 0]
[6.287, 5.977, 3.305]::[-6.78, -9.38, -0.26]::[0.013333333333333334, 0.013333333333333334, 0]
[6.248, 5.971, 3.281]::[-7.3, -9.12, -0.26]::[0.020000000000000004, 0.020000000000000004, 0]
[6.217, 5.967, 3.261]::[-7.56, -9.64, -0.52]::[0.02666666666666667, 0.02666666666666667, 0]
[6.191, 5.963, 3.246]::[-3.39, -3.13, 0.0]::[0.03333333333333333, 0.03333333333333333, 0]
[6.225, 6.222, 3.574]::[-2.61, -3.91, -0.26]::[0.04000000000000001, 0.04000000000000001, 0]
[6.269, 6.213, 3.588]::[-3.13, -4.17, -0.26]::[0.04666666666666667, 0.04666666666666667, 0]
[6.271, 6.214, 3.589]::[-2.87, -2.09, -0.26]::[0.05333333333333334, 0.05333333333333334, 0]
[6.209, 6.287, 3.628]::[-1.04, -2.09, -0.26]::[0.060000000000000005, 0.060000000000000005, 0]
[6.295, 6.283, 3.674]::[-1.04, -1.82, -0.26]::[0.06666666666666667, 0.06666666666666667, 0]
[6.291, 6.291, 3.68]::[-1.3, -1.56, 0.0]::[0.07333333333333333, 0.07333333333333333, 0]
[6.291, 6.291, 3.679]::[0.0, -0.78, 0.0]::[0.08000000000000002, 0.08000000000000002, 0]
[6.306, 6.314, 3.71]::[1.04, 0.52, -0.26]::[0.08666666666666667, 0.08666666666666667, 0]
[6.321, 6.345, 3.748]::[1.04, 0.26, 0.0]::[0.09333333333333334, 0.09333333333333334, 0]
[6.321, 6.348, 3.75]::[1.82, 0.78, 0.0]::[0.1, 0.1, 0]
[6.343, 6.348, 3.763]::[2.09, 1.3, -0.26]::[0.10666666666666667, 0.10666666666666667, 0]
[6.34, 6.372, 3.783]::[2.87, 3.39, -0.26]::[0.11333333333333334, 0.11333333333333334, 0]
[6.329, 6.417, 3.816]::[3.13, 2.61, -0.26]::[0.12000000000000001, 0.12000000000000001, 0]
[6.337, 6.412, 3.817]::[4.17, 2.87, 0.0]::[0.12666666666666668, 0.12666666666666668, 0]
[6.371, 6.406, 3.83]::[4.43, 3.65, -0.26]::[0.13333333333333333, 0.13333333333333333, 0]
[6.348, 6.437, 3.844]::[4.69, 4.43, -0.52]::[0.14, 0.14, 0]
[6.35, 6.457, 3.862]::[5.47, 4.43, -0.52]::[0.14666666666666667, 0.14666666666666667, 0]
[6.368, 6.452, 3.868]::[6.52, 5.73, -0.26]::[0.15333333333333335, 0.15333333333333335, 0]
[6.366, 6.481, 3.89]::[6.52, 6.78, -0.26]::[0.16000000000000003, 0.16000000000000003, 0]
[6.354, 6.501, 3.898]::[7.3, 6.26, 0.0]::[0.16666666666666666, 0.16666666666666666, 0]
[6.38, 6.497, 3.912]::[7.3, 6.78, -0.26]::[0.17333333333333334, 0.17333333333333334, 0]
[6.375, 6.509, 3.917]::[8.08, 7.56, 0.0]::[0.18000000000000002, 0.18000000000000002, 0]
[6.395, 6.511, 3.931]::[8.34, 7.82, 0.0]::[0.18666666666666668, 0.18666666666666668, 0]
[6.391, 6.523, 3.937]::[9.38, 8.6, 0.0]::[0.19333333333333336, 0.19333333333333336, 0]
[6.398, 6.535, 3.951]::[9.64, 9.12, -0.26]::[0.2, 0.2, 0]
[6.391, 6.551, 3.959]::[9.38, 8.86, -0.26]::[0.19333333333333336, 0.19333333333333336, 0]
[6.395, 6.546, 3.958]::[9.12, 7.82, -0.26]::[0.18666666666666668, 0.18666666666666668, 0]
[6.413, 6.526, 3.952]::[8.86, 7.04, -0.26]::[0.18000000000000002, 0.18000000000000002, 0]
[6.414, 6.522, 3.95]::[7.04, 6.78, -0.26]::[0.17333333333333334, 0.17333333333333334, 0]
[6.386, 6.518, 3.931]::[7.04, 6.78, -0.52]::[0.16666666666666666, 0.16666666666666666, 0]
[6.385, 6.514, 3.928]::[7.04, 5.73, 0.0]::[0.16000000000000003, 0.16000000000000003, 0]
[6.398, 6.496, 3.921]::[5.99, 5.47, 0.0]::[0.15333333333333335, 0.15333333333333335, 0]
[6.385, 6.495, 3.913]::[4.95, 4.43, -0.52]::[0.14666666666666667, 0.14666666666666667, 0]
[6.375, 6.481, 3.896]::[5.47, 4.43, -0.26]::[0.14, 0.14, 0]
[6.374, 6.477, 3.892]::[4.43, 3.39, -0.26]::[0.13333333333333333, 0.13333333333333333, 0]
[6.368, 6.459, 3.874]::[3.91, 3.39, -0.26]::[0.12666666666666668, 0.12666666666666668, 0]
