[1.11022302e-14 0.00000000e+00 5.00000000e+01], [24.325926065444946]
[1.50452435e-14 1.26021230e-14 5.00000000e+01], [25.620785236358643]
[3.91630274e-02 9.19915019e-04 5.00199831e+01], [25.8019380569458]
[1.21271892e-01 7.99457001e-04 5.00507388e+01], [25.957321166992188]
[2.49047766e-01 6.28720186e-04 5.00913047e+01], [26.112388610839844]
[4.22023961e-01 4.13782778e-04 5.01398862e+01], [26.29857301712036]
[6.40538982e-01 1.13676797e-03 5.01961890e+01], [26.450926542282104]
[9.05471690e-01 1.80727451e-03 5.02598403e+01], [26.646028518676758]
[1.21861406e+00 3.40848321e-03 5.03306575e+01], [26.79900336265564]
[1.52212398e+00 1.29634683e-02 5.03791411e+01], [26.96543312072754]
[1.86491649e+00 2.45571482e-02 5.04451793e+01], [27.12784457206726]
[2.22152314e+00 4.11368070e-02 5.05037239e+01], [27.303346633911133]
[ 2.60933722  0.0637872  50.56860657], [27.461458683013916]
[ 3.01315861  0.1024776  50.62784477], [27.61670756340027]
[ 3.41969872  0.124685   50.67865492], [27.783840656280518]
[ 3.81571564  0.14754283 50.71950719], [27.95571494102478]
[ 4.24389926  0.18937294 50.77339447], [28.117499589920044]
[ 4.68320345  0.23483129 50.81886796], [28.268553495407104]
[ 5.16039755  0.28249507 50.87164661], [28.418391704559326]
[ 5.63264273  0.32636973 50.90611491], [28.56867814064026]
[ 6.11374163  0.39116014 50.93878894], [28.750423908233643]
[ 6.62550225  0.46891828 50.97537245], [28.900363445281982]
[ 7.12850366  0.52841964 50.99367566], [29.050501823425293]
[ 7.61018555  0.60312776 50.99879763], [29.20166826248169]
[ 8.01469996  0.65663233 50.97446525], [29.35212516784668]
[ 8.42225864  0.77025896 50.96671709], [29.50176167488098]
[ 8.79157883  0.8498315  50.94263316], [29.651015043258667]
[ 9.17542056  0.95356798 50.93005349], [29.801368236541748]
[ 9.53669002  1.03930757 50.90432343], [29.9521381855011]
[ 9.90303709  1.17976022 50.881747  ], [30.13569211959839]
[10.21591828  1.26809992 50.83857501], [30.316462993621826]
[10.55816751  1.39971421 50.81460863], [30.46701145172119]
[10.80963937  1.56152465 50.75459239], [30.690314531326294]
[11.05758242  1.76269041 50.70997876], [30.854357719421387]
[11.2372437   1.98029803 50.64711247], [31.0149667263031]
[11.36917934  2.19117276 50.58604481], [31.207626581192017]
[11.45844195  2.41324687 50.52664627], [31.361915588378906]
[11.50310091  2.6337894  50.4680962 ], [31.51360583305359]
[11.55030073  2.84566746 50.42430186], [31.665077686309814]
[11.59409657  3.07015867 50.38242459], [31.81644320487976]
[11.66091998  3.28198717 50.34948944], [31.977809190750122]
[11.728721    3.49874409 50.31291141], [32.130096673965454]
[11.78562424  3.73255214 50.27171178], [32.280439376831055]
[11.82781477  3.97136664 50.22816326], [32.43196439743042]
[11.84291051  4.21801551 50.26962434], [32.582061529159546]
[11.8358853   4.42579348 50.35248181], [32.73357105255127]
[11.83612942  4.65037265 50.4350302 ], [32.88416385650635]
[11.79959949  4.86364051 50.52701138], [33.03437066078186]
[11.71000933  5.04368547 50.64266898], [33.18443942070007]
[11.68042904  5.17789478 50.71183666], [33.334975481033325]
[11.55494824  5.25697783 50.82007443], [33.48520588874817]
[11.4116733   5.32667132 50.91666127], [33.63510823249817]
[11.17181425  5.42632462 51.04628381], [33.787394523620605]
[11.01123962  5.52004859 51.12897619], [33.97072219848633]
[10.75643271  5.62188064 51.23936761], [34.12189698219299]
[10.60632031  5.70776689 51.28656563], [34.271687507629395]
[10.36604637  5.75572848 51.36931259], [34.423779010772705]
[10.18253686  5.81733694 51.41723303], [34.60891842842102]
[ 9.99000422  5.91018584 51.46464477], [34.79550766944885]
[ 9.7854097   6.01703186 51.51012607], [34.97866344451904]
[ 9.59949535  6.12304619 51.53947534], [35.138495206832886]
[ 9.40564155  6.25088117 51.56782585], [35.29178595542908]
[ 9.22670148  6.38139627 51.58470625], [35.476991176605225]
[ 9.04027234  6.52049171 51.598888  ], [35.62993836402893]
[ 8.87423518  6.64717204 51.59429053], [35.77968668937683]
[ 8.72097494  6.75330437 51.58418422], [35.93126201629639]
[ 8.61814728  6.8666568  51.54901133], [36.08159613609314]
[ 8.51026787  6.97675996 51.51974589], [36.231621503829956]
[ 8.40321911  7.10132214 51.49194837], [36.3849835395813]
[ 8.29094431  7.22036325 51.45885765], [36.534916639328]
[ 8.18689807  7.34655459 51.42354464], [36.720377922058105]
[ 8.08279734  7.48661337 51.38623154], [36.870829343795776]
[ 7.98825965  7.62229134 51.35249385], [37.02184796333313]
[ 7.9089953   7.74455961 51.31963518], [37.17614698410034]
[ 7.83190492  7.88422331 51.27541058], [37.327028036117554]
[ 7.76052994  8.03073252 51.23280917], [37.47677302360535]
[ 7.68760804  8.19686163 51.19177424], [37.62760615348816]
[ 7.60408418  8.37349595 51.14707614], [37.779396772384644]
[ 7.53551164  8.51554516 51.10723822], [37.93039536476135]
[ 7.44659091  8.66268523 51.07582336], [38.08486747741699]
[ 7.34325775  8.83045252 51.04230112], [38.23576092720032]
[ 7.26003286  8.97471398 51.01348326], [38.39040493965149]
[ 7.14491517  9.11351935 50.98615154], [38.54268670082092]
[ 7.03043942  9.27500676 50.95994685], [38.69773840904236]
[ 6.89057885  9.46011938 50.93011602], [38.85182237625122]
[ 6.72992915  9.6383851  50.91533693], [39.00256013870239]
[ 6.58030647  9.81791907 50.89377129], [39.152990102767944]
[ 6.41135049 10.01412639 50.87673016], [39.30365490913391]
[ 6.22799321 10.21676135 50.86149132], [39.48681616783142]
[ 6.02801049 10.43059482 50.84612103], [39.63743257522583]
[ 5.8241713  10.64441626 50.8279    ], [39.7915575504303]
[ 5.59136731 10.81625996 50.81909247], [39.972522258758545]
[ 5.34909445 10.98921753 50.82368884], [40.16090416908264]
[ 5.13227666 11.15550767 50.81516678], [40.31457161903381]
[ 4.91958177 11.28584708 50.81193113], [40.46758675575256]
[ 4.73482107 11.41095575 50.79616906], [40.624502658843994]
[ 4.52977629 11.51313819 50.79679834], [40.77665662765503]
[ 4.35637992 11.60843065 50.78498403], [40.92748737335205]
[ 4.16135909 11.71811218 50.77489552], [41.077258586883545]
[ 3.96383854 11.81730607 50.75301223], [41.259804487228394]
[ 3.74833473 11.92891397 50.74465681], [41.41031861305237]
[ 3.55481015 12.0014217  50.73614057], [41.592844009399414]
[ 3.34994711 12.08408893 50.72903061], [41.774128675460815]
[ 3.1647028  12.15380461 50.71561529], [41.92514634132385]
[ 2.97189415 12.23718546 50.69258642], [42.07578659057617]
[ 2.78735605 12.31063634 50.67433598], [42.22655153274536]
[ 2.61586419 12.38389324 50.65776677], [42.37671709060669]
[ 2.43141348 12.45967861 50.63934291], [42.55437207221985]
[ 2.25489709 12.52775962 50.61729943], [42.706708908081055]
[ 2.06712661 12.59947822 50.60066326], [42.85771989822388]
[ 1.91294869 12.6550259  50.57501488], [43.007967472076416]
[ 1.7322369  12.71939058 50.55836784], [43.16033911705017]
[ 1.56799898 12.76065609 50.54406541], [43.322943449020386]
[ 1.3850862  12.80332053 50.53240835], [43.47270441055298]
[ 1.18751069 12.84379087 50.52816496], [43.62505483627319]
[ 0.98614042 12.88096634 50.52489515], [43.77687859535217]
[ 0.84958399 12.89426593 50.50263761], [43.95305061340332]
[ 0.68981214 12.90719844 50.49409955], [44.10687208175659]
[ 0.51509192 12.91554357 50.49209761], [44.257304430007935]
[ 0.33229239 12.93019814 50.48529668], [44.40935230255127]
[ 0.13633029 12.95358919 50.47734471], [44.56494164466858]
[-0.06685566 12.99439604 50.46248177], [44.742249488830566]
[-0.21960473 13.00883227 50.44189989], [44.891180992126465]
[-0.39186061 13.02786665 50.42649095], [45.04175782203674]
[-0.55352775 13.05332897 50.40442403], [45.19522023200989]
[-0.70971955 13.06259681 50.39850788], [45.34583806991577]
[-0.8554704  13.03559824 50.40912057], [45.49640417098999]
[-1.01669661 13.00982395 50.42311601], [45.64681601524353]
[-1.19232983 12.98888989 50.43603837], [45.89093375205994]
[-1.38736342 12.97140597 50.44976178], [46.04579997062683]
[-1.58190259 12.9522671  50.45797585], [46.19853472709656]
[-1.74518046 12.92922721 50.45893117], [46.35032796859741]
[-1.93398744 12.90343865 50.46623235], [46.5326623916626]
[-2.12724397 12.84907699 50.47420059], [46.68283438682556]
[-2.3130091 12.8072449 50.4834517], [46.83482789993286]
[-2.50033921 12.75894852 50.48740004], [47.01768183708191]
[-2.70999281 12.70744258 50.49672456], [47.16998052597046]
[-2.93096137 12.663584   50.49927938], [47.35149550437927]
[-3.17016994 12.62276201 50.50441034], [47.50134778022766]
[-3.3928179  12.55921582 50.50649896], [47.65184164047241]
[-3.58205081 12.47655466 50.50716571], [47.80577731132507]
[-3.79445108 12.39273115 50.51573486], [47.9589946269989]
[-3.97713626 12.3049213  50.51906919], [48.11412858963013]
[-4.17298239 12.22050304 50.51931701], [48.267393350601196]
[-4.35193156 12.1252757  50.51901253], [48.42160224914551]
[-4.53187095 12.04662157 50.51443838], [48.5758273601532]
[-4.70973046 11.98426739 50.50031921], [48.7298321723938]
[-4.90132486 11.91985412 50.48431052], [48.89198660850525]
[-5.06672988 11.84523615 50.46873915], [49.04572892189026]
[-5.25172949 11.76094571 50.45210613], [49.19950723648071]
[-5.43806776 11.69933951 50.43111913], [49.37907433509827]
[-5.63775222 11.64029428 50.40450914], [49.54248571395874]
[-5.84277975 11.59772454 50.37825577], [49.7128541469574]
[-6.00734654 11.53824989 50.36352259], [49.86667490005493]
[-6.19442654 11.48250982 50.36087685], [50.02264165878296]
[-6.39558116 11.41882371 50.35578528], [50.17711853981018]
[-6.56415119 11.38534379 50.35140705], [50.36156439781189]
[-6.74656017 11.35521743 50.34650949], [50.53745627403259]
[-6.90874991 11.31355597 50.33404507], [50.687891721725464]
[-7.08616476 11.26152792 50.32402756], [50.83974504470825]
[-7.24672719 11.205943   50.31154124], [50.99202871322632]
[-7.43273785 11.1393284  50.3010827 ], [51.14628005027771]
[-7.58192341 11.06681199 50.28490085], [51.30120038986206]
[-7.75082944 10.99233886 50.27436484], [51.4523766040802]
[-7.92142978 10.90702292 50.26025666], [51.60166025161743]
[-8.09503098 10.81342558 50.24558464], [51.784141302108765]
[-8.29071792 10.70798408 50.23072885], [51.9650673866272]
[-8.49943097 10.59895635 50.21492442], [52.11638045310974]
[-8.67527115 10.48550745 50.19408878], [52.26649594306946]
[-8.86348031 10.35518298 50.17364208], [52.45899987220764]
[-9.0112507  10.21241384 50.14961549], [52.6117582321167]
[-9.15449528 10.10136927 50.13890931], [52.76574945449829]
[-9.31470324  9.97324165 50.12109805], [52.9180212020874]
[-9.48572713  9.84090612 50.10288823], [53.074904441833496]
[-9.66619462  9.70631906 50.08325446], [53.22740316390991]
[-9.84468259  9.5875849  50.06557913], [53.37937521934509]
[-10.00748987   9.46737703  50.04358832], [53.53295588493347]
[-10.19088508   9.33061218  50.01883893], [53.682928800582886]
[-10.35126206   9.20881625  49.99690568], [53.83637738227844]
[-10.49963597   9.07582144  49.97132222], [53.9876184463501]
[-10.65050857   8.9550743   49.95140281], [54.139214277267456]
[-10.81706344   8.81085066  49.92297204], [54.288660287857056]
[-10.98930088   8.66465984  49.89498715], [54.46505403518677]
[-11.16463431   8.51906269  49.86590784], [54.61578893661499]
[-11.34380512   8.37201993  49.83480774], [54.769113540649414]
[-11.44870256   8.26888394  49.81513317], [54.92436337471008]
[-11.5623278    8.15713664  49.79380199], [55.07584071159363]
[-11.69510502   8.02191823  49.76595069], [55.22579073905945]
[-11.82584037   7.88957281  49.73996396], [55.40702247619629]
[-11.95762901   7.75483993  49.71252018], [55.57555365562439]
[-12.09835761   7.61332294  49.68242614], [55.736000299453735]
[-12.21908132   7.50914948  49.66294858], [55.921952962875366]
[-12.36137443   7.37883132  49.630553  ], [56.088555335998535]
[-12.50507067   7.24771825  49.59829128], [56.24232769012451]
[-12.59431168   7.12872844  49.57138006], [56.39614987373352]
[-12.68475131   7.01387636  49.54972024], [56.582035303115845]
[-12.78822081   6.87591011  49.51984166], [56.7645959854126]
[-12.89350691   6.73323073  49.49022962], [56.916457176208496]
[-13.00408577   6.58061944  49.45757568], [57.06700944900513]
[-13.11978898   6.42399664  49.42391507], [57.21913409233093]
[-13.22887481   6.2710657   49.39142543], [57.37043571472168]
[-13.33685616   6.11475566  49.35759388], [57.520944118499756]
[-13.42066666   5.98902326  49.3354912 ], [57.67190170288086]
[-13.52448358   5.83819456  49.30120611], [57.82305145263672]
[-13.62666762   5.68387967  49.26676835], [57.97445750236511]
[-13.73229719   5.51537597  49.22763754], [58.127434730529785]
[-13.84212314   5.33217427  49.18460109], [58.27826237678528]
[-13.95458857   5.13277233  49.13731231], [58.42877793312073]
[-14.07439566   4.91915494  49.08634695], [58.58288097381592]
[-14.19412989   4.6982424   49.03376803], [58.734323024749756]
[-14.31537986   4.46290024  49.00224648], [58.89032340049744]
[-14.44054564   4.20112735  49.01907102], [59.045162200927734]
[-14.56648828   3.93289105  49.03595343], [59.19869041442871]
[-14.66071474   3.69979729  49.06726396], [59.38839507102966]
[-14.76891724   3.43501927  49.09348904], [59.54381513595581]
[-14.83909682   3.24816282  49.12308431], [59.69733190536499]
[-14.85592277   3.08513952  49.16384957], [59.84966492652893]
[-14.88082786   2.89516683  49.19864894], [60.00092077255249]
[-14.87651393   2.7002261   49.24366   ], [60.15371227264404]
[-14.85344321   2.48720518  49.2992951 ], [60.33978009223938]
[-14.84228034   2.25211146  49.34900768], [60.49014377593994]
[-14.81974111   2.01880496  49.39999099], [60.66674733161926]
[-14.80040405   1.77421758  49.4461004 ], [60.8187255859375]
[-14.7780129    1.54323524  49.48662793], [60.9700927734375]
[-14.75606706   1.31877144  49.52230196], [61.12075853347778]
[-14.64794783   1.12074426  49.57697431], [61.27238965034485]
[-14.55049004   0.94006761  49.62409689], [61.425318241119385]
[-14.4641899    0.72298331  49.66723914], [61.6020085811615]
[-14.373019     0.50448283  49.70786594], [61.753663063049316]
[-14.27251395   0.28643802  49.74766999], [61.90628957748413]
[-14.17016555   0.05288741  49.78831473], [62.05959963798523]
[-14.07569713  -0.17122236  49.82220027], [62.212138652801514]
[-13.98947282  -0.42379179  49.85480302], [62.36506247520447]
[-13.90542089  -0.69376126  49.88369141], [62.51613450050354]
[-13.83582287  -0.9582264   49.91210944], [62.66844296455383]
[-13.76949192  -1.24511807  49.93753965], [62.821781158447266]
[-13.67916898  -1.49059762  49.97574575], [62.972453594207764]
[-13.57834767  -1.7266413   50.01842742], [63.124900102615356]
[-13.47977612  -1.99197273  50.05709132], [63.275243043899536]
[-13.41588243  -2.23264665  50.08664759], [63.42632484436035]
[-13.33937025  -2.46968222  50.12015852], [63.576963663101196]
[-13.25506766  -2.69799487  50.15655933], [63.72857356071472]
[-13.16943282  -2.96031365  50.19262518], [63.87987756729126]
[-13.07430156  -3.23756049  50.23175137], [64.03282833099365]
[-12.97819312  -3.52770161  50.27070506], [64.18696856498718]
[-12.87875729  -3.81474158  50.31155702], [64.33948874473572]
[-12.77369769  -4.04189293  50.35743913], [64.49286913871765]
[-12.66357587  -4.25304146  50.40021921], [64.64483833312988]
[-12.54301743  -4.43995399  50.4516357 ], [64.7965362071991]
[-12.42338957  -4.60544339  50.51498073], [64.98349213600159]
[-12.29578685  -4.75652219  50.57756217], [65.13538908958435]
[-12.16072036  -4.89498278  50.64388127], [65.32104229927063]
[-12.03911138  -5.07461776  50.68805116], [65.49775385856628]
[-11.92199949  -5.21620178  50.7512936 ], [65.6528160572052]
[-11.81470937  -5.38492881  50.78872693], [65.83813571929932]
[-11.71146973  -5.51449566  50.83691114], [66.01414084434509]
[-11.6049997   -5.6299321   50.88497327], [66.1868052482605]
[-11.4671097   -5.76982296  50.94178045], [66.34026765823364]
[-11.3660129   -5.91228705  50.9606702 ], [66.49367690086365]
[-11.24931855  -6.08269698  50.98980309], [66.73496627807617]
[-11.11941691  -6.24418982  51.02035425], [66.88651180267334]
[-10.96066912  -6.38959552  51.06436586], [67.04165506362915]
[-10.805615    -6.48586501  51.12343607], [67.22610402107239]
[-10.63799282  -6.61469587  51.17923244], [67.37927269935608]
[-10.47071408  -6.71887618  51.24022883], [67.53393197059631]
[-10.28925367  -6.85015909  51.29895336], [67.68594884872437]
[-10.15710996  -7.03067066  51.29795882], [67.83796954154968]
[-10.02473341  -7.1568294   51.31745164], [67.98894190788269]
[-9.88422055 -7.26189044 51.34149525], [68.14509534835815]
[-9.72330637 -7.39818202 51.3699622 ], [68.29562020301819]
[-9.57257107 -7.50643235 51.41358064], [68.44738841056824]
[-9.39891753 -7.64565641 51.45137498], [68.59975719451904]
[-9.22515187 -7.73866555 51.50020001], [68.75211095809937]
[-9.05791369 -7.86040459 51.52573348], [68.90292000770569]
[-8.89275755 -7.95236321 51.56217946], [69.05434799194336]
[-8.73534881 -7.96977519 51.61037202], [69.20594239234924]
[-8.5495538  -8.02616729 51.65142713], [69.35805153846741]
[-8.43836053 -8.06437384 51.66047951], [69.5094347000122]
[-8.30668428 -8.13070143 51.67214837], [69.69140005111694]
[-8.17922503 -8.20922077 51.66720799], [69.8446695804596]
[-8.02797936 -8.32099848 51.67491423], [69.99551463127136]
[-7.89715951 -8.44725051 51.67028981], [70.17750120162964]
[-7.77205772 -8.52382417 51.67936041], [70.32859420776367]
[-7.62462659 -8.62844862 51.68692547], [70.47986054420471]
[-7.50673928 -8.65704789 51.7048189 ], [70.66285181045532]
[-7.39178844 -8.72424118 51.70747873], [70.81384587287903]
[-7.2559225  -8.81628068 51.71515828], [71.05364394187927]
[-7.10298831 -8.92202281 51.72191154], [71.20788598060608]
[-6.97661692 -9.02143664 51.71917461], [71.3623697757721]
[-6.84915887 -9.07710996 51.73838315], [71.51583051681519]
[-6.68608737 -9.15216138 51.74444578], [71.66984391212463]
[-6.54783284 -9.19179512 51.76287689], [71.82411861419678]
[-6.41808403 -9.25402863 51.76388179], [71.97492241859436]
[-6.26370332 -9.34492648 51.77417248], [72.12581515312195]
[-6.14111739 -9.44628718 51.73604156], [72.2760055065155]
[-6.01806569 -9.54567387 51.71444463], [72.42854619026184]
[-5.90662748 -9.58424329 51.72062697], [72.62144136428833]
[-5.81570973 -9.64794073 51.70715201], [72.77169966697693]
[-5.69429723 -9.73792423 51.69389364], [72.92622780799866]
[-5.55938577 -9.81702541 51.686609  ], [73.07853746414185]
[-5.39375403 -9.92395254 51.67241464], [73.23037219047546]
[ -5.20931446 -10.03831457  51.65747867], [73.38122129440308]
[ -5.03258297 -10.08199273  51.6658924 ], [73.53218841552734]
[ -4.87435087 -10.15686855  51.65068003], [73.68269777297974]
[ -4.74339019 -10.19033213  51.64476363], [73.83324790000916]
[ -4.60753707 -10.2250431   51.64028884], [73.98554420471191]
[ -4.46902934 -10.25488931  51.62683709], [74.13817238807678]
[ -4.32445545 -10.28597611  51.62342295], [74.28863644599915]
[ -4.19184298 -10.33733897  51.60478828], [74.44167590141296]
[ -4.0579093  -10.40228809  51.5860133 ], [74.62355017662048]
[ -3.92182716 -10.48605049  51.54203206], [74.77515459060669]
[ -3.87607183 -10.62215697  51.45015087], [74.92868494987488]
[ -3.75650833 -10.71468901  51.39234077], [75.08321785926819]
[ -3.62369121 -10.81681649  51.33114741], [75.23853325843811]
[ -3.30539004 -10.9422639   51.34453028], [75.3921754360199]
[ -3.15277893 -11.02982888  51.30622694], [75.54595422744751]
[ -2.98621261 -11.13129835  51.26978553], [75.69761228561401]
[ -2.84670579 -11.18810143  51.24468805], [75.8503966331482]
[ -2.69688071 -11.25725091  51.22343948], [76.0020272731781]
[ -2.53011265 -11.33392054  51.19037061], [76.15387272834778]
[ -2.36008853 -11.40609801  51.17118067], [76.3081841468811]
[ -2.20372549 -11.47491367  51.14827149], [76.46147441864014]
[ -2.02700276 -11.5417552   51.13095037], [76.61704015731812]
[ -1.865896   -11.54857996  51.13433438], [76.76997828483582]
[ -1.69225846 -11.56464071  51.14252402], [76.92330503463745]
[ -1.52620906 -11.57383411  51.15108601], [77.07415771484375]
[ -1.34069759 -11.58268187  51.15958102], [77.22679543495178]
[ -1.15773153 -11.58971409  51.17365099], [77.38211441040039]
[ -0.94234799 -11.60664505  51.18380227], [77.53525161743164]
[ -0.73753773 -11.62142421  51.18298006], [77.71718525886536]
[ -0.53606449 -11.59934294  51.19852563], [77.89804816246033]
[ -0.33104453 -11.59830963  51.19755889], [78.04941177368164]
[ -0.14141691 -11.5897536   51.19600307], [78.20019817352295]
[ 4.58388830e-02 -1.15351863e+01  5.12203503e+01], [78.35344743728638]
[  0.22864298 -11.50675797  51.22076956], [78.50657916069031]
[  0.43388054 -11.4706876   51.2187131 ], [78.65709328651428]
[  0.66537936 -11.43347858  51.22210947], [78.80912899971008]
[  0.85841426 -11.40708792  51.2133859 ], [78.9606580734253]
[  1.05303025 -11.38075308  51.20440258], [79.11157655715942]
[  1.25592851 -11.34822342  51.20104416], [79.2629828453064]
[  1.45012642 -11.31808909  51.20129921], [79.41541981697083]
[  1.65754439 -11.27906683  51.2044199 ], [79.5991621017456]
[  1.8541147  -11.23777699  51.21221457], [79.75030589103699]
[  2.07972935 -11.19792907  51.21419257], [79.90107846260071]
[  2.27733261 -11.14797691  51.2304847 ], [80.05224943161011]
[  2.47602347 -11.09577821  51.24191531], [80.20285725593567]
[  2.66554669 -11.03974136  51.26268241], [80.37836217880249]
[  2.80808966 -10.95783726  51.29158441], [80.56363487243652]
[  2.99029005 -10.8715404   51.31708509], [80.71792006492615]
[  3.19181575 -10.77275934  51.34116572], [80.87093734741211]
[  3.40669647 -10.67096203  51.36238382], [81.02450704574585]
[  3.57604065 -10.57559197  51.3902507 ], [81.17847990989685]
[  3.72984344 -10.4732884   51.42174203], [81.3681390285492]
[  3.91468761 -10.38096656  51.43969498], [81.52191400527954]
[  4.13423982 -10.27725162  51.45503941], [81.67522263526917]
[  4.33841895 -10.11567976  51.49721591], [81.82706665992737]
[ 4.50648704 -9.97001986 51.53599258], [82.00802230834961]
[ 4.67717497 -9.81464491 51.58130975], [82.23238611221313]
[ 4.82849762 -9.68780716 51.60131512], [82.38945698738098]
[ 4.98202993 -9.53849522 51.63455634], [82.57747411727905]
[ 5.11371578 -9.3988137  51.6639546 ], [82.72965002059937]
[ 5.20947518 -9.24809133 51.70671451], [82.8809335231781]
[ 5.34397343 -9.10130736 51.73473299], [83.03346562385559]
[ 5.45612359 -8.98125571 51.74728711], [83.18474817276001]
[ 5.57282788 -8.84738886 51.75536891], [83.33530831336975]
[ 5.70057395 -8.70542403 51.76609134], [83.48564720153809]
[ 5.86306392 -8.55697893 51.77651129], [83.63659429550171]
[ 6.04022978 -8.40098826 51.78065465], [83.78784513473511]
[ 6.18419046 -8.3038065  51.76845877], [83.93909358978271]
[ 6.31168829 -8.18985698 51.768732  ], [84.12038660049438]
[ 6.46435684 -8.06248487 51.75934404], [84.28012251853943]
[ 6.63477451 -7.91823378 51.7509464 ], [84.488450050354]
[ 6.85371229 -7.75492129 51.73194934], [84.63990044593811]
[ 6.98336245 -7.63094601 51.72106494], [84.82326078414917]
[ 7.14852195 -7.51672931 51.69783879], [84.97502374649048]
[ 7.27281317 -7.4303888  51.67433678], [85.12667489051819]
[ 7.41098917 -7.3214642  51.652472  ], [85.2784628868103]
[ 7.56451888 -7.18804521 51.63538811], [85.42933559417725]
[ 7.72323118 -7.03775005 51.62206378], [85.58071398735046]
[ 7.88787052 -6.89613762 51.60932717], [85.73243355751038]
[ 8.01649935 -6.77987688 51.59687386], [85.88510394096375]
[ 8.15959368 -6.62970947 51.59363583], [86.04003429412842]
[ 8.3348815  -6.48580064 51.57316033], [86.2378408908844]
[ 8.45736365 -6.38240954 51.55413376], [86.38967180252075]
[ 8.60278361 -6.25840083 51.52539707], [86.54022264480591]
[ 8.7225542  -6.14861999 51.50532746], [86.70273113250732]
[ 8.85168153 -6.01288332 51.47967954], [86.85369396209717]
[ 9.00151014 -5.86206358 51.45192786], [87.00513863563538]
[ 9.18072322 -5.71674916 51.41619847], [87.18758893013]
[ 9.36814618 -5.5746813  51.37673307], [87.33834648132324]
[ 9.57040031 -5.4176439  51.33889844], [87.48992228507996]
[ 9.75222805 -5.25542777 51.31438111], [87.6424298286438]
[ 9.90943416 -5.08375106 51.30494334], [87.83545851707458]
[10.02586189 -4.93535805 51.3069382 ], [88.01621747016907]
[10.14624233 -4.73929194 51.31003768], [88.16664910316467]
[10.24130708 -4.57940187 51.30671467], [88.32444763183594]
[10.36549397 -4.40715275 51.29535372], [88.47612714767456]
[10.45057785 -4.26352872 51.29215881], [88.6282901763916]
[10.55234375 -4.0803858  51.28215602], [88.77944111824036]
[10.66014041 -3.88179204 51.2730821 ], [88.93249940872192]
[10.77374744 -3.67235684 51.2629569 ], [89.08406257629395]
[10.86514402 -3.49679938 51.24748086], [89.23630046844482]
[10.94962883 -3.30481512 51.24315413], [89.38791084289551]
[10.99214334 -3.13444561 51.24968747], [89.54020118713379]
[11.05326605 -2.94449156 51.24915032], [89.69095230102539]
[11.10464979 -2.76993831 51.24612639], [89.84371733665466]
[11.15017617 -2.5915159  51.23483224], [89.99521732330322]
[11.2120397  -2.40516263 51.22122122], [90.17748069763184]
[11.2291859  -2.2366483  51.22157917], [90.32983899116516]
[11.28011719 -2.0458985  51.2106993 ], [90.48126244544983]
[11.34344106 -1.86092778 51.19241804], [90.66331052780151]
[11.41679433 -1.66647209 51.17115936], [90.81610894203186]
[11.47021263 -1.48646125 51.1447679 ], [90.96897315979004]
[11.51385897 -1.29668001 51.13035355], [91.12091970443726]
[11.48580966 -1.1499771  51.1395894 ], [91.27262496948242]
[11.47262075 -0.98826404 51.14060648], [91.4554181098938]
[11.48059402 -0.80979622 51.1358331 ], [91.60713028907776]
[11.51343654 -0.62538237 51.12043649], [91.7594211101532]
[11.56583003 -0.44485924 51.09453189], [91.91672992706299]
[11.6283753  -0.25217817 51.06475491], [92.0703752040863]
[11.64886183 -0.09513607 51.05067377], [92.22162103652954]
[11.69296884  0.08925628 51.023695  ], [92.41367650032043]
[11.71908072  0.28779011 51.00745396], [92.56495404243469]
[11.75192111  0.49963394 50.98987385], [92.71617078781128]
[11.72132957  0.6511433  50.99697769], [92.86712336540222]
[11.72184599  0.82529383 50.98989268], [93.01870441436768]
[11.73892024  1.00776096 50.9753215 ], [93.20034623146057]
[11.77924592  1.19573365 50.94913187], [93.35186314582825]
[11.79858077  1.3653285  50.92818958], [93.5029788017273]
[11.83545153  1.55248705 50.89912629], [93.65403270721436]
[11.87035899  1.75902578 50.87384649], [93.80915260314941]
[11.90614841  1.97104881 50.84472956], [93.96094107627869]
[11.86633712  2.15768619 50.85533001], [94.11354446411133]
[11.84381642  2.37084456 50.85186607], [94.2651436328888]
[11.79995279  2.5804054  50.85930866], [94.418785572052]
[11.77538731  2.81338493 50.85761145], [94.57084155082703]
[11.75354676  3.03275633 50.86250865], [94.72267246246338]
[11.70956835  3.21982369 50.87087652], [94.87486743927002]
[11.66685758  3.44223629 50.87409907], [95.03077530860901]
[11.60617059  3.63995591 50.88461113], [95.18176341056824]
[11.56832209  3.83125204 50.87227397], [95.37426733970642]
[11.48551498  3.99288079 50.88337875], [95.52609300613403]
[11.41563448  4.18667162 50.88152668], [95.67711091041565]
[11.33510873  4.36845908 50.88665501], [95.8289258480072]
[11.28972209  4.54744816 50.86949017], [95.9793004989624]
[11.23089101  4.73037352 50.85729086], [96.13116765022278]
[11.19840493  4.91815766 50.83038028], [96.31454730033875]
[11.09412606  5.04202153 50.83452335], [96.4657347202301]
[11.01347097  5.20657299 50.82405626], [96.61672902107239]
[10.93592004  5.38542311 50.81368624], [96.76801085472107]
[10.91336989  5.54497049 50.77456783], [96.92018985748291]
[10.88218204  5.70896055 50.74045676], [97.07173752784729]
[10.86506298  5.87906504 50.70299477], [97.22418212890625]
[10.83680372  6.06222374 50.66756985], [97.41797494888306]
[10.82411452  6.2274467  50.624491  ], [97.60111689567566]
[10.80348301  6.41248227 50.58413612], [97.75255465507507]
[10.79467358  6.57026895 50.54192502], [97.90731191635132]
[10.78129203  6.75063189 50.49858351], [98.08147644996643]
[10.7300016   6.91123707 50.47845681], [98.24854755401611]
[10.66754436  7.07905074 50.46372168], [98.40425515174866]
[10.60750384  7.23292186 50.45278872], [98.55915689468384]
[10.53863354  7.41364688 50.4388616 ], [98.71347761154175]
[10.48271391  7.58415569 50.41459504], [98.86773872375488]
[10.4141159   7.77507847 50.39768486], [99.0218391418457]
[10.35757719  7.94828902 50.38346825], [99.17379641532898]
[10.26621277  8.08808789 50.37793198], [99.32495093345642]
[10.18318365  8.24668095 50.37240479], [99.47615337371826]
[10.110543    8.38925634 50.35784069], [99.62740349769592]
[10.02238458  8.55799791 50.36156823], [99.81909251213074]
[ 9.94014054  8.70631786 50.35534046], [99.96965193748474]
[ 9.85722142  8.86888375 50.34324806], [100.12144613265991]
[ 9.7364203   9.01933497 50.34597437], [100.27641034126282]
[ 9.60145656  9.18045778 50.34939069], [100.46624255180359]
[ 9.4510829   9.33612646 50.35408566], [100.61970853805542]
[ 9.31472911  9.49797674 50.35543808], [100.8092770576477]
[ 9.12159159  9.61024196 50.37645581], [100.96440196037292]
[ 8.96087017  9.74119113 50.38564522], [101.11896133422852]
[ 8.78850992  9.88571771 50.38956881], [101.27094626426697]
[ 8.60622499 10.04240911 50.39142415], [101.44902038574219]
[ 8.42286817 10.1973034  50.38494683], [101.60017585754395]
[ 8.2628928  10.33810055 50.37359861], [101.75192141532898]
[ 8.10303659 10.47650577 50.36226933], [101.90312719345093]
[ 7.93014472 10.63203902 50.34975978], [102.08385491371155]
[ 7.73792666 10.78430978 50.35052058], [102.23717451095581]
[ 7.54030338 10.93938266 50.34651232], [102.38842344284058]
[ 7.32198032 11.10881863 50.34149412], [102.56416583061218]
[ 7.08769701 11.28622989 50.33917523], [102.73270893096924]
[ 6.87430918 11.43197219 50.32695666], [102.88383150100708]
[ 6.68111207 11.57425243 50.31707639], [103.03505802154541]
[ 6.46620201 11.72576468 50.30818094], [103.27340698242188]
[ 6.26345464 11.85448675 50.29579115], [103.43193364143372]
[ 6.04160828 11.9751219  50.28458699], [103.58059549331665]
[ 5.8632436  12.07227273 50.26944511], [103.73538708686829]
[ 5.65910815 12.18128869 50.2654188 ], [103.88901042938232]
[ 5.45228884 12.29696853 50.25743578], [104.0401782989502]
[ 5.21858426 12.40807875 50.2572574 ], [104.19471073150635]
[ 4.98870302 12.51720219 50.25962288], [104.34508776664734]
[ 4.78641835 12.60155826 50.25580283], [104.49994659423828]
[ 4.59545235 12.69157028 50.24322429], [104.64996528625488]
[ 4.40271856 12.78371261 50.22966077], [104.80051159858704]
[ 4.22887567 12.85044417 50.23499138], [104.95115494728088]
[ 4.0291472  12.92218283 50.22642973], [105.10233783721924]
[ 3.83123182 12.99796698 50.21666956], [105.25365686416626]
[ 3.65584964 13.03492867 50.21328733], [105.40622305870056]
[ 3.46386044 13.09130913 50.2074059 ], [105.59745168685913]
[ 3.26823303 13.14471507 50.20537135], [105.74836158752441]
[ 3.1006894  13.1861776  50.19969414], [105.89944314956665]
[ 2.92011775 13.2331192  50.19389191], [106.05064535140991]
[ 2.76744198 13.26957651 50.17611574], [106.20130801200867]
[ 2.60840227 13.308589   50.16749562], [106.35335540771484]
[ 2.43212467 13.35006558 50.15701826], [106.50427460670471]
[ 2.24647721 13.39958022 50.14447196], [106.65774440765381]
[ 2.04832152 13.46168317 50.13071662], [106.80999541282654]
[ 1.86746088 13.52125248 50.11326024], [106.96040749549866]
[ 1.67579752 13.59077078 50.09460738], [107.14156913757324]
[ 1.52417123 13.59861179 50.0820792 ], [107.29267287254333]
[ 1.37533424 13.58018627 50.1058909 ], [107.44356274604797]
[ 1.20655882 13.56076162 50.12965122], [107.61154413223267]
[ 1.01984288 13.54393769 50.1515006 ], [107.7620906829834]
[ 0.85891774 13.52162154 50.1650828 ], [107.91434025764465]
[ 0.67176044 13.50786272 50.18582929], [108.0989158153534]
[ 0.52026245 13.48894788 50.19462579], [108.25055074691772]
[ 0.3443956  13.47506662 50.20606127], [108.40211987495422]
[ 0.17420292 13.4681285  50.2052257 ], [108.55352544784546]
[-1.23767120e-02  1.34734455e+01  5.02031627e+01], [108.70293879508972]
[-0.21530134 13.47870984 50.2020308 ], [108.85773730278015]
[-0.39677803 13.4689561  50.19755333], [109.0306396484375]
[-0.59877287 13.46941161 50.19078244], [109.18802332878113]
[-0.77337419 13.46194912 50.18054448], [109.33970403671265]
[-0.97450414 13.45792339 50.17286018], [109.4938473701477]
[-1.18705253 13.45104637 50.16516625], [109.64499139785767]
[-1.40217302 13.43943169 50.1662548 ], [109.79557657241821]
[-1.62734517 13.43027537 50.18321616], [109.9487829208374]
[-1.84432244 13.42701432 50.19783361], [110.10099387168884]
[-2.08586236 13.4214751  50.21628462], [110.25268959999084]
[-2.29512312 13.41259571 50.22311877], [110.4449462890625]
[-2.48059561 13.39319538 50.22480547], [110.59633159637451]
[-2.68958073 13.36610218 50.234441  ], [110.78068494796753]
[-2.90592271 13.33482303 50.24404083], [110.93392562866211]
[-3.14387144 13.29748945 50.25630779], [111.08579516410828]
[-3.35511417 13.23978119 50.25757373], [111.24126386642456]
[-3.55292838 13.16683223 50.25858706], [111.39665150642395]
[-3.77268778 13.08044238 50.26595626], [111.55152940750122]
[-3.95301001 12.98641374 50.26489268], [111.71160936355591]
[-4.16174678 12.88783087 50.27330524], [111.86869025230408]
[-4.32773463 12.78339922 50.2716676 ], [112.02370476722717]
[-4.51776622 12.67070607 50.2776761 ], [112.17781686782837]
[-4.7234629  12.56078224 50.28648718], [112.33256602287292]
[-4.92749268 12.47308318 50.29602981], [112.48756313323975]
[-5.13200441 12.41068024 50.30519139], [112.64362001419067]
[-5.32759187 12.34142529 50.30578767], [112.79772877693176]
[-5.52142479 12.26810109 50.30567917], [112.97790741920471]
[-5.71270021 12.18551659 50.30349148], [113.16312766075134]
[-5.8775034  12.09403    50.29709178], [113.31702184677124]
[-6.05618245 11.99261995 50.2945631 ], [113.47048449516296]
[-6.24887969 11.88808049 50.29363026], [113.62477946281433]
[-6.45574333 11.78168634 50.29247603], [113.77835130691528]
[-6.626274   11.66726793 50.28328473], [113.93033146858215]
[-6.81304285 11.56754904 50.28283589], [114.08187103271484]
[-6.98286623 11.47520287 50.27775588], [114.23877239227295]
[-7.17169387 11.36355304 50.27014236], [114.39303016662598]
[-7.34140574 11.26054768 50.26279852], [114.54862070083618]
[-7.49861811 11.15924929 50.25445361], [114.70452451705933]
[-7.64981867 11.06460823 50.24752258], [114.85831475257874]
[-7.81688715 10.95098203 50.23720404], [115.04508924484253]
[-7.99775237 10.83621723 50.22857562], [115.19580268859863]
[-8.1922925  10.71743458 50.21804707], [115.34751009941101]
[-8.40334636 10.5937416  50.20550951], [115.49827170372009]
[-8.6300983  10.46347374 50.18995972], [115.64962959289551]
[-8.7899742  10.36258639 50.17437654], [115.8347532749176]
[-8.96221109 10.27186796 50.16286118], [115.98511266708374]
[-9.09967103 10.17119311 50.14391837], [116.13738656044006]
[-9.25521712 10.05452437 50.12666799], [116.28792643547058]
[-9.4234691   9.93147411 50.10927831], [116.46401739120483]
[-9.60470142  9.80176537 50.08982565], [116.61563324928284]
[-9.76550931  9.70621818 50.07629853], [116.7669997215271]
[-9.92332156  9.59574575 50.05479125], [116.92010235786438]
[-10.10059544   9.46875057  50.03142462], [117.07182693481445]
[-10.26208855   9.33638608  50.00624231], [117.22303676605225]
[-10.38893641   9.19691479  49.98071909], [117.37428736686707]
[-10.52651438   9.04557287  49.95745843], [117.52611994743347]
[-10.65335704   8.9181311   49.9412217 ], [117.67746019363403]
[-10.7873704    8.78811236  49.92141205], [117.82963943481445]
[-10.94211131   8.63497403  49.89450508], [117.98140335083008]
[-11.10119538   8.48330428  49.86844833], [118.13324475288391]
[-11.26989981   8.32643392  49.83932708], [118.28601098060608]
[-11.41743167   8.21368702  49.82078083], [118.43821978569031]
[-11.58379458   8.07426733  49.78881848], [118.59115624427795]
[-11.68620742   7.95320072  49.76390703], [118.74334025382996]
[-11.80301096   7.8345914   49.74326508], [118.89499998092651]
[-11.93279746   7.68941416  49.71285024], [119.04663872718811]
[-12.06770622   7.53948958  49.6828863 ], [119.19774198532104]
[-12.20929082   7.38424236  49.65083467], [119.35022282600403]
[-12.35040287   7.23223855  49.61901047], [119.50216722488403]
[-12.49501381   7.07742835  49.58484091], [119.65411496162415]
[-12.61740291   6.95873165  49.56150126], [119.80661392211914]
[-12.75148138   6.82723463  49.52956049], [119.95819997787476]
[-12.88947736   6.68827364  49.49455552], [120.11100482940674]
[-13.02621054   6.55020532  49.45965966], [120.26249575614929]
[-13.09173799   6.43179156  49.43465205], [120.41546559333801]
[-13.16380275   6.30901775  49.41291297], [120.57073855400085]
[-13.25058926   6.16092803  49.38249577], [120.72441864013672]
[-13.3386917    6.00730248  49.35232785], [120.88656163215637]
[-13.43228867   5.8437346   49.31916616], [121.07384490966797]
[-13.52168064   5.68164232  49.2874632 ], [121.23210120201111]
[-13.60934641   5.51386065  49.25398982], [121.38682007789612]
[-13.70030371   5.33113325  49.21603363], [121.54156684875488]
[-13.79968493   5.13349594  49.17404669], [121.73605108261108]
[-13.90940059   4.94101808  49.13393305], [121.89117193222046]
[-14.02349862   4.73890913  49.08728014], [122.04551410675049]
[-14.14242188   4.52296384  49.03521135], [122.19876909255981]
[-14.26712969   4.29207845  48.97800719], [122.35326480865479]
[-14.39544795   4.05599432  48.91935495], [122.50929975509644]
[-14.49093756   3.8497693   48.87479745], [122.6625828742981]
[-14.56781916   3.66259542  48.83781103], [122.81861138343811]
[-14.63215312   3.48384201  48.80366753], [122.97299456596375]
[-14.69987087   3.31218378  48.7709959 ], [123.16168308258057]
[-14.77209735   3.142248    48.73574936], [123.31613826751709]
[-14.82998939   2.98573985  48.70554061], [123.46913313865662]
[-14.89877738   2.80203424  48.66165139], [123.62366437911987]
[-14.97500948   2.62868658  48.6231286 ], [123.77785110473633]
[-15.05972258   2.43564246  48.57208368], [123.93057298660278]
[-15.13714843   2.23920545  48.5216242 ], [124.08364653587341]
[-15.17867063   2.07298983  48.48965291], [124.2356915473938]
[-15.20751609   1.9129924   48.46100534], [124.38627004623413]
[-15.25573146   1.74879366  48.42746655], [124.54052543640137]
[-15.25813377   1.63004038  48.4174558 ], [124.6915066242218]
[-15.24426702   1.52266612  48.41179546], [124.84331369400024]
[-15.26427516   1.39921539  48.39307933], [124.99669647216797]
[-15.28532424   1.25853259  48.36418086], [125.15095162391663]
[-15.30414358   1.13583968  48.34571781], [125.30506801605225]
[-15.3346484    1.04861755  48.33799446], [125.46373844146729]
[-15.38221158   0.86715013  48.38893527], [125.61813950538635]
[-15.43764104   0.58521703  48.47169877], [125.77209305763245]
[-15.48968741   0.27337776  48.543319  ], [125.92760825157166]
[-15.53889936  -0.06044719  48.61426947], [126.08219385147095]
[-15.56588126  -0.37351263  48.66717118], [126.23822236061096]
[-15.53981272  -0.69473109  48.73197762], [126.39302730560303]
[-15.43591946  -0.95837187  48.79575456], [126.54883289337158]
[-15.33904381  -1.21323528  48.91066143], [126.70316243171692]
[-15.19808759  -1.42057     49.04001589], [126.85611248016357]
[-15.03821617  -1.65700126  49.1748365 ], [127.00763416290283]
[-14.88224639  -1.84569065  49.30868899], [127.16121697425842]
[-14.72451004  -2.0832754   49.43920578], [127.34919285774231]
[-14.55609093  -2.32472363  49.57295082], [127.50087380409241]
[-14.41479316  -2.61887219  49.6719664 ], [127.65219855308533]
[-14.21936355  -2.8779104   49.78681963], [127.80444598197937]
[-14.04005581  -3.09495348  49.88674294], [127.9566113948822]
[-13.8600271   -3.34455695  49.98802674], [128.11345100402832]
[-13.67040075  -3.619483    50.09136634], [128.26503086090088]
[-13.47178404  -3.83895957  50.20265538], [128.44949746131897]
[-13.19704473  -4.05293647  50.33384739], [128.60018277168274]
[-12.96113988  -4.25430943  50.43018222], [128.75168442726135]
[-12.71454302  -4.4446769   50.53754627], [128.9031012058258]
[-12.50423614  -4.56824584  50.64531383], [129.05492568016052]
[-12.28412678  -4.68891053  50.74752095], [129.20551943778992]
[-12.09533428  -4.84230627  50.81625891], [129.35631275177002]
[-11.90901237  -5.03793613  50.87548562], [129.50879168510437]
[-11.73903147  -5.21793922  50.92443661], [129.65959477424622]
[-11.56852712  -5.36027883  50.98559966], [129.81133913993835]
[-11.39357197  -5.48592892  51.04680312], [129.96244072914124]
[-11.20687703  -5.62149978  51.10708328], [130.1138517856598]
[-11.01193755  -5.79548125  51.17076292], [130.26538920402527]
[-10.87411102  -5.97620635  51.18519371], [130.41685891151428]
[-10.71808239  -6.18606137  51.20529012], [130.56851816177368]
[-10.57115273  -6.28952836  51.23577683], [130.723064661026]
[-10.42017045  -6.4100813   51.27447641], [130.9060537815094]
[-10.253696    -6.56328119  51.31162561], [131.08660984039307]
[-10.07041076  -6.73388656  51.3442406 ], [131.23715662956238]
[-9.87381074 -6.92366597 51.37860875], [131.41972136497498]
[-9.68045071 -7.06264946 51.42647696], [131.57018661499023]
[-9.48787978 -7.18176748 51.48059169], [131.72076559066772]
[-9.28912566 -7.26488591 51.5398798 ], [131.87074375152588]
[-9.11801753 -7.35386982 51.57143438], [132.0213282108307]
[-8.99672322 -7.44906789 51.58925551], [132.17142629623413]
[-8.87649878 -7.5317083  51.58717948], [132.41966795921326]
[-8.74170766 -7.64192673 51.59026394], [132.5711531639099]
[-8.58824948 -7.77036781 51.60278164], [132.72235321998596]
[-8.423907   -7.91193103 51.61711348], [132.8752143383026]
[-8.29098572 -7.96961213 51.65531556], [133.0269718170166]
[-8.14239075 -8.06730826 51.68239812], [133.17862677574158]
[-8.00113252 -8.1085653  51.72548981], [133.36328673362732]
[-7.84090132 -8.19820758 51.75087382], [133.5149266719818]
[-7.67468003 -8.25785411 51.78191521], [133.66600465774536]
[-7.52405036 -8.36140385 51.78104473], [133.81763243675232]
[-7.38763065 -8.47926022 51.77001141], [133.97016716003418]
[-7.24902012 -8.55231593 51.77357357], [134.12229537963867]
[-7.09099583 -8.66007266 51.7828407 ], [134.27454829216003]
[-6.95875133 -8.75560113 51.77753559], [134.4276945590973]
[-6.80249352 -8.88407044 51.77913446], [134.58091235160828]
[-6.65559647 -8.92898578 51.79067232], [134.73574113845825]
[-6.54903324 -9.01554925 51.78896462], [134.8866696357727]
[-6.431119   -9.06963807 51.79426112], [135.03741884231567]
[-6.32266587 -9.12801039 51.78966499], [135.19682359695435]
[-6.21144776 -9.19916868 51.77852379], [135.35129857063293]
[-6.0723279  -9.29355904 51.77010308], [135.50421500205994]
[-5.91527182 -9.39798086 51.76178657], [135.65881371498108]
[-5.74193427 -9.51207389 51.75615942], [135.81557393074036]
[-5.61289292 -9.57879566 51.75830348], [135.96966218948364]
[-5.46306017 -9.65312217 51.74631271], [136.15782618522644]
[-5.29343138 -9.74500487 51.74253788], [136.31222915649414]
[-5.14655583 -9.78523049 51.7645002 ], [136.46402621269226]
[-4.99545959 -9.82518345 51.77043986], [136.61660504341125]
[-4.82710276 -9.87499628 51.77360807], [136.7676591873169]
[-4.71242244 -9.96089805 51.72484721], [136.92369532585144]
[ -4.57571293 -10.04855221  51.6893543 ], [137.1402280330658]
[ -4.44614282 -10.06112879  51.68660841], [137.32436728477478]
[ -4.30960708 -10.13044489  51.65629281], [137.4754023551941]
[ -4.16910527 -10.21672372  51.62073355], [137.63038611412048]
[ -4.00940879 -10.32754235  51.58384051], [137.78548789024353]
[ -3.87746233 -10.42315757  51.53427068], [137.94199991226196]
[ -3.72983875 -10.54459025  51.48581285], [138.09381246566772]
[ -3.60875345 -10.60933981  51.43676321], [138.28024744987488]
[ -3.49657117 -10.69106101  51.39954454], [138.4369134902954]
[ -3.36170666 -10.7399244   51.37737494], [138.59165692329407]
[ -3.23803432 -10.81854657  51.33938007], [138.74726104736328]
[ -3.07342499 -10.90897379  51.31732318], [138.90297150611877]
[ -2.87814224 -11.00744812  51.2906991 ], [139.0583848953247]
[ -2.70278651 -11.11556402  51.25351362], [139.21282863616943]
[ -2.49225403 -11.21880043  51.22302907], [139.36772656440735]
[ -2.34328473 -11.25090174  51.22421102], [139.5236053466797]
[ -2.185778   -11.30882134  51.20393057], [139.675066947937]
[ -2.03403226 -11.36708712  51.17473956], [139.82882523536682]
[ -1.85391735 -11.43780461  51.15074527], [139.98029494285583]
[ -1.65455207 -11.51074399  51.1342588 ], [140.1330211162567]
[ -1.4716921  -11.58466403  51.11764473], [140.28423357009888]
[ -1.29120949 -11.58633698  51.13127693], [140.4357841014862]
[ -1.09527293 -11.59865924  51.13115464], [140.58964276313782]
[ -0.90184013 -11.60475068  51.13871616], [140.78622817993164]
[ -0.68791108 -11.62414304  51.14957804], [140.97212171554565]
[ -0.46856471 -11.61112198  51.16041995], [141.12715697288513]
[ -0.26458619 -11.59189224  51.17467791], [141.28101754188538]
[-4.30644781e-02 -1.15759796e+01  5.11925345e+01], [141.43641352653503]
[  0.13310881 -11.58375938  51.17873959], [141.58996415138245]
[  0.30603244 -11.5258538   51.20224554], [141.74554085731506]
[  0.48740719 -11.47872675  51.21120545], [141.90131425857544]
[  0.69012252 -11.44131697  51.2228282 ], [142.05484676361084]
[  0.90316193 -11.41677672  51.21764201], [142.23683047294617]
[  1.09666138 -11.38933935  51.21623861], [142.38848876953125]
[  1.31748407 -11.35375719  51.21566015], [142.5411343574524]
[  1.52254785 -11.31070528  51.22088405], [142.72311210632324]
[  1.72593332 -11.26965778  51.22770283], [142.8747057914734]
[  1.92949494 -11.22641845  51.23363359], [143.02795553207397]
[  2.14708264 -11.18047892  51.24316491], [143.17818999290466]
[  2.34274351 -11.12767037  51.25482072], [143.33028054237366]
[  2.508504   -11.03634583  51.29217532], [143.48196125030518]
[  2.69723668 -10.95790625  51.3010359 ], [143.63274693489075]
[  2.87562335 -10.8681991   51.32422979], [143.89390969276428]
[  3.05374224 -10.78115232  51.34347946], [144.04804253578186]
[  3.26127824 -10.68532883  51.3645588 ], [144.1984827518463]
[  3.46817207 -10.58455336  51.3849028 ], [144.35182452201843]
[  3.67638191 -10.47821173  51.41075641], [144.5031282901764]
[  3.85399627 -10.396148    51.42518623], [144.65440273284912]
[  4.04276007 -10.29378428  51.44529117], [144.8059561252594]
[  4.22740454 -10.18699263  51.4651398 ], [144.97027397155762]
[  4.39089404 -10.04028695  51.50707258], [145.1239264011383]
[ 4.55910242 -9.88954693 51.54771237], [145.2748429775238]
[ 4.72182263 -9.73130168 51.59226389], [145.4262294769287]
[ 4.87803082 -9.58728766 51.6262687 ], [145.57765865325928]
[ 5.00571332 -9.45016759 51.65206784], [145.72992062568665]
[ 5.15248131 -9.2985019  51.6776873 ], [145.883727312088]
[ 5.30210676 -9.15319009 51.6948885 ], [146.0366563796997]
[ 5.47434074 -8.99864207 51.71295018], [146.1873152256012]
[ 5.61826567 -8.865755   51.72086655], [146.3390429019928]
[ 5.75976592 -8.76083314 51.71708421], [146.52360105514526]
[ 5.93935591 -8.65278136 51.70385922], [146.67548823356628]
[ 6.10880575 -8.54529532 51.69166999], [146.82752084732056]
[ 6.2472788  -8.45594535 51.67657218], [146.9793140888214]
[ 6.39840673 -8.33950076 51.66532901], [147.1318154335022]
[ 6.5426773  -8.197677   51.67389895], [147.2831573486328]
[ 6.70210666 -8.05030203 51.67753686], [147.4357168674469]
[ 6.82767911 -7.93195835 51.67385842], [147.61864161491394]
[ 6.98203078 -7.80022011 51.66425406], [147.77098536491394]
[ 7.12890444 -7.7079828  51.64043545], [147.95065999031067]
[ 7.29500275 -7.59370866 51.61852139], [148.16832518577576]
[ 7.45802223 -7.4684349  51.60140368], [148.31958413124084]
[ 7.64072294 -7.32276098 51.58594471], [148.5096914768219]
[ 7.75222939 -7.2043686  51.57859436], [148.66146659851074]
[ 7.90122488 -7.064913   51.5603123 ], [148.8124852180481]
[ 8.05603126 -6.91439124 51.54603944], [149.00451707839966]
[ 8.23342626 -6.77620397 51.52827909], [149.1573667526245]
[ 8.37454609 -6.6263271  51.51612169], [149.3084590435028]
[ 8.53990972 -6.47239177 51.4975573 ], [149.45990324020386]
[ 8.6524603  -6.37100222 51.48035407], [149.6117513179779]
[ 8.7809657  -6.24892099 51.45640332], [149.762925863266]
[ 8.9237698  -6.10829979 51.431566  ], [149.9160988330841]
[ 9.07466831 -5.95873692 51.40477254], [150.0664985179901]
[ 9.2353374  -5.81487241 51.37582205], [150.21817541122437]
[ 9.42046839 -5.67943333 51.33894694], [150.370210647583]
[ 9.58581979 -5.53223256 51.31378662], [150.5222671031952]
[ 9.76215609 -5.37413892 51.28635214], [150.67657208442688]
[ 9.91309037 -5.20288423 51.27526791], [150.82895421981812]
[10.07936744 -5.0352296  51.25980823], [150.9799690246582]
[10.17007079 -4.88194046 51.26161259], [151.13513946533203]
[10.27467975 -4.73569022 51.25590376], [151.32985734939575]
[10.39777155 -4.5785939  51.24096676], [151.51055884361267]
[10.53291965 -4.41141811 51.22217711], [151.67436003684998]
[10.61625297 -4.26188857 51.20893981], [151.8268325328827]
[10.69405679 -4.09466062 51.20563674], [151.97804594039917]
[10.77696784 -3.9078798  51.2051543 ], [152.1303412914276]
[10.85665789 -3.69037451 51.21141495], [152.28160166740417]
[10.94482338 -3.47689861 51.21358224], [152.43383955955505]
[10.99830192 -3.29599416 51.22372877], [152.58566093444824]
[11.01901907 -3.13946478 51.23511923], [152.73790788650513]
[11.07042171 -2.96145691 51.22914583], [152.8898241519928]
[11.08810523 -2.80779009 51.22952625], [153.04250979423523]
[11.13463841 -2.63522062 51.21980662], [153.1933078765869]
[11.20257092 -2.45785333 51.20062657], [153.34494018554688]
[11.29249269 -2.2724056  51.17549437], [153.49619817733765]
[11.39224972 -2.08579264 51.14190242], [153.67217636108398]
[11.4236089  -1.92565972 51.13280526], [153.82630801200867]
[11.45311643 -1.74299295 51.12879368], [153.977885723114]
[11.47150685 -1.56886674 51.12414997], [154.16389870643616]
[11.5171794  -1.38503442 51.11139513], [154.31733512878418]
[11.56683488 -1.18158207 51.09695926], [154.47287559509277]
[11.63508877 -0.98032227 51.07456323], [154.62473154067993]
[11.70762504 -0.76116011 51.05035021], [154.77618193626404]
[11.70725922 -0.59777013 51.05351193], [154.92938375473022]
[11.72774533 -0.40514    51.04274412], [155.0814118385315]
[11.73429907 -0.22147358 51.04171958], [155.23696565628052]
[ 1.17379221e+01 -1.06146383e-02  5.10360265e+01], [155.390798330307]
[11.76786205  0.19542994 51.02218434], [155.5455379486084]
[11.79493275  0.41482396 51.00861572], [155.69963717460632]
[11.81385527  0.63654398 50.99414689], [155.85486245155334]
[11.83124005  0.85672415 50.97772969], [156.03523802757263]
[11.83592793  1.00373763 50.95797767], [156.18892121315002]
[11.86525251  1.13366391 50.9283177 ], [156.34391355514526]
[11.90169842  1.28005027 50.89862411], [156.5026912689209]
[11.93800559  1.4438203  50.8697809 ], [156.65567088127136]
[11.98281756  1.61306054 50.83787987], [156.8067982196808]
[12.00144394  1.79474492 50.83151784], [156.95827507972717]
[11.9672606   1.95702571 50.84017476], [157.1382327079773]
[11.95359734  2.14881085 50.83671958], [157.29145312309265]
[11.95397936  2.35097155 50.82478069], [157.44648122787476]
[11.95197467  2.57254752 50.81467394], [157.60018277168274]
[11.91733071  2.77460923 50.82012532], [157.75403809547424]
[11.90287617  3.0011701  50.80712526], [157.9404788017273]
[11.82215441  3.18125054 50.82291703], [158.12856101989746]
[11.77076474  3.39677181 50.82052504], [158.31682896614075]
[11.69742877  3.59161898 50.82294346], [158.47113943099976]
[11.62745966  3.79976785 50.82961106], [158.62630486488342]
[11.60580423  3.98631026 50.80672446], [158.812317609787]
[11.58270346  4.17912022 50.78481673], [159.00092816352844]
[11.5161266   4.36499407 50.77859543], [159.15895223617554]
[11.4486663   4.54891567 50.77397632], [159.31470012664795]
[11.39079968  4.72880438 50.76827918], [159.46809482574463]
[11.34522613  4.92353863 50.75285863], [159.62737154960632]
[11.28348721  5.12389767 50.7459843 ], [159.7823543548584]
[11.18175602  5.28616349 50.74856376], [159.93602204322815]
[11.14724961  5.43628204 50.72160124], [160.09035849571228]
[11.09846966  5.59588726 50.70085936], [160.2471513748169]
[11.0451656   5.78358153 50.6805907 ], [160.39978003501892]
[10.9970884   5.96943941 50.65746782], [160.55535459518433]
[10.95086854  6.15745157 50.63148204], [160.70895838737488]
[10.90306752  6.35733989 50.6062495 ], [160.86313772201538]
[10.82539512  6.5330433  50.60042264], [161.01449131965637]
[10.76665795  6.70661199 50.5818963 ], [161.16998291015625]
[10.7034495   6.87283969 50.56182186], [161.3211944103241]
[10.64433821  7.04743244 50.53862307], [161.47455883026123]
[10.57470369  7.23892696 50.53019927], [161.62709593772888]
[10.52373675  7.3987322  50.51162144], [161.77856922149658]
[10.41124751  7.51787344 50.51343064], [161.93346214294434]
[10.34743098  7.64772241 50.4967633 ], [162.1295280456543]
[10.28105031  7.79012406 50.47762839], [162.28250932693481]
[10.20275061  7.94765805 50.46394198], [162.43836188316345]
[10.13499295  8.11007507 50.45914811], [162.59151887893677]
[10.05307672  8.28065962 50.4453794 ], [162.74583792686462]
[ 9.95570319  8.42827804 50.42937132], [162.89866471290588]
[ 9.84123819  8.55856842 50.42485015], [163.0522780418396]
[ 9.72531633  8.71806175 50.41689987], [163.20966815948486]
[ 9.61948954  8.86352612 50.41739305], [163.36320519447327]
[ 9.52297383  8.98049284 50.40432857], [163.51752305030823]
[ 9.42296947  9.11505425 50.39362262], [163.6708538532257]
[ 9.31137646  9.25096127 50.38867739], [163.8285858631134]
[ 9.18294594  9.42191018 50.38239266], [163.99318146705627]
[ 9.04061888  9.58992152 50.3727338 ], [164.155255317688]
[ 8.90996526  9.74695466 50.35458028], [164.31069350242615]
[ 8.77845351  9.9263985  50.33409914], [164.472323179245]
[ 8.65096052 10.10907538 50.30979548], [164.63262128829956]
[ 8.5182022  10.28184752 50.289433  ], [164.8050320148468]
[ 8.32643885 10.3930279  50.28506932], [164.9891300201416]
[ 8.1485408  10.54420512 50.28260851], [165.16280007362366]
[ 7.97166187 10.69565168 50.2758527 ], [165.32318115234375]
[ 7.79152007 10.86904874 50.26023727], [165.48144435882568]
[ 7.64080443 11.03924936 50.23218346], [165.63367819786072]
