[ 0.  0. 50.], [16.430419921875]
[ 0.3  0.  50. ], [17.725139617919922]
[ 0.6  0.  50. ], [17.882413625717163]
[ 0.9  0.  50. ], [18.038866758346558]
[ 1.2  0.  50. ], [18.18644952774048]
[ 1.5  0.  50. ], [18.3332998752594]
[ 1.8  0.  50. ], [18.481624364852905]
[ 2.1  0.  50. ], [18.631197690963745]
[ 2.4  0.  50. ], [18.78450298309326]
[ 2.7  0.  50. ], [18.93869185447693]
[ 3.  0. 50.], [19.09820866584778]
[ 3.3  0.  50. ], [19.279394149780273]
[ 3.6  0.  50. ], [19.452916383743286]
[ 3.9  0.  50. ], [19.619487524032593]
[ 4.2  0.  50. ], [19.833820104599]
[ 4.5  0.  50. ], [20.00410795211792]
[ 4.8  0.  50. ], [20.197661876678467]
[ 5.1  0.  50. ], [20.35609793663025]
[ 5.4  0.  50. ], [20.514584064483643]
[ 5.7  0.  50. ], [20.67024040222168]
[ 6.  0. 50.], [20.821080684661865]
[ 6.3  0.  50. ], [20.972741842269897]
[ 6.6  0.  50. ], [21.126221656799316]
[ 6.9  0.  50. ], [21.27916932106018]
[ 7.2  0.  50. ], [21.435145378112793]
[ 7.5  0.  50. ], [21.591022729873657]
[ 7.8  0.  50. ], [21.743289709091187]
[ 8.1  0.  50. ], [21.897254705429077]
[ 8.4  0.  50. ], [22.08358144760132]
[ 8.7  0.  50. ], [22.23709487915039]
[ 9.  0. 50.], [22.391269207000732]
[ 9.3  0.  50. ], [22.573190212249756]
[ 9.6  0.  50. ], [22.728315353393555]
[ 9.9  0.  50. ], [22.882603883743286]
[10.2  0.  50. ], [23.033864498138428]
[10.5  0.  50. ], [23.18560004234314]
[10.8  0.  50. ], [23.344086408615112]
[11.1  0.  50. ], [23.500079870224]
[11.4  0.  50. ], [23.672898292541504]
[11.7  0.  50. ], [23.83133840560913]
[12.  0. 50.], [23.984766006469727]
[12.3  0.  50. ], [24.143986225128174]
[12.6  0.  50. ], [24.301989555358887]
[12.9  0.  50. ], [24.455204963684082]
[13.2  0.  50. ], [24.618789434432983]
[13.5  0.  50. ], [24.773982524871826]
[13.8  0.  50. ], [24.926644802093506]
[14.1  0.  50. ], [25.082741260528564]
[14.4  0.  50. ], [25.23603844642639]
[14.7  0.  50. ], [25.42209553718567]
[15.  0. 50.], [25.577187538146973]
[14.99259841  0.47116139 50.        ], [25.729832410812378]
[14.98334812  0.70659676 50.        ], [25.884801149368286]
[14.97040093  0.94185779 50.        ], [26.042617082595825]
[14.95376001  1.17688644 50.        ], [26.196985960006714]
[14.93342947  1.4116247  50.        ], [26.35074758529663]
[14.90941433  1.64601467 50.        ], [26.502879858016968]
[14.88172052  1.8799985  50.        ], [26.65581226348877]
[14.85035487  2.11351848 50.        ], [26.80919885635376]
[14.81532511  2.34651698 50.        ], [26.96293830871582]
[14.77663989  2.5789365  50.        ], [27.151328325271606]
[14.73430876  2.81071972 50.        ], [27.32160210609436]
[14.68834216  3.04180943 50.        ], [27.48388123512268]
[14.63875143  3.27214862 50.        ], [27.654370546340942]
[14.58554881  3.50168046 50.        ], [27.836605072021484]
[14.52874742  3.73034831 50.        ], [28.021005868911743]
[14.46836128  3.95809575 50.        ], [28.201979398727417]
[14.40440529  4.18486659 50.        ], [28.38045358657837]
[14.33689522  4.41060488 50.        ], [28.53035807609558]
[14.26584774  4.63525492 50.        ], [28.710421800613403]
[14.19128038  4.85876127 50.        ], [28.862389087677002]
[14.11321153  5.0810688  50.        ], [29.012645483016968]
[14.03166046  5.30212266 50.        ], [29.169270277023315]
[13.94664729  5.52186829 50.        ], [29.319660425186157]
[13.85819299  5.74025149 50.        ], [29.471179962158203]
[13.76631939  5.95721836 50.        ], [29.620610237121582]
[13.67104915  6.17271538 50.        ], [29.772130727767944]
[13.57240579  6.38668937 50.        ], [29.922389268875122]
[13.47041364  6.59908755 50.        ], [30.078599214553833]
[13.36509786  6.8098575  50.        ], [30.22906255722046]
[13.25648445  7.01894721 50.        ], [30.382121801376343]
[13.1446002   7.22630511 50.        ], [30.533387660980225]
[13.02947272  7.43188003 50.        ], [30.685796976089478]
[12.91113041  7.63562124 50.        ], [30.838477611541748]
[12.78960247  7.83747847 50.        ], [31.032832860946655]
[12.66491888  8.03740192 50.        ], [31.184815883636475]
[12.53711042  8.23534227 50.        ], [31.336397647857666]
[12.40620861  8.43125067 50.        ], [31.488698482513428]
[12.27224576  8.62507878 50.        ], [31.640530347824097]
[12.13525492  8.81677878 50.        ], [31.794026374816895]
[11.99526988  9.00630338 50.        ], [31.9474835395813]
[11.85232519  9.1936058  50.        ], [32.09801769256592]
[11.70645611  9.37863985 50.        ], [32.25202131271362]
[11.55769864  9.56135985 50.        ], [32.50141906738281]
[11.40608948  9.74172072 50.        ], [32.651005268096924]
[11.25166604  9.91967798 50.        ], [32.83231806755066]
[11.09446642 10.0951877  50.        ], [32.98282170295715]
[10.93452941 10.26820659 50.        ], [33.166072368621826]
[10.77189447 10.43869195 50.        ], [33.34065079689026]
[10.60660172 10.60660172 50.        ], [33.525129079818726]
[10.43869195 10.77189447 50.        ], [33.68044114112854]
[10.26820659 10.93452941 50.        ], [33.83294153213501]
[10.0951877  11.09446642 50.        ], [33.990461111068726]
[ 9.91967798 11.25166604 50.        ], [34.14251399040222]
[ 9.74172072 11.40608948 50.        ], [34.29583406448364]
[ 9.56135985 11.55769864 50.        ], [34.44855284690857]
[ 9.37863985 11.70645611 50.        ], [34.60120177268982]
[ 9.1936058  11.85232519 50.        ], [34.755221366882324]
[ 9.00630338 11.99526988 50.        ], [34.9077353477478]
[ 8.81677878 12.13525492 50.        ], [35.062132358551025]
[ 8.62507878 12.27224576 50.        ], [35.216695070266724]
[ 8.43125067 12.40620861 50.        ], [35.37092852592468]
[ 8.23534227 12.53711042 50.        ], [35.556843519210815]
[ 8.03740192 12.66491888 50.        ], [35.708505630493164]
[ 7.83747847 12.78960247 50.        ], [35.86178112030029]
[ 7.63562124 12.91113041 50.        ], [36.01517200469971]
[ 7.43188003 13.02947272 50.        ], [36.16956281661987]
[ 7.22630511 13.1446002  50.        ], [36.321937799453735]
[ 7.01894721 13.25648445 50.        ], [36.47664737701416]
[ 6.8098575  13.36509786 50.        ], [36.66978597640991]
[ 6.59908755 13.47041364 50.        ], [36.82310342788696]
[ 6.38668937 13.57240579 50.        ], [36.98131799697876]
[ 6.17271538 13.67104915 50.        ], [37.16232204437256]
[ 5.95721836 13.76631939 50.        ], [37.31200671195984]
[ 5.74025149 13.85819299 50.        ], [37.4623498916626]
[ 5.52186829 13.94664729 50.        ], [37.65279722213745]
[ 5.30212266 14.03166046 50.        ], [37.80377531051636]
[ 5.0810688  14.11321153 50.        ], [37.95446038246155]
[ 4.85876127 14.19128038 50.        ], [38.10567283630371]
[ 4.63525492 14.26584774 50.        ], [38.29083275794983]
[ 4.41060488 14.33689522 50.        ], [38.47586488723755]
[ 4.18486659 14.40440529 50.        ], [38.6259331703186]
[ 3.95809575 14.46836128 50.        ], [38.77611780166626]
[ 3.73034831 14.52874742 50.        ], [38.94274568557739]
[ 3.50168046 14.58554881 50.        ], [39.09533929824829]
[ 3.27214862 14.63875143 50.        ], [39.249250650405884]
[ 3.04180943 14.68834216 50.        ], [39.40190148353577]
[ 2.81071972 14.73430876 50.        ], [39.55557870864868]
[ 2.5789365  14.77663989 50.        ], [39.71061396598816]
[ 2.34651698 14.81532511 50.        ], [39.86461925506592]
[ 2.11351848 14.85035487 50.        ], [40.01754283905029]
[ 1.8799985  14.88172052 50.        ], [40.17234206199646]
[ 1.64601467 14.90941433 50.        ], [40.325578689575195]
[ 1.4116247  14.93342947 50.        ], [40.48773145675659]
[ 1.17688644 14.95376001 50.        ], [40.63836908340454]
[ 0.94185779 14.97040093 50.        ], [40.7880973815918]
[ 0.70659676 14.98334812 50.        ], [40.938650131225586]
[ 0.47116139 14.99259841 50.        ], [41.08948731422424]
[ 0.23560976 14.99814949 50.        ], [41.243287801742554]
[9.18485099e-16 1.50000000e+01 5.00000000e+01], [41.396992683410645]
[-0.23560976 14.99814949 50.        ], [41.55041551589966]
[-0.47116139 14.99259841 50.        ], [41.70303797721863]
[-0.70659676 14.98334812 50.        ], [41.89704513549805]
[-0.94185779 14.97040093 50.        ], [42.05067324638367]
[-1.17688644 14.95376001 50.        ], [42.20301055908203]
[-1.4116247  14.93342947 50.        ], [42.357097864151]
[-1.64601467 14.90941433 50.        ], [42.50876522064209]
[-1.8799985  14.88172052 50.        ], [42.66783094406128]
[-2.11351848 14.85035487 50.        ], [42.81967353820801]
[-2.34651698 14.81532511 50.        ], [42.974281549453735]
[-2.5789365  14.77663989 50.        ], [43.12479114532471]
[-2.81071972 14.73430876 50.        ], [43.27885460853577]
[-3.04180943 14.68834216 50.        ], [43.429336071014404]
[-3.27214862 14.63875143 50.        ], [43.61427974700928]
[-3.50168046 14.58554881 50.        ], [43.765055418014526]
[-3.73034831 14.52874742 50.        ], [43.91447925567627]
[-3.95809575 14.46836128 50.        ], [44.0644268989563]
[-4.18486659 14.40440529 50.        ], [44.21585440635681]
[-4.41060488 14.33689522 50.        ], [44.39102602005005]
[-4.63525492 14.26584774 50.        ], [44.54272437095642]
[-4.85876127 14.19128038 50.        ], [44.69428825378418]
[-5.0810688  14.11321153 50.        ], [44.843981981277466]
[-5.30212266 14.03166046 50.        ], [44.99457335472107]
[-5.52186829 13.94664729 50.        ], [45.14653301239014]
[-5.74025149 13.85819299 50.        ], [45.2974534034729]
[-5.95721836 13.76631939 50.        ], [45.44837999343872]
[-6.17271538 13.67104915 50.        ], [45.59902501106262]
[-6.38668937 13.57240579 50.        ], [45.75259208679199]
[-6.59908755 13.47041364 50.        ], [45.90420627593994]
[-6.8098575  13.36509786 50.        ], [46.05553317070007]
[-7.01894721 13.25648445 50.        ], [46.210320472717285]
[-7.22630511 13.1446002  50.        ], [46.368265867233276]
[-7.43188003 13.02947272 50.        ], [46.5221266746521]
[-7.63562124 12.91113041 50.        ], [46.67646861076355]
[-7.83747847 12.78960247 50.        ], [46.82909631729126]
[-8.03740192 12.66491888 50.        ], [46.983073472976685]
[-8.23534227 12.53711042 50.        ], [47.13850164413452]
[-8.43125067 12.40620861 50.        ], [47.29975366592407]
[-8.62507878 12.27224576 50.        ], [47.45406484603882]
[-8.81677878 12.13525492 50.        ], [47.64816236495972]
[-9.00630338 11.99526988 50.        ], [47.82438802719116]
[-9.1936058  11.85232519 50.        ], [47.97657132148743]
[-9.37863985 11.70645611 50.        ], [48.12781262397766]
[-9.56135985 11.55769864 50.        ], [48.31375193595886]
[-9.74172072 11.40608948 50.        ], [48.465380907058716]
[-9.91967798 11.25166604 50.        ], [48.647040128707886]
[-10.0951877   11.09446642  50.        ], [48.79991412162781]
[-10.26820659  10.93452941  50.        ], [48.95355248451233]
[-10.43869195  10.77189447  50.        ], [49.1034369468689]
[-10.60660172  10.60660172  50.        ], [49.255205392837524]
[-10.77189447  10.43869195  50.        ], [49.40636324882507]
[-10.93452941  10.26820659  50.        ], [49.55930256843567]
[-11.09446642  10.0951877   50.        ], [49.71077823638916]
[-11.25166604   9.91967798  50.        ], [49.863359451293945]
[-11.40608948   9.74172072  50.        ], [50.013490200042725]
[-11.55769864   9.56135985  50.        ], [50.16611456871033]
[-11.70645611   9.37863985  50.        ], [50.31866455078125]
[-11.85232519   9.1936058   50.        ], [50.470781087875366]
[-11.99526988   9.00630338  50.        ], [50.62757658958435]
[-12.13525492   8.81677878  50.        ], [50.778226375579834]
[-12.27224576   8.62507878  50.        ], [50.92819595336914]
[-12.40620861   8.43125067  50.        ], [51.079474449157715]
[-12.53711042   8.23534227  50.        ], [51.2312753200531]
[-12.66491888   8.03740192  50.        ], [51.38470196723938]
[-12.78960247   7.83747847  50.        ], [51.536874532699585]
[-12.91113041   7.63562124  50.        ], [51.69211530685425]
[-13.02947272   7.43188003  50.        ], [51.843239068984985]
[-13.1446002    7.22630511  50.        ], [51.99470806121826]
[-13.25648445   7.01894721  50.        ], [52.17695736885071]
[-13.36509786   6.8098575   50.        ], [52.328449010849]
[-13.47041364   6.59908755  50.        ], [52.48048496246338]
[-13.57240579   6.38668937  50.        ], [52.631505489349365]
[-13.67104915   6.17271538  50.        ], [52.78374171257019]
[-13.76631939   5.95721836  50.        ], [52.93528938293457]
[-13.85819299   5.74025149  50.        ], [53.093366861343384]
[-13.94664729   5.52186829  50.        ], [53.24608492851257]
[-14.03166046   5.30212266  50.        ], [53.39657545089722]
[-14.11321153   5.0810688   50.        ], [53.57885956764221]
[-14.19128038   4.85876127  50.        ], [53.73030996322632]
[-14.26584774   4.63525492  50.        ], [53.88086938858032]
[-14.33689522   4.41060488  50.        ], [54.03087615966797]
[-14.40440529   4.18486659  50.        ], [54.18371510505676]
[-14.46836128   3.95809575  50.        ], [54.33503293991089]
[-14.52874742   3.73034831  50.        ], [54.48684573173523]
[-14.58554881   3.50168046  50.        ], [54.63790416717529]
[-14.63875143   3.27214862  50.        ], [54.79211473464966]
[-14.68834216   3.04180943  50.        ], [54.94422936439514]
[-14.73430876   2.81071972  50.        ], [55.09654521942139]
[-14.77663989   2.5789365   50.        ], [55.25922393798828]
[-14.81532511   2.34651698  50.        ], [55.40960431098938]
[-14.85035487   2.11351848  50.        ], [55.55978536605835]
[-14.88172052   1.8799985   50.        ], [55.710450887680054]
[-14.90941433   1.64601467  50.        ], [55.8604633808136]
[-14.93342947   1.4116247   50.        ], [56.009390354156494]
[-14.95376001   1.17688644  50.        ], [56.164952754974365]
[-14.97040093   0.94185779  50.        ], [56.31608819961548]
[-14.98334812   0.70659676  50.        ], [56.466888189315796]
[-14.99259841   0.47116139  50.        ], [56.61668157577515]
[-14.99814949   0.23560976  50.        ], [56.80641007423401]
[-1.5000000e+01  1.8369702e-15  5.0000000e+01], [56.989577531814575]
[-14.99814949  -0.23560976  50.        ], [57.16506791114807]
[-14.99259841  -0.47116139  50.        ], [57.31604075431824]
[-14.98334812  -0.70659676  50.        ], [57.46758508682251]
[-14.97040093  -0.94185779  50.        ], [57.622288942337036]
[-14.95376001  -1.17688644  50.        ], [57.780725717544556]
[-14.93342947  -1.4116247   50.        ], [57.9643816947937]
[-14.90941433  -1.64601467  50.        ], [58.11459159851074]
[-14.88172052  -1.8799985   50.        ], [58.26557445526123]
[-14.85035487  -2.11351848  50.        ], [58.41862869262695]
[-14.81532511  -2.34651698  50.        ], [58.5689332485199]
[-14.77663989  -2.5789365   50.        ], [58.72018218040466]
[-14.73430876  -2.81071972  50.        ], [58.872642040252686]
[-14.68834216  -3.04180943  50.        ], [59.06064796447754]
[-14.63875143  -3.27214862  50.        ], [59.215707778930664]
[-14.58554881  -3.50168046  50.        ], [59.36698508262634]
[-14.52874742  -3.73034831  50.        ], [59.51693367958069]
[-14.46836128  -3.95809575  50.        ], [59.66812038421631]
[-14.40440529  -4.18486659  50.        ], [59.82573485374451]
[-14.33689522  -4.41060488  50.        ], [59.976845502853394]
[-14.26584774  -4.63525492  50.        ], [60.12744951248169]
[-14.19128038  -4.85876127  50.        ], [60.27818512916565]
[-14.11321153  -5.0810688   50.        ], [60.42798185348511]
[-14.03166046  -5.30212266  50.        ], [60.57897639274597]
[-13.94664729  -5.52186829  50.        ], [60.731241941452026]
[-13.85819299  -5.74025149  50.        ], [60.8821759223938]
[-13.76631939  -5.95721836  50.        ], [61.03347420692444]
[-13.67104915  -6.17271538  50.        ], [61.186001777648926]
[-13.57240579  -6.38668937  50.        ], [61.33953881263733]
[-13.47041364  -6.59908755  50.        ], [61.48994970321655]
[-13.36509786  -6.8098575   50.        ], [61.63929295539856]
[-13.25648445  -7.01894721  50.        ], [61.790860652923584]
[-13.1446002   -7.22630511  50.        ], [61.94152021408081]
[-13.02947272  -7.43188003  50.        ], [62.09200310707092]
[-12.91113041  -7.63562124  50.        ], [62.275548458099365]
[-12.78960247  -7.83747847  50.        ], [62.42916250228882]
[-12.66491888  -8.03740192  50.        ], [62.580790281295776]
[-12.53711042  -8.23534227  50.        ], [62.73227405548096]
[-12.40620861  -8.43125067  50.        ], [62.88575077056885]
[-12.27224576  -8.62507878  50.        ], [63.039599657058716]
[-12.13525492  -8.81677878  50.        ], [63.189533710479736]
[-11.99526988  -9.00630338  50.        ], [63.33989429473877]
[-11.85232519  -9.1936058   50.        ], [63.49004936218262]
[-11.70645611  -9.37863985  50.        ], [63.642722368240356]
[-11.55769864  -9.56135985  50.        ], [63.80013966560364]
[-11.40608948  -9.74172072  50.        ], [63.95419406890869]
[-11.25166604  -9.91967798  50.        ], [64.13581466674805]
[-11.09446642 -10.0951877   50.        ], [64.31584572792053]
[-10.93452941 -10.26820659  50.        ], [64.46996593475342]
[-10.77189447 -10.43869195  50.        ], [64.62256240844727]
[-10.60660172 -10.60660172  50.        ], [64.77590918540955]
[-10.43869195 -10.77189447  50.        ], [64.92669177055359]
[-10.26820659 -10.93452941  50.        ], [65.07922315597534]
[-10.0951877  -11.09446642  50.        ], [65.23069787025452]
[ -9.91967798 -11.25166604  50.        ], [65.38459348678589]
[ -9.74172072 -11.40608948  50.        ], [65.53858304023743]
[ -9.56135985 -11.55769864  50.        ], [65.69012832641602]
[ -9.37863985 -11.70645611  50.        ], [65.84307718276978]
[ -9.1936058  -11.85232519  50.        ], [65.9951913356781]
[ -9.00630338 -11.99526988  50.        ], [66.14898586273193]
[ -8.81677878 -12.13525492  50.        ], [66.33517932891846]
[ -8.62507878 -12.27224576  50.        ], [66.48759031295776]
[ -8.43125067 -12.40620861  50.        ], [66.64275908470154]
[ -8.23534227 -12.53711042  50.        ], [66.82372188568115]
[ -8.03740192 -12.66491888  50.        ], [66.97791814804077]
[ -7.83747847 -12.78960247  50.        ], [67.13302206993103]
[ -7.63562124 -12.91113041  50.        ], [67.28617453575134]
[ -7.43188003 -13.02947272  50.        ], [67.4367983341217]
[ -7.22630511 -13.1446002   50.        ], [67.61901807785034]
[ -7.01894721 -13.25648445  50.        ], [67.76991987228394]
[ -6.8098575  -13.36509786  50.        ], [67.95679235458374]
[ -6.59908755 -13.47041364  50.        ], [68.14105200767517]
[ -6.38668937 -13.57240579  50.        ], [68.2964198589325]
[ -6.17271538 -13.67104915  50.        ], [68.44885563850403]
[ -5.95721836 -13.76631939  50.        ], [68.59984135627747]
[ -5.74025149 -13.85819299  50.        ], [68.75081610679626]
[ -5.52186829 -13.94664729  50.        ], [68.90090990066528]
[ -5.30212266 -14.03166046  50.        ], [69.05457735061646]
[ -5.0810688  -14.11321153  50.        ], [69.20482897758484]
[ -4.85876127 -14.19128038  50.        ], [69.35562777519226]
[ -4.63525492 -14.26584774  50.        ], [69.50633883476257]
[ -4.41060488 -14.33689522  50.        ], [69.65794944763184]
[ -4.18486659 -14.40440529  50.        ], [69.80967473983765]
[ -3.95809575 -14.46836128  50.        ], [69.96162700653076]
[ -3.73034831 -14.52874742  50.        ], [70.11605072021484]
[ -3.50168046 -14.58554881  50.        ], [70.26900935173035]
[ -3.27214862 -14.63875143  50.        ], [70.42400479316711]
[ -3.04180943 -14.68834216  50.        ], [70.5773446559906]
[ -2.81071972 -14.73430876  50.        ], [70.73209857940674]
[ -2.5789365  -14.77663989  50.        ], [70.88443326950073]
[ -2.34651698 -14.81532511  50.        ], [71.03980278968811]
[ -2.11351848 -14.85035487  50.        ], [71.19390225410461]
[ -1.8799985  -14.88172052  50.        ], [71.3442554473877]
[ -1.64601467 -14.90941433  50.        ], [71.49668312072754]
[ -1.4116247  -14.93342947  50.        ], [71.68215131759644]
[ -1.17688644 -14.95376001  50.        ], [71.8693516254425]
[ -0.94185779 -14.97040093  50.        ], [72.02214908599854]
[ -0.70659676 -14.98334812  50.        ], [72.20744490623474]
[ -0.47116139 -14.99259841  50.        ], [72.43911504745483]
[ -0.23560976 -14.99814949  50.        ], [72.59036350250244]
[-2.7554553e-15 -1.5000000e+01  5.0000000e+01], [72.74282431602478]
[  0.23560976 -14.99814949  50.        ], [72.89521884918213]
[  0.47116139 -14.99259841  50.        ], [73.0472252368927]
[  0.70659676 -14.98334812  50.        ], [73.19865703582764]
[  0.94185779 -14.97040093  50.        ], [73.35025143623352]
[  1.17688644 -14.95376001  50.        ], [73.52540922164917]
[  1.4116247  -14.93342947  50.        ], [73.67842769622803]
[  1.64601467 -14.90941433  50.        ], [73.82891154289246]
[  1.8799985  -14.88172052  50.        ], [73.9809820652008]
[  2.11351848 -14.85035487  50.        ], [74.13165783882141]
[  2.34651698 -14.81532511  50.        ], [74.31053900718689]
[  2.5789365  -14.77663989  50.        ], [74.46405863761902]
[  2.81071972 -14.73430876  50.        ], [74.61819410324097]
[  3.04180943 -14.68834216  50.        ], [74.77013921737671]
[  3.27214862 -14.63875143  50.        ], [74.92393040657043]
[  3.50168046 -14.58554881  50.        ], [75.07964706420898]
[  3.73034831 -14.52874742  50.        ], [75.23338055610657]
[  3.95809575 -14.46836128  50.        ], [75.38767790794373]
[  4.18486659 -14.40440529  50.        ], [75.54267048835754]
[  4.41060488 -14.33689522  50.        ], [75.70175695419312]
[  4.63525492 -14.26584774  50.        ], [75.8803448677063]
[  4.85876127 -14.19128038  50.        ], [76.03123664855957]
[  5.0810688  -14.11321153  50.        ], [76.18253970146179]
[  5.30212266 -14.03166046  50.        ], [76.33464550971985]
[  5.52186829 -13.94664729  50.        ], [76.48546433448792]
[  5.74025149 -13.85819299  50.        ], [76.6375846862793]
[  5.95721836 -13.76631939  50.        ], [76.78804588317871]
[  6.17271538 -13.67104915  50.        ], [76.97022771835327]
[  6.38668937 -13.57240579  50.        ], [77.12050676345825]
[  6.59908755 -13.47041364  50.        ], [77.27124190330505]
[  6.8098575  -13.36509786  50.        ], [77.42205095291138]
[  7.01894721 -13.25648445  50.        ], [77.57321095466614]
[  7.22630511 -13.1446002   50.        ], [77.72531318664551]
[  7.43188003 -13.02947272  50.        ], [77.877432346344]
[  7.63562124 -12.91113041  50.        ], [78.06554102897644]
[  7.83747847 -12.78960247  50.        ], [78.24771666526794]
[  8.03740192 -12.66491888  50.        ], [78.3975076675415]
[  8.23534227 -12.53711042  50.        ], [78.5798032283783]
[  8.43125067 -12.40620861  50.        ], [78.76109337806702]
[  8.62507878 -12.27224576  50.        ], [78.91247701644897]
[  8.81677878 -12.13525492  50.        ], [79.06317114830017]
[  9.00630338 -11.99526988  50.        ], [79.2149305343628]
[  9.1936058  -11.85232519  50.        ], [79.36660981178284]
[  9.37863985 -11.70645611  50.        ], [79.51785564422607]
[  9.56135985 -11.55769864  50.        ], [79.66966915130615]
[  9.74172072 -11.40608948  50.        ], [79.81976389884949]
[  9.91967798 -11.25166604  50.        ], [79.971120595932]
[ 10.0951877  -11.09446642  50.        ], [80.12119722366333]
[ 10.26820659 -10.93452941  50.        ], [80.27377390861511]
[ 10.43869195 -10.77189447  50.        ], [80.42949867248535]
[ 10.60660172 -10.60660172  50.        ], [80.58272218704224]
[ 10.77189447 -10.43869195  50.        ], [80.73570370674133]
[ 10.93452941 -10.26820659  50.        ], [80.88637638092041]
[ 11.09446642 -10.0951877   50.        ], [81.03827571868896]
[11.25166604 -9.91967798 50.        ], [81.19018983840942]
[11.40608948 -9.74172072 50.        ], [81.34257578849792]
[11.55769864 -9.56135985 50.        ], [81.49306392669678]
[11.70645611 -9.37863985 50.        ], [81.64859414100647]
[11.85232519 -9.1936058  50.        ], [81.82408809661865]
[11.99526988 -9.00630338 50.        ], [81.97627019882202]
[12.13525492 -8.81677878 50.        ], [82.12498903274536]
[12.27224576 -8.62507878 50.        ], [82.27786564826965]
[12.40620861 -8.43125067 50.        ], [82.45950412750244]
[12.53711042 -8.23534227 50.        ], [82.61018180847168]
[12.66491888 -8.03740192 50.        ], [82.76258611679077]
[12.78960247 -7.83747847 50.        ], [82.9153504371643]
[12.91113041 -7.63562124 50.        ], [83.11687755584717]
[13.02947272 -7.43188003 50.        ], [83.2737672328949]
[13.1446002  -7.22630511 50.        ], [83.4676570892334]
[13.25648445 -7.01894721 50.        ], [83.6198718547821]
[13.36509786 -6.8098575  50.        ], [83.77366852760315]
[13.47041364 -6.59908755 50.        ], [83.92823696136475]
[13.57240579 -6.38668937 50.        ], [84.0778238773346]
[13.67104915 -6.17271538 50.        ], [84.26056694984436]
[13.76631939 -5.95721836 50.        ], [84.4114625453949]
[13.85819299 -5.74025149 50.        ], [84.56365633010864]
[13.94664729 -5.52186829 50.        ], [84.71382069587708]
[14.03166046 -5.30212266 50.        ], [84.86523962020874]
[14.11321153 -5.0810688  50.        ], [85.01728391647339]
[14.19128038 -4.85876127 50.        ], [85.17300796508789]
[14.26584774 -4.63525492 50.        ], [85.32537126541138]
[14.33689522 -4.41060488 50.        ], [85.47806191444397]
[14.40440529 -4.18486659 50.        ], [85.62817859649658]
[14.46836128 -3.95809575 50.        ], [85.7782678604126]
[14.52874742 -3.73034831 50.        ], [85.9275369644165]
[14.58554881 -3.50168046 50.        ], [86.08018517494202]
[14.63875143 -3.27214862 50.        ], [86.23085308074951]
[14.68834216 -3.04180943 50.        ], [86.38216209411621]
[14.73430876 -2.81071972 50.        ], [86.5328016281128]
[14.77663989 -2.5789365  50.        ], [86.68762183189392]
[14.81532511 -2.34651698 50.        ], [86.84222340583801]
[14.85035487 -2.11351848 50.        ], [86.99522423744202]
[14.88172052 -1.8799985  50.        ], [87.15171074867249]
[14.90941433 -1.64601467 50.        ], [87.30747580528259]
[14.93342947 -1.4116247  50.        ], [87.46833992004395]
[14.95376001 -1.17688644 50.        ], [87.62791705131531]
[14.97040093 -0.94185779 50.        ], [87.81521534919739]
[14.98334812 -0.70659676 50.        ], [87.97280430793762]
[14.99259841 -0.47116139 50.        ], [88.15889859199524]
[14.99814949 -0.23560976 50.        ], [88.3153817653656]
[ 1.5000000e+01 -3.6739404e-15  5.0000000e+01], [88.47254967689514]
[14.99814949  0.23560976 50.        ], [88.63022565841675]
[14.99259841  0.47116139 50.        ], [88.80803561210632]
[14.98334812  0.70659676 50.        ], [88.99149060249329]
[14.97040093  0.94185779 50.        ], [89.15192341804504]
[14.95376001  1.17688644 50.        ], [89.30582642555237]
[14.93342947  1.4116247  50.        ], [89.49517369270325]
[14.90941433  1.64601467 50.        ], [89.66346836090088]
[14.88172052  1.8799985  50.        ], [89.82133150100708]
[14.85035487  2.11351848 50.        ], [89.9758677482605]
[14.81532511  2.34651698 50.        ], [90.12977266311646]
[14.77663989  2.5789365  50.        ], [90.28805160522461]
[14.73430876  2.81071972 50.        ], [90.44560503959656]
[14.68834216  3.04180943 50.        ], [90.59879946708679]
[14.63875143  3.27214862 50.        ], [90.75784635543823]
[14.58554881  3.50168046 50.        ], [90.91603231430054]
[14.52874742  3.73034831 50.        ], [91.07346725463867]
[14.46836128  3.95809575 50.        ], [91.2308349609375]
[14.40440529  4.18486659 50.        ], [91.39385414123535]
[14.33689522  4.41060488 50.        ], [91.55120635032654]
[14.26584774  4.63525492 50.        ], [91.7056794166565]
[14.19128038  4.85876127 50.        ], [91.86186742782593]
[14.11321153  5.0810688  50.        ], [92.05749249458313]
[14.03166046  5.30212266 50.        ], [92.21363401412964]
[13.94664729  5.52186829 50.        ], [92.36811804771423]
[13.85819299  5.74025149 50.        ], [92.52380752563477]
[13.76631939  5.95721836 50.        ], [92.67814660072327]
[13.67104915  6.17271538 50.        ], [92.83120918273926]
[13.57240579  6.38668937 50.        ], [92.98488140106201]
[13.47041364  6.59908755 50.        ], [93.18220400810242]
[13.36509786  6.8098575  50.        ], [93.3363447189331]
[13.25648445  7.01894721 50.        ], [93.49295282363892]
[13.1446002   7.22630511 50.        ], [93.66238760948181]
[13.02947272  7.43188003 50.        ], [93.81901621818542]
[12.91113041  7.63562124 50.        ], [93.97193360328674]
[12.78960247  7.83747847 50.        ], [94.1241352558136]
[12.66491888  8.03740192 50.        ], [94.30301475524902]
[12.53711042  8.23534227 50.        ], [94.45644092559814]
[12.40620861  8.43125067 50.        ], [94.61127138137817]
[12.27224576  8.62507878 50.        ], [94.76281118392944]
[12.13525492  8.81677878 50.        ], [94.91315698623657]
[11.99526988  9.00630338 50.        ], [95.07399201393127]
[11.85232519  9.1936058  50.        ], [95.232017993927]
[11.70645611  9.37863985 50.        ], [95.3902337551117]
[11.55769864  9.56135985 50.        ], [95.54288268089294]
[11.40608948  9.74172072 50.        ], [95.694265127182]
[11.25166604  9.91967798 50.        ], [95.84987688064575]
[11.09446642 10.0951877  50.        ], [96.00287628173828]
[10.93452941 10.26820659 50.        ], [96.15404891967773]
[10.77189447 10.43869195 50.        ], [96.30470395088196]
[10.60660172 10.60660172 50.        ], [96.45588827133179]
[10.43869195 10.77189447 50.        ], [96.6319227218628]
[10.26820659 10.93452941 50.        ], [96.78385806083679]
[10.0951877  11.09446642 50.        ], [96.939120054245]
[ 9.91967798 11.25166604 50.        ], [97.09387946128845]
[ 9.74172072 11.40608948 50.        ], [97.26973557472229]
[ 9.56135985 11.55769864 50.        ], [97.42590761184692]
[ 9.37863985 11.70645611 50.        ], [97.64191961288452]
[ 9.1936058  11.85232519 50.        ], [97.7966034412384]
[ 9.00630338 11.99526988 50.        ], [97.98262572288513]
[ 8.81677878 12.13525492 50.        ], [98.14110398292542]
[ 8.62507878 12.27224576 50.        ], [98.30458402633667]
[ 8.43125067 12.40620861 50.        ], [98.46258449554443]
[ 8.23534227 12.53711042 50.        ], [98.6161539554596]
[ 8.03740192 12.66491888 50.        ], [98.7728579044342]
[ 7.83747847 12.78960247 50.        ], [98.92610168457031]
[ 7.63562124 12.91113041 50.        ], [99.07764649391174]
[ 7.43188003 13.02947272 50.        ], [99.22762680053711]
[ 7.22630511 13.1446002  50.        ], [99.38038301467896]
[ 7.01894721 13.25648445 50.        ], [99.53206610679626]
[ 6.8098575  13.36509786 50.        ], [99.70370149612427]
[ 6.59908755 13.47041364 50.        ], [99.85833835601807]
[ 6.38668937 13.57240579 50.        ], [100.0129177570343]
[ 6.17271538 13.67104915 50.        ], [100.16838502883911]
[ 5.95721836 13.76631939 50.        ], [100.35821771621704]
[ 5.74025149 13.85819299 50.        ], [100.5388867855072]
[ 5.52186829 13.94664729 50.        ], [100.68939089775085]
[ 5.30212266 14.03166046 50.        ], [100.84129548072815]
[ 5.0810688  14.11321153 50.        ], [100.99177718162537]
[ 4.85876127 14.19128038 50.        ], [101.14427280426025]
[ 4.63525492 14.26584774 50.        ], [101.29818439483643]
[ 4.41060488 14.33689522 50.        ], [101.44996666908264]
[ 4.18486659 14.40440529 50.        ], [101.60105395317078]
[ 3.95809575 14.46836128 50.        ], [101.75176620483398]
[ 3.73034831 14.52874742 50.        ], [101.90320444107056]
[ 3.50168046 14.58554881 50.        ], [102.05489110946655]
[ 3.27214862 14.63875143 50.        ], [102.21174550056458]
[ 3.04180943 14.68834216 50.        ], [102.37275815010071]
[ 2.81071972 14.73430876 50.        ], [102.52808785438538]
[ 2.5789365  14.77663989 50.        ], [102.68481659889221]
[ 2.34651698 14.81532511 50.        ], [102.8417284488678]
[ 2.11351848 14.85035487 50.        ], [103.0321536064148]
[ 1.8799985  14.88172052 50.        ], [103.18707537651062]
[ 1.64601467 14.90941433 50.        ], [103.3391923904419]
[ 1.4116247  14.93342947 50.        ], [103.48998427391052]
[ 1.17688644 14.95376001 50.        ], [103.67392325401306]
[ 0.94185779 14.97040093 50.        ], [103.82751274108887]
[ 0.70659676 14.98334812 50.        ], [104.02976512908936]
[ 0.47116139 14.99259841 50.        ], [104.18937635421753]
[ 0.23560976 14.99814949 50.        ], [104.37967324256897]
[4.5924255e-15 1.5000000e+01 5.0000000e+01], [104.53068470954895]
[-0.23560976 14.99814949 50.        ], [104.70812702178955]
[-0.47116139 14.99259841 50.        ], [104.86194252967834]
[-0.70659676 14.98334812 50.        ], [105.0564215183258]
[-0.94185779 14.97040093 50.        ], [105.20849204063416]
[-1.17688644 14.95376001 50.        ], [105.36013317108154]
[-1.4116247  14.93342947 50.        ], [105.51079392433167]
[-1.64601467 14.90941433 50.        ], [105.66337299346924]
[-1.8799985  14.88172052 50.        ], [105.81501460075378]
[-2.11351848 14.85035487 50.        ], [105.967693567276]
[-2.34651698 14.81532511 50.        ], [106.12476253509521]
[-2.5789365  14.77663989 50.        ], [106.27647042274475]
[-2.81071972 14.73430876 50.        ], [106.42935252189636]
[-3.04180943 14.68834216 50.        ], [106.58305311203003]
[-3.27214862 14.63875143 50.        ], [106.7344799041748]
[-3.50168046 14.58554881 50.        ], [106.88418769836426]
[-3.73034831 14.52874742 50.        ], [107.03818821907043]
[-3.95809575 14.46836128 50.        ], [107.1929280757904]
[-4.18486659 14.40440529 50.        ], [107.34319376945496]
[-4.41060488 14.33689522 50.        ], [107.49310302734375]
[-4.63525492 14.26584774 50.        ], [107.64304375648499]
[-4.85876127 14.19128038 50.        ], [107.79268550872803]
[-5.0810688  14.11321153 50.        ], [107.94308185577393]
[-5.30212266 14.03166046 50.        ], [108.0931487083435]
[-5.52186829 13.94664729 50.        ], [108.24402499198914]
[-5.74025149 13.85819299 50.        ], [108.39460945129395]
[-5.95721836 13.76631939 50.        ], [108.54584574699402]
[-6.17271538 13.67104915 50.        ], [108.69796872138977]
[-6.38668937 13.57240579 50.        ], [108.88914752006531]
[-6.59908755 13.47041364 50.        ], [109.03941607475281]
[-6.8098575  13.36509786 50.        ], [109.18926358222961]
[-7.01894721 13.25648445 50.        ], [109.34027886390686]
[-7.22630511 13.1446002  50.        ], [109.49100589752197]
[-7.43188003 13.02947272 50.        ], [109.64178800582886]
[-7.63562124 12.91113041 50.        ], [109.79394745826721]
[-7.83747847 12.78960247 50.        ], [109.94519138336182]
[-8.03740192 12.66491888 50.        ], [110.09794902801514]
[-8.23534227 12.53711042 50.        ], [110.28219366073608]
[-8.43125067 12.40620861 50.        ], [110.4346559047699]
[-8.62507878 12.27224576 50.        ], [110.58547878265381]
[-8.81677878 12.13525492 50.        ], [110.73670077323914]
[-9.00630338 11.99526988 50.        ], [110.88933300971985]
[-9.1936058  11.85232519 50.        ], [111.04036831855774]
[-9.37863985 11.70645611 50.        ], [111.19527769088745]
[-9.56135985 11.55769864 50.        ], [111.35073351860046]
[-9.74172072 11.40608948 50.        ], [111.50399971008301]
[-9.91967798 11.25166604 50.        ], [111.65558862686157]
[-10.0951877   11.09446642  50.        ], [111.80894255638123]
[-10.26820659  10.93452941  50.        ], [111.96409273147583]
[-10.43869195  10.77189447  50.        ], [112.1155138015747]
[-10.60660172  10.60660172  50.        ], [112.27346229553223]
[-10.77189447  10.43869195  50.        ], [112.42279815673828]
[-10.93452941  10.26820659  50.        ], [112.6068856716156]
[-11.09446642  10.0951877   50.        ], [112.76123046875]
[-11.25166604   9.91967798  50.        ], [112.91251254081726]
[-11.40608948   9.74172072  50.        ], [113.06769633293152]
[-11.55769864   9.56135985  50.        ], [113.2209837436676]
[-11.70645611   9.37863985  50.        ], [113.37556862831116]
[-11.85232519   9.1936058   50.        ], [113.52670335769653]
[-11.99526988   9.00630338  50.        ], [113.67767572402954]
[-12.13525492   8.81677878  50.        ], [113.85990405082703]
[-12.27224576   8.62507878  50.        ], [114.00996804237366]
[-12.40620861   8.43125067  50.        ], [114.16200423240662]
[-12.53711042   8.23534227  50.        ], [114.31403279304504]
[-12.66491888   8.03740192  50.        ], [114.46496820449829]
[-12.78960247   7.83747847  50.        ], [114.65405583381653]
[-12.91113041   7.63562124  50.        ], [114.80896878242493]
[-13.02947272   7.43188003  50.        ], [114.96604108810425]
[-13.1446002    7.22630511  50.        ], [115.12166714668274]
[-13.25648445   7.01894721  50.        ], [115.27515435218811]
[-13.36509786   6.8098575   50.        ], [115.42784857749939]
[-13.47041364   6.59908755  50.        ], [115.61021900177002]
[-13.57240579   6.38668937  50.        ], [115.79123997688293]
[-13.67104915   6.17271538  50.        ], [115.9612364768982]
[-13.76631939   5.95721836  50.        ], [116.11299729347229]
[-13.85819299   5.74025149  50.        ], [116.26982641220093]
[-13.94664729   5.52186829  50.        ], [116.42144513130188]
[-14.03166046   5.30212266  50.        ], [116.57347917556763]
[-14.11321153   5.0810688   50.        ], [116.72451686859131]
[-14.19128038   4.85876127  50.        ], [116.87658095359802]
[-14.26584774   4.63525492  50.        ], [117.02893710136414]
[-14.33689522   4.41060488  50.        ], [117.18094491958618]
[-14.40440529   4.18486659  50.        ], [117.33182525634766]
[-14.46836128   3.95809575  50.        ], [117.48283815383911]
[-14.52874742   3.73034831  50.        ], [117.63459014892578]
[-14.58554881   3.50168046  50.        ], [117.78918242454529]
[-14.63875143   3.27214862  50.        ], [117.9416811466217]
[-14.68834216   3.04180943  50.        ], [118.09295320510864]
[-14.73430876   2.81071972  50.        ], [118.24424457550049]
[-14.77663989   2.5789365   50.        ], [118.39733219146729]
[-14.81532511   2.34651698  50.        ], [118.54904055595398]
[-14.85035487   2.11351848  50.        ], [118.69922161102295]
[-14.88172052   1.8799985   50.        ], [118.85022401809692]
[-14.90941433   1.64601467  50.        ], [118.9993748664856]
[-14.93342947   1.4116247   50.        ], [119.14975190162659]
[-14.95376001   1.17688644  50.        ], [119.30372285842896]
[-14.97040093   0.94185779  50.        ], [119.45384097099304]
[-14.98334812   0.70659676  50.        ], [119.60437798500061]
[-14.99259841   0.47116139  50.        ], [119.75425624847412]
[-14.99814949   0.23560976  50.        ], [119.90519332885742]
[-1.5000000e+01  5.5109106e-15  5.0000000e+01], [120.08798694610596]
[-14.99814949  -0.23560976  50.        ], [120.23830604553223]
[-14.99259841  -0.47116139  50.        ], [120.41987085342407]
[-14.98334812  -0.70659676  50.        ], [120.57215547561646]
[-14.97040093  -0.94185779  50.        ], [120.724280834198]
[-14.95376001  -1.17688644  50.        ], [120.87571573257446]
[-14.93342947  -1.4116247   50.        ], [121.02686548233032]
[-14.90941433  -1.64601467  50.        ], [121.17812967300415]
[-14.88172052  -1.8799985   50.        ], [121.32834267616272]
[-14.85035487  -2.11351848  50.        ], [121.48280668258667]
[-14.81532511  -2.34651698  50.        ], [121.63288187980652]
[-14.77663989  -2.5789365   50.        ], [121.78470873832703]
[-14.73430876  -2.81071972  50.        ], [121.93497562408447]
[-14.68834216  -3.04180943  50.        ], [122.0862078666687]
[-14.63875143  -3.27214862  50.        ], [122.2387866973877]
[-14.58554881  -3.50168046  50.        ], [122.40329146385193]
[-14.52874742  -3.73034831  50.        ], [122.55504822731018]
[-14.46836128  -3.95809575  50.        ], [122.70628142356873]
[-14.40440529  -4.18486659  50.        ], [122.85713934898376]
[-14.33689522  -4.41060488  50.        ], [123.00821280479431]
[-14.26584774  -4.63525492  50.        ], [123.16061663627625]
[-14.19128038  -4.85876127  50.        ], [123.31223106384277]
[-14.11321153  -5.0810688   50.        ], [123.46458983421326]
[-14.03166046  -5.30212266  50.        ], [123.61683511734009]
[-13.94664729  -5.52186829  50.        ], [123.77014589309692]
[-13.85819299  -5.74025149  50.        ], [123.92100858688354]
[-13.76631939  -5.95721836  50.        ], [124.07151937484741]
[-13.67104915  -6.17271538  50.        ], [124.22236394882202]
[-13.57240579  -6.38668937  50.        ], [124.41343903541565]
[-13.47041364  -6.59908755  50.        ], [124.5664587020874]
[-13.36509786  -6.8098575   50.        ], [124.7171061038971]
[-13.25648445  -7.01894721  50.        ], [124.86859512329102]
[-13.1446002   -7.22630511  50.        ], [125.01864862442017]
[-13.02947272  -7.43188003  50.        ], [125.20548820495605]
[-12.91113041  -7.63562124  50.        ], [125.35725116729736]
[-12.78960247  -7.83747847  50.        ], [125.50847148895264]
[-12.66491888  -8.03740192  50.        ], [125.66127872467041]
[-12.53711042  -8.23534227  50.        ], [125.81242251396179]
[-12.40620861  -8.43125067  50.        ], [125.96424341201782]
[-12.27224576  -8.62507878  50.        ], [126.11453580856323]
[-12.13525492  -8.81677878  50.        ], [126.26737928390503]
[-11.99526988  -9.00630338  50.        ], [126.41703128814697]
[-11.85232519  -9.1936058   50.        ], [126.57387852668762]
[-11.70645611  -9.37863985  50.        ], [126.72740817070007]
[-11.55769864  -9.56135985  50.        ], [126.88068127632141]
[-11.40608948  -9.74172072  50.        ], [127.03278255462646]
[-11.25166604  -9.91967798  50.        ], [127.18543696403503]
[-11.09446642 -10.0951877   50.        ], [127.33764457702637]
[-10.93452941 -10.26820659  50.        ], [127.4885003566742]
[-10.77189447 -10.43869195  50.        ], [127.63940095901489]
[-10.60660172 -10.60660172  50.        ], [127.79132223129272]
[-10.43869195 -10.77189447  50.        ], [127.94501972198486]
[-10.26820659 -10.93452941  50.        ], [128.0961935520172]
[-10.0951877  -11.09446642  50.        ], [128.2486674785614]
[ -9.91967798 -11.25166604  50.        ], [128.40058016777039]
[ -9.74172072 -11.40608948  50.        ], [128.58352041244507]
[ -9.56135985 -11.55769864  50.        ], [128.73378896713257]
[ -9.37863985 -11.70645611  50.        ], [128.9098882675171]
[ -9.1936058  -11.85232519  50.        ], [129.09523725509644]
[ -9.00630338 -11.99526988  50.        ], [129.24655413627625]
[ -8.81677878 -12.13525492  50.        ], [129.3988356590271]
[ -8.62507878 -12.27224576  50.        ], [129.55054020881653]
[ -8.43125067 -12.40620861  50.        ], [129.70875668525696]
[ -8.23534227 -12.53711042  50.        ], [129.86006355285645]
[ -8.03740192 -12.66491888  50.        ], [130.04223036766052]
[ -7.83747847 -12.78960247  50.        ], [130.1936755180359]
[ -7.63562124 -12.91113041  50.        ], [130.3490560054779]
[ -7.43188003 -13.02947272  50.        ], [130.50276112556458]
[ -7.22630511 -13.1446002   50.        ], [130.65722107887268]
[ -7.01894721 -13.25648445  50.        ], [130.81100869178772]
[ -6.8098575  -13.36509786  50.        ], [130.96299123764038]
[ -6.59908755 -13.47041364  50.        ], [131.11709880828857]
[ -6.38668937 -13.57240579  50.        ], [131.27368688583374]
[ -6.17271538 -13.67104915  50.        ], [131.42585062980652]
[ -5.95721836 -13.76631939  50.        ], [131.57920908927917]
[ -5.74025149 -13.85819299  50.        ], [131.75890183448792]
[ -5.52186829 -13.94664729  50.        ], [131.93901538848877]
[ -5.30212266 -14.03166046  50.        ], [132.09171986579895]
[ -5.0810688  -14.11321153  50.        ], [132.24580025672913]
[ -4.85876127 -14.19128038  50.        ], [132.39803194999695]
[ -4.63525492 -14.26584774  50.        ], [132.57929706573486]
[ -4.41060488 -14.33689522  50.        ], [132.73545598983765]
[ -4.18486659 -14.40440529  50.        ], [132.88624906539917]
[ -3.95809575 -14.46836128  50.        ], [133.03694987297058]
[ -3.73034831 -14.52874742  50.        ], [133.21812438964844]
[ -3.50168046 -14.58554881  50.        ], [133.36974024772644]
[ -3.27214862 -14.63875143  50.        ], [133.5518674850464]
[ -3.04180943 -14.68834216  50.        ], [133.7016317844391]
[ -2.81071972 -14.73430876  50.        ], [133.88428807258606]
[ -2.5789365  -14.77663989  50.        ], [134.03734588623047]
[ -2.34651698 -14.81532511  50.        ], [134.19505524635315]
[ -2.11351848 -14.85035487  50.        ], [134.34816360473633]
[ -1.8799985  -14.88172052  50.        ], [134.50039935112]
[ -1.64601467 -14.90941433  50.        ], [134.6518099308014]
[ -1.4116247  -14.93342947  50.        ], [134.82948994636536]
[ -1.17688644 -14.95376001  50.        ], [134.9806673526764]
[ -0.94185779 -14.97040093  50.        ], [135.13247799873352]
[ -0.70659676 -14.98334812  50.        ], [135.28523707389832]
[ -0.47116139 -14.99259841  50.        ], [135.46691346168518]
[ -0.23560976 -14.99814949  50.        ], [135.61902809143066]
[-6.4293957e-15 -1.5000000e+01  5.0000000e+01], [135.77623653411865]
[  0.23560976 -14.99814949  50.        ], [135.92768025398254]
[  0.47116139 -14.99259841  50.        ], [136.07849740982056]
[  0.70659676 -14.98334812  50.        ], [136.2288339138031]
[  0.94185779 -14.97040093  50.        ], [136.379212141037]
[  1.17688644 -14.95376001  50.        ], [136.53797054290771]
[  1.4116247  -14.93342947  50.        ], [136.69006633758545]
[  1.64601467 -14.90941433  50.        ], [136.83991742134094]
[  1.8799985  -14.88172052  50.        ], [136.9908881187439]
[  2.11351848 -14.85035487  50.        ], [137.1426727771759]
[  2.34651698 -14.81532511  50.        ], [137.29550790786743]
[  2.5789365  -14.77663989  50.        ], [137.44550943374634]
[  2.81071972 -14.73430876  50.        ], [137.6260907649994]
[  3.04180943 -14.68834216  50.        ], [137.78445267677307]
[  3.27214862 -14.63875143  50.        ], [138.0000123977661]
[  3.50168046 -14.58554881  50.        ], [138.15519189834595]
[  3.73034831 -14.52874742  50.        ], [138.30870747566223]
[  3.95809575 -14.46836128  50.        ], [138.46183109283447]
[  4.18486659 -14.40440529  50.        ], [138.64671421051025]
[  4.41060488 -14.33689522  50.        ], [138.79945850372314]
[  4.63525492 -14.26584774  50.        ], [138.953458070755]
[  4.85876127 -14.19128038  50.        ], [139.10828971862793]
[  5.0810688  -14.11321153  50.        ], [139.26361203193665]
[  5.30212266 -14.03166046  50.        ], [139.41748142242432]
[  5.52186829 -13.94664729  50.        ], [139.57391333580017]
[  5.74025149 -13.85819299  50.        ], [139.72729539871216]
[  5.95721836 -13.76631939  50.        ], [139.8801531791687]
[  6.17271538 -13.67104915  50.        ], [140.03322172164917]
[  6.38668937 -13.57240579  50.        ], [140.19106698036194]
[  6.59908755 -13.47041364  50.        ], [140.34436106681824]
[  6.8098575  -13.36509786  50.        ], [140.49923372268677]
[  7.01894721 -13.25648445  50.        ], [140.69082164764404]
[  7.22630511 -13.1446002   50.        ], [140.84378600120544]
[  7.43188003 -13.02947272  50.        ], [140.99775314331055]
[  7.63562124 -12.91113041  50.        ], [141.15181398391724]
[  7.83747847 -12.78960247  50.        ], [141.30505871772766]
[  8.03740192 -12.66491888  50.        ], [141.47619795799255]
[  8.23534227 -12.53711042  50.        ], [141.62850904464722]
[  8.43125067 -12.40620861  50.        ], [141.78188252449036]
[  8.62507878 -12.27224576  50.        ], [141.93599247932434]
[  8.81677878 -12.13525492  50.        ], [142.08991479873657]
[  9.00630338 -11.99526988  50.        ], [142.25497317314148]
[  9.1936058  -11.85232519  50.        ], [142.4060778617859]
[  9.37863985 -11.70645611  50.        ], [142.55694890022278]
[  9.56135985 -11.55769864  50.        ], [142.70853662490845]
[  9.74172072 -11.40608948  50.        ], [142.85767459869385]
[  9.91967798 -11.25166604  50.        ], [143.00815534591675]
[ 10.0951877  -11.09446642  50.        ], [143.16280722618103]
[ 10.26820659 -10.93452941  50.        ], [143.31317043304443]
[ 10.43869195 -10.77189447  50.        ], [143.57261657714844]
[ 10.60660172 -10.60660172  50.        ], [143.7262463569641]
[ 10.77189447 -10.43869195  50.        ], [143.87658214569092]
[ 10.93452941 -10.26820659  50.        ], [144.05845069885254]
[ 11.09446642 -10.0951877   50.        ], [144.20719170570374]
[11.25166604 -9.91967798 50.        ], [144.35791087150574]
[11.40608948 -9.74172072 50.        ], [144.55345582962036]
[11.55769864 -9.56135985 50.        ], [144.70426535606384]
[11.70645611 -9.37863985 50.        ], [144.8853144645691]
[11.85232519 -9.1936058  50.        ], [145.0369417667389]
[11.99526988 -9.00630338 50.        ], [145.22154355049133]
[12.13525492 -8.81677878 50.        ], [145.37309885025024]
[12.27224576 -8.62507878 50.        ], [145.5237410068512]
[12.40620861 -8.43125067 50.        ], [145.6752200126648]
[12.53711042 -8.23534227 50.        ], [145.82627701759338]
[12.66491888 -8.03740192 50.        ], [146.01623797416687]
[12.78960247 -7.83747847 50.        ], [146.16824197769165]
[12.91113041 -7.63562124 50.        ], [146.31960678100586]
[13.02947272 -7.43188003 50.        ], [146.47160601615906]
[13.1446002  -7.22630511 50.        ], [146.62172651290894]
[13.25648445 -7.01894721 50.        ], [146.77500534057617]
[13.36509786 -6.8098575  50.        ], [146.9245731830597]
[13.47041364 -6.59908755 50.        ], [147.07544136047363]
[13.57240579 -6.38668937 50.        ], [147.22818779945374]
[13.67104915 -6.17271538 50.        ], [147.3827519416809]
[13.76631939 -5.95721836 50.        ], [147.57316613197327]
[13.85819299 -5.74025149 50.        ], [147.7291374206543]
[13.94664729 -5.52186829 50.        ], [147.88210797309875]
[14.03166046 -5.30212266 50.        ], [148.03554153442383]
[14.11321153 -5.0810688  50.        ], [148.18959760665894]
[14.19128038 -4.85876127 50.        ], [148.339359998703]
[14.26584774 -4.63525492 50.        ], [148.5068645477295]
[14.33689522 -4.41060488 50.        ], [148.66112780570984]
[14.40440529 -4.18486659 50.        ], [148.81345176696777]
[14.46836128 -3.95809575 50.        ], [148.96584582328796]
[14.52874742 -3.73034831 50.        ], [149.1208996772766]
[14.58554881 -3.50168046 50.        ], [149.27835965156555]
[14.63875143 -3.27214862 50.        ], [149.46012353897095]
[14.68834216 -3.04180943 50.        ], [149.6507694721222]
[14.73430876 -2.81071972 50.        ], [149.80499053001404]
[14.77663989 -2.5789365  50.        ], [149.9876835346222]
[14.81532511 -2.34651698 50.        ], [150.14299702644348]
[14.85035487 -2.11351848 50.        ], [150.29675674438477]
[14.88172052 -1.8799985  50.        ], [150.45386219024658]
[14.90941433 -1.64601467 50.        ], [150.60766696929932]
[14.93342947 -1.4116247  50.        ], [150.76415753364563]
[14.95376001 -1.17688644 50.        ], [150.91729521751404]
[14.97040093 -0.94185779 50.        ], [151.0720498561859]
[14.98334812 -0.70659676 50.        ], [151.22634553909302]
[14.99259841 -0.47116139 50.        ], [151.380676984787]
[14.99814949 -0.23560976 50.        ], [151.53829145431519]
[ 1.50000000e+01 -7.34788079e-15  5.00000000e+01], [151.69260454177856]
[14.99814949  0.23560976 50.        ], [151.84688138961792]
[14.99259841  0.47116139 50.        ], [151.99916911125183]
[14.98334812  0.70659676 50.        ], [152.15423226356506]
[14.97040093  0.94185779 50.        ], [152.309903383255]
[14.95376001  1.17688644 50.        ], [152.49133443832397]
[14.93342947  1.4116247  50.        ], [152.6485936641693]
[14.90941433  1.64601467 50.        ], [152.80459451675415]
[14.88172052  1.8799985  50.        ], [152.95954060554504]
[14.85035487  2.11351848 50.        ], [153.1139795780182]
[14.81532511  2.34651698 50.        ], [153.297926902771]
[14.77663989  2.5789365  50.        ], [153.4827914237976]
[14.73430876  2.81071972 50.        ], [153.67165279388428]
[14.68834216  3.04180943 50.        ], [153.8547282218933]
[14.63875143  3.27214862 50.        ], [154.04416513442993]
[14.58554881  3.50168046 50.        ], [154.1950306892395]
[14.52874742  3.73034831 50.        ], [154.36553311347961]
[14.46836128  3.95809575 50.        ], [154.5205578804016]
[14.40440529  4.18486659 50.        ], [154.67543721199036]
[14.33689522  4.41060488 50.        ], [154.82953095436096]
[14.26584774  4.63525492 50.        ], [154.98080158233643]
[14.19128038  4.85876127 50.        ], [155.1325924396515]
[14.11321153  5.0810688  50.        ], [155.28621554374695]
[14.03166046  5.30212266 50.        ], [155.47394680976868]
[13.94664729  5.52186829 50.        ], [155.6238784790039]
[13.85819299  5.74025149 50.        ], [155.8002381324768]
[13.76631939  5.95721836 50.        ], [155.95306277275085]
[13.67104915  6.17271538 50.        ], [156.1065936088562]
[13.57240579  6.38668937 50.        ], [156.2838158607483]
[13.47041364  6.59908755 50.        ], [156.45168709754944]
[13.36509786  6.8098575  50.        ], [156.60300612449646]
[13.25648445  7.01894721 50.        ], [156.75641131401062]
[13.1446002   7.22630511 50.        ], [156.90832495689392]
[13.02947272  7.43188003 50.        ], [157.06063103675842]
[12.91113041  7.63562124 50.        ], [157.21254658699036]
[12.78960247  7.83747847 50.        ], [157.36359071731567]
[12.66491888  8.03740192 50.        ], [157.51523208618164]
[12.53711042  8.23534227 50.        ], [157.69684672355652]
[12.40620861  8.43125067 50.        ], [157.849018573761]
[12.27224576  8.62507878 50.        ], [157.9994158744812]
[12.13525492  8.81677878 50.        ], [158.15275120735168]
[11.99526988  9.00630338 50.        ], [158.33800172805786]
[11.85232519  9.1936058  50.        ], [158.49169325828552]
[11.70645611  9.37863985 50.        ], [158.64545583724976]
[11.55769864  9.56135985 50.        ], [158.79834628105164]
[11.40608948  9.74172072 50.        ], [158.94998121261597]
[11.25166604  9.91967798 50.        ], [159.14986729621887]
[11.09446642 10.0951877  50.        ], [159.30088472366333]
[10.93452941 10.26820659 50.        ], [159.45320630073547]
[10.77189447 10.43869195 50.        ], [159.60525250434875]
[10.60660172 10.60660172 50.        ], [159.76249957084656]
[10.43869195 10.77189447 50.        ], [159.91311621665955]
[10.26820659 10.93452941 50.        ], [160.06579494476318]
[10.0951877  11.09446642 50.        ], [160.22347855567932]
[ 9.91967798 11.25166604 50.        ], [160.41277265548706]
[ 9.74172072 11.40608948 50.        ], [160.57877922058105]
[ 9.56135985 11.55769864 50.        ], [160.73943734169006]
[ 9.37863985 11.70645611 50.        ], [160.89468383789062]
[ 9.1936058  11.85232519 50.        ], [161.0560381412506]
[ 9.00630338 11.99526988 50.        ], [161.2152819633484]
[ 8.81677878 12.13525492 50.        ], [161.37415075302124]
[ 8.62507878 12.27224576 50.        ], [161.52763271331787]
[ 8.43125067 12.40620861 50.        ], [161.68485045433044]
[ 8.23534227 12.53711042 50.        ], [161.85911631584167]
[ 8.03740192 12.66491888 50.        ], [162.03909611701965]
[ 7.83747847 12.78960247 50.        ], [162.20118284225464]
[ 7.63562124 12.91113041 50.        ], [162.35609912872314]
[ 7.43188003 13.02947272 50.        ], [162.50620532035828]
[ 7.22630511 13.1446002  50.        ], [162.66061544418335]
[ 7.01894721 13.25648445 50.        ], [162.81899499893188]
