[4.65195950e-310 4.65196008e-310 4.65184259e-310], [16.4310781955719]
[4.65195950e-310 4.65196008e-310 4.65184259e-310], [17.725342512130737]
[4.65195950e-310 4.65196008e-310 4.65184259e-310], [17.882601499557495]
[4.65195950e-310 4.65196008e-310 4.65184259e-310], [18.039052724838257]
[4.65195950e-310 4.65196008e-310 4.65184259e-310], [18.18660831451416]
[4.65195950e-310 4.65196008e-310 4.65184259e-310], [18.33350896835327]
[4.65195950e-310 4.65196008e-310 4.65184259e-310], [18.481830596923828]
[4.65195950e-310 4.65196008e-310 4.65184259e-310], [18.63138198852539]
[4.65195950e-310 4.65196008e-310 4.65184259e-310], [18.784664154052734]
[4.65195950e-310 4.65196008e-310 4.65184259e-310], [18.93895673751831]
[4.65195950e-310 4.65196008e-310 4.65184259e-310], [19.098268508911133]
[4.65195950e-310 4.65196008e-310 4.65184259e-310], [19.27963399887085]
[4.65195950e-310 4.65196008e-310 4.65184259e-310], [19.45316982269287]
[4.65195950e-310 4.65196008e-310 4.65184259e-310], [19.619670867919922]
[4.65195950e-310 4.65196008e-310 4.65184259e-310], [19.834044456481934]
[4.65195950e-310 4.65196008e-310 4.65184259e-310], [20.004289627075195]
[4.65195950e-310 4.65196008e-310 4.65184259e-310], [20.197760105133057]
[4.65195950e-310 4.65196008e-310 4.65184259e-310], [20.356276512145996]
[4.65195950e-310 4.65196008e-310 4.65184259e-310], [20.514974117279053]
[4.65195950e-310 4.65196008e-310 4.65184259e-310], [20.670615434646606]
[4.65195950e-310 4.65196008e-310 4.65184259e-310], [20.821326732635498]
[4.65195950e-310 4.65196008e-310 4.65184259e-310], [20.972927808761597]
[4.65195950e-310 4.65196008e-310 4.65184259e-310], [21.1264226436615]
[4.65195950e-310 4.65196008e-310 4.65184259e-310], [21.279629707336426]
[4.65195950e-310 4.65196008e-310 4.65184259e-310], [21.435301303863525]
[4.65195950e-310 4.65196008e-310 4.65184259e-310], [21.591182470321655]
[4.65195950e-310 4.65196008e-310 4.65184259e-310], [21.74363136291504]
[4.65195950e-310 4.65196008e-310 4.65184259e-310], [21.89758038520813]
[4.65195950e-310 4.65196008e-310 4.65184259e-310], [22.083653688430786]
[4.65195950e-310 4.65196008e-310 4.65184259e-310], [22.237260341644287]
[4.65195950e-310 4.65196008e-310 4.65184259e-310], [22.391526460647583]
[4.65195950e-310 4.65196008e-310 4.65184259e-310], [22.573492527008057]
[4.65195950e-310 4.65196008e-310 4.65184259e-310], [22.728548526763916]
[4.65195950e-310 4.65196008e-310 4.65184259e-310], [22.88308882713318]
[4.65195950e-310 4.65196008e-310 4.65184259e-310], [23.034044981002808]
[4.65195950e-310 4.65196008e-310 4.65184259e-310], [23.185823678970337]
[4.65195950e-310 4.65196008e-310 4.65184259e-310], [23.344319581985474]
[4.65195950e-310 4.65196008e-310 4.65184259e-310], [23.500468254089355]
[4.65195950e-310 4.65196008e-310 4.65184259e-310], [23.673064470291138]
[4.65195950e-310 4.65196008e-310 4.65184259e-310], [23.831456422805786]
[4.65195950e-310 4.65196008e-310 4.65184259e-310], [23.984906911849976]
[4.65195950e-310 4.65196008e-310 4.65184259e-310], [24.144147157669067]
[4.65195950e-310 4.65196008e-310 4.65184259e-310], [24.302243947982788]
[4.65195950e-310 4.65196008e-310 4.65184259e-310], [24.45542883872986]
[4.65195950e-310 4.65196008e-310 4.65184259e-310], [24.618964195251465]
[4.65195950e-310 4.65196008e-310 4.65184259e-310], [24.774173498153687]
[4.65195950e-310 4.65196008e-310 4.65184259e-310], [24.926920890808105]
[4.65195950e-310 4.65196008e-310 4.65184259e-310], [25.083075046539307]
[4.65195950e-310 4.65196008e-310 4.65184259e-310], [25.236371517181396]
[4.65195950e-310 4.65196008e-310 4.65184259e-310], [25.42229986190796]
[4.65195950e-310 4.65196008e-310 4.65184259e-310], [25.577553033828735]
[4.65195950e-310 4.65196008e-310 4.65184259e-310], [25.73017978668213]
[4.65195950e-310 4.65196008e-310 4.65184259e-310], [25.885013580322266]
[4.65195950e-310 4.65196008e-310 4.65184259e-310], [26.04288601875305]
[4.65195950e-310 4.65196008e-310 4.65184259e-310], [26.19729208946228]
[4.65195950e-310 4.65196008e-310 4.65184259e-310], [26.350982189178467]
[4.65195950e-310 4.65196008e-310 4.65184259e-310], [26.503106117248535]
[4.65195950e-310 4.65196008e-310 4.65184259e-310], [26.6560320854187]
[4.65195950e-310 4.65196008e-310 4.65184259e-310], [26.809415578842163]
[4.65195950e-310 4.65196008e-310 4.65184259e-310], [26.96310043334961]
[4.65195950e-310 4.65196008e-310 4.65184259e-310], [27.151468515396118]
[4.65195950e-310 4.65196008e-310 4.65184259e-310], [27.321767807006836]
[4.65195950e-310 4.65196008e-310 4.65184259e-310], [27.484143495559692]
[4.65195950e-310 4.65196008e-310 4.65184259e-310], [27.654643535614014]
[4.65195950e-310 4.65196008e-310 4.65184259e-310], [27.836915493011475]
[4.65195950e-310 4.65196008e-310 4.65184259e-310], [28.021177053451538]
[4.65195950e-310 4.65196008e-310 4.65184259e-310], [28.202149152755737]
[4.65195950e-310 4.65196008e-310 4.65184259e-310], [28.38064932823181]
[4.65195950e-310 4.65196008e-310 4.65184259e-310], [28.53059196472168]
[4.65195950e-310 4.65196008e-310 4.65184259e-310], [28.710663080215454]
[4.65195950e-310 4.65196008e-310 4.65184259e-310], [28.86271023750305]
[4.65195950e-310 4.65196008e-310 4.65184259e-310], [29.012907028198242]
[4.65195950e-310 4.65196008e-310 4.65184259e-310], [29.169488668441772]
[4.65195950e-310 4.65196008e-310 4.65184259e-310], [29.31988263130188]
[4.65195950e-310 4.65196008e-310 4.65184259e-310], [29.471332550048828]
[4.65195950e-310 4.65196008e-310 4.65184259e-310], [29.620803356170654]
[4.65195950e-310 4.65196008e-310 4.65184259e-310], [29.77234697341919]
[4.65195950e-310 4.65196008e-310 4.65184259e-310], [29.922679662704468]
[4.65195950e-310 4.65196008e-310 4.65184259e-310], [30.079129219055176]
[4.65195950e-310 4.65196008e-310 4.65184259e-310], [30.2293918132782]
[4.65195950e-310 4.65196008e-310 4.65184259e-310], [30.382431268692017]
[4.65195950e-310 4.65196008e-310 4.65184259e-310], [30.533724546432495]
[4.65195950e-310 4.65196008e-310 4.65184259e-310], [30.686047077178955]
[4.65195950e-310 4.65196008e-310 4.65184259e-310], [30.8386447429657]
[4.65195950e-310 4.65196008e-310 4.65184259e-310], [31.03303027153015]
[4.65195950e-310 4.65196008e-310 4.65184259e-310], [31.184955835342407]
[4.65195950e-310 4.65196008e-310 4.65184259e-310], [31.336541414260864]
[4.65195950e-310 4.65196008e-310 4.65184259e-310], [31.488832473754883]
[4.65195950e-310 4.65196008e-310 4.65184259e-310], [31.640678882598877]
[4.65195950e-310 4.65196008e-310 4.65184259e-310], [31.794368982315063]
[4.65195950e-310 4.65196008e-310 4.65184259e-310], [31.94766592979431]
[4.65195950e-310 4.65196008e-310 4.65184259e-310], [32.09829330444336]
[4.65195950e-310 4.65196008e-310 4.65184259e-310], [32.252397537231445]
[4.65195950e-310 4.65196008e-310 4.65184259e-310], [32.5016074180603]
[4.65195950e-310 4.65196008e-310 4.65184259e-310], [32.65118432044983]
[4.65195950e-310 4.65196008e-310 4.65184259e-310], [32.83251953125]
[4.65195950e-310 4.65196008e-310 4.65184259e-310], [32.98303437232971]
[4.65195950e-310 4.65196008e-310 4.65184259e-310], [33.166339635849]
[4.65195950e-310 4.65196008e-310 4.65184259e-310], [33.34089517593384]
[4.65195950e-310 4.65196008e-310 4.65184259e-310], [33.525253772735596]
[4.65195950e-310 4.65196008e-310 4.65184259e-310], [33.680659770965576]
[4.65195950e-310 4.65196008e-310 4.65184259e-310], [33.83317422866821]
[4.65195950e-310 4.65196008e-310 4.65184259e-310], [33.9905686378479]
[4.65195950e-310 4.65196008e-310 4.65184259e-310], [34.14269423484802]
[4.65195950e-310 4.65196008e-310 4.65184259e-310], [34.296027421951294]
[4.65195950e-310 4.65196008e-310 4.65184259e-310], [34.448713302612305]
[4.65195950e-310 4.65196008e-310 4.65184259e-310], [34.60143232345581]
[4.65195950e-310 4.65196008e-310 4.65184259e-310], [34.755470752716064]
[4.65195950e-310 4.65196008e-310 4.65184259e-310], [34.908082008361816]
[4.65195950e-310 4.65196008e-310 4.65184259e-310], [35.06233358383179]
[4.65195950e-310 4.65196008e-310 4.65184259e-310], [35.216846227645874]
[4.65195950e-310 4.65196008e-310 4.65184259e-310], [35.371057987213135]
[4.65195950e-310 4.65196008e-310 4.65184259e-310], [35.55709099769592]
[4.65195950e-310 4.65196008e-310 4.65184259e-310], [35.70872402191162]
[4.65195950e-310 4.65196008e-310 4.65184259e-310], [35.86190724372864]
[4.65195950e-310 4.65196008e-310 4.65184259e-310], [36.015376567840576]
[4.65195950e-310 4.65196008e-310 4.65184259e-310], [36.169842004776]
[4.65195950e-310 4.65196008e-310 4.65184259e-310], [36.32217788696289]
[4.65195950e-310 4.65196008e-310 4.65184259e-310], [36.47709321975708]
[4.65195950e-310 4.65196008e-310 4.65184259e-310], [36.6700963973999]
[4.65195950e-310 4.65196008e-310 4.65184259e-310], [36.82330656051636]
[4.65195950e-310 4.65196008e-310 4.65184259e-310], [36.981492042541504]
[4.65195950e-310 4.65196008e-310 4.65184259e-310], [37.162572145462036]
[4.65195950e-310 4.65196008e-310 4.65184259e-310], [37.31215167045593]
[4.65195950e-310 4.65196008e-310 4.65184259e-310], [37.46255970001221]
[4.65195950e-310 4.65196008e-310 4.65184259e-310], [37.65299868583679]
[4.65195950e-310 4.65196008e-310 4.65184259e-310], [37.80407691001892]
[4.65195950e-310 4.65196008e-310 4.65184259e-310], [37.95461940765381]
[4.65195950e-310 4.65196008e-310 4.65184259e-310], [38.10592579841614]
[4.65195950e-310 4.65196008e-310 4.65184259e-310], [38.291128158569336]
[4.65195950e-310 4.65196008e-310 4.65184259e-310], [38.47606945037842]
[4.65195950e-310 4.65196008e-310 4.65184259e-310], [38.62618708610535]
[4.65195950e-310 4.65196008e-310 4.65184259e-310], [38.77631402015686]
[4.65195950e-310 4.65196008e-310 4.65184259e-310], [38.942816972732544]
[4.65195950e-310 4.65196008e-310 4.65184259e-310], [39.09562039375305]
[4.65195950e-310 4.65196008e-310 4.65184259e-310], [39.24942708015442]
[4.65195950e-310 4.65196008e-310 4.65184259e-310], [39.402122020721436]
[4.65195950e-310 4.65196008e-310 4.65184259e-310], [39.55575108528137]
[4.65195950e-310 4.65196008e-310 4.65184259e-310], [39.71085739135742]
[4.65195950e-310 4.65196008e-310 4.65184259e-310], [39.86472845077515]
[4.65195950e-310 4.65196008e-310 4.65184259e-310], [40.01767635345459]
[4.65195950e-310 4.65196008e-310 4.65184259e-310], [40.1725389957428]
[4.65195950e-310 4.65196008e-310 4.65184259e-310], [40.32588601112366]
[4.65195950e-310 4.65196008e-310 4.65184259e-310], [40.48796200752258]
[4.65195950e-310 4.65196008e-310 4.65184259e-310], [40.638733863830566]
[4.65195950e-310 4.65196008e-310 4.65184259e-310], [40.78829526901245]
[4.65195950e-310 4.65196008e-310 4.65184259e-310], [40.939032793045044]
[4.65195950e-310 4.65196008e-310 4.65184259e-310], [41.08970594406128]
[4.65195950e-310 4.65196008e-310 4.65184259e-310], [41.243438482284546]
[4.65195950e-310 4.65196008e-310 4.65184259e-310], [41.39722514152527]
[4.65195950e-310 4.65196008e-310 4.65184259e-310], [41.55062508583069]
[4.65195950e-310 4.65196008e-310 4.65184259e-310], [41.70314908027649]
[4.65195950e-310 4.65196008e-310 4.65184259e-310], [41.89738726615906]
[4.65195950e-310 4.65196008e-310 4.65184259e-310], [42.05081868171692]
[4.65195950e-310 4.65196008e-310 4.65184259e-310], [42.203144550323486]
[4.65195950e-310 4.65196008e-310 4.65184259e-310], [42.357603549957275]
[4.65195950e-310 4.65196008e-310 4.65184259e-310], [42.5090754032135]
[4.65195950e-310 4.65196008e-310 4.65184259e-310], [42.667999505996704]
[4.65195950e-310 4.65196008e-310 4.65184259e-310], [42.81997203826904]
[4.65195950e-310 4.65196008e-310 4.65184259e-310], [42.97449779510498]
[4.65195950e-310 4.65196008e-310 4.65184259e-310], [43.125028133392334]
[4.65195950e-310 4.65196008e-310 4.65184259e-310], [43.27907156944275]
[4.65195950e-310 4.65196008e-310 4.65184259e-310], [43.42952823638916]
[4.65195950e-310 4.65196008e-310 4.65184259e-310], [43.614471673965454]
[4.65195950e-310 4.65196008e-310 4.65184259e-310], [43.765267848968506]
[4.65195950e-310 4.65196008e-310 4.65184259e-310], [43.91466999053955]
[4.65195950e-310 4.65196008e-310 4.65184259e-310], [44.06465148925781]
[4.65195950e-310 4.65196008e-310 4.65184259e-310], [44.216007709503174]
[4.65195950e-310 4.65196008e-310 4.65184259e-310], [44.39120030403137]
[4.65195950e-310 4.65196008e-310 4.65184259e-310], [44.54299831390381]
[4.65195950e-310 4.65196008e-310 4.65184259e-310], [44.69449424743652]
[4.65195950e-310 4.65196008e-310 4.65184259e-310], [44.84422707557678]
[4.65195950e-310 4.65196008e-310 4.65184259e-310], [44.994812965393066]
[4.65195950e-310 4.65196008e-310 4.65184259e-310], [45.14671325683594]
[4.65195950e-310 4.65196008e-310 4.65184259e-310], [45.297664165496826]
[4.65195950e-310 4.65196008e-310 4.65184259e-310], [45.44871640205383]
[4.65195950e-310 4.65196008e-310 4.65184259e-310], [45.59924268722534]
[4.65195950e-310 4.65196008e-310 4.65184259e-310], [45.75281810760498]
[4.65195950e-310 4.65196008e-310 4.65184259e-310], [45.9045193195343]
[4.65195950e-310 4.65196008e-310 4.65184259e-310], [46.05569553375244]
[4.65195950e-310 4.65196008e-310 4.65184259e-310], [46.210540771484375]
[4.65195950e-310 4.65196008e-310 4.65184259e-310], [46.3684606552124]
[4.65195950e-310 4.65196008e-310 4.65184259e-310], [46.52243161201477]
[4.65195950e-310 4.65196008e-310 4.65184259e-310], [46.67671751976013]
[4.65195950e-310 4.65196008e-310 4.65184259e-310], [46.829344511032104]
[4.65195950e-310 4.65196008e-310 4.65184259e-310], [46.98329544067383]
[4.65195950e-310 4.65196008e-310 4.65184259e-310], [47.13884997367859]
[4.65195950e-310 4.65196008e-310 4.65184259e-310], [47.29995656013489]
[4.65195950e-310 4.65196008e-310 4.65184259e-310], [47.454468727111816]
[4.65195950e-310 4.65196008e-310 4.65184259e-310], [47.64823818206787]
[4.65195950e-310 4.65196008e-310 4.65184259e-310], [47.824585914611816]
[4.65195950e-310 4.65196008e-310 4.65184259e-310], [47.97682809829712]
[4.65195950e-310 4.65196008e-310 4.65184259e-310], [48.12795662879944]
[4.65195950e-310 4.65196008e-310 4.65184259e-310], [48.314018964767456]
[4.65195950e-310 4.65196008e-310 4.65184259e-310], [48.46562886238098]
[4.65195950e-310 4.65196008e-310 4.65184259e-310], [48.64733576774597]
[4.65195950e-310 4.65196008e-310 4.65184259e-310], [48.80027222633362]
[4.65195950e-310 4.65196008e-310 4.65184259e-310], [48.953815937042236]
[4.65195950e-310 4.65196008e-310 4.65184259e-310], [49.10370111465454]
[4.65195950e-310 4.65196008e-310 4.65184259e-310], [49.25543999671936]
[4.65195950e-310 4.65196008e-310 4.65184259e-310], [49.40665030479431]
[4.65195950e-310 4.65196008e-310 4.65184259e-310], [49.559632778167725]
[4.65195950e-310 4.65196008e-310 4.65184259e-310], [49.71116518974304]
[4.65195950e-310 4.65196008e-310 4.65184259e-310], [49.86367869377136]
[4.65195950e-310 4.65196008e-310 4.65184259e-310], [50.013821601867676]
[4.65195950e-310 4.65196008e-310 4.65184259e-310], [50.16651964187622]
[4.65195950e-310 4.65196008e-310 4.65184259e-310], [50.319220781326294]
[4.65195950e-310 4.65196008e-310 4.65184259e-310], [50.471134662628174]
[4.65195950e-310 4.65196008e-310 4.65184259e-310], [50.62806272506714]
[4.65195950e-310 4.65196008e-310 4.65184259e-310], [50.77838444709778]
[4.65195950e-310 4.65196008e-310 4.65184259e-310], [50.92838716506958]
[4.65195950e-310 4.65196008e-310 4.65184259e-310], [51.07983160018921]
[4.65195950e-310 4.65196008e-310 4.65184259e-310], [51.231454610824585]
[4.65195950e-310 4.65196008e-310 4.65184259e-310], [51.38503956794739]
[4.65195950e-310 4.65196008e-310 4.65184259e-310], [51.53731822967529]
[4.65195950e-310 4.65196008e-310 4.65184259e-310], [51.692280769348145]
[4.65195950e-310 4.65196008e-310 4.65184259e-310], [51.84346532821655]
[4.65195950e-310 4.65196008e-310 4.65184259e-310], [51.99488949775696]
[4.65195950e-310 4.65196008e-310 4.65184259e-310], [52.1771764755249]
[4.65195950e-310 4.65196008e-310 4.65184259e-310], [52.328640937805176]
[4.65195950e-310 4.65196008e-310 4.65184259e-310], [52.4806854724884]
[4.65195950e-310 4.65196008e-310 4.65184259e-310], [52.63172936439514]
[4.65195950e-310 4.65196008e-310 4.65184259e-310], [52.78420877456665]
[4.65195950e-310 4.65196008e-310 4.65184259e-310], [52.93563199043274]
[4.65195950e-310 4.65196008e-310 4.65184259e-310], [53.093852281570435]
[4.65195950e-310 4.65196008e-310 4.65184259e-310], [53.2462522983551]
[4.65195950e-310 4.65196008e-310 4.65184259e-310], [53.39676570892334]
[4.65195950e-310 4.65196008e-310 4.65184259e-310], [53.57900881767273]
[4.65195950e-310 4.65196008e-310 4.65184259e-310], [53.73049473762512]
[4.65195950e-310 4.65196008e-310 4.65184259e-310], [53.88102102279663]
[4.65195950e-310 4.65196008e-310 4.65184259e-310], [54.03110432624817]
[4.65195950e-310 4.65196008e-310 4.65184259e-310], [54.183985471725464]
[4.65195950e-310 4.65196008e-310 4.65184259e-310], [54.335262060165405]
[4.65195950e-310 4.65196008e-310 4.65184259e-310], [54.48718214035034]
[4.65195950e-310 4.65196008e-310 4.65184259e-310], [54.63811373710632]
[4.65195950e-310 4.65196008e-310 4.65184259e-310], [54.79238557815552]
[4.65195950e-310 4.65196008e-310 4.65184259e-310], [54.9444260597229]
[4.65195950e-310 4.65196008e-310 4.65184259e-310], [55.09674143791199]
[4.65195950e-310 4.65196008e-310 4.65184259e-310], [55.259434938430786]
[4.65195950e-310 4.65196008e-310 4.65184259e-310], [55.40984654426575]
[4.65195950e-310 4.65196008e-310 4.65184259e-310], [55.559948205947876]
[4.65195950e-310 4.65196008e-310 4.65184259e-310], [55.710545778274536]
[4.65195950e-310 4.65196008e-310 4.65184259e-310], [55.860705852508545]
[4.65195950e-310 4.65196008e-310 4.65184259e-310], [56.00962424278259]
[4.65195950e-310 4.65196008e-310 4.65184259e-310], [56.16508412361145]
[4.65195950e-310 4.65196008e-310 4.65184259e-310], [56.31646394729614]
[4.65195950e-310 4.65196008e-310 4.65184259e-310], [56.46711230278015]
[4.65195950e-310 4.65196008e-310 4.65184259e-310], [56.616902589797974]
[4.65195950e-310 4.65196008e-310 4.65184259e-310], [56.80662250518799]
[4.65195950e-310 4.65196008e-310 4.65184259e-310], [56.98978543281555]
[4.65195950e-310 4.65196008e-310 4.65184259e-310], [57.1653151512146]
[4.65195950e-310 4.65196008e-310 4.65184259e-310], [57.3163788318634]
[4.65195950e-310 4.65196008e-310 4.65184259e-310], [57.46780443191528]
[4.65195950e-310 4.65196008e-310 4.65184259e-310], [57.622682332992554]
[4.65195950e-310 4.65196008e-310 4.65184259e-310], [57.780967235565186]
[4.65195950e-310 4.65196008e-310 4.65184259e-310], [57.964781761169434]
[4.65195950e-310 4.65196008e-310 4.65184259e-310], [58.114840030670166]
[4.65195950e-310 4.65196008e-310 4.65184259e-310], [58.265798568725586]
[4.65195950e-310 4.65196008e-310 4.65184259e-310], [58.41892051696777]
[4.65195950e-310 4.65196008e-310 4.65184259e-310], [58.569249629974365]
[4.65195950e-310 4.65196008e-310 4.65184259e-310], [58.72040033340454]
[4.65195950e-310 4.65196008e-310 4.65184259e-310], [58.8728563785553]
[4.65195950e-310 4.65196008e-310 4.65184259e-310], [59.06088209152222]
[4.65195950e-310 4.65196008e-310 4.65184259e-310], [59.21595788002014]
[4.65195950e-310 4.65196008e-310 4.65184259e-310], [59.36749267578125]
[4.65195950e-310 4.65196008e-310 4.65184259e-310], [59.51711893081665]
[4.65195950e-310 4.65196008e-310 4.65184259e-310], [59.66848134994507]
[4.65195950e-310 4.65196008e-310 4.65184259e-310], [59.826096057891846]
[4.65195950e-310 4.65196008e-310 4.65184259e-310], [59.977052211761475]
[4.65195950e-310 4.65196008e-310 4.65184259e-310], [60.12762951850891]
[4.65195950e-310 4.65196008e-310 4.65184259e-310], [60.27844595909119]
[4.65195950e-310 4.65196008e-310 4.65184259e-310], [60.4281644821167]
[4.65195950e-310 4.65196008e-310 4.65184259e-310], [60.57920241355896]
[4.65195950e-310 4.65196008e-310 4.65184259e-310], [60.731433153152466]
[4.65195950e-310 4.65196008e-310 4.65184259e-310], [60.88252115249634]
[4.65195950e-310 4.65196008e-310 4.65184259e-310], [61.033713579177856]
[4.65195950e-310 4.65196008e-310 4.65184259e-310], [61.18618655204773]
[4.65195950e-310 4.65196008e-310 4.65184259e-310], [61.339725971221924]
[4.65195950e-310 4.65196008e-310 4.65184259e-310], [61.490275382995605]
[4.65195950e-310 4.65196008e-310 4.65184259e-310], [61.6396222114563]
[4.65195950e-310 4.65196008e-310 4.65184259e-310], [61.79116630554199]
[4.65195950e-310 4.65196008e-310 4.65184259e-310], [61.94180679321289]
[4.65195950e-310 4.65196008e-310 4.65184259e-310], [62.09216523170471]
[4.65195950e-310 4.65196008e-310 4.65184259e-310], [62.27569246292114]
[4.65195950e-310 4.65196008e-310 4.65184259e-310], [62.429362058639526]
[4.65195950e-310 4.65196008e-310 4.65184259e-310], [62.58110785484314]
[4.65195950e-310 4.65196008e-310 4.65184259e-310], [62.732579946517944]
[4.65195950e-310 4.65196008e-310 4.65184259e-310], [62.886117935180664]
[4.65195950e-310 4.65196008e-310 4.65184259e-310], [63.03978252410889]
[4.65195950e-310 4.65196008e-310 4.65184259e-310], [63.189764976501465]
[4.65195950e-310 4.65196008e-310 4.65184259e-310], [63.340155839920044]
[4.65195950e-310 4.65196008e-310 4.65184259e-310], [63.49026823043823]
[4.65195950e-310 4.65196008e-310 4.65184259e-310], [63.6429648399353]
[4.65195950e-310 4.65196008e-310 4.65184259e-310], [63.80041027069092]
[4.65195950e-310 4.65196008e-310 4.65184259e-310], [63.954493045806885]
[4.65195950e-310 4.65196008e-310 4.65184259e-310], [64.13613224029541]
[4.65195950e-310 4.65196008e-310 4.65184259e-310], [64.31617307662964]
[4.65195950e-310 4.65196008e-310 4.65184259e-310], [64.47040009498596]
[4.65195950e-310 4.65196008e-310 4.65184259e-310], [64.62287521362305]
[4.65195950e-310 4.65196008e-310 4.65184259e-310], [64.77623558044434]
[4.65195950e-310 4.65196008e-310 4.65184259e-310], [64.92699074745178]
[4.65195950e-310 4.65196008e-310 4.65184259e-310], [65.0794620513916]
[4.65195950e-310 4.65196008e-310 4.65184259e-310], [65.23080801963806]
[4.65195950e-310 4.65196008e-310 4.65184259e-310], [65.38493204116821]
[4.65195950e-310 4.65196008e-310 4.65184259e-310], [65.53872346878052]
[4.65195950e-310 4.65196008e-310 4.65184259e-310], [65.6903121471405]
[4.65195950e-310 4.65196008e-310 4.65184259e-310], [65.8432264328003]
[4.65195950e-310 4.65196008e-310 4.65184259e-310], [65.99539947509766]
[4.65195950e-310 4.65196008e-310 4.65184259e-310], [66.14938974380493]
[4.65195950e-310 4.65196008e-310 4.65184259e-310], [66.33532857894897]
[4.65195950e-310 4.65196008e-310 4.65184259e-310], [66.48777508735657]
[4.65195950e-310 4.65196008e-310 4.65184259e-310], [66.64318490028381]
[4.65195950e-310 4.65196008e-310 4.65184259e-310], [66.82394433021545]
[4.65195950e-310 4.65196008e-310 4.65184259e-310], [66.97810101509094]
[4.65195950e-310 4.65196008e-310 4.65184259e-310], [67.13327670097351]
[4.65195950e-310 4.65196008e-310 4.65184259e-310], [67.2864363193512]
[4.65195950e-310 4.65196008e-310 4.65184259e-310], [67.43694305419922]
[4.65195950e-310 4.65196008e-310 4.65184259e-310], [67.61925745010376]
[4.65195950e-310 4.65196008e-310 4.65184259e-310], [67.77007532119751]
[4.65195950e-310 4.65196008e-310 4.65184259e-310], [67.95711088180542]
[4.65195950e-310 4.65196008e-310 4.65184259e-310], [68.14141035079956]
[4.65195950e-310 4.65196008e-310 4.65184259e-310], [68.29662942886353]
[4.65195950e-310 4.65196008e-310 4.65184259e-310], [68.44917511940002]
[4.65195950e-310 4.65196008e-310 4.65184259e-310], [68.60001635551453]
[4.65195950e-310 4.65196008e-310 4.65184259e-310], [68.75100660324097]
[4.65195950e-310 4.65196008e-310 4.65184259e-310], [68.90117406845093]
[4.65195950e-310 4.65196008e-310 4.65184259e-310], [69.05472826957703]
[4.65195950e-310 4.65196008e-310 4.65184259e-310], [69.20499277114868]
[4.65195950e-310 4.65196008e-310 4.65184259e-310], [69.35583734512329]
[4.65195950e-310 4.65196008e-310 4.65184259e-310], [69.50653147697449]
[4.65195950e-310 4.65196008e-310 4.65184259e-310], [69.65819931030273]
[4.65195950e-310 4.65196008e-310 4.65184259e-310], [69.8099536895752]
[4.65195950e-310 4.65196008e-310 4.65184259e-310], [69.96183443069458]
[4.65195950e-310 4.65196008e-310 4.65184259e-310], [70.11636567115784]
[4.65195950e-310 4.65196008e-310 4.65184259e-310], [70.26926112174988]
[4.65195950e-310 4.65196008e-310 4.65184259e-310], [70.42425179481506]
[4.65195950e-310 4.65196008e-310 4.65184259e-310], [70.5775899887085]
[4.65195950e-310 4.65196008e-310 4.65184259e-310], [70.73265409469604]
[4.65195950e-310 4.65196008e-310 4.65184259e-310], [70.8846914768219]
[4.65195950e-310 4.65196008e-310 4.65184259e-310], [71.04003620147705]
[4.65195950e-310 4.65196008e-310 4.65184259e-310], [71.19409155845642]
[4.65195950e-310 4.65196008e-310 4.65184259e-310], [71.34454035758972]
[4.65195950e-310 4.65196008e-310 4.65184259e-310], [71.49693083763123]
[4.65195950e-310 4.65196008e-310 4.65184259e-310], [71.68235898017883]
[4.65195950e-310 4.65196008e-310 4.65184259e-310], [71.86953115463257]
[4.65195950e-310 4.65196008e-310 4.65184259e-310], [72.02229046821594]
[4.65195950e-310 4.65196008e-310 4.65184259e-310], [72.2077088356018]
[4.65195950e-310 4.65196008e-310 4.65184259e-310], [72.43944525718689]
[4.65195950e-310 4.65196008e-310 4.65184259e-310], [72.59065985679626]
[4.65195950e-310 4.65196008e-310 4.65184259e-310], [72.74303841590881]
[4.65195950e-310 4.65196008e-310 4.65184259e-310], [72.89559602737427]
[4.65195950e-310 4.65196008e-310 4.65184259e-310], [73.04757642745972]
[4.65195950e-310 4.65196008e-310 4.65184259e-310], [73.19895577430725]
[4.65195950e-310 4.65196008e-310 4.65184259e-310], [73.3504536151886]
[4.65195950e-310 4.65196008e-310 4.65184259e-310], [73.52555012702942]
[4.65195950e-310 4.65196008e-310 4.65184259e-310], [73.67877292633057]
[4.65195950e-310 4.65196008e-310 4.65184259e-310], [73.82917523384094]
[4.65195950e-310 4.65196008e-310 4.65184259e-310], [73.98130130767822]
[4.65195950e-310 4.65196008e-310 4.65184259e-310], [74.13180136680603]
[4.65195950e-310 4.65196008e-310 4.65184259e-310], [74.31092286109924]
[4.65195950e-310 4.65196008e-310 4.65184259e-310], [74.46426105499268]
[4.65195950e-310 4.65196008e-310 4.65184259e-310], [74.61853456497192]
[4.65195950e-310 4.65196008e-310 4.65184259e-310], [74.77050757408142]
[4.65195950e-310 4.65196008e-310 4.65184259e-310], [74.92424416542053]
[4.65195950e-310 4.65196008e-310 4.65184259e-310], [75.07994556427002]
[4.65195950e-310 4.65196008e-310 4.65184259e-310], [75.23368048667908]
[4.65195950e-310 4.65196008e-310 4.65184259e-310], [75.38798904418945]
[4.65195950e-310 4.65196008e-310 4.65184259e-310], [75.54294967651367]
[4.65195950e-310 4.65196008e-310 4.65184259e-310], [75.7019612789154]
[4.65195950e-310 4.65196008e-310 4.65184259e-310], [75.88060903549194]
[4.65195950e-310 4.65196008e-310 4.65184259e-310], [76.0314416885376]
[4.65195950e-310 4.65196008e-310 4.65184259e-310], [76.18266892433167]
[4.65195950e-310 4.65196008e-310 4.65184259e-310], [76.3348217010498]
[4.65195950e-310 4.65196008e-310 4.65184259e-310], [76.48570895195007]
[4.65195950e-310 4.65196008e-310 4.65184259e-310], [76.63774466514587]
[4.65195950e-310 4.65196008e-310 4.65184259e-310], [76.78820514678955]
[4.65195950e-310 4.65196008e-310 4.65184259e-310], [76.97045755386353]
[4.65195950e-310 4.65196008e-310 4.65184259e-310], [77.12074828147888]
[4.65195950e-310 4.65196008e-310 4.65184259e-310], [77.27146744728088]
[4.65195950e-310 4.65196008e-310 4.65184259e-310], [77.42224621772766]
[4.65195950e-310 4.65196008e-310 4.65184259e-310], [77.57349419593811]
[4.65195950e-310 4.65196008e-310 4.65184259e-310], [77.72552299499512]
[4.65195950e-310 4.65196008e-310 4.65184259e-310], [77.8778247833252]
[4.65195950e-310 4.65196008e-310 4.65184259e-310], [78.0658643245697]
[4.65195950e-310 4.65196008e-310 4.65184259e-310], [78.24803900718689]
[4.65195950e-310 4.65196008e-310 4.65184259e-310], [78.39785361289978]
[4.65195950e-310 4.65196008e-310 4.65184259e-310], [78.58004570007324]
[4.65195950e-310 4.65196008e-310 4.65184259e-310], [78.76142287254333]
[4.65195950e-310 4.65196008e-310 4.65184259e-310], [78.9127368927002]
[4.65195950e-310 4.65196008e-310 4.65184259e-310], [79.06341934204102]
[4.65195950e-310 4.65196008e-310 4.65184259e-310], [79.21516227722168]
[4.65195950e-310 4.65196008e-310 4.65184259e-310], [79.36675381660461]
[4.65195950e-310 4.65196008e-310 4.65184259e-310], [79.51817798614502]
[4.65195950e-310 4.65196008e-310 4.65184259e-310], [79.6699628829956]
[4.65195950e-310 4.65196008e-310 4.65184259e-310], [79.82000684738159]
[4.65195950e-310 4.65196008e-310 4.65184259e-310], [79.97141027450562]
[4.65195950e-310 4.65196008e-310 4.65184259e-310], [80.12152314186096]
[4.65195950e-310 4.65196008e-310 4.65184259e-310], [80.27405738830566]
[4.65195950e-310 4.65196008e-310 4.65184259e-310], [80.42976069450378]
[4.65195950e-310 4.65196008e-310 4.65184259e-310], [80.58300375938416]
[4.65195950e-310 4.65196008e-310 4.65184259e-310], [80.7359230518341]
[4.65195950e-310 4.65196008e-310 4.65184259e-310], [80.88664770126343]
[4.65195950e-310 4.65196008e-310 4.65184259e-310], [81.0384578704834]
[4.65195950e-310 4.65196008e-310 4.65184259e-310], [81.19044947624207]
[4.65195950e-310 4.65196008e-310 4.65184259e-310], [81.34289360046387]
[4.65195950e-310 4.65196008e-310 4.65184259e-310], [81.49331998825073]
[4.65195950e-310 4.65196008e-310 4.65184259e-310], [81.64897084236145]
[4.65195950e-310 4.65196008e-310 4.65184259e-310], [81.82434678077698]
[4.65195950e-310 4.65196008e-310 4.65184259e-310], [81.97660160064697]
[4.65195950e-310 4.65196008e-310 4.65184259e-310], [82.12522888183594]
[4.65195950e-310 4.65196008e-310 4.65184259e-310], [82.27816581726074]
[4.65195950e-310 4.65196008e-310 4.65184259e-310], [82.4598114490509]
[4.65195950e-310 4.65196008e-310 4.65184259e-310], [82.61038541793823]
[4.65195950e-310 4.65196008e-310 4.65184259e-310], [82.76276922225952]
[4.65195950e-310 4.65196008e-310 4.65184259e-310], [82.9155604839325]
[4.65195950e-310 4.65196008e-310 4.65184259e-310], [83.11708736419678]
[4.65195950e-310 4.65196008e-310 4.65184259e-310], [83.27395176887512]
[4.65195950e-310 4.65196008e-310 4.65184259e-310], [83.46786832809448]
[4.65195950e-310 4.65196008e-310 4.65184259e-310], [83.62003493309021]
[4.65195950e-310 4.65196008e-310 4.65184259e-310], [83.77389788627625]
[4.65195950e-310 4.65196008e-310 4.65184259e-310], [83.92856287956238]
[4.65195950e-310 4.65196008e-310 4.65184259e-310], [84.07810759544373]
[4.65195950e-310 4.65196008e-310 4.65184259e-310], [84.26075768470764]
[4.65195950e-310 4.65196008e-310 4.65184259e-310], [84.41169238090515]
[4.65195950e-310 4.65196008e-310 4.65184259e-310], [84.56386733055115]
[4.65195950e-310 4.65196008e-310 4.65184259e-310], [84.71409010887146]
[4.65195950e-310 4.65196008e-310 4.65184259e-310], [84.86547112464905]
[4.65195950e-310 4.65196008e-310 4.65184259e-310], [85.01753997802734]
[4.65195950e-310 4.65196008e-310 4.65184259e-310], [85.17323899269104]
[4.65195950e-310 4.65196008e-310 4.65184259e-310], [85.32558560371399]
[4.65195950e-310 4.65196008e-310 4.65184259e-310], [85.47839832305908]
[4.65195950e-310 4.65196008e-310 4.65184259e-310], [85.62838506698608]
[4.65195950e-310 4.65196008e-310 4.65184259e-310], [85.77847409248352]
[4.65195950e-310 4.65196008e-310 4.65184259e-310], [85.92769455909729]
[4.65195950e-310 4.65196008e-310 4.65184259e-310], [86.08041977882385]
[4.65195950e-310 4.65196008e-310 4.65184259e-310], [86.23102927207947]
[4.65195950e-310 4.65196008e-310 4.65184259e-310], [86.38235425949097]
[4.65195950e-310 4.65196008e-310 4.65184259e-310], [86.53294467926025]
[4.65195950e-310 4.65196008e-310 4.65184259e-310], [86.68790197372437]
[4.65195950e-310 4.65196008e-310 4.65184259e-310], [86.84254193305969]
[4.65195950e-310 4.65196008e-310 4.65184259e-310], [86.99535894393921]
[4.65195950e-310 4.65196008e-310 4.65184259e-310], [87.15183591842651]
[4.65195950e-310 4.65196008e-310 4.65184259e-310], [87.30775308609009]
[4.65195950e-310 4.65196008e-310 4.65184259e-310], [87.46866750717163]
[4.65195950e-310 4.65196008e-310 4.65184259e-310], [87.62812614440918]
[4.65195950e-310 4.65196008e-310 4.65184259e-310], [87.81544828414917]
[4.65195950e-310 4.65196008e-310 4.65184259e-310], [87.97302412986755]
[4.65195950e-310 4.65196008e-310 4.65184259e-310], [88.15904569625854]
[4.65195950e-310 4.65196008e-310 4.65184259e-310], [88.31555461883545]
[4.65195950e-310 4.65196008e-310 4.65184259e-310], [88.4726812839508]
[4.65195950e-310 4.65196008e-310 4.65184259e-310], [88.63064861297607]
[4.65195950e-310 4.65196008e-310 4.65184259e-310], [88.8084168434143]
[4.65195950e-310 4.65196008e-310 4.65184259e-310], [88.99192094802856]
[4.65195950e-310 4.65196008e-310 4.65184259e-310], [89.1523609161377]
[4.65195950e-310 4.65196008e-310 4.65184259e-310], [89.30610275268555]
[4.65195950e-310 4.65196008e-310 4.65184259e-310], [89.4953784942627]
[4.65195950e-310 4.65196008e-310 4.65184259e-310], [89.66379380226135]
[4.65195950e-310 4.65196008e-310 4.65184259e-310], [89.82144618034363]
[4.65195950e-310 4.65196008e-310 4.65184259e-310], [89.97618675231934]
[4.65195950e-310 4.65196008e-310 4.65184259e-310], [90.1299786567688]
[4.65195950e-310 4.65196008e-310 4.65184259e-310], [90.28832197189331]
[4.65195950e-310 4.65196008e-310 4.65184259e-310], [90.44596290588379]
[4.65195950e-310 4.65196008e-310 4.65184259e-310], [90.59898829460144]
[4.65195950e-310 4.65196008e-310 4.65184259e-310], [90.75810074806213]
[4.65195950e-310 4.65196008e-310 4.65184259e-310], [90.91620564460754]
[4.65195950e-310 4.65196008e-310 4.65184259e-310], [91.07373213768005]
[4.65195950e-310 4.65196008e-310 4.65184259e-310], [91.23106145858765]
[4.65195950e-310 4.65196008e-310 4.65184259e-310], [91.39405298233032]
[4.65195950e-310 4.65196008e-310 4.65184259e-310], [91.55146265029907]
[4.65195950e-310 4.65196008e-310 4.65184259e-310], [91.705885887146]
[4.65195950e-310 4.65196008e-310 4.65184259e-310], [91.86239099502563]
[4.65195950e-310 4.65196008e-310 4.65184259e-310], [92.05765867233276]
[4.65195950e-310 4.65196008e-310 4.65184259e-310], [92.21380233764648]
[4.65195950e-310 4.65196008e-310 4.65184259e-310], [92.36835050582886]
[4.65195950e-310 4.65196008e-310 4.65184259e-310], [92.5240740776062]
[4.65195950e-310 4.65196008e-310 4.65184259e-310], [92.67834782600403]
[4.65195950e-310 4.65196008e-310 4.65184259e-310], [92.83132576942444]
[4.65195950e-310 4.65196008e-310 4.65184259e-310], [92.98519778251648]
[4.65195950e-310 4.65196008e-310 4.65184259e-310], [93.18266129493713]
[4.65195950e-310 4.65196008e-310 4.65184259e-310], [93.33656120300293]
[4.65195950e-310 4.65196008e-310 4.65184259e-310], [93.49346470832825]
[4.65195950e-310 4.65196008e-310 4.65184259e-310], [93.66263747215271]
[4.65195950e-310 4.65196008e-310 4.65184259e-310], [93.81922793388367]
[4.65195950e-310 4.65196008e-310 4.65184259e-310], [93.9723494052887]
[4.65195950e-310 4.65196008e-310 4.65184259e-310], [94.12449526786804]
[4.65195950e-310 4.65196008e-310 4.65184259e-310], [94.30332064628601]
[4.65195950e-310 4.65196008e-310 4.65184259e-310], [94.45703339576721]
[4.65195950e-310 4.65196008e-310 4.65184259e-310], [94.6114432811737]
[4.65195950e-310 4.65196008e-310 4.65184259e-310], [94.76290655136108]
[4.65195950e-310 4.65196008e-310 4.65184259e-310], [94.9135046005249]
[4.65195950e-310 4.65196008e-310 4.65184259e-310], [95.07417178153992]
[4.65195950e-310 4.65196008e-310 4.65184259e-310], [95.23222374916077]
[4.65195950e-310 4.65196008e-310 4.65184259e-310], [95.39041256904602]
[4.65195950e-310 4.65196008e-310 4.65184259e-310], [95.54298734664917]
[4.65195950e-310 4.65196008e-310 4.65184259e-310], [95.69461107254028]
[4.65195950e-310 4.65196008e-310 4.65184259e-310], [95.85011339187622]
[4.65195950e-310 4.65196008e-310 4.65184259e-310], [96.00348448753357]
[4.65195950e-310 4.65196008e-310 4.65184259e-310], [96.15424370765686]
[4.65195950e-310 4.65196008e-310 4.65184259e-310], [96.30509376525879]
[4.65195950e-310 4.65196008e-310 4.65184259e-310], [96.45607256889343]
[4.65195950e-310 4.65196008e-310 4.65184259e-310], [96.63205432891846]
[4.65195950e-310 4.65196008e-310 4.65184259e-310], [96.78414702415466]
[4.65195950e-310 4.65196008e-310 4.65184259e-310], [96.93959712982178]
[4.65195950e-310 4.65196008e-310 4.65184259e-310], [97.09430766105652]
[4.65195950e-310 4.65196008e-310 4.65184259e-310], [97.26985692977905]
[4.65195950e-310 4.65196008e-310 4.65184259e-310], [97.42636156082153]
[4.65195950e-310 4.65196008e-310 4.65184259e-310], [97.64214158058167]
[4.65195950e-310 4.65196008e-310 4.65184259e-310], [97.79680156707764]
[4.65195950e-310 4.65196008e-310 4.65184259e-310], [97.98282527923584]
[4.65195950e-310 4.65196008e-310 4.65184259e-310], [98.14133739471436]
[4.65195950e-310 4.65196008e-310 4.65184259e-310], [98.30482935905457]
[4.65195950e-310 4.65196008e-310 4.65184259e-310], [98.46328449249268]
[4.65195950e-310 4.65196008e-310 4.65184259e-310], [98.61647987365723]
[4.65195950e-310 4.65196008e-310 4.65184259e-310], [98.77339363098145]
[4.65195950e-310 4.65196008e-310 4.65184259e-310], [98.92632913589478]
[4.65195950e-310 4.65196008e-310 4.65184259e-310], [99.07799816131592]
[4.65195950e-310 4.65196008e-310 4.65184259e-310], [99.22778010368347]
[4.65195950e-310 4.65196008e-310 4.65184259e-310], [99.38054966926575]
[4.65195950e-310 4.65196008e-310 4.65184259e-310], [99.53227400779724]
[4.65195950e-310 4.65196008e-310 4.65184259e-310], [99.70383667945862]
[4.65195950e-310 4.65196008e-310 4.65184259e-310], [99.8585774898529]
[4.65195950e-310 4.65196008e-310 4.65184259e-310], [100.01313948631287]
[4.65195950e-310 4.65196008e-310 4.65184259e-310], [100.16853666305542]
[4.65195950e-310 4.65196008e-310 4.65184259e-310], [100.35841250419617]
[4.65195950e-310 4.65196008e-310 4.65184259e-310], [100.53906846046448]
[4.65195950e-310 4.65196008e-310 4.65184259e-310], [100.68961691856384]
[4.65195950e-310 4.65196008e-310 4.65184259e-310], [100.84147047996521]
[4.65195950e-310 4.65196008e-310 4.65184259e-310], [100.99195957183838]
[4.65195950e-310 4.65196008e-310 4.65184259e-310], [101.14451813697815]
[4.65195950e-310 4.65196008e-310 4.65184259e-310], [101.29843425750732]
[4.65195950e-310 4.65196008e-310 4.65184259e-310], [101.45019221305847]
[4.65195950e-310 4.65196008e-310 4.65184259e-310], [101.60150218009949]
[4.65195950e-310 4.65196008e-310 4.65184259e-310], [101.75194931030273]
[4.65195950e-310 4.65196008e-310 4.65184259e-310], [101.9037094116211]
[4.65195950e-310 4.65196008e-310 4.65184259e-310], [102.05518460273743]
[4.65195950e-310 4.65196008e-310 4.65184259e-310], [102.21201729774475]
[4.65195950e-310 4.65196008e-310 4.65184259e-310], [102.37289047241211]
[4.65195950e-310 4.65196008e-310 4.65184259e-310], [102.52825045585632]
[4.65195950e-310 4.65196008e-310 4.65184259e-310], [102.68498015403748]
[4.65195950e-310 4.65196008e-310 4.65184259e-310], [102.84211850166321]
[4.65195950e-310 4.65196008e-310 4.65184259e-310], [103.0323178768158]
[4.65195950e-310 4.65196008e-310 4.65184259e-310], [103.18761348724365]
[4.65195950e-310 4.65196008e-310 4.65184259e-310], [103.33946490287781]
[4.65195950e-310 4.65196008e-310 4.65184259e-310], [103.49013137817383]
[4.65195950e-310 4.65196008e-310 4.65184259e-310], [103.67405533790588]
[4.65195950e-310 4.65196008e-310 4.65184259e-310], [103.82769823074341]
[4.65195950e-310 4.65196008e-310 4.65184259e-310], [104.03012609481812]
[4.65195950e-310 4.65196008e-310 4.65184259e-310], [104.18959212303162]
[4.65195950e-310 4.65196008e-310 4.65184259e-310], [104.37994027137756]
[4.65195950e-310 4.65196008e-310 4.65184259e-310], [104.53085088729858]
[4.65195950e-310 4.65196008e-310 4.65184259e-310], [104.70859026908875]
[4.65195950e-310 4.65196008e-310 4.65184259e-310], [104.86216306686401]
[4.65195950e-310 4.65196008e-310 4.65184259e-310], [105.05662703514099]
[4.65195950e-310 4.65196008e-310 4.65184259e-310], [105.20879912376404]
[4.65195950e-310 4.65196008e-310 4.65184259e-310], [105.36043787002563]
[4.65195950e-310 4.65196008e-310 4.65184259e-310], [105.51103329658508]
[4.65195950e-310 4.65196008e-310 4.65184259e-310], [105.66349577903748]
[4.65195950e-310 4.65196008e-310 4.65184259e-310], [105.81538438796997]
[4.65195950e-310 4.65196008e-310 4.65184259e-310], [105.96835422515869]
[4.65195950e-310 4.65196008e-310 4.65184259e-310], [106.12494540214539]
[4.65195950e-310 4.65196008e-310 4.65184259e-310], [106.27664494514465]
[4.65195950e-310 4.65196008e-310 4.65184259e-310], [106.42958927154541]
[4.65195950e-310 4.65196008e-310 4.65184259e-310], [106.58342456817627]
[4.65195950e-310 4.65196008e-310 4.65184259e-310], [106.73454523086548]
[4.65195950e-310 4.65196008e-310 4.65184259e-310], [106.88444638252258]
[4.65195950e-310 4.65196008e-310 4.65184259e-310], [107.03865122795105]
[4.65195950e-310 4.65196008e-310 4.65184259e-310], [107.19311761856079]
[4.65195950e-310 4.65196008e-310 4.65184259e-310], [107.34334588050842]
[4.65195950e-310 4.65196008e-310 4.65184259e-310], [107.49338603019714]
[4.65195950e-310 4.65196008e-310 4.65184259e-310], [107.64317202568054]
[4.65195950e-310 4.65196008e-310 4.65184259e-310], [107.7927942276001]
[4.65195950e-310 4.65196008e-310 4.65184259e-310], [107.94321465492249]
[4.65195950e-310 4.65196008e-310 4.65184259e-310], [108.09339356422424]
[4.65195950e-310 4.65196008e-310 4.65184259e-310], [108.24422073364258]
[4.65195950e-310 4.65196008e-310 4.65184259e-310], [108.39492058753967]
[4.65195950e-310 4.65196008e-310 4.65184259e-310], [108.54600524902344]
[4.65195950e-310 4.65196008e-310 4.65184259e-310], [108.69813632965088]
[4.65195950e-310 4.65196008e-310 4.65184259e-310], [108.88936996459961]
[4.65195950e-310 4.65196008e-310 4.65184259e-310], [109.03967547416687]
[4.65195950e-310 4.65196008e-310 4.65184259e-310], [109.18939065933228]
[4.65195950e-310 4.65196008e-310 4.65184259e-310], [109.34053754806519]
[4.65195950e-310 4.65196008e-310 4.65184259e-310], [109.49115586280823]
[4.65195950e-310 4.65196008e-310 4.65184259e-310], [109.64204549789429]
[4.65195950e-310 4.65196008e-310 4.65184259e-310], [109.79424571990967]
[4.65195950e-310 4.65196008e-310 4.65184259e-310], [109.94552230834961]
[4.65195950e-310 4.65196008e-310 4.65184259e-310], [110.09827136993408]
[4.65195950e-310 4.65196008e-310 4.65184259e-310], [110.28237652778625]
[4.65195950e-310 4.65196008e-310 4.65184259e-310], [110.4350733757019]
[4.65195950e-310 4.65196008e-310 4.65184259e-310], [110.58566069602966]
[4.65195950e-310 4.65196008e-310 4.65184259e-310], [110.7369635105133]
[4.65195950e-310 4.65196008e-310 4.65184259e-310], [110.88951444625854]
[4.65195950e-310 4.65196008e-310 4.65184259e-310], [111.04051184654236]
[4.65195950e-310 4.65196008e-310 4.65184259e-310], [111.19551658630371]
[4.65195950e-310 4.65196008e-310 4.65184259e-310], [111.35122537612915]
[4.65195950e-310 4.65196008e-310 4.65184259e-310], [111.50418400764465]
[4.65195950e-310 4.65196008e-310 4.65184259e-310], [111.65579843521118]
[4.65195950e-310 4.65196008e-310 4.65184259e-310], [111.80926895141602]
[4.65195950e-310 4.65196008e-310 4.65184259e-310], [111.96443367004395]
[4.65195950e-310 4.65196008e-310 4.65184259e-310], [112.1161196231842]
[4.65195950e-310 4.65196008e-310 4.65184259e-310], [112.2737889289856]
[4.65195950e-310 4.65196008e-310 4.65184259e-310], [112.42304825782776]
[4.65195950e-310 4.65196008e-310 4.65184259e-310], [112.60704302787781]
[4.65195950e-310 4.65196008e-310 4.65184259e-310], [112.76146745681763]
[4.65195950e-310 4.65196008e-310 4.65184259e-310], [112.91274619102478]
[4.65195950e-310 4.65196008e-310 4.65184259e-310], [113.06806945800781]
[4.65195950e-310 4.65196008e-310 4.65184259e-310], [113.22126650810242]
[4.65195950e-310 4.65196008e-310 4.65184259e-310], [113.37568068504333]
[4.65195950e-310 4.65196008e-310 4.65184259e-310], [113.5268862247467]
[4.65195950e-310 4.65196008e-310 4.65184259e-310], [113.67788100242615]
[4.65195950e-310 4.65196008e-310 4.65184259e-310], [113.86025810241699]
[4.65195950e-310 4.65196008e-310 4.65184259e-310], [114.01021957397461]
[4.65195950e-310 4.65196008e-310 4.65184259e-310], [114.16222095489502]
[4.65195950e-310 4.65196008e-310 4.65184259e-310], [114.31450891494751]
[4.65195950e-310 4.65196008e-310 4.65184259e-310], [114.46517181396484]
[4.65195950e-310 4.65196008e-310 4.65184259e-310], [114.65416479110718]
[4.65195950e-310 4.65196008e-310 4.65184259e-310], [114.80928158760071]
[4.65195950e-310 4.65196008e-310 4.65184259e-310], [114.96642017364502]
[4.65195950e-310 4.65196008e-310 4.65184259e-310], [115.12203407287598]
[4.65195950e-310 4.65196008e-310 4.65184259e-310], [115.27528977394104]
[4.65195950e-310 4.65196008e-310 4.65184259e-310], [115.42808127403259]
[4.65195950e-310 4.65196008e-310 4.65184259e-310], [115.61051964759827]
[4.65195950e-310 4.65196008e-310 4.65184259e-310], [115.79145407676697]
[4.65195950e-310 4.65196008e-310 4.65184259e-310], [115.96152639389038]
[4.65195950e-310 4.65196008e-310 4.65184259e-310], [116.1136417388916]
[4.65195950e-310 4.65196008e-310 4.65184259e-310], [116.27005648612976]
[4.65195950e-310 4.65196008e-310 4.65184259e-310], [116.42159533500671]
[4.65195950e-310 4.65196008e-310 4.65184259e-310], [116.57367372512817]
[4.65195950e-310 4.65196008e-310 4.65184259e-310], [116.7247908115387]
[4.65195950e-310 4.65196008e-310 4.65184259e-310], [116.87681174278259]
[4.65195950e-310 4.65196008e-310 4.65184259e-310], [117.02916288375854]
[4.65195950e-310 4.65196008e-310 4.65184259e-310], [117.1813576221466]
[4.65195950e-310 4.65196008e-310 4.65184259e-310], [117.33204746246338]
[4.65195950e-310 4.65196008e-310 4.65184259e-310], [117.4832661151886]
[4.65195950e-310 4.65196008e-310 4.65184259e-310], [117.63518762588501]
[4.65195950e-310 4.65196008e-310 4.65184259e-310], [117.78953051567078]
[4.65195950e-310 4.65196008e-310 4.65184259e-310], [117.94186615943909]
[4.65195950e-310 4.65196008e-310 4.65184259e-310], [118.09319519996643]
[4.65195950e-310 4.65196008e-310 4.65184259e-310], [118.24480247497559]
[4.65195950e-310 4.65196008e-310 4.65184259e-310], [118.3974781036377]
[4.65195950e-310 4.65196008e-310 4.65184259e-310], [118.54926228523254]
[4.65195950e-310 4.65196008e-310 4.65184259e-310], [118.6994001865387]
[4.65195950e-310 4.65196008e-310 4.65184259e-310], [118.85051035881042]
[4.65195950e-310 4.65196008e-310 4.65184259e-310], [118.99949049949646]
[4.65195950e-310 4.65196008e-310 4.65184259e-310], [119.15002346038818]
[4.65195950e-310 4.65196008e-310 4.65184259e-310], [119.30397772789001]
[4.65195950e-310 4.65196008e-310 4.65184259e-310], [119.4540913105011]
[4.65195950e-310 4.65196008e-310 4.65184259e-310], [119.6045241355896]
[4.65195950e-310 4.65196008e-310 4.65184259e-310], [119.75441932678223]
[4.65195950e-310 4.65196008e-310 4.65184259e-310], [119.90541434288025]
[4.65195950e-310 4.65196008e-310 4.65184259e-310], [120.08816361427307]
[4.65195950e-310 4.65196008e-310 4.65184259e-310], [120.2385470867157]
[4.65195950e-310 4.65196008e-310 4.65184259e-310], [120.42005181312561]
[4.65195950e-310 4.65196008e-310 4.65184259e-310], [120.57243537902832]
[4.65195950e-310 4.65196008e-310 4.65184259e-310], [120.72454476356506]
[4.65195950e-310 4.65196008e-310 4.65184259e-310], [120.87591767311096]
[4.65195950e-310 4.65196008e-310 4.65184259e-310], [121.02712416648865]
[4.65195950e-310 4.65196008e-310 4.65184259e-310], [121.17831110954285]
[4.65195950e-310 4.65196008e-310 4.65184259e-310], [121.32864928245544]
[4.65195950e-310 4.65196008e-310 4.65184259e-310], [121.48310136795044]
[4.65195950e-310 4.65196008e-310 4.65184259e-310], [121.63312196731567]
[4.65195950e-310 4.65196008e-310 4.65184259e-310], [121.78491377830505]
[4.65195950e-310 4.65196008e-310 4.65184259e-310], [121.93516111373901]
[4.65195950e-310 4.65196008e-310 4.65184259e-310], [122.08643555641174]
[4.65195950e-310 4.65196008e-310 4.65184259e-310], [122.23902940750122]
[4.65195950e-310 4.65196008e-310 4.65184259e-310], [122.40357279777527]
[4.65195950e-310 4.65196008e-310 4.65184259e-310], [122.55536079406738]
[4.65195950e-310 4.65196008e-310 4.65184259e-310], [122.70658421516418]
[4.65195950e-310 4.65196008e-310 4.65184259e-310], [122.85744190216064]
[4.65195950e-310 4.65196008e-310 4.65184259e-310], [123.00855922698975]
[4.65195950e-310 4.65196008e-310 4.65184259e-310], [123.1612708568573]
[4.65195950e-310 4.65196008e-310 4.65184259e-310], [123.3125536441803]
[4.65195950e-310 4.65196008e-310 4.65184259e-310], [123.46508479118347]
[4.65195950e-310 4.65196008e-310 4.65184259e-310], [123.6171383857727]
[4.65195950e-310 4.65196008e-310 4.65184259e-310], [123.77029490470886]
[4.65195950e-310 4.65196008e-310 4.65184259e-310], [123.9211974143982]
[4.65195950e-310 4.65196008e-310 4.65184259e-310], [124.07184410095215]
[4.65195950e-310 4.65196008e-310 4.65184259e-310], [124.2226722240448]
[4.65195950e-310 4.65196008e-310 4.65184259e-310], [124.41374588012695]
[4.65195950e-310 4.65196008e-310 4.65184259e-310], [124.5668797492981]
[4.65195950e-310 4.65196008e-310 4.65184259e-310], [124.7173113822937]
[4.65195950e-310 4.65196008e-310 4.65184259e-310], [124.86882591247559]
[4.65195950e-310 4.65196008e-310 4.65184259e-310], [125.01885342597961]
[4.65195950e-310 4.65196008e-310 4.65184259e-310], [125.20570158958435]
[4.65195950e-310 4.65196008e-310 4.65184259e-310], [125.35750651359558]
[4.65195950e-310 4.65196008e-310 4.65184259e-310], [125.50870251655579]
[4.65195950e-310 4.65196008e-310 4.65184259e-310], [125.66176891326904]
[4.65195950e-310 4.65196008e-310 4.65184259e-310], [125.81263542175293]
[4.65195950e-310 4.65196008e-310 4.65184259e-310], [125.96472477912903]
[4.65195950e-310 4.65196008e-310 4.65184259e-310], [126.11477446556091]
[4.65195950e-310 4.65196008e-310 4.65184259e-310], [126.26759791374207]
[4.65195950e-310 4.65196008e-310 4.65184259e-310], [126.41727328300476]
[4.65195950e-310 4.65196008e-310 4.65184259e-310], [126.574138879776]
[4.65195950e-310 4.65196008e-310 4.65184259e-310], [126.72797894477844]
[4.65195950e-310 4.65196008e-310 4.65184259e-310], [126.88110494613647]
[4.65195950e-310 4.65196008e-310 4.65184259e-310], [127.03307318687439]
[4.65195950e-310 4.65196008e-310 4.65184259e-310], [127.1857750415802]
[4.65195950e-310 4.65196008e-310 4.65184259e-310], [127.33788180351257]
[4.65195950e-310 4.65196008e-310 4.65184259e-310], [127.48869585990906]
[4.65195950e-310 4.65196008e-310 4.65184259e-310], [127.63963413238525]
[4.65195950e-310 4.65196008e-310 4.65184259e-310], [127.79157495498657]
[4.65195950e-310 4.65196008e-310 4.65184259e-310], [127.94542145729065]
[4.65195950e-310 4.65196008e-310 4.65184259e-310], [128.09641933441162]
[4.65195950e-310 4.65196008e-310 4.65184259e-310], [128.24885749816895]
[4.65195950e-310 4.65196008e-310 4.65184259e-310], [128.40091371536255]
[4.65195950e-310 4.65196008e-310 4.65184259e-310], [128.5838394165039]
[4.65195950e-310 4.65196008e-310 4.65184259e-310], [128.73398113250732]
[4.65195950e-310 4.65196008e-310 4.65184259e-310], [128.91009211540222]
[4.65195950e-310 4.65196008e-310 4.65184259e-310], [129.09541940689087]
[4.65195950e-310 4.65196008e-310 4.65184259e-310], [129.2470681667328]
[4.65195950e-310 4.65196008e-310 4.65184259e-310], [129.39900422096252]
[4.65195950e-310 4.65196008e-310 4.65184259e-310], [129.5507709980011]
[4.65195950e-310 4.65196008e-310 4.65184259e-310], [129.70903658866882]
[4.65195950e-310 4.65196008e-310 4.65184259e-310], [129.86074376106262]
[4.65195950e-310 4.65196008e-310 4.65184259e-310], [130.04252457618713]
[4.65195950e-310 4.65196008e-310 4.65184259e-310], [130.19400119781494]
[4.65195950e-310 4.65196008e-310 4.65184259e-310], [130.3497109413147]
[4.65195950e-310 4.65196008e-310 4.65184259e-310], [130.50312185287476]
[4.65195950e-310 4.65196008e-310 4.65184259e-310], [130.65754747390747]
[4.65195950e-310 4.65196008e-310 4.65184259e-310], [130.8115575313568]
[4.65195950e-310 4.65196008e-310 4.65184259e-310], [130.9631507396698]
[4.65195950e-310 4.65196008e-310 4.65184259e-310], [131.1173985004425]
[4.65195950e-310 4.65196008e-310 4.65184259e-310], [131.2739691734314]
[4.65195950e-310 4.65196008e-310 4.65184259e-310], [131.4262421131134]
[4.65195950e-310 4.65196008e-310 4.65184259e-310], [131.57940220832825]
[4.65195950e-310 4.65196008e-310 4.65184259e-310], [131.75903749465942]
[4.65195950e-310 4.65196008e-310 4.65184259e-310], [131.9391872882843]
[4.65195950e-310 4.65196008e-310 4.65184259e-310], [132.09190273284912]
[4.65195950e-310 4.65196008e-310 4.65184259e-310], [132.24605178833008]
[4.65195950e-310 4.65196008e-310 4.65184259e-310], [132.39821124076843]
[4.65195950e-310 4.65196008e-310 4.65184259e-310], [132.57946133613586]
[4.65195950e-310 4.65196008e-310 4.65184259e-310], [132.73556661605835]
[4.65195950e-310 4.65196008e-310 4.65184259e-310], [132.88643765449524]
[4.65195950e-310 4.65196008e-310 4.65184259e-310], [133.03710269927979]
[4.65195950e-310 4.65196008e-310 4.65184259e-310], [133.21836614608765]
[4.65195950e-310 4.65196008e-310 4.65184259e-310], [133.37006735801697]
[4.65195950e-310 4.65196008e-310 4.65184259e-310], [133.55215907096863]
[4.65195950e-310 4.65196008e-310 4.65184259e-310], [133.7018940448761]
[4.65195950e-310 4.65196008e-310 4.65184259e-310], [133.88455295562744]
[4.65195950e-310 4.65196008e-310 4.65184259e-310], [134.03761959075928]
[4.65195950e-310 4.65196008e-310 4.65184259e-310], [134.19529962539673]
[4.65195950e-310 4.65196008e-310 4.65184259e-310], [134.3484013080597]
[4.65195950e-310 4.65196008e-310 4.65184259e-310], [134.50074791908264]
[4.65195950e-310 4.65196008e-310 4.65184259e-310], [134.65217328071594]
[4.65195950e-310 4.65196008e-310 4.65184259e-310], [134.82976770401]
[4.65195950e-310 4.65196008e-310 4.65184259e-310], [134.98090147972107]
[4.65195950e-310 4.65196008e-310 4.65184259e-310], [135.13292026519775]
[4.65195950e-310 4.65196008e-310 4.65184259e-310], [135.2855978012085]
[4.65195950e-310 4.65196008e-310 4.65184259e-310], [135.4672131538391]
[4.65195950e-310 4.65196008e-310 4.65184259e-310], [135.61938643455505]
[4.65195950e-310 4.65196008e-310 4.65184259e-310], [135.77640986442566]
[4.65195950e-310 4.65196008e-310 4.65184259e-310], [135.928325176239]
[4.65195950e-310 4.65196008e-310 4.65184259e-310], [136.07870388031006]
[4.65195950e-310 4.65196008e-310 4.65184259e-310], [136.22905778884888]
[4.65195950e-310 4.65196008e-310 4.65184259e-310], [136.379412651062]
[4.65195950e-310 4.65196008e-310 4.65184259e-310], [136.53817749023438]
[4.65195950e-310 4.65196008e-310 4.65184259e-310], [136.69045114517212]
[4.65195950e-310 4.65196008e-310 4.65184259e-310], [136.84016799926758]
[4.65195950e-310 4.65196008e-310 4.65184259e-310], [136.99139738082886]
[4.65195950e-310 4.65196008e-310 4.65184259e-310], [137.14275407791138]
[4.65195950e-310 4.65196008e-310 4.65184259e-310], [137.29572200775146]
[4.65195950e-310 4.65196008e-310 4.65184259e-310], [137.44573593139648]
[4.65195950e-310 4.65196008e-310 4.65184259e-310], [137.6263608932495]
[4.65195950e-310 4.65196008e-310 4.65184259e-310], [137.78468799591064]
[4.65195950e-310 4.65196008e-310 4.65184259e-310], [138.00027561187744]
[4.65195950e-310 4.65196008e-310 4.65184259e-310], [138.1554753780365]
[4.65195950e-310 4.65196008e-310 4.65184259e-310], [138.3090431690216]
[4.65195950e-310 4.65196008e-310 4.65184259e-310], [138.46202087402344]
[4.65195950e-310 4.65196008e-310 4.65184259e-310], [138.64699149131775]
[4.65195950e-310 4.65196008e-310 4.65184259e-310], [138.79971504211426]
[4.65195950e-310 4.65196008e-310 4.65184259e-310], [138.95371627807617]
[4.65195950e-310 4.65196008e-310 4.65184259e-310], [139.10868334770203]
[4.65195950e-310 4.65196008e-310 4.65184259e-310], [139.26379227638245]
[4.65195950e-310 4.65196008e-310 4.65184259e-310], [139.4177052974701]
[4.65195950e-310 4.65196008e-310 4.65184259e-310], [139.57412362098694]
[4.65195950e-310 4.65196008e-310 4.65184259e-310], [139.72792387008667]
[4.65195950e-310 4.65196008e-310 4.65184259e-310], [139.88042092323303]
[4.65195950e-310 4.65196008e-310 4.65184259e-310], [140.03338861465454]
[4.65195950e-310 4.65196008e-310 4.65184259e-310], [140.1912498474121]
[4.65195950e-310 4.65196008e-310 4.65184259e-310], [140.3448839187622]
[4.65195950e-310 4.65196008e-310 4.65184259e-310], [140.4994740486145]
[4.65195950e-310 4.65196008e-310 4.65184259e-310], [140.69097757339478]
[4.65195950e-310 4.65196008e-310 4.65184259e-310], [140.84406089782715]
[4.65195950e-310 4.65196008e-310 4.65184259e-310], [140.9980809688568]
[4.65195950e-310 4.65196008e-310 4.65184259e-310], [141.1521430015564]
[4.65195950e-310 4.65196008e-310 4.65184259e-310], [141.3054211139679]
[4.65195950e-310 4.65196008e-310 4.65184259e-310], [141.47678661346436]
[4.65195950e-310 4.65196008e-310 4.65184259e-310], [141.62878108024597]
[4.65195950e-310 4.65196008e-310 4.65184259e-310], [141.78214049339294]
[4.65195950e-310 4.65196008e-310 4.65184259e-310], [141.9362189769745]
[4.65195950e-310 4.65196008e-310 4.65184259e-310], [142.0901849269867]
[4.65195950e-310 4.65196008e-310 4.65184259e-310], [142.2553050518036]
[4.65195950e-310 4.65196008e-310 4.65184259e-310], [142.4065661430359]
[4.65195950e-310 4.65196008e-310 4.65184259e-310], [142.55721640586853]
[4.65195950e-310 4.65196008e-310 4.65184259e-310], [142.70882725715637]
[4.65195950e-310 4.65196008e-310 4.65184259e-310], [142.85796737670898]
[4.65195950e-310 4.65196008e-310 4.65184259e-310], [143.00845193862915]
[4.65195950e-310 4.65196008e-310 4.65184259e-310], [143.16305804252625]
[4.65195950e-310 4.65196008e-310 4.65184259e-310], [143.3134949207306]
[4.65195950e-310 4.65196008e-310 4.65184259e-310], [143.57271909713745]
[4.65195950e-310 4.65196008e-310 4.65184259e-310], [143.72638583183289]
[4.65195950e-310 4.65196008e-310 4.65184259e-310], [143.87678861618042]
[4.65195950e-310 4.65196008e-310 4.65184259e-310], [144.05867552757263]
[4.65195950e-310 4.65196008e-310 4.65184259e-310], [144.20742082595825]
[4.65195950e-310 4.65196008e-310 4.65184259e-310], [144.35842061042786]
[4.65195950e-310 4.65196008e-310 4.65184259e-310], [144.55359268188477]
[4.65195950e-310 4.65196008e-310 4.65184259e-310], [144.7046332359314]
[4.65195950e-310 4.65196008e-310 4.65184259e-310], [144.88555812835693]
[4.65195950e-310 4.65196008e-310 4.65184259e-310], [145.0374915599823]
[4.65195950e-310 4.65196008e-310 4.65184259e-310], [145.2218816280365]
[4.65195950e-310 4.65196008e-310 4.65184259e-310], [145.3733367919922]
[4.65195950e-310 4.65196008e-310 4.65184259e-310], [145.52403855323792]
[4.65195950e-310 4.65196008e-310 4.65184259e-310], [145.67558312416077]
[4.65195950e-310 4.65196008e-310 4.65184259e-310], [145.82652878761292]
[4.65195950e-310 4.65196008e-310 4.65184259e-310], [146.01646661758423]
[4.65195950e-310 4.65196008e-310 4.65184259e-310], [146.1685585975647]
[4.65195950e-310 4.65196008e-310 4.65184259e-310], [146.32010746002197]
[4.65195950e-310 4.65196008e-310 4.65184259e-310], [146.4718301296234]
[4.65195950e-310 4.65196008e-310 4.65184259e-310], [146.62221479415894]
[4.65195950e-310 4.65196008e-310 4.65184259e-310], [146.77518773078918]
[4.65195950e-310 4.65196008e-310 4.65184259e-310], [146.92476344108582]
[4.65195950e-310 4.65196008e-310 4.65184259e-310], [147.0755159854889]
[4.65195950e-310 4.65196008e-310 4.65184259e-310], [147.2284278869629]
[4.65195950e-310 4.65196008e-310 4.65184259e-310], [147.38297271728516]
[4.65195950e-310 4.65196008e-310 4.65184259e-310], [147.57330632209778]
[4.65195950e-310 4.65196008e-310 4.65184259e-310], [147.7295753955841]
[4.65195950e-310 4.65196008e-310 4.65184259e-310], [147.88227319717407]
[4.65195950e-310 4.65196008e-310 4.65184259e-310], [148.03575563430786]
[4.65195950e-310 4.65196008e-310 4.65184259e-310], [148.19008874893188]
[4.65195950e-310 4.65196008e-310 4.65184259e-310], [148.3396496772766]
[4.65195950e-310 4.65196008e-310 4.65184259e-310], [148.50714564323425]
[4.65195950e-310 4.65196008e-310 4.65184259e-310], [148.66145539283752]
[4.65195950e-310 4.65196008e-310 4.65184259e-310], [148.81372928619385]
[4.65195950e-310 4.65196008e-310 4.65184259e-310], [148.966082572937]
[4.65195950e-310 4.65196008e-310 4.65184259e-310], [149.121187210083]
[4.65195950e-310 4.65196008e-310 4.65184259e-310], [149.2784879207611]
[4.65195950e-310 4.65196008e-310 4.65184259e-310], [149.46031260490417]
[4.65195950e-310 4.65196008e-310 4.65184259e-310], [149.6509027481079]
[4.65195950e-310 4.65196008e-310 4.65184259e-310], [149.80550861358643]
[4.65195950e-310 4.65196008e-310 4.65184259e-310], [149.98787117004395]
[4.65195950e-310 4.65196008e-310 4.65184259e-310], [150.14335584640503]
[4.65195950e-310 4.65196008e-310 4.65184259e-310], [150.29694986343384]
[4.65195950e-310 4.65196008e-310 4.65184259e-310], [150.45406460762024]
[4.65195950e-310 4.65196008e-310 4.65184259e-310], [150.60814714431763]
[4.65195950e-310 4.65196008e-310 4.65184259e-310], [150.7643678188324]
[4.65195950e-310 4.65196008e-310 4.65184259e-310], [150.91753149032593]
[4.65195950e-310 4.65196008e-310 4.65184259e-310], [151.07248497009277]
[4.65195950e-310 4.65196008e-310 4.65184259e-310], [151.2267234325409]
[4.65195950e-310 4.65196008e-310 4.65184259e-310], [151.38084411621094]
[4.65195950e-310 4.65196008e-310 4.65184259e-310], [151.53846073150635]
[4.65195950e-310 4.65196008e-310 4.65184259e-310], [151.69295954704285]
[4.65195950e-310 4.65196008e-310 4.65184259e-310], [151.84706211090088]
[4.65195950e-310 4.65196008e-310 4.65184259e-310], [151.99943351745605]
[4.65195950e-310 4.65196008e-310 4.65184259e-310], [152.15475344657898]
[4.65195950e-310 4.65196008e-310 4.65184259e-310], [152.31015825271606]
[4.65195950e-310 4.65196008e-310 4.65184259e-310], [152.4915051460266]
[4.65195950e-310 4.65196008e-310 4.65184259e-310], [152.6487579345703]
[4.65195950e-310 4.65196008e-310 4.65184259e-310], [152.80497407913208]
[4.65195950e-310 4.65196008e-310 4.65184259e-310], [152.95982551574707]
[4.65195950e-310 4.65196008e-310 4.65184259e-310], [153.11417603492737]
[4.65195950e-310 4.65196008e-310 4.65184259e-310], [153.29813408851624]
[4.65195950e-310 4.65196008e-310 4.65184259e-310], [153.48290085792542]
[4.65195950e-310 4.65196008e-310 4.65184259e-310], [153.67200350761414]
[4.65195950e-310 4.65196008e-310 4.65184259e-310], [153.8548228740692]
[4.65195950e-310 4.65196008e-310 4.65184259e-310], [154.04448652267456]
[4.65195950e-310 4.65196008e-310 4.65184259e-310], [154.195330619812]
[4.65195950e-310 4.65196008e-310 4.65184259e-310], [154.36576771736145]
[4.65195950e-310 4.65196008e-310 4.65184259e-310], [154.52107667922974]
[4.65195950e-310 4.65196008e-310 4.65184259e-310], [154.67576694488525]
[4.65195950e-310 4.65196008e-310 4.65184259e-310], [154.82983899116516]
[4.65195950e-310 4.65196008e-310 4.65184259e-310], [154.9809012413025]
[4.65195950e-310 4.65196008e-310 4.65184259e-310], [155.1329026222229]
[4.65195950e-310 4.65196008e-310 4.65184259e-310], [155.28634476661682]
[4.65195950e-310 4.65196008e-310 4.65184259e-310], [155.47413396835327]
[4.65195950e-310 4.65196008e-310 4.65184259e-310], [155.62412905693054]
[4.65195950e-310 4.65196008e-310 4.65184259e-310], [155.80043721199036]
[4.65195950e-310 4.65196008e-310 4.65184259e-310], [155.9533953666687]
[4.65195950e-310 4.65196008e-310 4.65184259e-310], [156.10673427581787]
[4.65195950e-310 4.65196008e-310 4.65184259e-310], [156.28400468826294]
[4.65195950e-310 4.65196008e-310 4.65184259e-310], [156.45192980766296]
[4.65195950e-310 4.65196008e-310 4.65184259e-310], [156.6031243801117]
[4.65195950e-310 4.65196008e-310 4.65184259e-310], [156.75669717788696]
[4.65195950e-310 4.65196008e-310 4.65184259e-310], [156.90853357315063]
[4.65195950e-310 4.65196008e-310 4.65184259e-310], [157.06092524528503]
[4.65195950e-310 4.65196008e-310 4.65184259e-310], [157.21271586418152]
[4.65195950e-310 4.65196008e-310 4.65184259e-310], [157.36384463310242]
[4.65195950e-310 4.65196008e-310 4.65184259e-310], [157.51568698883057]
[4.65195950e-310 4.65196008e-310 4.65184259e-310], [157.69709253311157]
[4.65195950e-310 4.65196008e-310 4.65184259e-310], [157.84935641288757]
[4.65195950e-310 4.65196008e-310 4.65184259e-310], [157.99954557418823]
[4.65195950e-310 4.65196008e-310 4.65184259e-310], [158.1532084941864]
[4.65195950e-310 4.65196008e-310 4.65184259e-310], [158.33816862106323]
[4.65195950e-310 4.65196008e-310 4.65184259e-310], [158.49187207221985]
[4.65195950e-310 4.65196008e-310 4.65184259e-310], [158.64567828178406]
[4.65195950e-310 4.65196008e-310 4.65184259e-310], [158.7985372543335]
[4.65195950e-310 4.65196008e-310 4.65184259e-310], [158.95025038719177]
[4.65195950e-310 4.65196008e-310 4.65184259e-310], [159.15011191368103]
[4.65195950e-310 4.65196008e-310 4.65184259e-310], [159.3013699054718]
[4.65195950e-310 4.65196008e-310 4.65184259e-310], [159.4533772468567]
[4.65195950e-310 4.65196008e-310 4.65184259e-310], [159.60551953315735]
[4.65195950e-310 4.65196008e-310 4.65184259e-310], [159.76261401176453]
[4.65195950e-310 4.65196008e-310 4.65184259e-310], [159.91327905654907]
[4.65195950e-310 4.65196008e-310 4.65184259e-310], [160.06633257865906]
[4.65195950e-310 4.65196008e-310 4.65184259e-310], [160.2237904071808]
[4.65195950e-310 4.65196008e-310 4.65184259e-310], [160.41301822662354]
[4.65195950e-310 4.65196008e-310 4.65184259e-310], [160.5789852142334]
[4.65195950e-310 4.65196008e-310 4.65184259e-310], [160.73971581459045]
[4.65195950e-310 4.65196008e-310 4.65184259e-310], [160.89474964141846]
[4.65195950e-310 4.65196008e-310 4.65184259e-310], [161.05618953704834]
[4.65195950e-310 4.65196008e-310 4.65184259e-310], [161.21537017822266]
[4.65195950e-310 4.65196008e-310 4.65184259e-310], [161.37444853782654]
[4.65195950e-310 4.65196008e-310 4.65184259e-310], [161.52798557281494]
[4.65195950e-310 4.65196008e-310 4.65184259e-310], [161.68509030342102]
[4.65195950e-310 4.65196008e-310 4.65184259e-310], [161.85944771766663]
[4.65195950e-310 4.65196008e-310 4.65184259e-310], [162.0392541885376]
[4.65195950e-310 4.65196008e-310 4.65184259e-310], [162.20133209228516]
[4.65195950e-310 4.65196008e-310 4.65184259e-310], [162.3562262058258]
[4.65195950e-310 4.65196008e-310 4.65184259e-310], [162.5063877105713]
[4.65195950e-310 4.65196008e-310 4.65184259e-310], [162.66077160835266]
[4.65195950e-310 4.65196008e-310 4.65184259e-310], [162.81917929649353]
