[0. 0. 0.], [16.429787397384644]
[0.e+00 2.e-02 5.e+01], [17.72481870651245]
[2.000e-02 3.000e-02 5.001e+01], [17.882201194763184]
[1.e-02 1.e-02 5.e+01], [18.038573265075684]
[1.e-02 1.e-02 5.e+01], [18.186209201812744]
[0.e+00 1.e-02 5.e+01], [18.333025217056274]
[0.e+00 2.e-02 5.e+01], [18.48135995864868]
[1.e-02 0.e+00 5.e+01], [18.63096022605896]
[1.e-02 1.e-02 5.e+01], [18.784273147583008]
[0.e+00 1.e-02 5.e+01], [18.938350200653076]
[7.600e-01 3.000e-02 5.008e+01], [19.098000526428223]
[ 5.200e-01 -3.000e-02  5.007e+01], [19.27912449836731]
[ 5.700e-01 -2.000e-02  5.011e+01], [19.45267367362976]
[ 8.600e-01 -4.000e-02  5.018e+01], [19.61918830871582]
[ 1.07 -0.22 50.2 ], [19.83366870880127]
[ 1.37 -0.16 50.19], [20.003848791122437]
[ 1.7  -0.24 50.31], [20.197503566741943]
[ 1.76 -0.28 50.29], [20.355868339538574]
[ 2.21 -0.4  50.31], [20.51424551010132]
[ 2.42 -0.46 50.37], [20.669912576675415]
[ 2.84 -0.3  50.39], [20.820812225341797]
[ 2.89 -0.32 50.42], [20.972527742385864]
[ 3.05 -0.49 50.44], [21.12593650817871]
[ 3.29 -0.46 50.45], [21.278795957565308]
[ 3.37 -0.44 50.48], [21.43491220474243]
[ 4.02 -0.38 50.51], [21.590874195098877]
[ 4.07 -0.47 50.5 ], [21.7429358959198]
[ 4.59 -0.36 50.52], [21.89662218093872]
[ 4.66 -0.52 50.52], [22.083274602890015]
[ 5.13 -0.59 50.56], [22.23686695098877]
[ 5.8  -0.43 50.47], [22.39096212387085]
[ 6.43 -0.51 50.49], [22.572568655014038]
[ 6.62 -0.67 50.52], [22.728074312210083]
[ 7.12 -0.86 50.46], [22.882148265838623]
[ 7.65 -0.88 50.36], [23.03366255760193]
[ 7.96 -0.7  50.35], [23.185348749160767]
[ 8.96 -0.53 50.2 ], [23.343827486038208]
[ 8.83 -0.66 50.26], [23.499418020248413]
[ 9.38 -0.8  50.17], [23.672624349594116]
[ 9.43 -0.92 50.13], [23.831090450286865]
[10.16 -0.76 49.96], [23.984464406967163]
[10.01 -0.82 50.06], [24.143726348876953]
[11.02 -0.65 49.72], [24.301634073257446]
[10.89 -0.82 49.83], [24.45486092567444]
[11.26 -1.02 49.67], [24.618470907211304]
[11.79 -0.71 49.62], [24.773765325546265]
[11.97 -0.64 49.56], [24.926398038864136]
[12.86 -0.65 49.31], [25.08224320411682]
[12.73 -0.79 49.42], [25.235749006271362]
[13.44 -0.72 49.09], [25.421831369400024]
[13.37 -0.87 49.18], [25.576841354370117]
[13.77 -0.7  49.09], [25.729252815246582]
[14.35 -0.75 48.81], [25.884485960006714]
[14.52 -0.68 48.83], [26.04230237007141]
[15.16 -0.2  48.58], [26.19644832611084]
[15.13 -0.39 48.65], [26.350452184677124]
[15.07 -0.38 48.66], [26.502717971801758]
[ 1.476e+01 -4.000e-02  4.874e+01], [26.655625820159912]
[ 1.482e+01 -3.000e-02  4.875e+01], [26.80900263786316]
[15.1  0.3 48.7], [26.96272110939026]
[14.91  0.44 48.74], [27.15111994743347]
[15.11  0.81 48.71], [27.321287631988525]
[15.91  1.17 48.45], [27.483604431152344]
[16.04  2.47 48.59], [27.654083251953125]
[16.56  2.37 48.28], [27.83628249168396]
[17.17  3.1  48.26], [28.020819187164307]
[16.79  3.03 48.63], [28.201773166656494]
[16.57  3.34 48.85], [28.380218267440796]
[16.9   3.76 48.93], [28.53007984161377]
[16.24  3.96 49.32], [28.710166692733765]
[16.94  4.63 49.02], [28.861860990524292]
[16.46  4.56 49.31], [29.012487649917603]
[16.3   4.55 49.45], [29.168999671936035]
[15.96  4.56 49.63], [29.319381713867188]
[15.4   4.67 49.96], [29.470948934555054]
[15.33  4.64 50.09], [29.620375871658325]
[15.22  4.6  49.99], [29.771907329559326]
[15.17  4.68 50.08], [29.92204236984253]
[15.1   4.8  50.12], [30.078038930892944]
[14.75  5.52 50.2 ], [30.22872042655945]
[15.36  6.27 49.9 ], [30.381710290908813]
[14.84  6.46 50.01], [30.533122777938843]
[14.68  6.36 50.05], [30.685465335845947]
[14.48  6.3  50.11], [30.838247776031494]
[14.34  6.34 50.18], [31.03259539604187]
[13.89  6.74 50.28], [31.184531688690186]
[13.78  6.76 50.31], [31.33620262145996]
[13.64  6.74 50.27], [31.488499641418457]
[13.23  7.09 50.34], [31.640278816223145]
[13.02  7.15 50.37], [31.793465852737427]
[13.15  7.84 50.29], [31.947145462036133]
[12.9   7.82 50.32], [32.09778594970703]
[12.72  7.78 50.31], [32.25166082382202]
[12.44  7.96 50.33], [32.50118923187256]
[12.06  8.23 50.35], [32.650763273239136]
[11.92  8.23 50.41], [32.83202624320984]
[11.87  8.31 50.35], [32.982568979263306]
[11.7   8.63 50.43], [33.16582179069519]
[11.59  8.68 50.34], [33.34040284156799]
[11.84  9.28 50.13], [33.52490949630737]
[11.67  9.43 50.14], [33.68015384674072]
[11.4  9.7 50.1], [33.8325400352478]
[11.35  9.7  50.1 ], [33.99027919769287]
[11.56  9.9  50.09], [34.14220309257507]
[11.36  9.82 50.01], [34.29556369781494]
[11.14  9.84 50.18], [34.44833827018738]
[11.19 10.02 50.07], [34.600969552993774]
[10.69 10.32 50.27], [34.754924297332764]
[10.49 10.5  50.23], [34.90730023384094]
[10.34 10.75 50.25], [35.06187605857849]
[10.25 10.71 50.2 ], [35.21635913848877]
[ 9.85 11.   50.35], [35.37071633338928]
[10.05 11.22 50.2 ], [35.556546449661255]
[ 9.92 11.15 50.27], [35.70821809768677]
[ 9.78 11.12 50.35], [35.86146259307861]
[ 9.38 11.53 50.35], [36.0148503780365]
[ 9.41 11.57 50.29], [36.16929793357849]
[ 8.65 12.02 50.29], [36.32165479660034]
[ 8.79 12.15 50.32], [36.47603917121887]
[ 8.07 12.58 50.39], [36.669450998306274]
[ 8.22 12.54 50.35], [36.82282733917236]
[ 8.02 12.87 50.12], [36.98103904724121]
[ 7.87 12.99 50.17], [37.16201829910278]
[ 7.82 12.96 50.19], [37.311731576919556]
[ 7.72 12.93 50.21], [37.46210193634033]
[ 7.11 13.07 50.36], [37.652605056762695]
[ 7.05 13.11 50.27], [37.80318236351013]
[ 6.84 13.17 50.3 ], [37.954211711883545]
[ 6.75 13.14 50.3 ], [38.105437994003296]
[ 6.62 13.22 50.23], [38.2905535697937]
[ 6.31 13.49 50.14], [38.475547075271606]
[ 5.66 13.88 50.17], [38.62568020820618]
[ 5.58 13.87 50.16], [38.775922775268555]
[ 5.09 14.02 50.21], [38.94253420829773]
[ 4.92 14.28 50.04], [39.095072746276855]
[ 4.79 14.3  50.08], [39.24893617630005]
[ 4.81 14.35 50.1 ], [39.401655197143555]
[ 4.72 14.41 50.06], [39.55535054206848]
[ 4.57 14.47 50.06], [39.710246086120605]
[ 4.45 14.46 50.05], [39.864439964294434]
[ 3.78 14.7  50.11], [40.017274141311646]
[ 3.72 14.64 50.12], [40.17206954956055]
[ 3.23 14.76 50.16], [40.32496118545532]
[ 3.2  14.78 50.11], [40.48745107650757]
[ 2.78 14.79 50.17], [40.637781381607056]
[ 2.7  14.73 50.17], [40.787893772125244]
[ 2.71 14.77 50.17], [40.9380362033844]
[ 2.34 15.14 49.88], [41.0892653465271]
[ 1.82 15.43 49.82], [41.243043422698975]
[ 1.74 15.46 49.76], [41.39680027961731]
[ 1.5  15.5  49.73], [41.55022048950195]
[ 1.36 15.54 49.73], [41.702855348587036]
[ 0.85 15.61 49.81], [41.896488666534424]
[ 0.79 15.61 49.74], [42.05047059059143]
[ 1.24 14.41 50.11], [42.2028284072876]
[ 0.96 14.79 50.27], [42.35653376579285]
[ 0.37 14.92 50.41], [42.508503675460815]
[-0.11 15.29 50.13], [42.66764235496521]
[-0.6  15.58 49.94], [42.81917071342468]
[-0.81 15.71 49.83], [42.97398662567139]
[-0.82 15.78 49.82], [43.12453079223633]
[-0.89 15.7  49.86], [43.27857780456543]
[-0.98 15.66 49.88], [43.42910385131836]
[-1.11 15.62 49.92], [43.61402344703674]
[-1.42 15.59 49.91], [43.76480674743652]
[-1.88 15.57 49.98], [43.91426491737366]
[-2.12 15.41 49.94], [44.06421184539795]
[-2.46 15.44 49.95], [44.21548867225647]
[-2.64 15.25 49.99], [44.39068913459778]
[-2.7  15.11 50.06], [44.54243350028992]
[-3.41 15.11 50.1 ], [44.69406270980835]
[-3.43 15.   50.09], [44.84373497962952]
[-3.44 15.06 50.1 ], [44.99432182312012]
[-3.54 14.96 50.14], [45.14628028869629]
[-4.17 14.82 50.14], [45.29715967178345]
[-4.25 14.71 50.14], [45.448139905929565]
[-4.4  14.47 50.18], [45.598753452301025]
[-4.53 14.17 50.28], [45.752323627471924]
[-4.65 14.06 50.35], [45.90365719795227]
[-5.2  14.11 50.35], [46.0551643371582]
[-5.24 14.03 50.27], [46.21006107330322]
[-5.32 13.77 50.3 ], [46.368045806884766]
[-5.36 13.87 50.33], [46.52153563499451]
[-5.94 13.71 50.28], [46.67627310752869]
[-6.1  13.5  50.33], [46.828951835632324]
[-6.24 13.21 50.37], [46.98288583755493]
[-6.23 13.28 50.41], [47.138041973114014]
[-6.3  13.13 50.45], [47.299442529678345]
[-6.42 12.98 50.47], [47.4536612033844]
[-6.96 12.87 50.37], [47.64792060852051]
[-7.02 12.85 50.34], [47.82414269447327]
[-7.48 12.76 50.3 ], [47.97628903388977]
[-7.6  12.68 50.23], [48.12756085395813]
[-7.83 12.68 50.28], [48.313514947891235]
[-8.22 12.5  50.19], [48.46510338783264]
[-8.23 12.53 50.23], [48.646751165390015]
[-8.67 12.39 50.16], [48.799559116363525]
[-8.9  12.38 50.01], [48.95298528671265]
[-8.89 12.37 50.06], [49.10314917564392]
[-9.19 11.8  50.07], [49.254658937454224]
[-9.14 11.91 50.15], [49.4059853553772]
[-9.25 11.73 50.16], [49.55891561508179]
[-9.39 11.5  50.18], [49.71047592163086]
[-9.46 11.36 50.19], [49.86307740211487]
[-10.12  10.74  50.06], [50.01322865486145]
[-10.31  10.7   49.99], [50.16569685935974]
[-10.28  10.74  50.05], [50.318079710006714]
[-10.43  10.54  50.04], [50.47044062614441]
[-10.82  10.39  49.98], [50.62683844566345]
[-10.77  10.37  49.96], [50.77796244621277]
[-11.53  10.15  49.73], [50.92798089981079]
[-11.55  10.1   49.72], [51.07900404930115]
[-11.56  10.1   49.75], [51.23099660873413]
[-11.69   9.9   49.72], [51.38437533378601]
[-12.36   9.73  49.51], [51.53622627258301]
[-12.45   8.64  49.81], [51.691864013671875]
[-12.95   8.89  49.64], [51.8430061340332]
[-13.03   8.73  49.7 ], [51.99444580078125]
[-12.96   8.77  49.76], [52.176668643951416]
[-13.06   8.66  49.75], [52.32822775840759]
[-13.1    8.59  49.73], [52.4801390171051]
[-13.21   8.08  49.83], [52.631287574768066]
[-13.1    8.18  49.9 ], [52.78321552276611]
[-13.35   7.38  49.99], [52.934871673583984]
[-13.2    7.6   50.09], [53.092716217041016]
[-13.36   7.41  50.03], [53.24587273597717]
[-13.31   7.35  50.08], [53.396347999572754]
[-13.66   6.74  50.02], [53.57865595817566]
[-13.62   6.75  50.03], [53.73014307022095]
[-13.74   6.54  49.99], [53.8807168006897]
[-13.78   6.42  49.98], [54.030675411224365]
[-13.99   5.55  50.02], [54.18308424949646]
[-13.89   5.8   50.1 ], [54.33475112915039]
[-14.05   5.59  50.05], [54.486329317092896]
[-14.13   5.44  50.02], [54.637643814086914]
[-14.21   5.37  49.99], [54.791844844818115]
[-14.22   5.31  49.99], [54.94394135475159]
[-14.18   5.2   50.03], [55.096293926239014]
[-14.26   4.95  50.05], [55.25898098945618]
[-14.97   4.62  49.84], [55.40937304496765]
[-15.     4.12  49.87], [55.559491872787476]
[-14.91   4.27  49.92], [55.71019411087036]
[-15.     4.12  49.91], [55.860268115997314]
[-15.04   3.97  49.92], [56.00915884971619]
[-15.05   3.86  49.93], [56.16456389427185]
[-15.04   3.71  49.94], [56.31560158729553]
[-15.17   3.51  49.89], [56.466695070266724]
[-15.4    3.    49.81], [56.61643171310425]
[-15.5    2.88  49.76], [56.80619549751282]
[-15.63   2.46  49.73], [56.98938584327698]
[-15.61   2.4   49.75], [57.164793729782104]
[-15.68   2.2   49.75], [57.31542348861694]
[-15.83   1.68  49.68], [57.467339515686035]
[-15.72   1.17  49.73], [57.62183094024658]
[-15.49   1.08  49.83], [57.78047585487366]
[-15.43   0.86  49.74], [57.96387434005737]
[-15.48   0.89  49.75], [58.11428356170654]
[-15.53   0.8   49.72], [58.26532292366028]
[-15.5    0.71  49.7 ], [58.418067932128906]
[-15.47   0.42  49.69], [58.56875228881836]
[-15.45   0.12  49.69], [58.7199010848999]
[-15.64  -1.    49.56], [58.87247848510742]
[-15.6   -1.47  49.53], [59.06050944328308]
[-15.57  -1.58  49.45], [59.21542048454285]
[-15.58  -1.65  49.49], [59.36666011810303]
[-15.56  -1.75  49.46], [59.516783714294434]
[-15.55  -2.03  49.46], [59.667686223983765]
[-15.51  -2.71  49.41], [59.825085401535034]
[-15.68  -3.06  49.28], [59.9766001701355]
[-15.39  -3.25  49.51], [60.12712621688843]
[-15.36  -3.69  49.45], [60.277902364730835]
[-14.86  -3.91  49.72], [60.42779326438904]
[-14.89  -3.76  49.66], [60.57875680923462]
[-14.99  -4.28  49.67], [60.730931520462036]
[-14.94  -4.06  49.6 ], [60.88158822059631]
[-14.94  -4.21  49.63], [61.03320074081421]
[-14.91  -4.34  49.6 ], [61.18565583229065]
[-14.68  -4.78  49.69], [61.33927035331726]
[-14.56  -5.21  49.61], [61.48960828781128]
[-14.45  -5.7   49.6 ], [61.638909101486206]
[-14.52  -5.7   49.64], [61.79054665565491]
[-14.82  -5.69  49.4 ], [61.941200971603394]
[-14.4   -6.21  49.59], [62.09179711341858]
[-14.46  -6.01  49.54], [62.275280714035034]
[-14.28  -6.61  49.42], [62.428975105285645]
[-14.2   -7.12  49.45], [62.58020830154419]
[-14.03  -7.64  49.39], [62.73204302787781]
[-13.68  -8.04  49.49], [62.88521146774292]
[-13.79  -8.14  49.5 ], [63.03934121131897]
[-13.62  -8.49  49.38], [63.18935203552246]
[-13.53  -8.42  49.47], [63.33969306945801]
[-13.58  -8.6   49.61], [63.4898407459259]
[-13.34  -8.97  49.54], [63.6424994468689]
[-13.14  -8.63  49.69], [63.79985594749451]
[-13.02  -9.2   49.61], [63.95384192466736]
[-12.98  -9.32  49.61], [64.13541793823242]
[-12.81 -10.11  49.44], [64.31554627418518]
[-12.53  -9.41  49.98], [64.46936845779419]
[-12.47  -9.41  49.89], [64.62225151062012]
[-12.37 -10.12  49.84], [64.77556657791138]
[-12.06  -9.97  49.83], [64.92637729644775]
[-11.99 -10.04  49.9 ], [65.07897019386292]
[-11.41 -10.69  49.76], [65.2304139137268]
[-11.57 -10.41  49.78], [65.38401675224304]
[-10.93 -10.78  50.08], [65.53843021392822]
[-10.54 -10.65  50.29], [65.68997955322266]
[-10.26 -11.39  50.07], [65.8429069519043]
[-10.39 -11.13  50.08], [65.9950304031372]
[-10.43 -11.02  50.03], [66.1485321521759]
[ -9.9  -11.4   50.13], [66.33483123779297]
[ -9.93 -11.39  50.01], [66.48731827735901]
[ -9.99 -11.31  50.08], [66.64241981506348]
[ -9.77 -11.56  50.13], [66.82343482971191]
[ -9.08 -12.02  50.11], [66.97756576538086]
[ -9.17 -11.79  50.04], [67.13240075111389]
[ -8.72 -11.94  50.32], [67.28591918945312]
[ -8.62 -11.9   50.28], [67.43660950660706]
[ -8.59 -12.61  50.13], [67.61877465248108]
[ -8.1  -12.71  50.19], [67.76963448524475]
[ -8.13 -12.52  50.05], [67.95648860931396]
[ -7.63 -12.71  50.29], [68.1407310962677]
[ -7.71 -12.61  50.21], [68.2961916923523]
[ -7.6  -12.76  50.18], [68.44832754135132]
[ -7.56 -12.79  50.14], [68.59953284263611]
[ -7.57 -12.81  50.11], [68.75052070617676]
[ -6.74 -13.63  49.91], [68.90067458152771]
[ -6.51 -13.58  50.19], [69.05438446998596]
[ -6.26 -13.98  49.97], [69.20464181900024]
[ -6.27 -13.88  49.96], [69.35544919967651]
[ -5.98 -13.74  50.19], [69.5061264038086]
[ -5.91 -13.64  50.15], [69.65772247314453]
[ -5.91 -13.72  50.13], [69.80940628051758]
[ -5.42 -14.22  49.93], [69.96137881278992]
[ -5.47 -14.22  49.95], [70.11547660827637]
[ -4.99 -14.31  50.09], [70.2687873840332]
[ -5.04 -14.19  50.07], [70.42381429672241]
[ -4.61 -14.3   50.14], [70.57715654373169]
[ -4.57 -14.26  50.11], [70.73161029815674]
[ -3.9  -15.05  49.73], [70.88415193557739]
[ -4.16 -14.78  50.11], [71.03953623771667]
[ -3.57 -14.68  50.12], [71.19365096092224]
[ -3.46 -14.55  50.27], [71.34371757507324]
[ -3.48 -14.58  50.2 ], [71.49641728401184]
[ -3.52 -14.62  50.19], [71.68181133270264]
[ -3.07 -14.69  50.17], [71.869149684906]
[ -3.11 -14.79  50.11], [72.02185583114624]
[ -2.72 -14.73  50.2 ], [72.20715999603271]
[ -2.3  -14.71  50.18], [72.43876504898071]
[ -1.94 -14.72  50.23], [72.59001469612122]
[ -1.92 -14.74  50.18], [72.74246978759766]
[ -1.11 -15.56  49.81], [72.89458012580872]
[ -1.19 -15.21  49.99], [73.04691100120544]
[ -0.93 -15.27  49.95], [73.19835329055786]
[ -0.84 -15.04  50.18], [73.34995985031128]
[ -0.93 -14.91  50.23], [73.52502131462097]
[ -0.87 -14.68  50.26], [73.67791223526001]
[ -0.79 -14.67  50.25], [73.8286521434784]
[-4.000e-02 -1.515e+01  4.993e+01], [73.98038864135742]
[  0.27 -15.1   49.97], [74.13127303123474]
[  0.67 -15.06  49.91], [74.31016826629639]
[  0.87 -15.04  50.02], [74.46379804611206]
[  0.76 -14.95  50.08], [74.61785244941711]
[  1.13 -14.7   50.21], [74.76979160308838]
[  1.53 -14.69  50.12], [74.92364573478699]
[  1.87 -15.19  49.83], [75.0793468952179]
[  2.05 -15.15  49.87], [75.23303294181824]
[  2.16 -15.18  49.77], [75.3872902393341]
[  2.12 -15.15  49.81], [75.54227375984192]
[  2.36 -15.13  49.74], [75.7014856338501]
[  2.78 -15.03  49.81], [75.88010215759277]
[  2.86 -14.95  49.89], [76.03091764450073]
[  3.12 -15.47  49.62], [76.18222069740295]
[  4.15 -15.07  49.69], [76.33442568778992]
[  4.07 -15.07  49.77], [76.485196352005]
[  4.55 -14.78  49.89], [76.63733291625977]
[  4.48 -14.87  49.86], [76.78777408599854]
[  4.48 -14.9   49.82], [76.96993255615234]
[  4.99 -14.61  50.  ], [77.12023496627808]
[  5.3  -14.51  49.86], [77.27092671394348]
[  5.37 -14.23  49.98], [77.42176985740662]
[  5.36 -14.11  50.07], [77.57287931442261]
[  5.37 -14.12  50.09], [77.72505974769592]
[  6.22 -13.69  50.1 ], [77.87679600715637]
[  6.3  -13.77  50.  ], [78.06524300575256]
[  6.6  -13.73  49.91], [78.24737405776978]
[  6.55 -13.78  49.93], [78.39721131324768]
[  7.06 -13.54  49.91], [78.57950210571289]
[  7.04 -13.62  49.88], [78.76070356369019]
[  6.93 -13.58  49.93], [78.9121663570404]
[  7.75 -13.14  50.01], [79.0628113746643]
[  7.71 -13.13  49.96], [79.2147147655487]
[  8.12 -13.08  49.88], [79.36635708808899]
[  8.12 -13.18  49.91], [79.51747703552246]
[  8.61 -12.88  49.86], [79.66940450668335]
[  8.78 -12.73  49.84], [79.81953763961792]
[  9.22 -12.14  49.98], [79.97080183029175]
[  9.3  -12.17  50.  ], [80.12089705467224]
[  9.4  -12.35  49.88], [80.27347326278687]
[  9.15 -12.12  50.05], [80.42916059494019]
[  9.28 -12.12  50.06], [80.58241677284241]
[  9.37 -11.83  50.18], [80.73547148704529]
[  9.48 -11.75  50.18], [80.88609480857849]
[  9.52 -11.58  50.17], [81.0379912853241]
[  9.55 -11.52  50.18], [81.18990588188171]
[ 10.07 -11.01  50.22], [81.3420798778534]
[ 10.1  -10.91  50.22], [81.49278664588928]
[ 10.6  -10.52  50.18], [81.64803910255432]
[ 10.55 -10.56  50.22], [81.82380628585815]
[ 10.67 -10.56  50.18], [81.9757981300354]
[ 10.94 -10.58  50.14], [82.12484407424927]
[ 10.9  -10.39  50.19], [82.27752351760864]
[11.21 -9.98 50.19], [82.45923209190369]
[11.22 -9.97 50.23], [82.6099054813385]
[11.69 -9.35 50.16], [82.76225423812866]
[11.65 -9.24 50.23], [82.91514682769775]
[11.62 -9.38 50.24], [83.11660981178284]
[11.4  -9.16 50.33], [83.27347993850708]
[12.05 -8.53 50.27], [83.46734619140625]
[11.74 -8.52 50.45], [83.61964917182922]
[12.03 -8.1  50.44], [83.773446559906]
[12.1  -8.18 50.42], [83.92767834663391]
[12.57 -8.15 50.13], [84.07758784294128]
[12.52 -7.98 50.2 ], [84.26026105880737]
[12.98 -7.72 49.97], [84.41123676300049]
[13.38 -7.19 49.96], [84.56344389915466]
[13.2  -7.2  50.07], [84.71358370780945]
[13.78 -6.66 49.93], [84.86495399475098]
[13.75 -6.74 50.02], [85.01709461212158]
[13.68 -6.84 50.05], [85.17280292510986]
[13.47 -6.66 50.11], [85.32474565505981]
[13.88 -6.2  50.1 ], [85.47771120071411]
[13.8  -6.33 50.15], [85.62798547744751]
[14.47 -5.47 49.98], [85.77805066108704]
[14.28 -5.43 50.11], [85.92733645439148]
[14.42 -5.19 50.09], [86.0799310207367]
[14.09 -4.86 50.26], [86.23064804077148]
[14.09 -4.68 50.32], [86.381915807724]
[14.1  -4.49 50.3 ], [86.53243017196655]
[14.05 -4.54 50.36], [86.68736815452576]
[14.05 -4.41 50.38], [86.84172034263611]
[14.61 -3.65 50.16], [86.99489450454712]
[14.77 -3.61 50.06], [87.15152597427368]
[14.4  -3.31 50.27], [87.30721545219421]
[14.33 -3.27 50.31], [87.46775269508362]
[14.76 -2.81 50.13], [87.62764406204224]
[14.62 -2.69 50.24], [87.81502270698547]
[14.9  -2.6  49.93], [87.97255444526672]
[14.9  -2.58 50.05], [88.15869855880737]
[15.08 -2.05 50.05], [88.3150942325592]
[14.93 -2.01 50.03], [88.47241449356079]
[15.29 -1.55 49.93], [88.6299409866333]
[15.09 -1.49 49.99], [88.80781817436218]
[15.07 -1.45 50.02], [88.99119639396667]
[15.03 -1.29 50.06], [89.15147018432617]
[15.57 -0.4  49.83], [89.30556035041809]
[15.38 -0.52 49.91], [89.49497556686401]
[15.42 -0.11 50.  ], [89.66318440437317]
[ 1.529e+01 -4.000e-02  5.004e+01], [89.82111525535583]
[ 1.523e+01 -4.000e-02  5.004e+01], [89.97534203529358]
[15.42  0.52 50.03], [90.1295874118805]
[15.26  0.6  50.08], [90.28757572174072]
[15.13  0.81 50.1 ], [90.44500494003296]
[15.14  0.85 50.13], [90.59853887557983]
[15.64  1.87 49.92], [90.75747442245483]
[15.29  1.91 50.05], [90.91569375991821]
[15.1   1.92 50.11], [91.07325625419617]
[14.79  2.24 50.29], [91.23058533668518]
[14.81  2.28 50.29], [91.39358496665955]
[14.82  2.52 50.2 ], [91.5509443283081]
[14.93  2.93 50.18], [91.70552253723145]
[14.69  3.68 50.24], [91.86156487464905]
[14.49  3.65 50.28], [92.05725836753845]
[14.6   3.9  50.15], [92.21340107917786]
[14.49  3.98 50.19], [92.36784768104553]
[14.28  3.99 50.33], [92.5236279964447]
[14.34  4.02 50.24], [92.67783117294312]
[14.18  4.35 50.28], [92.83100986480713]
[13.95  4.46 50.39], [92.98453092575073]
[13.91  4.71 50.3 ], [93.1816394329071]
[13.73  4.99 50.27], [93.33611392974854]
[13.99  5.77 50.13], [93.49253344535828]
[13.72  5.72 50.24], [93.66222596168518]
[13.65  5.72 50.11], [93.81866312026978]
[13.72  5.97 50.11], [93.97160959243774]
[13.61  5.95 50.17], [94.12382984161377]
[13.26  6.53 50.17], [94.30267357826233]
[13.18  6.62 50.14], [94.45616006851196]
[13.52  7.24 49.86], [94.61101484298706]
[13.22  7.48 50.05], [94.76256608963013]
[13.18  7.41 50.04], [94.91281604766846]
[13.16  7.56 50.12], [95.07363939285278]
[13.09  7.72 50.01], [95.23168134689331]
[12.83  7.73 50.13], [95.39008855819702]
[12.65  8.06 50.17], [95.54253268241882]
[12.62  8.1  50.08], [95.69390273094177]
[12.4   8.49 50.08], [95.84956192970276]
[12.37  8.42 50.06], [96.00255131721497]
[12.72  9.38 49.94], [96.15378546714783]
[12.44  9.2  49.92], [96.30440640449524]
[12.37  9.1  49.96], [96.45560359954834]
[12.09  9.21 50.01], [96.63159084320068]
[12.08  9.26 50.03], [96.78359079360962]
[11.91  9.57 50.02], [96.93878674507141]
[11.84  9.6  50.  ], [97.09346556663513]
[11.53  9.88 50.  ], [97.26944160461426]
[11.63 10.29 50.02], [97.42552733421326]
[11.25 10.27 50.14], [97.64158964157104]
[11.21 10.23 50.12], [97.79636359214783]
[11.06 10.47 50.07], [97.98227739334106]
[10.92 10.58 50.13], [98.14082098007202]
[10.82 10.61 50.17], [98.3042299747467]
[10.54 10.93 50.07], [98.46213626861572]
[10.22 11.21 50.19], [98.6157636642456]
[ 9.99 11.39 50.16], [98.77232027053833]
[ 9.78 11.58 50.11], [98.9258131980896]
[ 9.89 12.   50.08], [99.07730031013489]
[ 9.22 12.25 50.17], [99.22737884521484]
[ 9.18 12.18 50.1 ], [99.38015532493591]
[ 9.08 12.4  49.96], [99.5318374633789]
[ 8.92 12.5  50.16], [99.70347142219543]
[ 8.81 12.63 50.06], [99.8576831817627]
[ 8.06 13.07 50.17], [100.01263427734375]
[ 8.03 12.95 50.14], [100.16805076599121]
[ 7.72 13.38 49.92], [100.35798645019531]
[ 7.67 13.45 50.02], [100.53866004943848]
[ 7.53 13.39 50.04], [100.68907976150513]
[ 7.04 13.57 50.17], [100.84104561805725]
[ 6.82 13.66 50.13], [100.99149966239929]
[ 6.75 13.65 50.11], [101.14397716522217]
[ 6.33 13.69 50.24], [101.29782056808472]
[ 6.06 13.84 50.21], [101.44967746734619]
[ 5.97 13.88 50.14], [101.60061860084534]
[ 5.87 13.93 50.1 ], [101.7514717578888]
[ 5.36 14.29 50.12], [101.90272426605225]
[ 5.19 14.36 50.07], [102.0546555519104]
[ 5.17 14.33 50.04], [102.21145153045654]
[ 4.84 14.33 50.14], [102.37247776985168]
[ 4.81 14.4  50.05], [102.52776718139648]
[ 4.65 14.4  50.06], [102.6845908164978]
[ 4.2  14.56 50.12], [102.84151554107666]
[ 3.88 14.8  49.9 ], [103.03182196617126]
[ 3.1  15.33 49.77], [103.18674063682556]
[ 3.11 15.37 49.64], [103.3389163017273]
[ 2.99 15.49 49.62], [103.48979234695435]
[ 2.71 15.6  49.68], [103.67372727394104]
[ 3.01 14.76 50.25], [103.82722449302673]
[ 2.57 15.   50.3 ], [104.02939677238464]
[ 2.61 14.84 50.22], [104.1891462802887]
[ 2.18 15.43 50.03], [104.37941479682922]
[ 1.99 15.45 49.86], [104.53053140640259]
[ 1.94 15.48 49.85], [104.70780801773071]
[ 1.82 15.39 49.9 ], [104.86172938346863]
[ 1.33 15.45 49.95], [105.05627226829529]
[ 0.95 15.47 49.89], [105.20818662643433]
[ 0.87 15.5  49.92], [105.35979533195496]
[ 0.52 15.46 49.96], [105.5105664730072]
[ 0.53 15.44 49.95], [105.66310334205627]
[ 0.44 15.38 50.01], [105.81460785865784]
[ 0.35 15.32 50.05], [105.96694827079773]
[-0.43 15.45 50.13], [106.12435936927795]
[-0.4  15.44 50.05], [106.2762098312378]
[-0.56 15.41 50.07], [106.42914748191833]
[-0.74 15.36 50.09], [106.58271741867065]
[-1.14 14.81 50.22], [106.73424530029297]
[-1.7  14.89 50.33], [106.8839316368103]
[-1.63 14.91 50.28], [107.03792381286621]
[-2.08 14.83 50.22], [107.19269442558289]
[-2.14 14.86 50.28], [107.34298777580261]
[-2.83 14.89 50.37], [107.49286937713623]
[-2.91 14.83 50.27], [107.6428530216217]
[-3.15 14.78 50.31], [107.7924976348877]
[-3.15 14.81 50.28], [107.942875623703]
[-3.24 14.73 50.31], [108.09289121627808]
[-3.32 14.65 50.34], [108.24369430541992]
[-3.92 14.67 50.4 ], [108.39436149597168]
[-4.34 14.65 50.34], [108.5456030368805]
[-4.42 14.59 50.3 ], [108.69771146774292]
[-4.44 14.62 50.29], [108.88896059989929]
[-4.52 14.5  50.31], [109.03911876678467]
[-5.07 14.28 50.33], [109.18907165527344]
[-5.25 14.19 50.35], [109.33999681472778]
[-5.55 14.16 50.38], [109.49072217941284]
[-5.84 13.99 50.35], [109.64150214195251]
[-5.88 14.04 50.34], [109.79358887672424]
[-5.96 13.95 50.35], [109.94484233856201]
[-6.16 13.58 50.36], [110.09757661819458]
[-6.25 13.46 50.39], [110.28180384635925]
[-6.51 13.11 50.48], [110.43415141105652]
[-6.92 13.16 50.46], [110.58515071868896]
[-6.94 13.2  50.45], [110.7364661693573]
[-7.61 13.   50.37], [110.88900852203369]
[-7.62 12.92 50.32], [111.040048122406]
[-8.22 12.87 50.25], [111.19502925872803]
[-8.29 12.76 50.24], [111.35041069984436]
[-8.48 12.46 50.25], [111.50377655029297]
[-8.59 12.32 50.24], [111.65536189079285]
[-8.56 12.34 50.3 ], [111.80856490135193]
[-8.6  12.25 50.32], [111.96375846862793]
[-8.67 12.16 50.32], [112.1150918006897]
[-8.74 12.12 50.31], [112.27312088012695]
[-8.94 11.7  50.35], [112.42251348495483]
[-9.55 11.62 50.19], [112.60664296150208]
[-9.5  11.6  50.22], [112.76092863082886]
[-9.76 11.07 50.25], [112.91232681274414]
[-9.93 10.89 50.22], [113.06724572181702]
[-10.2   10.83  50.23], [113.22061681747437]
[-10.41  10.64  50.02], [113.37527179718018]
[-10.75  10.34  50.09], [113.5265007019043]
[-10.65  10.44  50.12], [113.67752742767334]
[-10.79  10.28  50.09], [113.85965275764465]
[-10.86  10.16  50.09], [114.00973558425903]
[-10.87  10.08  50.13], [114.16171503067017]
[-11.04   9.82  50.11], [114.31377696990967]
[-11.17   9.65  50.09], [114.46474003791809]
[-11.73   9.13  49.92], [114.65382051467896]
[-11.74   9.09  49.95], [114.80862307548523]
[-11.81   8.95  49.93], [114.96570539474487]
[-11.94   8.76  49.91], [115.12142038345337]
[-11.99   8.65  49.91], [115.2749514579773]
[-12.16   8.38  49.88], [115.42767810821533]
[-12.25   8.25  49.85], [115.61002802848816]
[-12.64   7.82  49.73], [115.7910828590393]
[-12.56   7.78  49.76], [115.96093344688416]
[-12.63   7.69  49.73], [116.11267137527466]
[-12.68   7.64  49.72], [116.26946377754211]
[-12.72   7.6   49.7 ], [116.42121076583862]
[-12.73   7.57  49.71], [116.57323002815247]
[-12.75   7.48  49.71], [116.72428894042969]
[-12.87   7.32  49.67], [116.87627720832825]
[-13.51   7.17  49.46], [117.02871775627136]
[-13.67   7.21  49.48], [117.18068313598633]
[-14.84   5.59  49.3 ], [117.33144950866699]
[-14.8    6.05  49.34], [117.482577085495]
[-15.07   5.88  49.33], [117.6342225074768]
[-15.15   5.58  49.27], [117.7888457775116]
[-15.26   5.1   49.39], [117.94141674041748]
[-15.15   5.27  49.44], [118.09273552894592]
[-15.19   5.13  49.45], [118.24402976036072]
[-15.32   4.28  49.52], [118.39714407920837]
[-15.3    4.46  49.6 ], [118.5488350391388]
[-15.38   4.31  49.59], [118.69891881942749]
[-15.45   3.79  49.63], [118.84998035430908]
[-15.38   3.94  49.7 ], [118.99922370910645]
[-15.43   3.76  49.7 ], [119.14951705932617]
[-15.47   3.53  49.73], [119.30335640907288]
[-15.54   3.35  49.74], [119.45367693901062]
[-15.58   3.25  49.74], [119.60423493385315]
[-15.62   3.16  49.74], [119.75410747528076]
[-15.61   3.06  49.77], [119.90490889549255]
[-15.05   2.65  49.98], [120.08770036697388]
[-15.27   2.6   49.86], [120.23800563812256]
[-15.18   2.62  49.9 ], [120.41956686973572]
[-15.48   1.98  49.75], [120.57188081741333]
[-15.38   1.99  49.76], [120.72403073310852]
[-15.63   1.27  49.66], [120.87547516822815]
[-15.61   0.8   49.71], [121.0266523361206]
[-15.55   0.97  49.7 ], [121.17783880233765]
[-15.63   0.78  49.69], [121.32818913459778]
[-15.62   0.73  49.68], [121.48249101638794]
[-15.72   0.09  49.6 ], [121.63257813453674]
[-15.8   -0.25  49.55], [121.78448224067688]
[-15.76  -0.71  49.56], [121.93474817276001]
[-15.72  -0.56  49.58], [122.0860002040863]
[-15.67  -1.25  49.52], [122.23854970932007]
[-15.67  -1.48  49.5 ], [122.40311408042908]
[-15.62  -1.84  49.49], [122.55470395088196]
[-15.6   -2.27  49.47], [122.70598864555359]
[-15.55  -2.1   49.47], [122.85684537887573]
[-15.55  -2.77  49.43], [123.00791716575623]
[-15.41  -3.22  49.39], [123.16020488739014]
[-15.37  -3.51  49.33], [123.31189370155334]
[-15.31  -4.01  49.26], [123.46395421028137]
[-14.97  -3.61  49.7 ], [123.61648988723755]
[-14.87  -4.19  49.51], [123.76988816261292]
[-14.53  -4.33  49.68], [123.92077374458313]
[-14.84  -4.38  49.64], [124.07121658325195]
[-14.89  -4.59  49.67], [124.22203731536865]
[-14.74  -5.09  49.57], [124.41306352615356]
[-14.75  -4.95  49.56], [124.56614923477173]
[-14.67  -5.06  49.56], [124.71684098243713]
[-14.42  -5.88  49.59], [124.86836171150208]
[-14.4   -5.96  49.55], [125.01845240592957]
[-14.3   -6.48  49.54], [125.2051522731781]
[-14.28  -6.26  49.54], [125.35706210136414]
[-14.18  -6.34  49.54], [125.50823473930359]
[-14.04  -6.82  49.66], [125.66104459762573]
[-13.87  -7.5   49.49], [125.81221747398376]
[-13.81  -7.79  49.48], [125.96392846107483]
[-13.49  -7.66  49.77], [126.11430215835571]
[-13.35  -8.22  49.65], [126.26715016365051]
[-13.37  -8.17  49.75], [126.41677856445312]
[-13.08  -8.72  49.55], [126.57362866401672]
[-13.17  -8.73  49.64], [126.72713303565979]
[-13.14  -8.58  49.58], [126.8803436756134]
[-12.87  -9.21  49.67], [127.03240251541138]
[-12.91  -8.95  49.61], [127.18509364128113]
[-12.72  -9.71  49.51], [127.33737587928772]
[-12.73  -9.73  49.52], [127.48829007148743]
[-12.34 -10.54  49.38], [127.63914275169373]
[-12.23 -10.01  49.75], [127.79108786582947]
[-12.11 -10.67  49.57], [127.94473242759705]
[-11.94 -10.25  49.91], [128.0960030555725]
[-12.04 -10.24  49.92], [128.2484531402588]
[-11.75 -10.01  50.09], [128.40024137496948]
[-11.13 -10.7   50.01], [128.5831971168518]
[-11.16 -10.64  50.1 ], [128.7335765361786]
[-10.72 -11.36  49.9 ], [128.90961718559265]
[-10.54 -11.35  49.94], [129.09488534927368]
[-10.1  -11.33  50.17], [129.2462956905365]
[-10.17 -11.35  50.17], [129.39851427078247]
[ -9.65 -11.6   50.33], [129.55033206939697]
[ -9.72 -11.43  50.32], [129.70845079421997]
[ -9.69 -11.36  50.23], [129.85957050323486]
[ -9.33 -11.67  50.11], [130.04189109802246]
[ -8.73 -11.6   50.41], [130.19329524040222]
[ -8.85 -11.53  50.35], [130.34860515594482]
[ -8.77 -11.5   50.32], [130.5024209022522]
[ -8.54 -11.71  50.47], [130.6568534374237]
[ -8.18 -12.42  50.19], [130.81034469604492]
[ -7.78 -12.27  50.44], [130.96281456947327]
[ -7.83 -12.18  50.38], [131.11673307418823]
[ -7.7  -12.25  50.39], [131.2734398841858]
[ -7.72 -12.29  50.38], [131.42554020881653]
[ -7.25 -12.41  50.47], [131.5789773464203]
[ -6.74 -13.21  50.21], [131.75871992111206]
[ -6.77 -13.06  50.24], [131.93872547149658]
[ -6.38 -13.19  50.18], [132.09147357940674]
[ -6.34 -13.3   50.09], [132.24549674987793]
[ -5.99 -13.44  50.06], [132.39778470993042]
[ -6.01 -13.3   50.17], [132.57898378372192]
[ -6.03 -13.37  50.11], [132.7351553440094]
[ -5.83 -13.9   49.91], [132.88599038124084]
[ -5.12 -14.04  49.96], [133.03670263290405]
[ -5.3  -14.02  49.97], [133.21787476539612]
[ -4.69 -14.5   49.89], [133.36940336227417]
[ -4.68 -14.54  49.81], [133.5515055656433]
[ -4.66 -14.44  49.74], [133.70138573646545]
[ -4.56 -14.58  49.96], [133.88404083251953]
[ -4.22 -14.48  49.94], [134.0368332862854]
[ -3.95 -14.83  49.77], [134.19477653503418]
[ -3.82 -14.92  49.86], [134.34788155555725]
[ -3.66 -14.92  49.8 ], [134.50005650520325]
[ -3.57 -14.86  50.06], [134.65142178535461]
[ -3.59 -14.87  50.07], [134.82925415039062]
[ -3.19 -15.45  49.61], [134.98031163215637]
[ -2.99 -15.38  49.91], [135.13212203979492]
[ -2.42 -15.38  49.89], [135.28489303588867]
[ -2.33 -15.1   50.18], [135.46661806106567]
[ -2.32 -15.11  50.06], [135.61868476867676]
[ -1.93 -15.18  50.08], [135.77601194381714]
[ -1.79 -15.18  50.05], [135.92719650268555]
[ -1.73 -15.16  49.99], [136.07824730873108]
[ -1.21 -15.24  50.03], [136.2285726070404]
[ -1.09 -15.33  49.89], [136.3789575099945]
[ -0.73 -15.03  50.19], [136.53770089149475]
[ -0.72 -15.14  50.08], [136.6898217201233]
[ -0.71 -15.11  50.16], [136.83975052833557]
[ -0.57 -15.1   50.11], [136.99059104919434]
[ -0.09 -14.96  50.24], [137.14252185821533]
[  0.36 -14.95  50.16], [137.2953622341156]
[  0.77 -14.94  50.09], [137.44535756111145]
[  0.7 -14.9  50.1], [137.62586092948914]
[  1.38 -15.    49.92], [137.78410243988037]
[  1.7  -15.62  49.56], [137.99974298477173]
[  1.95 -15.18  49.92], [138.15488409996033]
[  1.98 -15.19  49.91], [138.30828261375427]
[  1.96 -15.19  49.98], [138.46165561676025]
[  2.03 -15.13  49.92], [138.64642882347107]
[  1.95 -15.21  49.91], [138.799170255661]
[  2.58 -15.02  49.94], [138.95320630073547]
[  2.82 -15.15  49.8 ], [139.10796928405762]
[  3.53 -14.91  49.81], [139.26339864730835]
[  3.52 -14.98  49.74], [139.41729164123535]
[  4.27 -14.86  49.71], [139.573748588562]
[  4.32 -14.66  49.83], [139.72692823410034]
[  4.36 -14.66  49.82], [139.87992310523987]
[  4.83 -14.39  49.92], [140.033034324646]
[  5.13 -14.93  49.61], [140.19089889526367]
[  5.66 -14.55  49.84], [140.3440523147583]
[  5.65 -14.52  49.85], [140.49896597862244]
[  5.63 -14.33  50.  ], [140.69057178497314]
[  5.73 -14.34  49.96], [140.8432900905609]
[  5.52 -14.15  50.07], [140.9974136352539]
[  5.8  -14.11  49.98], [141.15151023864746]
[  6.5  -13.76  50.01], [141.30471777915955]
[  6.8  -13.79  49.88], [141.4756360054016]
[  6.77 -13.5   50.1 ], [141.6282787322998]
[  6.76 -13.53  50.06], [141.7816779613495]
[  6.77 -13.54  50.09], [141.9357168674469]
[  7.6  -13.27  49.93], [142.0894114971161]
[  7.7  -13.43  49.83], [142.2547001838684]
[  8.51 -12.74  49.93], [142.40581512451172]
[  8.39 -12.67  50.01], [142.55665683746338]
[  8.69 -12.29  50.11], [142.70812249183655]
[  8.73 -12.37  50.08], [142.85740542411804]
[  8.68 -12.4   50.1 ], [143.00778794288635]
[  8.63 -12.4   50.1 ], [143.16258239746094]
[  8.6  -12.46  50.08], [143.3127806186676]
[  8.89 -12.23  50.02], [143.572438955307]
[  9.23 -11.78  50.2 ], [143.72602891921997]
[  9.3  -11.7   50.18], [143.87638807296753]
[  9.56 -11.45  50.16], [144.05822086334229]
[  9.76 -11.51  50.12], [144.20695757865906]
[  9.74 -11.42  50.12], [144.3576464653015]
[  9.96 -11.09  50.19], [144.55330848693848]
[ 10.21 -11.11  50.05], [144.7037959098816]
[ 10.72 -10.79  50.03], [144.88511610031128]
[ 10.69 -10.89  49.97], [145.036687374115]
[ 10.65 -10.83  50.04], [145.221204996109]
[ 11.15 -10.13  50.15], [145.37287139892578]
[ 10.97 -10.18  50.25], [145.52338099479675]
[ 11.19 -10.    50.2 ], [145.67489337921143]
[11.26 -9.77 50.26], [145.82602739334106]
[11.24 -9.63 50.31], [146.01604914665222]
[11.28 -9.55 50.31], [146.16805362701416]
[11.37 -9.31 50.3 ], [146.3193244934082]
[11.45 -9.05 50.33], [146.47137308120728]
[11.4  -8.97 50.37], [146.62145900726318]
[12.12 -8.45 50.29], [146.77485346794128]
[12.26 -8.47 50.17], [146.92433500289917]
[12.77 -7.97 50.15], [147.07528853416443]
[13.02 -8.15 49.93], [147.22794103622437]
[12.96 -8.2  49.98], [147.3824725151062]
[12.99 -8.15 50.02], [147.57285976409912]
[13.4  -7.43 50.08], [147.72882080078125]
[13.28 -7.34 50.14], [147.88183641433716]
[13.61 -6.69 50.08], [148.0353660583496]
[13.48 -6.58 50.2 ], [148.1892638206482]
[13.35 -6.52 50.23], [148.33900690078735]
[13.34 -6.53 50.27], [148.50655341148376]
[13.66 -5.99 50.25], [148.66077756881714]
[13.61 -5.94 50.3 ], [148.81319069862366]
[13.56 -5.94 50.32], [148.96557307243347]
[13.53 -5.67 50.31], [149.12058901786804]
[14.25 -5.19 50.09], [149.27812886238098]
[14.16 -5.23 50.11], [149.45992803573608]
[14.35 -5.02 50.13], [149.65054631233215]
[14.48 -4.65 50.1 ], [149.80474019050598]
[14.45 -4.67 50.12], [149.98734068870544]
[14.65 -3.94 50.19], [150.14278769493103]
[14.5  -3.87 50.23], [150.29655051231384]
[14.33 -3.41 50.28], [150.4535036087036]
[14.27 -3.28 50.32], [150.6072952747345]
[14.72 -3.05 50.07], [150.76397132873535]
[15.06 -2.67 49.98], [150.91701006889343]
[14.98 -2.71 50.01], [151.0717568397522]
[14.81 -2.57 50.11], [151.2257363796234]
[14.82 -2.54 50.12], [151.3803596496582]
[14.84 -2.38 50.13], [151.5381007194519]
[15.23 -1.64 49.95], [151.69214010238647]
[15.06 -1.67 50.05], [151.84667253494263]
[15.18 -1.44 50.04], [151.9989836215973]
[14.97 -1.34 50.16], [152.15398144721985]
[14.99 -1.31 50.13], [152.30961322784424]
[15.26 -0.68 50.06], [152.49096703529358]
[15.15 -0.75 50.1 ], [152.64840364456177]
[1.572e+01 3.000e-02 4.986e+01], [152.80404949188232]
[ 1.552e+01 -1.000e-02  4.997e+01], [152.95888018608093]
[15.29  0.12 50.05], [153.1137866973877]
[15.16  0.19 50.09], [153.2976574897766]
[14.92  0.62 50.23], [153.48257303237915]
[15.22  1.17 50.16], [153.67121076583862]
[15.06  1.23 50.28], [153.85450625419617]
[15.07  1.26 50.19], [154.0438151359558]
[14.96  1.39 50.17], [154.1947090625763]
[14.96  1.52 50.17], [154.36527395248413]
[15.22  2.67 50.02], [154.52034401893616]
[14.91  2.58 50.18], [154.675062417984]
[14.82  2.68 50.12], [154.82919120788574]
[14.83  2.71 50.15], [154.9805839061737]
[14.79  2.81 50.14], [155.13219738006592]
[14.54  3.23 50.24], [155.28599762916565]
[14.98  3.71 49.93], [155.4736979007721]
[14.86  3.86 50.02], [155.62358403205872]
[14.7   4.01 50.07], [155.79998922348022]
[14.19  4.53 50.23], [155.95251369476318]
[14.21  4.56 50.17], [156.10631322860718]
[14.17  4.54 50.16], [156.28361821174622]
[14.25  5.   50.06], [156.4512119293213]
[14.17  5.14 49.93], [156.60286164283752]
[14.2   5.18 50.03], [156.75613045692444]
[13.73  5.63 50.21], [156.90805745124817]
[14.29  6.35 50.01], [157.0602903366089]
[13.74  6.42 50.18], [157.21231603622437]
[13.6   6.42 50.16], [157.36329555511475]
[13.61  6.91 50.16], [157.5149781703949]
[13.31  7.03 50.2 ], [157.69669127464294]
[13.31  7.06 50.14], [157.84871220588684]
[13.18  7.1  50.16], [157.99930906295776]
[13.    7.14 50.2 ], [158.1524157524109]
[12.69  7.4  50.25], [158.33774709701538]
[12.96  7.7  50.03], [158.49138879776]
[12.76  8.01 50.03], [158.64520168304443]
[12.55  8.2  50.13], [158.79804635047913]
[12.57  8.41 50.06], [158.94973349571228]
[12.39  8.43 50.07], [159.149582862854]
[12.46  8.4  50.11], [159.3005485534668]
[12.26  8.65 50.11], [159.45304608345032]
[12.09  8.71 49.99], [159.60501623153687]
[12.28  9.05 49.96], [159.76220178604126]
[12.33  9.18 50.02], [159.91294384002686]
[12.23  9.17 50.02], [160.06549978256226]
[11.92  9.44 50.01], [160.22316479682922]
[11.79  9.69 50.01], [160.4125576019287]
[11.74  9.75 50.01], [160.57850623130798]
[11.97 10.49 49.9 ], [160.7392168045044]
[11.44 10.5  49.96], [160.89449071884155]
[11.41 10.55 49.96], [161.05577278137207]
[10.87 10.79 50.18], [161.21509194374084]
[10.74 10.79 50.17], [161.37378311157227]
[10.7  10.78 50.14], [161.5273153781891]
[10.63 10.9  50.05], [161.6846878528595]
[10.42 11.07 50.2 ], [161.8587508201599]
[10.29 11.22 50.1 ], [162.03877019882202]
[ 9.81 11.55 49.96], [162.20088720321655]
[ 9.64 11.85 50.05], [162.35588121414185]
[ 9.59 12.32 49.98], [162.5059847831726]
[ 9.37 12.3  50.09], [162.66038823127747]
[ 8.85 12.52 50.29], [162.81881618499756]
