[3.964, 10.011, -5.376]::0
[3.964, 10.011, -5.376]::0.52
[3.964, 10.011, -5.376]::0.52
[3.964, 10.011, -5.376]::0.26
[3.964, 10.011, -5.376]::0.26
[3.964, 10.011, -5.376]::0.52
[3.964, 10.011, -5.376]::0.52
[3.964, 10.011, -5.376]::0.26
[3.973, 10.009, -5.376]::0.26
[3.973, 10.017, -5.374]::0.0
[3.973, 10.017, -5.374]::0.26
[3.974, 10.017, -5.374]::0.0
[3.975, 10.008, -5.376]::1.04
[3.974, 10.015, -5.374]::0.26
[3.975, 10.015, -5.374]::0.52
[3.975, 10.014, -5.374]::0.26
[3.976, 10.003, -5.377]::1.56
[3.979, 9.948, -5.39]::6.26
[4.006, 9.517, -5.458]::28.15
[3.96, 7.194, -4.787]::102.95
[3.908, 6.621, -4.17]::118.33
[3.947, 6.947, -4.556]::97.74
[3.914, 6.673, -4.255]::109.99
[3.835, 6.118, -3.263]::140.48
[3.84, 5.937, -2.416]::167.33
[3.837, 5.933, -2.41]::163.42
[3.824, 5.943, -2.559]::153.78
[3.815, 5.952, -2.639]::149.09
[3.811, 5.944, -2.591]::151.17
[3.806, 5.953, -2.659]::147.0
[3.802, 5.957, -2.688]::145.44
[3.799, 5.955, -2.68]::145.7
[3.801, 5.935, -2.529]::153.52
[3.799, 5.933, -2.523]::152.73
[3.796, 5.936, -2.552]::150.91
[3.793, 5.939, -2.583]::149.09
[3.793, 5.939, -2.582]::148.56
[3.794, 5.932, -2.52]::151.95
[3.792, 5.93, -2.505]::152.47
[3.791, 5.93, -2.513]::151.69
[3.789, 5.934, -2.55]::149.61
[3.779, 5.985, -2.852]::136.31
[3.781, 6.067, -3.142]::125.11
[3.777, 6.035, -3.051]::129.54
[3.776, 5.974, -2.81]::140.74
[3.775, 5.973, -2.807]::140.22
[3.774, 5.979, -2.829]::138.92
[3.774, 5.994, -2.895]::135.53
[3.774, 5.996, -2.904]::135.27
[3.773, 5.973, -2.808]::139.96
[3.772, 5.972, -2.804]::140.22
[3.771, 5.996, -2.895]::136.57
[3.776, 6.062, -3.128]::125.89
[3.777, 6.065, -3.135]::126.15
[3.775, 6.048, -3.084]::128.76
[3.776, 6.049, -3.086]::128.49
[3.776, 6.052, -3.098]::127.71
[3.78, 6.085, -3.191]::124.06
[3.78, 6.095, -3.218]::123.28
[3.783, 6.119, -3.283]::120.94
[3.785, 6.126, -3.301]::120.68
[3.786, 6.13, -3.311]::120.68
[3.786, 6.134, -3.321]::120.15
[3.787, 6.139, -3.332]::119.89
[3.788, 6.143, -3.344]::119.63
[3.789, 6.148, -3.355]::119.11
[3.789, 6.154, -3.368]::118.59
[3.79, 6.159, -3.38]::118.59
[3.791, 6.163, -3.391]::118.07
[3.792, 6.168, -3.403]::117.55
[3.793, 6.177, -3.42]::117.29
[3.809, 6.294, -3.666]::108.69
[3.821, 6.374, -3.815]::104.52
[3.82, 6.357, -3.786]::106.6
[3.82, 6.359, -3.789]::106.6
[3.822, 6.364, -3.797]::106.34
[3.823, 6.37, -3.807]::106.08
[3.824, 6.376, -3.818]::105.82
[3.826, 6.382, -3.828]::105.56
[3.827, 6.393, -3.845]::105.04
[3.854, 6.588, -4.146]::95.13
[3.875, 6.746, -4.352]::89.14
[3.881, 6.778, -4.39]::88.62
[3.882, 6.778, -4.389]::89.4
[3.875, 6.7, -4.297]::93.83
[3.859, 6.583, -4.141]::99.82
[3.856, 6.562, -4.11]::100.35
[3.856, 6.564, -4.114]::100.09
[3.857, 6.571, -4.124]::99.3
[3.858, 6.579, -4.135]::98.78
[3.862, 6.614, -4.181]::97.22
[3.89, 6.853, -4.471]::85.75
[3.909, 7.021, -4.643]::80.54
[3.914, 7.049, -4.67]::80.28
[3.916, 7.056, -4.675]::80.54
[3.931, 7.21, -4.805]::75.06
[3.935, 7.234, -4.824]::75.32
[3.936, 7.233, -4.823]::75.85
[3.937, 7.242, -4.83]::75.59
[3.939, 7.251, -4.837]::75.59
[3.94, 7.261, -4.844]::75.32
[3.941, 7.271, -4.851]::75.06
[3.942, 7.281, -4.859]::74.8
[3.944, 7.29, -4.866]::74.8
[3.944, 7.293, -4.868]::74.8
[3.945, 7.304, -4.875]::74.8
[3.964, 7.562, -5.046]::65.94
[3.967, 7.603, -5.07]::65.68
[3.969, 7.612, -5.075]::65.94
[3.97, 7.622, -5.08]::65.94
[3.971, 7.63, -5.085]::65.94
[3.973, 7.64, -5.089]::65.68
[3.974, 7.647, -5.094]::65.42
[3.974, 7.651, -5.096]::65.42
[3.975, 7.659, -5.1]::65.16
[3.976, 7.67, -5.106]::65.16
[3.977, 7.675, -5.109]::64.9
[3.979, 7.682, -5.112]::64.9
[3.978, 7.692, -5.117]::64.38
[3.98, 7.71, -5.126]::63.86
[3.994, 7.949, -5.236]::56.3
[4.006, 8.246, -5.34]::47.96
[4.013, 8.406, -5.383]::44.05
[4.015, 8.446, -5.392]::44.05
[4.018, 8.514, -5.406]::41.96
[4.02, 8.57, -5.417]::40.66
[4.021, 8.593, -5.421]::40.66
[4.022, 8.604, -5.423]::40.4
[4.023, 8.614, -5.424]::40.4
[4.024, 8.622, -5.425]::40.66
[4.025, 8.634, -5.427]::40.14
[4.026, 8.737, -5.442]::36.49
[4.01, 9.048, -5.47]::26.85
[4.012, 9.259, -5.472]::20.07
[4.006, 9.398, -5.466]::15.9
[4.002, 9.48, -5.46]::13.81
[3.998, 9.534, -5.456]::12.77
[3.999, 9.572, -5.451]::11.47
[3.999, 9.603, -5.448]::10.43
[3.999, 9.628, -5.444]::9.9
[3.999, 9.649, -5.442]::9.38
[3.999, 9.666, -5.439]::8.6
[3.993, 9.686, -5.437]::8.34
[3.993, 9.699, -5.435]::8.08
[3.993, 9.71, -5.433]::8.08
[3.993, 9.719, -5.432]::7.56
[3.993, 9.727, -5.431]::7.3
[3.989, 9.741, -5.429]::7.04
[3.987, 9.754, -5.427]::6.52
[3.983, 9.888, -5.405]::0.78
[3.98, 9.904, -5.4]::0.0
[3.98, 9.914, -5.397]::0.0
[3.978, 9.922, -5.396]::0.26
[3.977, 9.927, -5.395]::0.0
[3.978, 9.925, -5.395]::0.52
[3.975, 9.924, -5.396]::0.78
[3.975, 9.929, -5.395]::0.78
[3.977, 9.929, -5.394]::0.78
[3.98, 9.929, -5.394]::0.78
[3.98, 9.931, -5.393]::0.78
[3.979, 9.932, -5.394]::0.78
[3.98, 9.934, -5.393]::0.52
[3.98, 9.935, -5.393]::0.78
[3.98, 9.937, -5.392]::0.78
[3.98, 9.938, -5.392]::0.78
[3.98, 9.939, -5.392]::0.52
[3.98, 9.94, -5.391]::0.78
[3.981, 9.941, -5.391]::0.78
[3.98, 9.943, -5.391]::0.52
[3.975, 9.949, -5.39]::0.52
[3.981, 9.945, -5.39]::0.78
[3.978, 9.946, -5.39]::0.52
[3.978, 9.948, -5.39]::0.52
[3.978, 9.949, -5.39]::0.52
[3.977, 9.95, -5.39]::0.78
[3.977, 9.951, -5.389]::1.04
[3.978, 9.952, -5.389]::0.78
[3.978, 9.952, -5.389]::0.78
[3.978, 9.953, -5.389]::0.78
[3.978, 9.954, -5.389]::0.78
[3.978, 9.955, -5.388]::0.52
[3.978, 9.956, -5.388]::0.52
[3.978, 9.956, -5.388]::0.78
[3.978, 9.957, -5.388]::0.78
[3.978, 9.958, -5.388]::0.52
[3.978, 9.959, -5.387]::0.78
[3.979, 9.96, -5.387]::0.78
[3.975, 9.962, -5.387]::0.78
[3.977, 9.962, -5.387]::0.78
[3.976, 9.964, -5.387]::0.78
