[3.582, 10.1, -5.413]::0
[3.582, 10.101, -5.413]::-0.26
[3.582, 10.1, -5.413]::-0.26
[3.581, 10.1, -5.413]::-0.26
[3.582, 10.1, -5.413]::-0.26
[3.582, 10.1, -5.413]::-0.26
[3.582, 10.1, -5.413]::-0.26
[3.582, 10.1, -5.413]::-0.26
[3.581, 10.1, -5.413]::-0.26
[3.582, 10.1, -5.413]::-0.26
[3.582, 10.1, -5.413]::-0.26
[3.582, 10.1, -5.413]::0.0
[3.582, 10.1, -5.413]::-0.26
[3.582, 10.1, -5.413]::-0.26
[3.582, 10.1, -5.413]::-0.26
[3.582, 10.101, -5.413]::-0.26
[3.676, 10.105, -5.314]::-0.26
[3.669, 10.094, -5.336]::0.0
[3.669, 10.094, -5.336]::-0.52
[3.672, 10.1, -5.329]::-0.26
[3.674, 10.137, -5.318]::-3.91
[3.677, 10.395, -5.233]::-7.04
[3.679, 10.449, -5.214]::-6.78
[3.684, 10.403, -5.232]::-6.78
[3.685, 10.372, -5.244]::-6.78
[3.687, 10.344, -5.251]::-7.04
[3.691, 10.322, -5.259]::-7.04
[3.691, 10.307, -5.264]::-7.04
[3.692, 10.291, -5.27]::-7.04
[3.691, 10.277, -5.275]::-7.04
[3.692, 10.266, -5.278]::-6.78
[3.692, 10.257, -5.28]::-6.52
[3.693, 10.249, -5.283]::-6.52
[3.692, 10.244, -5.285]::-5.99
[3.701, 10.236, -5.287]::-5.99
[3.7, 10.246, -5.283]::-6.52
[3.709, 10.148, -5.312]::-0.52
[3.705, 10.142, -5.315]::-0.26
[3.705, 10.14, -5.315]::-0.26
[3.705, 10.139, -5.316]::-0.26
[3.705, 10.137, -5.316]::-0.26
[3.706, 10.136, -5.316]::-0.26
[3.706, 10.136, -5.316]::-0.26
[3.705, 10.133, -5.317]::0.0
[3.705, 10.131, -5.318]::0.0
[3.706, 10.137, -5.316]::-1.04
[3.707, 10.138, -5.315]::-1.3
[3.708, 10.135, -5.316]::-0.78
[3.708, 10.139, -5.315]::-1.3
[3.708, 10.138, -5.316]::-1.04
[3.704, 10.129, -5.318]::0.0
[3.712, 10.099, -5.326]::2.61
[3.71, 10.1, -5.326]::2.09
[3.716, 9.947, -5.366]::12.25
[3.725, 9.375, -5.448]::40.14
[3.716, 8.893, -5.443]::55.52
[3.673, 8.385, -5.362]::70.37
[3.647, 8.161, -5.3]::74.54
[3.627, 7.863, -5.185]::81.84
[3.615, 7.735, -5.126]::83.4
[3.596, 7.561, -5.033]::87.31
[3.542, 7.169, -4.755]::99.3
[3.496, 6.787, -4.379]::111.29
[3.483, 6.672, -4.237]::113.12
[3.48, 6.631, -4.188]::112.86
[3.475, 6.6, -4.145]::112.86
[3.477, 6.612, -4.163]::111.03
[3.479, 6.632, -4.191]::108.95
[3.477, 6.635, -4.194]::108.43
[3.476, 6.636, -4.196]::107.9
[3.475, 6.639, -4.199]::107.38
[3.475, 6.651, -4.215]::106.34
[3.48, 6.692, -4.264]::104.26
[3.607, 7.627, -5.078]::66.98
[3.659, 8.077, -5.28]::55.26
[3.694, 8.417, -5.379]::45.87
[3.714, 8.65, -5.423]::39.88
[3.724, 8.86, -5.448]::34.14
[3.732, 9.051, -5.459]::28.67
[3.737, 9.231, -5.46]::23.2
[3.738, 9.211, -5.461]::25.02
[3.667, 8.144, -5.304]::66.72
[3.564, 7.203, -4.792]::95.91
[3.481, 6.638, -4.198]::114.42
[3.429, 6.368, -3.771]::125.11
[3.399, 6.2, -3.451]::132.93
[3.391, 6.163, -3.376]::133.19
[3.392, 6.177, -3.407]::130.06
[3.403, 6.231, -3.531]::123.8
[3.403, 6.248, -3.566]::122.24
[3.404, 6.269, -3.606]::120.41
[3.399, 6.259, -3.586]::121.46
[3.399, 6.268, -3.603]::120.15
[3.402, 6.3, -3.663]::117.55
[3.409, 6.329, -3.721]::115.46
[3.411, 6.349, -3.757]::114.16
[3.413, 6.37, -3.794]::112.86
[3.418, 6.404, -3.852]::110.51
[3.424, 6.444, -3.916]::108.43
[3.425, 6.454, -3.932]::108.16
[3.432, 6.49, -3.992]::105.82
[3.443, 6.561, -4.088]::102.95
[3.55, 7.292, -4.859]::74.02
[3.651, 8.136, -5.303]::49.78
[3.702, 8.678, -5.431]::34.66
[3.709, 8.957, -5.459]::27.89
[3.728, 9.132, -5.464]::23.46
[3.731, 9.267, -5.462]::19.81
[3.736, 9.362, -5.457]::17.2
[3.729, 9.415, -5.454]::16.16
[3.731, 9.404, -5.456]::17.2
[3.591, 7.295, -4.88]::92.01
[3.39, 5.937, -2.728]::160.55
[3.458, 5.892, -2.106]::179.84
[3.43, 5.884, -2.315]::163.42
[3.414, 5.888, -2.433]::155.86
[3.402, 5.894, -2.513]::151.43
[3.394, 5.899, -2.566]::148.3
[3.39, 5.9, -2.577]::147.52
[3.386, 5.902, -2.593]::146.48
[3.38, 5.913, -2.661]::143.61
[3.374, 5.929, -2.744]::139.96
[3.371, 5.943, -2.809]::137.36
[3.368, 5.964, -2.89]::133.97
[3.367, 5.971, -2.916]::133.45
[3.366, 5.974, -2.929]::132.93
[3.366, 5.977, -2.937]::132.66
[3.365, 5.985, -2.964]::131.62
[3.365, 5.997, -3.003]::130.06
[3.365, 6.007, -3.034]::128.76
[3.366, 6.022, -3.077]::127.19
[3.366, 6.028, -3.095]::126.67
[3.366, 6.036, -3.118]::125.89
[3.366, 6.042, -3.133]::125.37
[3.367, 6.046, -3.145]::125.11
[3.369, 6.071, -3.207]::122.76
[3.438, 6.464, -3.969]::97.74
[3.448, 6.519, -4.058]::97.48
[3.449, 6.514, -4.05]::98.52
[3.45, 6.511, -4.044]::99.3
[3.451, 6.513, -4.047]::99.3
[3.568, 7.308, -4.888]::68.03
[3.557, 7.209, -4.813]::76.11
[3.558, 7.2, -4.804]::77.15
[3.56, 7.204, -4.807]::77.41
[3.563, 7.212, -4.814]::77.15
[3.565, 7.219, -4.819]::76.89
[3.422, 6.309, -3.705]::120.15
[3.439, 6.419, -3.875]::111.03
[3.586, 7.417, -4.962]::66.72
[3.596, 7.478, -5.002]::67.24
[3.597, 7.464, -4.993]::69.07
[3.609, 7.558, -5.047]::66.2
[3.664, 8.064, -5.285]::50.56
[3.675, 8.168, -5.32]::49.26
[3.68, 8.199, -5.328]::49.26
[3.684, 8.22, -5.334]::49.26
[3.688, 8.249, -5.342]::48.74
[3.706, 8.476, -5.398]::41.44
[3.721, 8.826, -5.451]::31.02
[3.726, 9.03, -5.465]::25.28
[3.733, 9.136, -5.466]::22.68
[3.735, 9.267, -5.465]::18.77
[3.74, 9.366, -5.46]::15.9
[3.741, 9.435, -5.455]::13.81
[3.743, 9.481, -5.45]::12.51
[3.744, 9.519, -5.446]::11.73
[3.744, 9.544, -5.443]::10.95
[3.743, 9.567, -5.441]::10.43
[3.742, 9.592, -5.438]::9.64
[3.739, 9.622, -5.434]::9.12
[3.739, 9.645, -5.431]::8.08
[3.742, 9.833, -5.399]::4.69
[3.741, 9.854, -5.395]::-0.26
[3.742, 9.86, -5.394]::0.26
[3.741, 9.862, -5.393]::0.52
[3.739, 9.865, -5.393]::0.78
[3.742, 9.879, -5.389]::0.26
[3.745, 9.921, -5.38]::-2.09
[3.74, 10.152, -5.32]::-7.04
[3.742, 10.085, -5.339]::-7.04
[3.744, 9.456, -5.453]::25.28
[3.655, 7.983, -5.249]::75.06
[3.6, 7.339, -4.897]::91.22
[3.583, 7.153, -4.754]::94.35
[3.586, 7.156, -4.759]::91.48
[3.413, 6.157, -3.395]::137.1
[3.405, 6.049, -3.126]::140.48
[3.406, 6.073, -3.192]::135.01
[3.578, 7.142, -4.757]::76.89
[3.577, 7.185, -4.791]::79.23
[3.701, 8.453, -5.394]::39.88
[3.577, 7.203, -4.812]::88.62
[3.388, 6.048, -3.212]::136.57
[3.392, 5.982, -2.915]::143.61
[3.553, 6.912, -4.536]::84.19
[3.575, 7.178, -4.786]::77.41
[3.651, 7.852, -5.2]::56.56
[3.67, 8.043, -5.278]::53.43
[3.676, 8.074, -5.288]::53.69
[3.686, 8.189, -5.323]::50.82
[3.721, 8.781, -5.447]::32.32
[3.729, 8.921, -5.459]::29.45
[3.657, 7.925, -5.241]::65.42
[3.471, 6.495, -4.1]::107.64
[3.477, 6.632, -4.107]::113.12
[3.566, 6.996, -4.697]::79.76
[3.419, 6.22, -3.517]::127.45
[3.672, 8.114, -5.303]::49.0
[3.687, 8.278, -5.352]::47.18
[3.69, 8.288, -5.354]::48.48
[3.692, 8.293, -5.355]::49.0
[3.694, 8.299, -5.356]::49.0
[3.696, 8.306, -5.358]::49.26
[3.697, 8.314, -5.36]::49.0
[3.699, 8.322, -5.362]::49.0
[3.697, 8.27, -5.351]::49.78
[3.402, 6.111, -3.296]::139.7
[3.398, 5.93, -2.709]::155.34
[3.394, 5.924, -2.691]::151.95
[3.385, 5.959, -2.85]::142.57
[3.381, 6.01, -3.028]::133.97
[3.379, 6.035, -3.103]::130.84
[3.475, 6.643, -4.202]::93.83
[3.654, 8.114, -5.304]::47.18
[3.712, 8.767, -5.448]::29.97
[3.719, 9.036, -5.467]::23.72
[3.732, 9.193, -5.468]::19.81
[3.739, 9.319, -5.463]::16.42
[3.739, 9.415, -5.457]::13.81
[3.743, 9.481, -5.451]::11.99
[3.744, 9.536, -5.445]::10.69
[3.744, 9.794, -5.405]::7.04
[3.737, 9.831, -5.401]::-0.26
[3.738, 9.847, -5.397]::0.0
[3.74, 9.855, -5.395]::-0.26
[3.741, 9.861, -5.394]::0.0
