[ 0.  0. 50.], [20.80703091621399]
[ 1.  0. 50.], [22.10953998565674]
[ 2.  0. 50.], [22.730173587799072]
[ 3.  0. 50.], [23.924578189849854]
[ 4.  0. 50.], [24.123559951782227]
[ 5.  0. 50.], [24.277673721313477]
[ 6.  0. 50.], [24.434452295303345]
[ 7.  0. 50.], [24.58857226371765]
[ 8.  0. 50.], [24.745667219161987]
[ 9.  0. 50.], [24.89945888519287]
[10.  0. 50.], [25.052882432937622]
[10. 11. 50.], [25.226638078689575]
[ 4. 11. 50.], [25.38544726371765]
[-2.5 11.  50. ], [25.545273542404175]
[-9.5 11.  50. ], [25.69942021369934]
[-17.  11.  50.], [25.854629278182983]
[-25.  11.  50.], [26.00990653038025]
[-33.5  11.   50. ], [26.169630765914917]
[-42.5  11.   50. ], [26.327210664749146]
[-52.  11.  50.], [26.48514723777771]
[-62.  11.  50.], [26.65676522254944]
[-62.    0.5  50. ], [26.83785319328308]
[-51.    0.5  50. ], [27.022075176239014]
[-51.  12.  50.], [27.203931093215942]
[-63.  12.  50.], [27.391630172729492]
[-63.   -0.5  50. ], [27.57719850540161]
[-50.   -0.5  50. ], [27.793653964996338]
[-50.  13.  50.], [27.956406354904175]
[-64.  13.  50.], [28.118494987487793]
[-64.   -1.5  50. ], [28.306966066360474]
[-49.   -1.5  50. ], [28.467550039291382]
[-49.  14.  50.], [28.621760368347168]
[-65.  14.  50.], [28.793532133102417]
[-65.   -2.5  50. ], [28.97026300430298]
[-48.   -2.5  50. ], [29.130592823028564]
[-48.  15.  50.], [29.28871488571167]
[-66.  15.  50.], [29.44540238380432]
