[0. 0. 0.], [20.80682873725891]
[-1.000e-02 -5.000e-02  4.996e+01], [22.109255075454712]
[-1.000e-02 -5.000e-02  4.996e+01], [22.72925615310669]
[-2.000e-02 -4.000e-02  4.996e+01], [23.92376136779785]
[-3.000e-02 -7.000e-02  4.996e+01], [24.123432397842407]
[-2.000e-02 -6.000e-02  4.998e+01], [24.277445316314697]
[ 0.56  0.   50.12], [24.434094429016113]
[5.600e-01 3.000e-02 5.007e+01], [24.58837389945984]
[ 1.08 -0.19 50.07], [24.745397567749023]
[ 1.5  -0.44 50.13], [24.89918279647827]
[ 2.51 -0.29 50.21], [25.052634716033936]
[ 2.91 -0.31 50.37], [25.226287126541138]
[ 3.35 -0.38 50.42], [25.385175466537476]
[ 4.12 -0.46 50.51], [25.54499840736389]
[ 5.94  1.54 50.4 ], [25.699119567871094]
[ 5.74  1.27 50.47], [25.85445284843445]
[ 4.51  2.35 50.52], [26.009644269943237]
[ 2.69  3.09 50.66], [26.169381380081177]
[ 0.52  5.32 51.28], [26.326939344406128]
[-3.04  7.85 51.51], [26.484909534454346]
[-12.28  10.45  50.1 ], [26.656545877456665]
[-29.7   13.85  38.85], [26.837576866149902]
[-40.05  11.64  11.49], [27.02183961868286]
[-41.38   6.76  11.62], [27.203731536865234]
[-41.6    4.55  12.01], [27.39135980606079]
[-40.82   8.51  11.62], [27.576990604400635]
[-42.09  10.22  13.25], [27.79345178604126]
[-42.4   13.12  15.44], [27.956249237060547]
[-45.56  10.05  21.1 ], [28.11827778816223]
[-47.77   4.78  28.1 ], [28.306706428527832]
[-42.78   4.35  46.3 ], [28.467329740524292]
[-43.64  -2.76  48.19], [28.621533632278442]
[-39.26   6.34  53.54], [28.79324460029602]
[-38.15  -7.46  52.68], [28.970046043395996]
[-34.81   1.38  62.27], [29.130356311798096]
[-0.87 18.49 81.71], [29.28847622871399]
[  4.84 -17.52  82.14], [29.445152521133423]
