[50.  0.  0.], [8.410686731338501]
[5.00000000e+01 2.18338492e-15 1.99784412e-17], [8.889981031417847]
[ 5.00000000e+01  4.57245481e-15 -3.59963446e-17], [8.938359260559082]
[5.00000000e+01 6.64358734e-15 3.79534268e-17], [8.980376958847046]
[5.00000000e+01 7.91544440e-15 7.74305776e-17], [9.02096152305603]
[5.00000000e+01 8.51265695e-15 1.46961900e-16], [9.062094688415527]
[5.00000000e+01 9.23116111e-15 1.52996644e-16], [9.102999925613403]
[ 5.00000000e+01  1.02697486e-14 -3.19939778e-16], [9.142643690109253]
[ 5.00000000e+01  1.13504892e-14 -7.66196184e-16], [9.187933206558228]
[ 5.00000000e+01  1.22322568e-14 -9.31808301e-16], [9.242606163024902]
[ 5.00000000e+01  1.17751971e-14 -8.75815813e-16], [9.285947322845459]
[ 5.00000000e+01  1.20110946e-14 -7.73738725e-16], [9.327969312667847]
[ 5.00000000e+01  1.24804275e-14 -4.22982818e-16], [9.36875057220459]
[5.00000000e+01 1.28559170e-14 4.45410793e-16], [9.40841269493103]
[5.00000000e+01 1.31398729e-14 6.44559056e-16], [9.450153589248657]
[5.00000000e+01 1.33890870e-14 9.73939425e-16], [9.491167783737183]
[5.00000000e+01 1.30676597e-14 1.53348602e-15], [9.5316641330719]
[5.00000000e+01 1.31036174e-14 1.57342745e-15], [9.573790550231934]
[5.00000000e+01 1.43421866e-14 1.65208129e-15], [9.614628553390503]
[5.00000000e+01 1.50770696e-14 1.57871278e-15], [9.655875444412231]
[5.00000000e+01 1.64787297e-14 1.60623205e-15], [9.698164224624634]
[5.00000000e+01 1.75536868e-14 2.44363640e-15], [9.73819613456726]
[5.00000000e+01 1.81238674e-14 2.34673988e-15], [9.77922797203064]
[5.00000000e+01 1.88719188e-14 2.25722485e-15], [9.821851015090942]
[ 5.00556777e+01 -7.60138143e-09 -4.28657922e-01], [9.875502109527588]
[ 5.00923938e+01 -5.25358104e-08 -8.27988308e-01], [9.919913053512573]
[ 5.01160089e+01 -1.66674401e-07 -1.13967253e+00], [9.96389126777649]
[ 5.01315226e+01 -3.27925051e-07 -1.37248457e+00], [10.00504755973816]
[ 5.01420118e+01 -4.95449911e-07 -1.54423195e+00], [10.048273801803589]
[ 5.01492968e+01 -6.36196106e-07 -1.67048971e+00], [10.09045696258545]
[ 5.01544719e+01 -7.32512760e-07 -1.76323023e+00], [10.130528450012207]
[ 5.01582151e+01 -7.80089523e-07 -1.83135031e+00], [10.170462608337402]
[ 5.01609604e+01 -7.83220214e-07 -1.88139758e+00], [10.212288618087769]
[ 5.01629948e+01 -7.50481384e-07 -1.91817793e+00], [10.254021406173706]
[ 5.01645138e+01 -6.91695812e-07 -1.94521687e+00], [10.29455828666687]
[ 5.01656539e+01 -6.16134408e-07 -1.96510086e+00], [10.336949110031128]
[ 5.01665128e+01 -5.31637270e-07 -1.97972794e+00], [10.377456426620483]
[ 5.01671614e+01 -4.44327267e-07 -1.99049139e+00], [10.418051481246948]
[ 5.01676521e+01 -3.58662494e-07 -1.99841433e+00], [10.459898948669434]
[ 5.01680236e+01 -2.77654220e-07 -2.00424825e+00], [10.500089645385742]
[ 5.01683050e+01 -2.03143879e-07 -2.00854538e+00], [10.540797710418701]
[ 5.01685182e+01 -1.36078961e-07 -2.01171158e+00], [10.584542989730835]
[ 5.01686797e+01 -7.67580074e-08 -2.01404525e+00], [10.624955415725708]
[ 5.01688021e+01 -2.50329517e-08 -2.01576590e+00], [10.6664879322052]
[ 5.01688948e+01  1.95314543e-08 -2.01703497e+00], [10.707899332046509]
[ 5.01689650e+01  5.75375112e-08 -2.01797130e+00], [10.748353958129883]
[ 5.01690181e+01  8.96677779e-08 -2.01866237e+00], [10.789313554763794]
[ 5.01690583e+01  1.16624846e-07 -2.01917260e+00], [10.831026315689087]
[ 5.01690887e+01  1.39091072e-07 -2.01954944e+00], [10.871912002563477]
[ 5.01691117e+01  1.57704435e-07 -2.01982787e+00], [10.912504196166992]
[ 5.01691291e+01  1.73044648e-07 -2.02003366e+00], [10.953758478164673]
[ 5.01691422e+01  1.85627814e-07 -2.02018581e+00], [10.994988679885864]
[ 5.01691521e+01  1.95905879e-07 -2.02029834e+00], [11.037734985351562]
[ 5.01691596e+01  2.04268816e-07 -2.02038161e+00], [11.080899238586426]
[ 5.01691652e+01  2.11049531e-07 -2.02044324e+00], [11.121583223342896]
[ 5.01691695e+01  2.16530011e-07 -2.02048887e+00], [11.161649703979492]
[ 5.01691727e+01  2.20946632e-07 -2.02052267e+00], [11.20436716079712]
[ 5.01691751e+01  2.24496163e-07 -2.02054772e+00], [11.245519638061523]
[ 5.01691770e+01  2.27341730e-07 -2.02056628e+00], [11.291149616241455]
[ 5.01691783e+01  2.29617637e-07 -2.02058005e+00], [11.332025051116943]
[ 5.01691794e+01  2.31434058e-07 -2.02059026e+00], [11.372912645339966]
[ 5.01691802e+01  2.32880903e-07 -2.02059784e+00], [11.412786483764648]
[ 5.01691808e+01  2.34031089e-07 -2.02060347e+00], [11.454949617385864]
[ 5.01691812e+01  2.34943959e-07 -2.02060764e+00], [11.496061325073242]
[ 5.01691815e+01  2.35667329e-07 -2.02061075e+00], [11.536178827285767]
[ 5.01691818e+01  2.36239574e-07 -2.02061306e+00], [11.578227758407593]
[ 5.01691820e+01  2.36691691e-07 -2.02061477e+00], [11.629490852355957]
[ 5.01691821e+01  2.37048292e-07 -2.02061605e+00], [11.672958612442017]
[ 5.01691822e+01  2.37329272e-07 -2.02061699e+00], [11.717675685882568]
[ 5.01691823e+01  2.37550480e-07 -2.02061770e+00], [11.762905836105347]
[ 5.01691824e+01  2.37724368e-07 -2.02061823e+00], [11.80486798286438]
[ 5.01691824e+01  2.37860791e-07 -2.02061862e+00], [11.858415603637695]
[ 5.01691824e+01  2.37967878e-07 -2.02061891e+00], [11.905886173248291]
[ 5.01691825e+01  2.38051731e-07 -2.02061913e+00], [11.951425790786743]
[ 5.01691825e+01  2.38117448e-07 -2.02061929e+00], [11.99489712715149]
[ 5.01691825e+01  2.38168872e-07 -2.02061941e+00], [12.044436693191528]
[ 5.01691825e+01  2.38208991e-07 -2.02061950e+00], [12.090325355529785]
[ 5.01691825e+01  2.38240334e-07 -2.02061957e+00], [12.135502338409424]
[ 5.01691825e+01  2.38264726e-07 -2.02061962e+00], [12.18437910079956]
[ 5.01691825e+01  2.38283772e-07 -2.02061966e+00], [12.235588550567627]
[ 5.01691825e+01  2.38298610e-07 -2.02061968e+00], [12.285062074661255]
[ 5.01691825e+01  2.38310147e-07 -2.02061970e+00], [12.329329013824463]
[ 5.01691825e+01  2.38319107e-07 -2.02061972e+00], [12.379648923873901]
[ 5.01691825e+01  2.38326057e-07 -2.02061973e+00], [12.426572322845459]
[ 5.01691825e+01  2.38331476e-07 -2.02061974e+00], [12.47115182876587]
[ 5.01691825e+01  2.38335679e-07 -2.02061975e+00], [12.516806602478027]
[ 5.01691825e+01  2.38338899e-07 -2.02061975e+00], [12.557854175567627]
[ 5.01691825e+01  2.38341419e-07 -2.02061976e+00], [12.602406740188599]
[ 5.01691825e+01  2.38343445e-07 -2.02061976e+00], [12.64451813697815]
[ 5.01691825e+01  2.38344856e-07 -2.02061976e+00], [12.691134452819824]
[ 5.01691825e+01  2.38346163e-07 -2.02061976e+00], [12.734442710876465]
[ 5.01691825e+01  2.38347106e-07 -2.02061976e+00], [12.775724649429321]
[ 5.01691825e+01  2.38347858e-07 -2.02061976e+00], [12.817720651626587]
[ 5.01691825e+01  2.38348372e-07 -2.02061976e+00], [12.858513116836548]
[ 5.01691825e+01  2.38348736e-07 -2.02061976e+00], [12.90036940574646]
[ 5.01691825e+01  2.38349054e-07 -2.02061977e+00], [12.94097089767456]
[ 5.01691825e+01  2.38349411e-07 -2.02061977e+00], [12.98406434059143]
[ 5.02015376e+01 -5.45543096e-07 -2.44996914e+00], [13.031989097595215]
[ 5.02170208e+01 -1.56817595e-06 -2.84866517e+00], [13.074563264846802]
[ 5.02241693e+01 -2.61976538e-06 -3.15949582e+00], [13.117313146591187]
[ 5.02273970e+01 -3.52568659e-06 -3.39172363e+00], [13.159684419631958]
[ 5.02288034e+01 -4.17735945e-06 -3.56328153e+00], [13.200424909591675]
[ 5.02293790e+01 -4.53741277e-06 -3.68971169e+00], [13.244987487792969]
[ 5.02295901e+01 -4.62107960e-06 -3.78290013e+00], [13.28687334060669]
[ 5.02296525e+01 -4.47325017e-06 -3.85165047e+00], [13.326337099075317]
[ 5.02296623e+01 -4.15020774e-06 -3.90242907e+00], [13.366051197052002]
[ 5.02296592e+01 -3.70783621e-06 -3.93997827e+00], [13.407537937164307]
[ 5.02296574e+01 -3.19525260e-06 -3.96777764e+00], [13.44760274887085]
[ 5.02296603e+01 -2.65219197e-06 -3.98838292e+00], [13.488261222839355]
[ 5.02296673e+01 -2.10868302e-06 -4.00367353e+00], [13.530616998672485]
[ 5.02296766e+01 -1.58594626e-06 -4.01503327e+00], [13.580788850784302]
[ 5.02296867e+01 -1.09782419e-06 -4.02348219e+00], [13.623194217681885]
[ 5.02296964e+01 -6.52331540e-07 -4.02977316e+00], [13.668448448181152]
[ 5.02297050e+01 -2.53100921e-07 -4.03446250e+00], [13.712435007095337]
[ 5.02297123e+01  9.93730028e-08 -4.03796174e+00], [13.761680603027344]
[ 5.02297182e+01  4.06722966e-07 -4.04057569e+00], [13.805122375488281]
[ 5.02297227e+01  6.71924925e-07 -4.04253037e+00], [13.851212501525879]
[ 5.02297261e+01  8.98708611e-07 -4.04399355e+00], [13.896485090255737]
[ 5.02297286e+01  1.09113416e-06 -4.04508991e+00], [13.946180820465088]
[ 5.02297302e+01  1.25329957e-06 -4.04591222e+00], [13.9892737865448]
[ 5.02297313e+01  1.38914566e-06 -4.04652957e+00], [14.036249160766602]
[ 5.02297319e+01  1.50234040e-06 -4.04699348e+00], [14.08030366897583]
[ 5.02297323e+01  1.59621318e-06 -4.04734239e+00], [14.130252122879028]
[ 5.02297324e+01  1.67373083e-06 -4.04760505e+00], [14.174575328826904]
[ 5.02297323e+01  1.73749719e-06 -4.04780295e+00], [14.22025728225708]
[ 5.02297322e+01  1.78976842e-06 -4.04795217e+00], [14.26893401145935]
[ 5.02297320e+01  1.83248115e-06 -4.04806477e+00], [14.326229095458984]
[ 5.02297317e+01  1.86728186e-06 -4.04814982e+00], [14.383525371551514]
[ 5.02297315e+01  1.89556074e-06 -4.04821409e+00], [14.433170557022095]
[ 5.02297313e+01  1.91848404e-06 -4.04826270e+00], [14.487908124923706]
[ 5.02297311e+01  1.93702413e-06 -4.04829949e+00], [14.538405179977417]
[ 5.02297309e+01  1.95198788e-06 -4.04832735e+00], [14.586072444915771]
[ 5.02297307e+01  1.96404173e-06 -4.04834846e+00], [14.641685009002686]
[ 5.02297306e+01  1.97373430e-06 -4.04836447e+00], [14.69036340713501]
[ 5.02297305e+01  1.98151492e-06 -4.04837661e+00], [14.740989923477173]
[ 5.02297304e+01  1.98775091e-06 -4.04838583e+00], [14.789290428161621]
[ 5.02297303e+01  1.99274177e-06 -4.04839283e+00], [14.843775033950806]
[ 5.02297302e+01  1.99673097e-06 -4.04839815e+00], [14.887162446975708]
[ 5.02297301e+01  1.99991523e-06 -4.04840219e+00], [14.931077241897583]
[ 5.02297301e+01  2.00245404e-06 -4.04840527e+00], [14.98118543624878]
[ 5.02297301e+01  2.00447571e-06 -4.04840761e+00], [15.02360987663269]
[ 5.02297300e+01  2.00608401e-06 -4.04840939e+00], [15.070173025131226]
[ 5.02297300e+01  2.00736245e-06 -4.04841074e+00], [15.11455774307251]
[ 5.02297300e+01  2.00837747e-06 -4.04841178e+00], [15.158529996871948]
[ 5.02297299e+01  2.00918249e-06 -4.04841256e+00], [15.209296226501465]
[ 5.02297299e+01  2.00982067e-06 -4.04841316e+00], [15.255404233932495]
[ 5.02297299e+01  2.01032599e-06 -4.04841362e+00], [15.297470569610596]
[ 5.02297299e+01  2.01072605e-06 -4.04841397e+00], [15.337528467178345]
[ 5.02297299e+01  2.01104240e-06 -4.04841424e+00], [15.378774166107178]
[ 5.02297299e+01  2.01129236e-06 -4.04841444e+00], [15.417733669281006]
[ 5.02297299e+01  2.01148959e-06 -4.04841459e+00], [15.457805871963501]
[ 5.02297299e+01  2.01164553e-06 -4.04841471e+00], [15.499374628067017]
[ 5.02297299e+01  2.01176855e-06 -4.04841480e+00], [15.539267301559448]
[ 5.02297299e+01  2.01186541e-06 -4.04841487e+00], [15.58088994026184]
[ 5.02297299e+01  2.01194168e-06 -4.04841492e+00], [15.622696161270142]
[ 5.02297299e+01  2.01200196e-06 -4.04841496e+00], [15.662943601608276]
[ 5.02297299e+01  2.01204936e-06 -4.04841500e+00], [15.703347444534302]
[ 5.02297299e+01  2.01208656e-06 -4.04841502e+00], [15.745172500610352]
[ 5.02297299e+01  2.01211589e-06 -4.04841504e+00], [15.793081760406494]
[ 5.02297299e+01  2.01213889e-06 -4.04841505e+00], [15.837700605392456]
[ 5.02389731e+01 -1.03933202e-06 -4.47607031e+00], [15.888803482055664]
[ 5.02335739e+01 -4.27883234e-06 -4.87162552e+00], [15.936540126800537]
[ 5.02245881e+01 -7.08855255e-06 -5.17954756e+00], [15.979104042053223]
[ 5.02157752e+01 -9.18983022e-06 -5.40969805e+00], [16.019959688186646]
[ 5.02082427e+01 -1.04871185e-05 -5.58008611e+00], [16.060363292694092]
[ 5.02021619e+01 -1.10142222e-05 -5.70612508e+00], [16.100422620773315]
[ 5.01973903e+01 -1.08823046e-05 -5.79951407e+00], [16.140948057174683]
[ 5.01937025e+01 -1.02358582e-05 -5.86887410e+00], [16.18236780166626]
[ 5.01908748e+01 -9.22236341e-06 -5.92051679e+00], [16.22333312034607]
[ 5.01887147e+01 -7.97478292e-06 -5.95906361e+00], [16.26547932624817]
[ 5.01870662e+01 -6.60355154e-06 -5.98790534e+00], [16.306209087371826]
[ 5.01858070e+01 -5.19465131e-06 -6.00953618e+00], [16.347860097885132]
[ 5.01848434e+01 -3.81114143e-06 -6.02579576e+00], [16.390678644180298]
[ 5.01841041e+01 -2.49633876e-06 -6.03804449e+00], [16.43483805656433]
[ 5.01835352e+01 -1.27753791e-06 -6.04729104e+00], [16.47698163986206]
[ 5.01830961e+01 -1.69636104e-07 -6.05428522e+00], [16.518752336502075]
[ 5.01827561e+01  8.21647957e-07 -6.05958575e+00], [16.559266567230225]
[ 5.01824922e+01  1.69708854e-06 -6.06361004e+00], [16.599269151687622]
[ 5.01822867e+01  2.46180711e-06 -6.06667062e+00], [16.640473127365112]
[ 5.01821264e+01  3.12362081e-06 -6.06900204e+00], [16.682056427001953]
[ 5.01820010e+01  3.69181252e-06 -6.07078074e+00], [16.72363805770874]
[ 5.01819027e+01  4.17624969e-06 -6.07213969e+00], [16.777282238006592]
[ 5.01818257e+01  4.58677430e-06 -6.07317934e+00], [16.819456815719604]
[ 5.01817651e+01  4.93280284e-06 -6.07397572e+00], [16.864782094955444]
[ 5.01817174e+01  5.22308369e-06 -6.07458646e+00], [16.907963752746582]
[ 5.01816799e+01  5.46556672e-06 -6.07505534e+00], [16.96133804321289]
[ 5.01816503e+01  5.66735278e-06 -6.07541568e+00], [17.004805088043213]
[ 5.01816270e+01  5.83469684e-06 -6.07569286e+00], [17.05169701576233]
[ 5.01816087e+01  5.97304827e-06 -6.07590626e+00], [17.093874216079712]
[ 5.01815942e+01  6.08710833e-06 -6.07607068e+00], [17.145932912826538]
[ 5.01815828e+01  6.18090122e-06 -6.07619746e+00], [17.192190885543823]
[ 5.01815737e+01  6.25784793e-06 -6.07629528e+00], [17.235286474227905]
[ 5.01815666e+01  6.32083879e-06 -6.07637081e+00], [17.287535429000854]
[ 5.01815610e+01  6.37230376e-06 -6.07642915e+00], [17.3334059715271]
[ 5.01815566e+01  6.41427543e-06 -6.07647424e+00], [17.383126735687256]
[ 5.01815531e+01  6.44844762e-06 -6.07650911e+00], [17.424745798110962]
[ 5.01815504e+01  6.47622724e-06 -6.07653609e+00], [17.477715492248535]
[ 5.01815482e+01  6.49877754e-06 -6.07655696e+00], [17.521332025527954]
[ 5.01815465e+01  6.51705870e-06 -6.07657312e+00], [17.564858198165894]
[ 5.01815452e+01  6.53186025e-06 -6.07658564e+00], [17.613484621047974]
[ 5.01815441e+01  6.54383140e-06 -6.07659534e+00], [17.658577919006348]
[ 5.01815433e+01  6.55350243e-06 -6.07660285e+00], [17.70351219177246]
[ 5.01815426e+01  6.56130759e-06 -6.07660867e+00], [17.745404720306396]
[ 5.01815421e+01  6.56760137e-06 -6.07661319e+00], [17.79943037033081]
[ 5.01815417e+01  6.57267188e-06 -6.07661669e+00], [17.84435796737671]
[ 5.01815414e+01  6.57675333e-06 -6.07661940e+00], [17.891541481018066]
[ 5.01815411e+01  6.58003624e-06 -6.07662151e+00], [17.935039043426514]
[ 5.01815409e+01  6.58267486e-06 -6.07662314e+00], [17.984460830688477]
[ 5.01815408e+01  6.58479416e-06 -6.07662441e+00], [18.02873396873474]
[ 5.01815407e+01  6.58649554e-06 -6.07662540e+00], [18.07422113418579]
[ 5.01815406e+01  6.58786033e-06 -6.07662616e+00], [18.115362405776978]
[ 5.01815405e+01  6.58895455e-06 -6.07662675e+00], [18.16701889038086]
[ 5.01815404e+01  6.58983140e-06 -6.07662721e+00], [18.212452173233032]
[ 5.01815404e+01  6.59053378e-06 -6.07662757e+00], [18.25975251197815]
[ 5.01815404e+01  6.59109604e-06 -6.07662785e+00], [18.312496185302734]
[ 5.01815403e+01  6.59154612e-06 -6.07662806e+00], [18.355114459991455]
[ 5.01815403e+01  6.59190600e-06 -6.07662823e+00], [18.40045142173767]
[ 5.01815403e+01  6.59219390e-06 -6.07662836e+00], [18.44305944442749]
[ 5.01815403e+01  6.59242352e-06 -6.07662846e+00], [18.49316954612732]
[ 5.01815403e+01  6.59260713e-06 -6.07662854e+00], [18.537149667739868]
[ 5.01815403e+01  6.59275369e-06 -6.07662860e+00], [18.580153942108154]
[ 5.01815403e+01  6.59287082e-06 -6.07662865e+00], [18.620608806610107]
[ 5.01815403e+01  6.59296441e-06 -6.07662868e+00], [18.661353826522827]
[ 5.01815402e+01  6.59303887e-06 -6.07662871e+00], [18.701483726501465]
[ 5.01815402e+01  6.59309850e-06 -6.07662873e+00], [18.741633415222168]
[ 5.01815402e+01  6.59314553e-06 -6.07662875e+00], [18.78399133682251]
[ 5.01815402e+01  6.59318374e-06 -6.07662876e+00], [18.82473659515381]
[ 5.01815402e+01  6.59321429e-06 -6.07662877e+00], [18.866742610931396]
[ 5.01815402e+01  6.59323837e-06 -6.07662878e+00], [18.909810066223145]
[ 5.01815402e+01  6.59325727e-06 -6.07662879e+00], [18.951845407485962]
[ 5.01815402e+01  6.59327262e-06 -6.07662879e+00], [18.993675231933594]
[ 5.01815402e+01  6.59328467e-06 -6.07662880e+00], [19.03578472137451]
[ 5.01815402e+01  6.59329408e-06 -6.07662880e+00], [19.078811645507812]
[ 5.01681208e+01 -9.90018523e-08 -6.50027305e+00], [19.128849983215332]
[ 5.01424514e+01 -6.69985852e-06 -6.89028597e+00], [19.17335534095764]
[ 5.01178788e+01 -1.20462859e-05 -7.19334589e+00], [19.215903282165527]
[ 5.00974242e+01 -1.58062229e-05 -7.42000110e+00], [19.25623393058777]
[ 5.00811927e+01 -1.79677667e-05 -7.58828015e+00], [19.297831296920776]
[ 5.00685575e+01 -1.86970214e-05 -7.71337323e+00], [19.340487241744995]
[ 5.00587988e+01 -1.82501441e-05 -7.80669827e+00], [19.382041454315186]
[ 5.00512806e+01 -1.69101135e-05 -7.87661192e+00], [19.422772645950317]
[ 5.00454864e+01 -1.49463337e-05 -7.92920498e+00], [19.46478843688965]
[ 5.00410122e+01 -1.25929946e-05 -7.96892691e+00], [19.506133556365967]
[ 5.00375476e+01 -1.00406217e-05 -7.99904156e+00], [19.54621648788452]
[ 5.00348562e+01 -7.43579337e-06 -8.02195408e+00], [19.589030027389526]
[ 5.00327586e+01 -4.88531186e-06 -8.03944510e+00], [19.632460594177246]
[ 5.00311185e+01 -2.46233306e-06 -8.05283888e+00], [19.673815965652466]
[ 5.00298322e+01 -2.12949374e-07 -8.06312463e+00], [19.715683221817017]
[ 5.00288208e+01  1.83761511e-06 -8.07104446e+00], [19.756414651870728]
[ 5.00280235e+01  3.67960058e-06 -8.07715734e+00], [19.797033071517944]
[ 5.00273937e+01  5.31423020e-06 -8.08188596e+00], [19.83905839920044]
[ 5.00268954e+01  6.75013622e-06 -8.08555114e+00], [19.88057518005371]
[ 5.00265006e+01  8.00060823e-06 -8.08839721e+00], [19.922156810760498]
[ 5.00261873e+01  9.08153519e-06 -8.09061085e+00], [19.963598012924194]
[ 5.00259386e+01  1.00099137e-05 -8.09233514e+00], [20.005449771881104]
[ 5.00257409e+01  1.08028082e-05 -8.09368002e+00], [20.05720615386963]
[ 5.00255837e+01  1.14766583e-05 -8.09473023e+00], [20.100380897521973]
[ 5.00254587e+01  1.20468457e-05 -8.09555119e+00], [20.14212942123413]
[ 5.00253593e+01  1.25274524e-05 -8.09619356e+00], [20.18332290649414]
[ 5.00252802e+01  1.29311532e-05 -8.09669660e+00], [20.224699020385742]
[ 5.00252172e+01  1.32692057e-05 -8.09709082e+00], [20.26582908630371]
[ 5.00251671e+01  1.35514974e-05 -8.09739997e+00], [20.30695605278015]
[ 5.00251273e+01  1.37866335e-05 -8.09764254e+00], [20.34839367866516]
[ 5.00250956e+01  1.39820443e-05 -8.09783298e+00], [20.390252590179443]
[ 5.00250704e+01  1.41441056e-05 -8.09798255e+00], [20.4306058883667]
[ 5.00250503e+01  1.42782559e-05 -8.09810007e+00], [20.473365545272827]
[ 5.00250344e+01  1.43891106e-05 -8.09819244e+00], [20.514452934265137]
[ 5.00250217e+01  1.44805710e-05 -8.09826506e+00], [20.558393239974976]
[ 5.00250117e+01  1.45559214e-05 -8.09832218e+00], [20.600455045700073]
[ 5.00250037e+01  1.46179167e-05 -8.09836711e+00], [20.64104127883911]
[ 5.00249974e+01  1.46688615e-05 -8.09840246e+00], [20.682804822921753]
[ 5.00249923e+01  1.47106784e-05 -8.09843028e+00], [20.72487783432007]
[ 5.00249883e+01  1.47449672e-05 -8.09845218e+00], [20.767792224884033]
[ 5.00249852e+01  1.47730559e-05 -8.09846941e+00], [20.808566093444824]
[ 5.00249827e+01  1.47960446e-05 -8.09848298e+00], [20.850747108459473]
[ 5.00249807e+01  1.48148431e-05 -8.09849367e+00], [20.891552448272705]
[ 5.00249791e+01  1.48302037e-05 -8.09850208e+00], [20.93185257911682]
[ 5.00249778e+01  1.48427464e-05 -8.09850871e+00], [20.978787183761597]
[ 5.00249768e+01  1.48529801e-05 -8.09851392e+00], [21.019882440567017]
[ 5.00249761e+01  1.48613258e-05 -8.09851803e+00], [21.064496278762817]
[ 5.00249754e+01  1.48681278e-05 -8.09852127e+00], [21.104881286621094]
[ 5.00249750e+01  1.48736682e-05 -8.09852382e+00], [21.145888566970825]
[ 5.00249746e+01  1.48781784e-05 -8.09852583e+00], [21.1990065574646]
[ 5.00249743e+01  1.48818481e-05 -8.09852741e+00], [21.24518322944641]
[ 5.00249740e+01  1.48848322e-05 -8.09852866e+00], [21.288528442382812]
[ 5.00249738e+01  1.48872584e-05 -8.09852964e+00], [21.340441942214966]
[ 5.00249737e+01  1.48892295e-05 -8.09853041e+00], [21.385220050811768]
[ 5.00249735e+01  1.48908308e-05 -8.09853102e+00], [21.42943572998047]
[ 5.00249735e+01  1.48921314e-05 -8.09853150e+00], [21.482176780700684]
[ 5.00249734e+01  1.48931866e-05 -8.09853188e+00], [21.528517246246338]
[ 5.00249733e+01  1.48940431e-05 -8.09853218e+00], [21.573606252670288]
[ 5.00249733e+01  1.48947381e-05 -8.09853241e+00], [21.61512017250061]
[ 5.00249732e+01  1.48953016e-05 -8.09853260e+00], [21.670087575912476]
[ 5.00249732e+01  1.48957585e-05 -8.09853274e+00], [21.71479606628418]
[ 5.00249732e+01  1.48961289e-05 -8.09853286e+00], [21.758915185928345]
[ 5.00249732e+01  1.48964291e-05 -8.09853295e+00], [21.81124973297119]
[ 5.00249731e+01  1.48966722e-05 -8.09853302e+00], [21.853459358215332]
[ 5.00249731e+01  1.48968691e-05 -8.09853307e+00], [21.89937686920166]
[ 5.00249731e+01  1.48970285e-05 -8.09853312e+00], [21.941378116607666]
[ 5.00249731e+01  1.48971573e-05 -8.09853315e+00], [21.997004508972168]
[ 5.00249731e+01  1.48972618e-05 -8.09853318e+00], [22.041651248931885]
[ 5.00249731e+01  1.48973463e-05 -8.09853320e+00], [22.084630250930786]
[ 5.00249731e+01  1.48974151e-05 -8.09853322e+00], [22.13804006576538]
[ 5.00249731e+01  1.48974706e-05 -8.09853323e+00], [22.18092632293701]
[ 5.00249731e+01  1.48975155e-05 -8.09853324e+00], [22.22308611869812]
[ 5.00249731e+01  1.48975517e-05 -8.09853325e+00], [22.264935731887817]
[ 5.00249731e+01  1.48975810e-05 -8.09853326e+00], [22.306754112243652]
[ 5.00249731e+01  1.48976049e-05 -8.09853326e+00], [22.34757423400879]
[ 5.00249731e+01  1.48976240e-05 -8.09853327e+00], [22.388510704040527]
[ 5.00249731e+01  1.48976394e-05 -8.09853327e+00], [22.428953170776367]
[ 5.00249731e+01  1.48976520e-05 -8.09853327e+00], [22.470224618911743]
[ 5.00249731e+01  1.48976622e-05 -8.09853328e+00], [22.511380672454834]
[ 5.00249731e+01  1.48976706e-05 -8.09853328e+00], [22.551928281784058]
[ 5.00249731e+01  1.48976773e-05 -8.09853328e+00], [22.593921899795532]
[ 5.00249731e+01  1.48976827e-05 -8.09853328e+00], [22.634385108947754]
[ 5.00249731e+01  1.48976870e-05 -8.09853328e+00], [22.677506685256958]
[ 4.99895640e+01  3.34055733e-06 -8.51595253e+00], [22.727155208587646]
[ 4.99444760e+01 -7.64391694e-06 -8.89816975e+00], [22.77003502845764]
[ 4.99050579e+01 -1.62454517e-05 -9.19455316e+00], [22.81637477874756]
[ 4.98734974e+01 -2.21292995e-05 -9.41639691e+00], [22.858283758163452]
[ 4.98488937e+01 -2.54249685e-05 -9.58168377e+00], [22.89842414855957]
[ 4.98298541e+01 -2.64761117e-05 -9.70528972e+00], [22.938555479049683]
[ 4.98151224e+01 -2.57184940e-05 -9.79826574e+00], [22.980180501937866]
[ 4.98036914e+01 -2.36009789e-05 -9.86863245e+00], [23.021418571472168]
[ 4.97947850e+01 -2.05372462e-05 -9.92220311e+00], [23.066264867782593]
[ 4.97878140e+01 -1.68811913e-05 -9.96321195e+00], [23.10957956314087]
[ 4.97823332e+01 -1.29186741e-05 -9.99476375e+00], [23.149927139282227]
[ 4.97780057e+01 -8.86931172e-06 -1.00191513e+01], [23.190303087234497]
[ 4.97745759e+01 -4.89362823e-06 -1.00380798e+01], [23.231608629226685]
[ 4.97718484e+01 -1.10245764e-06 -1.00528258e+01], [23.28496289253235]
[ 4.97696733e+01  2.43330909e-06 -1.00643517e+01], [23.32845902442932]
[ 4.97679347e+01  5.67367539e-06 -1.00733870e+01], [23.374476671218872]
[ 4.97665424e+01  8.60167759e-06 -1.00804881e+01], [23.41654324531555]
[ 4.97654256e+01  1.12168723e-05 -1.00860817e+01], [23.46910285949707]
[ 4.97645288e+01  1.35301313e-05 -1.00904964e+01], [23.513192415237427]
[ 4.97638080e+01  1.55596029e-05 -1.00939868e+01], [23.559924125671387]
[ 4.97632284e+01  1.73276741e-05 -1.00967503e+01], [23.609687328338623]
[ 4.97627620e+01  1.88587443e-05 -1.00989412e+01], [23.653311491012573]
[ 4.97623867e+01  2.01776548e-05 -1.01006800e+01], [23.698590755462646]
[ 4.97620846e+01  2.13086155e-05 -1.01020613e+01], [23.742828607559204]
[ 4.97618414e+01  2.22745176e-05 -1.01031594e+01], [23.797793865203857]
[ 4.97616457e+01  2.30965263e-05 -1.01040331e+01], [23.841428518295288]
[ 4.97614882e+01  2.37938755e-05 -1.01047286e+01], [23.8853542804718]
[ 4.97613615e+01  2.43838120e-05 -1.01052826e+01], [23.934646606445312]
[ 4.97612596e+01  2.48816279e-05 -1.01057239e+01], [23.978883028030396]
[ 4.97611776e+01  2.53007625e-05 -1.01060758e+01], [24.02423644065857]
[ 4.97611117e+01  2.56529354e-05 -1.01063563e+01], [24.066852807998657]
[ 4.97610588e+01  2.59483023e-05 -1.01065800e+01], [24.11845827102661]
[ 4.97610162e+01  2.61956146e-05 -1.01067585e+01], [24.163574695587158]
[ 4.97609820e+01  2.64023780e-05 -1.01069009e+01], [24.207199096679688]
[ 4.97609546e+01  2.65750024e-05 -1.01070145e+01], [24.26016330718994]
[ 4.97609326e+01  2.67189439e-05 -1.01071052e+01], [24.307345867156982]
[ 4.97609149e+01  2.68388289e-05 -1.01071776e+01], [24.34963035583496]
[ 4.97609007e+01  2.69385730e-05 -1.01072353e+01], [24.391077280044556]
[ 4.97608893e+01  2.70214791e-05 -1.01072815e+01], [24.44201159477234]
[ 4.97608802e+01  2.70903266e-05 -1.01073183e+01], [24.485665798187256]
[ 4.97608728e+01  2.71474524e-05 -1.01073477e+01], [24.529132604599]
[ 4.97608670e+01  2.71948158e-05 -1.01073712e+01], [24.579333543777466]
[ 4.97608623e+01  2.72340565e-05 -1.01073899e+01], [24.623679637908936]
[ 4.97608585e+01  2.72665460e-05 -1.01074049e+01], [24.669602632522583]
[ 4.97608555e+01  2.72934284e-05 -1.01074168e+01], [24.711656093597412]
[ 4.97608531e+01  2.73156594e-05 -1.01074264e+01], [24.7656888961792]
[ 4.97608511e+01  2.73340327e-05 -1.01074340e+01], [24.81047821044922]
[ 4.97608496e+01  2.73492107e-05 -1.01074401e+01], [24.855223894119263]
[ 4.97608483e+01  2.73617426e-05 -1.01074450e+01], [24.90099334716797]
[ 4.97608474e+01  2.73720853e-05 -1.01074488e+01], [24.957133769989014]
[ 4.97608466e+01  2.73806171e-05 -1.01074519e+01], [25.0067400932312]
[ 4.97608459e+01  2.73876527e-05 -1.01074544e+01], [25.053474187850952]
[ 4.97608454e+01  2.73934524e-05 -1.01074564e+01], [25.103593349456787]
[ 4.97608450e+01  2.73982311e-05 -1.01074580e+01], [25.146024465560913]
[ 4.97608447e+01  2.74021676e-05 -1.01074592e+01], [25.1916606426239]
[ 4.97608444e+01  2.74054098e-05 -1.01074602e+01], [25.234728813171387]
[ 4.97608442e+01  2.74080779e-05 -1.01074611e+01], [25.2853741645813]
[ 4.97608440e+01  2.74102734e-05 -1.01074617e+01], [25.33018684387207]
[ 4.97608439e+01  2.74120799e-05 -1.01074622e+01], [25.376784086227417]
[ 4.97608438e+01  2.74135661e-05 -1.01074626e+01], [25.418855905532837]
[ 4.97608437e+01  2.74147878e-05 -1.01074629e+01], [25.47364044189453]
[ 4.97608437e+01  2.74157921e-05 -1.01074632e+01], [25.517826557159424]
[ 4.97608436e+01  2.74166178e-05 -1.01074634e+01], [25.563531398773193]
[ 4.97608436e+01  2.74172968e-05 -1.01074636e+01], [25.606159925460815]
[ 4.97608435e+01  2.74178546e-05 -1.01074637e+01], [25.656473875045776]
[ 4.97608435e+01  2.74183122e-05 -1.01074638e+01], [25.699960947036743]
[ 4.97608435e+01  2.74186877e-05 -1.01074639e+01], [25.745641708374023]
[ 4.97608435e+01  2.74189963e-05 -1.01074640e+01], [25.792548179626465]
[ 4.97608434e+01  2.74192498e-05 -1.01074640e+01], [25.842644929885864]
[ 4.97608434e+01  2.74194577e-05 -1.01074641e+01], [25.885315656661987]
[ 4.97608434e+01  2.74196290e-05 -1.01074641e+01], [25.927138328552246]
[ 4.97608434e+01  2.74197693e-05 -1.01074641e+01], [25.969094276428223]
[ 4.97608434e+01  2.74198842e-05 -1.01074642e+01], [26.01074481010437]
[ 4.97608434e+01  2.74199781e-05 -1.01074642e+01], [26.051938772201538]
[ 4.97608434e+01  2.74200557e-05 -1.01074642e+01], [26.092543363571167]
[ 4.97608434e+01  2.74201196e-05 -1.01074642e+01], [26.132941246032715]
[ 4.97608434e+01  2.74201719e-05 -1.01074642e+01], [26.173484086990356]
[ 4.97608434e+01  2.74202146e-05 -1.01074642e+01], [26.21489953994751]
[ 4.97608434e+01  2.74202497e-05 -1.01074642e+01], [26.258870840072632]
[ 4.97608434e+01  2.74202786e-05 -1.01074642e+01], [26.301151275634766]
[ 4.97043226e+01  9.94827911e-06 -1.05165779e+01], [26.346298933029175]
[ 4.96408788e+01 -6.30000381e-06 -1.08889306e+01], [26.390291452407837]
[ 4.95875230e+01 -1.88023794e-05 -1.11769930e+01], [26.433496475219727]
[ 4.95455099e+01 -2.72683802e-05 -1.13928323e+01], [26.479568004608154]
[ 4.95129374e+01 -3.20109908e-05 -1.15543120e+01], [26.520030975341797]
[ 4.94876890e+01 -3.35800655e-05 -1.16759075e+01], [26.56123447418213]
[ 4.94680218e+01 -3.26118121e-05 -1.17682277e+01], [26.60288953781128]
[ 4.94526033e+01 -2.97380493e-05 -1.18388972e+01], [26.644107580184937]
[ 4.94404355e+01 -2.55317409e-05 -1.18934058e+01], [26.686335802078247]
[ 4.94307735e+01 -2.04798990e-05 -1.19357382e+01], [26.727603435516357]
[ 4.94230592e+01 -1.49755868e-05 -1.19688150e+01], [26.774882316589355]
[ 4.94168712e+01 -9.32174823e-06 -1.19947981e+01], [26.81640076637268]
[ 4.94118881e+01 -3.74137058e-06 -1.20153036e+01], [26.858131170272827]
[ 4.94078627e+01  1.60976205e-06 -1.20315511e+01], [26.9022319316864]
[ 4.94046029e+01  6.63001375e-06 -1.20444687e+01], [26.951754093170166]
[ 4.94019581e+01  1.12598366e-05 -1.20547689e+01], [26.99840998649597]
[ 4.93998092e+01  1.54712979e-05 -1.20630021e+01], [27.045328617095947]
[ 4.93980615e+01  1.92593832e-05 -1.20695967e+01], [27.091619729995728]
[ 4.93966390e+01  2.26350199e-05 -1.20748881e+01], [27.14315700531006]
[ 4.93954807e+01  2.56196353e-05 -1.20791398e+01], [27.1897075176239]
[ 4.93945373e+01  2.82410364e-05 -1.20825603e+01], [27.234512090682983]
[ 4.93937689e+01  3.05303574e-05 -1.20853148e+01], [27.284614086151123]
[ 4.93931431e+01  3.25198805e-05 -1.20875348e+01], [27.329430103302002]
[ 4.93926334e+01  3.42415171e-05 -1.20893253e+01], [27.378472566604614]
[ 4.93922184e+01  3.57258082e-05 -1.20907702e+01], [27.42667508125305]
[ 4.93918806e+01  3.70013054e-05 -1.20919367e+01], [27.47196340560913]
[ 4.93916056e+01  3.80942290e-05 -1.20928788e+01], [27.517520904541016]
[ 4.93913819e+01  3.90283274e-05 -1.20936400e+01], [27.561848640441895]
[ 4.93912000e+01  3.98248717e-05 -1.20942551e+01], [27.613067626953125]
[ 4.93910521e+01  4.05027414e-05 -1.20947522e+01], [27.656455993652344]
[ 4.93909318e+01  4.10785700e-05 -1.20951542e+01], [27.704864501953125]
[ 4.93908341e+01  4.15669165e-05 -1.20954791e+01], [27.75116491317749]
[ 4.93907547e+01  4.19804590e-05 -1.20957419e+01], [27.80448818206787]
[ 4.93906903e+01  4.23301859e-05 -1.20959544e+01], [27.850054264068604]
[ 4.93906379e+01  4.26255841e-05 -1.20961263e+01], [27.894366979599]
[ 4.93905954e+01  4.28748158e-05 -1.20962653e+01], [27.943126916885376]
[ 4.93905610e+01  4.30848810e-05 -1.20963778e+01], [27.989741325378418]
[ 4.93905330e+01  4.32617689e-05 -1.20964687e+01], [28.03530979156494]
[ 4.93905103e+01  4.34105901e-05 -1.20965423e+01], [28.08125615119934]
[ 4.93904919e+01  4.35356975e-05 -1.20966018e+01], [28.13394784927368]
[ 4.93904769e+01  4.36407921e-05 -1.20966499e+01], [28.179420948028564]
[ 4.93904648e+01  4.37290150e-05 -1.20966889e+01], [28.224323987960815]
[ 4.93904550e+01  4.38030266e-05 -1.20967204e+01], [28.274858713150024]
[ 4.93904471e+01  4.38650794e-05 -1.20967459e+01], [28.318102836608887]
[ 4.93904406e+01  4.39170764e-05 -1.20967665e+01], [28.362767457962036]
[ 4.93904354e+01  4.39606236e-05 -1.20967832e+01], [28.40855574607849]
[ 4.93904312e+01  4.39970754e-05 -1.20967967e+01], [28.45156955718994]
[ 4.93904278e+01  4.40275748e-05 -1.20968076e+01], [28.50345492362976]
[ 4.93904250e+01  4.40530825e-05 -1.20968164e+01], [28.54816484451294]
[ 4.93904227e+01  4.40744068e-05 -1.20968235e+01], [28.592610836029053]
[ 4.93904209e+01  4.40922263e-05 -1.20968293e+01], [28.64297842979431]
[ 4.93904195e+01  4.41071115e-05 -1.20968340e+01], [28.689339637756348]
[ 4.93904183e+01  4.41195414e-05 -1.20968378e+01], [28.734408378601074]
[ 4.93904173e+01  4.41299168e-05 -1.20968408e+01], [28.77921748161316]
[ 4.93904165e+01  4.41385753e-05 -1.20968433e+01], [28.830649614334106]
[ 4.93904159e+01  4.41457988e-05 -1.20968453e+01], [28.87372851371765]
[ 4.93904154e+01  4.41518227e-05 -1.20968469e+01], [28.917253732681274]
[ 4.93904150e+01  4.41568452e-05 -1.20968482e+01], [28.963381052017212]
[ 4.93904146e+01  4.41610319e-05 -1.20968493e+01], [29.006752729415894]
[ 4.93904143e+01  4.41645211e-05 -1.20968502e+01], [29.05787229537964]
[ 4.93904141e+01  4.41674272e-05 -1.20968509e+01], [29.103235960006714]
[ 4.93904139e+01  4.41698475e-05 -1.20968514e+01], [29.15185570716858]
[ 4.93904138e+01  4.41718628e-05 -1.20968519e+01], [29.195915460586548]
[ 4.93904137e+01  4.41735411e-05 -1.20968522e+01], [29.24561095237732]
[ 4.93904136e+01  4.41749383e-05 -1.20968525e+01], [29.2898108959198]
[ 4.93904135e+01  4.41761007e-05 -1.20968528e+01], [29.33512854576111]
[ 4.93904135e+01  4.41770687e-05 -1.20968530e+01], [29.37957763671875]
[ 4.93904134e+01  4.41778739e-05 -1.20968531e+01], [29.4310085773468]
[ 4.93904134e+01  4.41785436e-05 -1.20968533e+01], [29.47585368156433]
[ 4.93904133e+01  4.41790998e-05 -1.20968534e+01], [29.522237062454224]
[ 4.93904133e+01  4.41795625e-05 -1.20968534e+01], [29.56468415260315]
[ 4.93904133e+01  4.41799467e-05 -1.20968535e+01], [29.61560893058777]
[ 4.93904133e+01  4.41802672e-05 -1.20968536e+01], [29.66050672531128]
[ 4.93904132e+01  4.41805334e-05 -1.20968536e+01], [29.70526909828186]
[ 4.93904132e+01  4.41807541e-05 -1.20968536e+01], [29.7477970123291]
[ 4.93904132e+01  4.41809379e-05 -1.20968537e+01], [29.799160480499268]
[ 4.93904132e+01  4.41810905e-05 -1.20968537e+01], [29.843409776687622]
[ 4.93904132e+01  4.41812175e-05 -1.20968537e+01], [29.88978672027588]
[ 4.93904132e+01  4.41813229e-05 -1.20968537e+01], [29.932088613510132]
[ 4.93904132e+01  4.41814104e-05 -1.20968537e+01], [29.98353099822998]
[ 4.93904132e+01  4.41814831e-05 -1.20968537e+01], [30.02673840522766]
[ 4.93904132e+01  4.41815437e-05 -1.20968538e+01], [30.07173228263855]
[ 4.93904132e+01  4.41815943e-05 -1.20968538e+01], [30.112748861312866]
[ 4.93904132e+01  4.41816361e-05 -1.20968538e+01], [30.152852773666382]
[ 4.93904132e+01  4.41816708e-05 -1.20968538e+01], [30.19479274749756]
[ 4.93904132e+01  4.41816996e-05 -1.20968538e+01], [30.235829830169678]
[ 4.93904132e+01  4.41817233e-05 -1.20968538e+01], [30.279109716415405]
[ 4.93904132e+01  4.41817439e-05 -1.20968538e+01], [30.320714950561523]
[ 4.93904132e+01  4.41817611e-05 -1.20968538e+01], [30.3613703250885]
[ 4.93904132e+01  4.41817758e-05 -1.20968538e+01], [30.402374267578125]
[ 4.93904132e+01  4.41817870e-05 -1.20968538e+01], [30.444154500961304]
[ 4.93904132e+01  4.41817967e-05 -1.20968538e+01], [30.485970497131348]
[ 4.93904132e+01  4.41818044e-05 -1.20968538e+01], [30.52746605873108]
[ 4.93904132e+01  4.41818113e-05 -1.20968538e+01], [30.569740533828735]
[ 4.93138407e+01  1.99364153e-05 -1.24957404e+01], [30.61950707435608]
[ 4.92332826e+01 -2.30223664e-06 -1.28563735e+01], [30.663836240768433]
[ 4.91670334e+01 -1.92716994e-05 -1.31346639e+01], [30.70618724822998]
[ 4.91153163e+01 -3.07637488e-05 -1.33434445e+01], [30.747934341430664]
[ 4.90752433e+01 -3.72986238e-05 -1.35003794e+01], [30.789708852767944]
[ 4.90440250e+01 -3.96447419e-05 -1.36194638e+01], [30.834001541137695]
[ 4.90194883e+01 -3.86476266e-05 -1.37108008e+01], [30.875078201293945]
[ 4.90000250e+01 -3.51308718e-05 -1.37815716e+01], [30.917883157730103]
[ 4.89844560e+01 -2.98360429e-05 -1.38369088e+01], [30.958664655685425]
[ 4.89719120e+01 -2.33926384e-05 -1.38805226e+01], [31.00685429573059]
[ 4.89617451e+01 -1.63097886e-05 -1.39151310e+01], [31.049317359924316]
[ 4.89534657e+01 -8.98178613e-06 -1.39427516e+01], [31.101314783096313]
[ 4.89466986e+01 -1.70112466e-06 -1.39649016e+01], [31.1451997756958]
[ 4.89411522e+01  5.32538078e-06 -1.39827354e+01], [31.19156050682068]
[ 4.89365971e+01  1.19601535e-05 -1.39971413e+01], [31.238948345184326]
[ 4.89328508e+01  1.81196803e-05 -1.40088094e+01], [31.292315244674683]
[ 4.89297667e+01  2.37613169e-05 -1.40182807e+01], [31.337740182876587]
[ 4.89272262e+01  2.88723221e-05 -1.40259824e+01], [31.3844895362854]
[ 4.89251329e+01  3.34610355e-05 -1.40322541e+01], [31.426671743392944]
[ 4.89234078e+01  3.75499775e-05 -1.40373672e+01], [31.477294445037842]
[ 4.89219862e+01  4.11705878e-05 -1.40415397e+01], [31.520691871643066]
[ 4.89208149e+01  4.43593135e-05 -1.40449470e+01], [31.569697618484497]
[ 4.89198501e+01  4.71547699e-05 -1.40477311e+01], [31.6253023147583]
[ 4.89190555e+01  4.95957519e-05 -1.40500072e+01], [31.675464868545532]
[ 4.89184014e+01  5.17198804e-05 -1.40518685e+01], [31.72689175605774]
[ 4.89178630e+01  5.35627367e-05 -1.40533912e+01], [31.775830507278442]
[ 4.89174201e+01  5.51573547e-05 -1.40546371e+01], [31.83257818222046]
[ 4.89170557e+01  5.65339640e-05 -1.40556568e+01], [31.883121252059937]
[ 4.89167562e+01  5.77199203e-05 -1.40564914e+01], [31.933257341384888]
[ 4.89165099e+01  5.87397495e-05 -1.40571747e+01], [31.989346265792847]
[ 4.89163076e+01  5.96152806e-05 -1.40577340e+01], [32.03971529006958]
[ 4.89161414e+01  6.03658172e-05 -1.40581920e+01], [32.09106659889221]
[ 4.89160049e+01  6.10083441e-05 -1.40585670e+01], [32.13890838623047]
[ 4.89158927e+01  6.15577357e-05 -1.40588740e+01], [32.19688677787781]
[ 4.89158007e+01  6.20269740e-05 -1.40591255e+01], [32.24738430976868]
[ 4.89157252e+01  6.24273472e-05 -1.40593314e+01], [32.29771280288696]
[ 4.89156632e+01  6.27686447e-05 -1.40595000e+01], [32.350191831588745]
[ 4.89156124e+01  6.30593338e-05 -1.40596380e+01], [32.39842081069946]
[ 4.89155706e+01  6.33067225e-05 -1.40597511e+01], [32.45175623893738]
[ 4.89155364e+01  6.35171063e-05 -1.40598437e+01], [32.51126790046692]
[ 4.89155084e+01  6.36958981e-05 -1.40599195e+01], [32.55935859680176]
[ 4.89154854e+01  6.38477450e-05 -1.40599816e+01], [32.61021375656128]
[ 4.89154665e+01  6.39766313e-05 -1.40600325e+01], [32.65913152694702]
[ 4.89154510e+01  6.40859669e-05 -1.40600741e+01], [32.718053579330444]
[ 4.89154384e+01  6.41786682e-05 -1.40601082e+01], [32.768882036209106]
[ 4.89154280e+01  6.42572277e-05 -1.40601362e+01], [32.818666219711304]
[ 4.89154194e+01  6.43237710e-05 -1.40601590e+01], [32.880268573760986]
[ 4.89154125e+01  6.43801111e-05 -1.40601778e+01], [32.93048596382141]
[ 4.89154068e+01  6.44277930e-05 -1.40601931e+01], [32.981226682662964]
[ 4.89154021e+01  6.44681297e-05 -1.40602056e+01], [33.035829067230225]
[ 4.89153982e+01  6.45022409e-05 -1.40602159e+01], [33.08510160446167]
[ 4.89153951e+01  6.45310775e-05 -1.40602244e+01], [33.13666486740112]
[ 4.89153925e+01  6.45554450e-05 -1.40602313e+01], [33.186453342437744]
[ 4.89153904e+01  6.45760296e-05 -1.40602369e+01], [33.24443602561951]
[ 4.89153887e+01  6.45934150e-05 -1.40602415e+01], [33.29377317428589]
[ 4.89153873e+01  6.46080924e-05 -1.40602453e+01], [33.34494495391846]
[ 4.89153861e+01  6.46204801e-05 -1.40602484e+01], [33.39382266998291]
[ 4.89153851e+01  6.46309328e-05 -1.40602510e+01], [33.450647592544556]
[ 4.89153844e+01  6.46397499e-05 -1.40602530e+01], [33.500802755355835]
[ 4.89153837e+01  6.46471855e-05 -1.40602547e+01], [33.55175995826721]
[ 4.89153832e+01  6.46534551e-05 -1.40602561e+01], [33.609280824661255]
[ 4.89153828e+01  6.46587411e-05 -1.40602573e+01], [33.65817904472351]
[ 4.89153824e+01  6.46631948e-05 -1.40602582e+01], [33.708778381347656]
[ 4.89153821e+01  6.46669483e-05 -1.40602590e+01], [33.75644373893738]
[ 4.89153819e+01  6.46701085e-05 -1.40602596e+01], [33.81364893913269]
[ 4.89153817e+01  6.46727714e-05 -1.40602601e+01], [33.86302375793457]
[ 4.89153816e+01  6.46750135e-05 -1.40602605e+01], [33.91416120529175]
[ 4.89153814e+01  6.46769004e-05 -1.40602609e+01], [33.96168375015259]
[ 4.89153813e+01  6.46784898e-05 -1.40602612e+01], [34.01907300949097]
[ 4.89153812e+01  6.46798268e-05 -1.40602614e+01], [34.070913314819336]
[ 4.89153812e+01  6.46809525e-05 -1.40602616e+01], [34.120341539382935]
[ 4.89153811e+01  6.46818994e-05 -1.40602617e+01], [34.17949914932251]
[ 4.89153811e+01  6.46826968e-05 -1.40602619e+01], [34.22771763801575]
[ 4.89153810e+01  6.46833668e-05 -1.40602620e+01], [34.28004479408264]
[ 4.89153810e+01  6.46839299e-05 -1.40602620e+01], [34.328125953674316]
[ 4.89153810e+01  6.46844040e-05 -1.40602621e+01], [34.38435196876526]
[ 4.89153809e+01  6.46848025e-05 -1.40602622e+01], [34.43210554122925]
[ 4.89153809e+01  6.46851375e-05 -1.40602622e+01], [34.4846305847168]
[ 4.89153809e+01  6.46854194e-05 -1.40602623e+01], [34.5335488319397]
[ 4.89153809e+01  6.46856565e-05 -1.40602623e+01], [34.59135580062866]
[ 4.89153809e+01  6.46858556e-05 -1.40602623e+01], [34.64086294174194]
[ 4.89153809e+01  6.46860227e-05 -1.40602623e+01], [34.69048595428467]
[ 4.89153809e+01  6.46861639e-05 -1.40602624e+01], [34.74555730819702]
[ 4.89153809e+01  6.46862821e-05 -1.40602624e+01], [34.79428029060364]
[ 4.89153809e+01  6.46863813e-05 -1.40602624e+01], [34.8456928730011]
[ 4.89153809e+01  6.46864653e-05 -1.40602624e+01], [34.89503526687622]
[ 4.89153809e+01  6.46865366e-05 -1.40602624e+01], [34.951064348220825]
[ 4.89153809e+01  6.46865963e-05 -1.40602624e+01], [35.000293254852295]
[ 4.89153809e+01  6.46866463e-05 -1.40602624e+01], [35.05271124839783]
[ 4.89153809e+01  6.46866879e-05 -1.40602624e+01], [35.10803842544556]
[ 4.89153809e+01  6.46867230e-05 -1.40602624e+01], [35.172003746032715]
[ 4.89153809e+01  6.46867525e-05 -1.40602624e+01], [35.2207715511322]
[ 4.89153809e+01  6.46867773e-05 -1.40602624e+01], [35.264830350875854]
[ 4.89153808e+01  6.46867986e-05 -1.40602624e+01], [35.316762924194336]
[ 4.89153808e+01  6.46868168e-05 -1.40602624e+01], [35.36028790473938]
[ 4.89153808e+01  6.46868315e-05 -1.40602624e+01], [35.406243085861206]
[ 4.89153808e+01  6.46868440e-05 -1.40602624e+01], [35.44848322868347]
[ 4.89153808e+01  6.46868551e-05 -1.40602624e+01], [35.5071234703064]
[ 4.89153808e+01  6.46868648e-05 -1.40602624e+01], [35.557246685028076]
[ 4.89153808e+01  6.46868724e-05 -1.40602624e+01], [35.60655665397644]
[ 4.89153808e+01  6.46868796e-05 -1.40602624e+01], [35.648334980010986]
[ 4.89153808e+01  6.46868858e-05 -1.40602624e+01], [35.69955348968506]
[ 4.89153808e+01  6.46868909e-05 -1.40602624e+01], [35.74217081069946]
[ 4.89153808e+01  6.46868946e-05 -1.40602624e+01], [35.78588628768921]
[ 4.89153808e+01  6.46868984e-05 -1.40602624e+01], [35.8264799118042]
[ 4.89153808e+01  6.46869011e-05 -1.40602624e+01], [35.86729168891907]
[ 4.89153808e+01  6.46869039e-05 -1.40602624e+01], [35.913028955459595]
[ 4.89153808e+01  6.46869072e-05 -1.40602624e+01], [35.9541552066803]
[ 4.89153808e+01  6.46869092e-05 -1.40602624e+01], [35.994781732559204]
[ 4.89153808e+01  6.46869114e-05 -1.40602624e+01], [36.03609347343445]
[ 4.89153808e+01  6.46869138e-05 -1.40602624e+01], [36.07666611671448]
[ 4.89153808e+01  6.46869152e-05 -1.40602624e+01], [36.11715865135193]
[ 4.89153808e+01  6.46869166e-05 -1.40602624e+01], [36.1581015586853]
[ 4.89153808e+01  6.46869178e-05 -1.40602624e+01], [36.1998233795166]
[ 4.88199732e+01  3.30112878e-05 -1.44471808e+01], [36.25038290023804]
[ 4.87236855e+01  4.21281434e-06 -1.47944739e+01], [36.29331851005554]
[ 4.86456914e+01 -1.77087080e-05 -1.50617494e+01], [36.33606266975403]
[ 4.85850917e+01 -3.26501070e-05 -1.52625660e+01], [36.378238677978516]
[ 4.85380390e+01 -4.13425589e-05 -1.54143023e+01], [36.42277216911316]
[ 4.85011301e+01 -4.47706658e-05 -1.55304017e+01], [36.463167905807495]
[ 4.84718224e+01 -4.39889973e-05 -1.56204107e+01], [36.50385594367981]
[ 4.84482841e+01 -4.00162017e-05 -1.56910335e+01], [36.54433512687683]
[ 4.84291962e+01 -3.37680554e-05 -1.57470221e+01], [36.58506798744202]
[ 4.84135965e+01 -2.60229676e-05 -1.57917971e+01], [36.627180337905884]
[ 4.84007703e+01 -1.74123996e-05 -1.58278628e+01], [36.67865967750549]
[ 4.83901767e+01 -8.42764209e-06 -1.58570842e+01], [36.72342920303345]
[ 4.83813982e+01  5.64367710e-07 -1.58808722e+01], [36.77178764343262]
[ 4.83741070e+01  9.30146431e-06 -1.59003106e+01], [36.813246965408325]
[ 4.83680416e+01  1.76063077e-05 -1.59162423e+01], [36.86499261856079]
[ 4.83629910e+01  2.53679609e-05 -1.59293309e+01], [36.91035556793213]
[ 4.83587830e+01  3.25259078e-05 -1.59401040e+01], [36.9541175365448]
[ 4.83552763e+01  3.90567666e-05 -1.59489840e+01], [37.00725436210632]
[ 4.83523538e+01  4.49636098e-05 -1.59563120e+01], [37.05059814453125]
[ 4.83499185e+01  5.02676029e-05 -1.59623647e+01], [37.09647274017334]
[ 4.83478897e+01  5.50016160e-05 -1.59673674e+01], [37.13861107826233]
[ 4.83461999e+01  5.92054569e-05 -1.59715045e+01], [37.190789222717285]
[ 4.83447931e+01  6.29223849e-05 -1.59749273e+01], [37.234936475753784]
[ 4.83436222e+01  6.61966338e-05 -1.59777599e+01], [37.282387018203735]
[ 4.83426480e+01  6.90717122e-05 -1.59801047e+01], [37.326250314712524]
[ 4.83418377e+01  7.15892716e-05 -1.59820461e+01], [37.383379220962524]
[ 4.83411640e+01  7.37884148e-05 -1.59836537e+01], [37.42794442176819]
[ 4.83406041e+01  7.57053051e-05 -1.59849850e+01], [37.47236490249634]
[ 4.83401388e+01  7.73730035e-05 -1.59860877e+01], [37.5245246887207]
[ 4.83397522e+01  7.88214548e-05 -1.59870011e+01], [37.57173991203308]
[ 4.83394312e+01  8.00775820e-05 -1.59877576e+01], [37.61707067489624]
[ 4.83391647e+01  8.11654361e-05 -1.59883843e+01], [37.66037154197693]
[ 4.83389435e+01  8.21063976e-05 -1.59889035e+01], [37.71400499343872]
[ 4.83387599e+01  8.29193872e-05 -1.59893335e+01], [37.76073455810547]
[ 4.83386075e+01  8.36210899e-05 -1.59896898e+01], [37.80450201034546]
[ 4.83384811e+01  8.42261683e-05 -1.59899850e+01], [37.8565514087677]
[ 4.83383762e+01  8.47474733e-05 -1.59902295e+01], [37.90071153640747]
[ 4.83382893e+01  8.51962439e-05 -1.59904320e+01], [37.94658088684082]
[ 4.83382171e+01  8.55822826e-05 -1.59905998e+01], [37.989941120147705]
[ 4.83381573e+01  8.59141276e-05 -1.59907388e+01], [38.042147397994995]
[ 4.83381077e+01  8.61992009e-05 -1.59908540e+01], [38.08483123779297]
[ 4.83380666e+01  8.64439454e-05 -1.59909494e+01], [38.13073134422302]
[ 4.83380325e+01  8.66539459e-05 -1.59910284e+01], [38.17421889305115]
[ 4.83380043e+01  8.68340372e-05 -1.59910939e+01], [38.23227286338806]
[ 4.83379809e+01  8.69883999e-05 -1.59911481e+01], [38.28034234046936]
[ 4.83379615e+01  8.71206460e-05 -1.59911930e+01], [38.33183550834656]
[ 4.83379454e+01  8.72338928e-05 -1.59912302e+01], [38.38004994392395]
[ 4.83379321e+01  8.73308262e-05 -1.59912611e+01], [38.43507504463196]
[ 4.83379210e+01  8.74137645e-05 -1.59912866e+01], [38.48222732543945]
[ 4.83379119e+01  8.74846988e-05 -1.59913078e+01], [38.53023910522461]
[ 4.83379043e+01  8.75453443e-05 -1.59913253e+01], [38.576042890548706]
[ 4.83378980e+01  8.75971731e-05 -1.59913398e+01], [38.622239112854004]
[ 4.83378928e+01  8.76414525e-05 -1.59913518e+01], [38.66886353492737]
[ 4.83378885e+01  8.76792702e-05 -1.59913618e+01], [38.70910835266113]
[ 4.83378849e+01  8.77115587e-05 -1.59913701e+01], [38.75020694732666]
[ 4.83378820e+01  8.77391181e-05 -1.59913769e+01], [38.79095125198364]
[ 4.83378795e+01  8.77626345e-05 -1.59913826e+01], [38.83447742462158]
[ 4.83378775e+01  8.77826953e-05 -1.59913872e+01], [38.8771288394928]
[ 4.83378758e+01  8.77998031e-05 -1.59913911e+01], [38.91890478134155]
[ 4.83378744e+01  8.78143898e-05 -1.59913943e+01], [38.95949411392212]
[ 4.83378733e+01  8.78268239e-05 -1.59913970e+01], [39.00092816352844]
[ 4.83378723e+01  8.78374212e-05 -1.59913992e+01], [39.04487085342407]
[ 4.83378715e+01  8.78464499e-05 -1.59914011e+01], [39.08577632904053]
[ 4.83378708e+01  8.78541399e-05 -1.59914026e+01], [39.127970457077026]
[ 4.83378703e+01  8.78606887e-05 -1.59914038e+01], [39.18022894859314]
[ 4.83378699e+01  8.78662647e-05 -1.59914049e+01], [39.23124098777771]
[ 4.83378695e+01  8.78710125e-05 -1.59914057e+01], [39.27827835083008]
[ 4.83378692e+01  8.78750532e-05 -1.59914064e+01], [39.32709741592407]
[ 4.83378689e+01  8.78784919e-05 -1.59914070e+01], [39.37864422798157]
[ 4.83378687e+01  8.78814167e-05 -1.59914075e+01], [39.42308330535889]
[ 4.83378685e+01  8.78839057e-05 -1.59914079e+01], [39.468223333358765]
[ 4.83378684e+01  8.78860230e-05 -1.59914083e+01], [39.52028441429138]
[ 4.83378683e+01  8.78878237e-05 -1.59914085e+01], [39.56499361991882]
[ 4.83378682e+01  8.78893541e-05 -1.59914088e+01], [39.607362270355225]
[ 4.83378681e+01  8.78906563e-05 -1.59914090e+01], [39.65065813064575]
[ 4.83378680e+01  8.78917632e-05 -1.59914091e+01], [39.70273303985596]
[ 4.83378680e+01  8.78927040e-05 -1.59914092e+01], [39.745397329330444]
[ 4.83378679e+01  8.78935033e-05 -1.59914094e+01], [39.78826951980591]
[ 4.83378679e+01  8.78941824e-05 -1.59914094e+01], [39.82883810997009]
[ 4.83378678e+01  8.78947590e-05 -1.59914095e+01], [39.870235204696655]
[ 4.83378678e+01  8.78952491e-05 -1.59914096e+01], [39.91142296791077]
[ 4.83378678e+01  8.78956656e-05 -1.59914096e+01], [39.95225667953491]
[ 4.83378678e+01  8.78960203e-05 -1.59914097e+01], [39.99315905570984]
[ 4.83378678e+01  8.78963209e-05 -1.59914097e+01], [40.03373098373413]
[ 4.83378677e+01  8.78965766e-05 -1.59914097e+01], [40.07536220550537]
[ 4.83378677e+01  8.78967926e-05 -1.59914098e+01], [40.11597537994385]
[ 4.83378677e+01  8.78969773e-05 -1.59914098e+01], [40.15681171417236]
[ 4.83378677e+01  8.78971343e-05 -1.59914098e+01], [40.19826912879944]
[ 4.83378677e+01  8.78972683e-05 -1.59914098e+01], [40.2398419380188]
[ 4.83378677e+01  8.78973812e-05 -1.59914098e+01], [40.281275033950806]
[ 4.83378677e+01  8.78974780e-05 -1.59914098e+01], [40.32386922836304]
[ 4.82249707e+01  4.83390214e-05 -1.63648141e+01], [40.37148332595825]
[ 4.81144450e+01  1.25641201e-05 -1.66973943e+01], [40.41408348083496]
[ 4.80259266e+01 -1.47156836e-05 -1.69526282e+01], [40.4576301574707]
[ 4.79573160e+01 -3.35035638e-05 -1.71447283e+01], [40.5002920627594]
[ 4.79038445e+01 -4.47247020e-05 -1.72906996e+01], [40.544344902038574]
[ 4.78615613e+01 -4.95656470e-05 -1.74033713e+01], [40.58588933944702]
[ 4.78276170e+01 -4.92842545e-05 -1.74916957e+01], [40.626988887786865]
[ 4.78000085e+01 -4.50949522e-05 -1.75618787e+01], [40.66824293136597]
[ 4.77773170e+01 -3.80915126e-05 -1.76182802e+01], [40.710593700408936]
[ 4.77585174e+01 -2.92056886e-05 -1.76640243e+01], [40.76203107833862]
[ 4.77428508e+01 -1.91951788e-05 -1.77013971e+01], [40.807570934295654]
[ 4.77297408e+01 -8.65137652e-06 -1.77321069e+01], [40.853530168533325]
[ 4.77187392e+01  1.98187091e-06 -1.77574550e+01], [40.896469593048096]
[ 4.77094899e+01  1.23849458e-05 -1.77784500e+01], [40.94399809837341]
[ 4.77017052e+01  2.23387432e-05 -1.77958859e+01], [41.00431156158447]
[ 4.76951493e+01  3.17028507e-05 -1.78103956e+01], [41.050578594207764]
[ 4.76896270e+01  4.03966988e-05 -1.78224888e+01], [41.097413539886475]
[ 4.76849753e+01  4.83839596e-05 -1.78325800e+01], [41.14626097679138]
[ 4.76810578e+01  5.56600492e-05 -1.78410082e+01], [41.19170951843262]
[ 4.76777595e+01  6.22423718e-05 -1.78480522e+01], [41.23729395866394]
[ 4.76749834e+01  6.81628769e-05 -1.78539423e+01], [41.287697553634644]
[ 4.76726478e+01  7.34624883e-05 -1.78588696e+01], [41.33313345909119]
[ 4.76706834e+01  7.81870253e-05 -1.78629926e+01], [41.37972044944763]
[ 4.76690320e+01  8.23842777e-05 -1.78664433e+01], [41.42364573478699]
[ 4.76676441e+01  8.61019681e-05 -1.78693319e+01], [41.47399020195007]
[ 4.76664781e+01  8.93863725e-05 -1.78717502e+01], [41.51679086685181]
[ 4.76654988e+01  9.22814311e-05 -1.78737751e+01], [41.56272602081299]
[ 4.76646766e+01  9.48282233e-05 -1.78754705e+01], [41.60637927055359]
[ 4.76639865e+01  9.70646923e-05 -1.78768903e+01], [41.65676283836365]
[ 4.76634073e+01  9.90255632e-05 -1.78780792e+01], [41.70082068443298]
[ 4.76629214e+01  1.00742366e-04 -1.78790748e+01], [41.74602031707764]
[ 4.76625138e+01  1.02243562e-04 -1.78799086e+01], [41.79029631614685]
[ 4.76621720e+01  1.03554703e-04 -1.78806069e+01], [41.8402795791626]
[ 4.76618854e+01  1.04698638e-04 -1.78811916e+01], [41.88296175003052]
[ 4.76616451e+01  1.05695717e-04 -1.78816814e+01], [41.929802656173706]
[ 4.76614436e+01  1.06564011e-04 -1.78820915e+01], [41.97280216217041]
[ 4.76612748e+01  1.07319526e-04 -1.78824350e+01], [42.02345108985901]
[ 4.76611332e+01  1.07976402e-04 -1.78827226e+01], [42.06780552864075]
[ 4.76610147e+01  1.08547104e-04 -1.78829635e+01], [42.11301636695862]
[ 4.76609153e+01  1.09042603e-04 -1.78831652e+01], [42.156654834747314]
[ 4.76608320e+01  1.09472534e-04 -1.78833342e+01], [42.206828355789185]
[ 4.76607623e+01  1.09845351e-04 -1.78834757e+01], [42.24980044364929]
[ 4.76607038e+01  1.10168458e-04 -1.78835942e+01], [42.296595096588135]
[ 4.76606549e+01  1.10448335e-04 -1.78836934e+01], [42.339317321777344]
[ 4.76606139e+01  1.10690644e-04 -1.78837765e+01], [42.38864016532898]
[ 4.76605795e+01  1.10900324e-04 -1.78838461e+01], [42.43144249916077]
[ 4.76605507e+01  1.11081690e-04 -1.78839044e+01], [42.479186058044434]
[ 4.76605266e+01  1.11238494e-04 -1.78839532e+01], [42.52699089050293]
[ 4.76605065e+01  1.11374009e-04 -1.78839940e+01], [42.57119584083557]
[ 4.76604895e+01  1.11491077e-04 -1.78840282e+01], [42.615450859069824]
[ 4.76604754e+01  1.11592172e-04 -1.78840569e+01], [42.659226179122925]
[ 4.76604635e+01  1.11679441e-04 -1.78840809e+01], [42.708181619644165]
[ 4.76604536e+01  1.11754749e-04 -1.78841010e+01], [42.75213932991028]
[ 4.76604453e+01  1.11819714e-04 -1.78841178e+01], [42.798245906829834]
[ 4.76604383e+01  1.11875740e-04 -1.78841319e+01], [42.842329025268555]
[ 4.76604325e+01  1.11924040e-04 -1.78841437e+01], [42.88400745391846]
[ 4.76604276e+01  1.11965667e-04 -1.78841536e+01], [42.92482376098633]
[ 4.76604235e+01  1.12001535e-04 -1.78841619e+01], [42.97566318511963]
[ 4.76604201e+01  1.12032432e-04 -1.78841688e+01], [43.01832175254822]
[ 4.76604172e+01  1.12059039e-04 -1.78841746e+01], [43.063578367233276]
[ 4.76604148e+01  1.12081946e-04 -1.78841795e+01], [43.107048749923706]
[ 4.76604128e+01  1.12101663e-04 -1.78841835e+01], [43.1490478515625]
[ 4.76604111e+01  1.12118630e-04 -1.78841869e+01], [43.19172501564026]
[ 4.76604097e+01  1.12133228e-04 -1.78841898e+01], [43.23201894760132]
[ 4.76604085e+01  1.12145784e-04 -1.78841922e+01], [43.274359703063965]
[ 4.76604075e+01  1.12156582e-04 -1.78841942e+01], [43.3174192905426]
[ 4.76604067e+01  1.12165866e-04 -1.78841959e+01], [43.35788321495056]
[ 4.76604060e+01  1.12173847e-04 -1.78841973e+01], [43.39828181266785]
[ 4.76604054e+01  1.12180708e-04 -1.78841984e+01], [43.43936562538147]
[ 4.76604050e+01  1.12186602e-04 -1.78841994e+01], [43.47999286651611]
[ 4.76604046e+01  1.12191666e-04 -1.78842002e+01], [43.5215790271759]
[ 4.76604042e+01  1.12196018e-04 -1.78842009e+01], [43.56207299232483]
[ 4.76604039e+01  1.12199755e-04 -1.78842015e+01], [43.602964878082275]
[ 4.76604037e+01  1.12202965e-04 -1.78842020e+01], [43.64372253417969]
[ 4.76604035e+01  1.12205720e-04 -1.78842024e+01], [43.68416666984558]
[ 4.76604033e+01  1.12208085e-04 -1.78842027e+01], [43.725207805633545]
[ 4.76604032e+01  1.12210117e-04 -1.78842030e+01], [43.76538848876953]
[ 4.76604031e+01  1.12211860e-04 -1.78842033e+01], [43.80695176124573]
[ 4.76604030e+01  1.12213356e-04 -1.78842035e+01], [43.84788799285889]
[ 4.76604029e+01  1.12214640e-04 -1.78842036e+01], [43.88886070251465]
[ 4.76604028e+01  1.12215742e-04 -1.78842038e+01], [43.93023943901062]
[ 4.76604028e+01  1.12216687e-04 -1.78842039e+01], [43.97072386741638]
[ 4.76604027e+01  1.12217497e-04 -1.78842040e+01], [44.01111054420471]
[ 4.76604027e+01  1.12218193e-04 -1.78842041e+01], [44.051941871643066]
[ 4.76604026e+01  1.12218789e-04 -1.78842041e+01], [44.09268808364868]
[ 4.76604026e+01  1.12219301e-04 -1.78842042e+01], [44.13289999961853]
[ 4.76604026e+01  1.12219740e-04 -1.78842042e+01], [44.174938440322876]
[ 4.76604026e+01  1.12220116e-04 -1.78842043e+01], [44.215285539627075]
[ 4.76604025e+01  1.12220437e-04 -1.78842043e+01], [44.25802993774414]
[ 4.76604025e+01  1.12220713e-04 -1.78842043e+01], [44.30067467689514]
[ 4.76604025e+01  1.12220951e-04 -1.78842044e+01], [44.34176540374756]
[ 4.76604025e+01  1.12221155e-04 -1.78842044e+01], [44.38336229324341]
[ 4.76604025e+01  1.12221330e-04 -1.78842044e+01], [44.424537897109985]
[ 4.76604025e+01  1.12221480e-04 -1.78842044e+01], [44.46662473678589]
[ 4.76604025e+01  1.12221608e-04 -1.78842044e+01], [44.50720477104187]
[ 4.76604025e+01  1.12221718e-04 -1.78842044e+01], [44.547236919403076]
[ 4.76604025e+01  1.12221813e-04 -1.78842044e+01], [44.59150528907776]
[ 4.76604025e+01  1.12221894e-04 -1.78842045e+01], [44.633994817733765]
[ 4.76604025e+01  1.12221964e-04 -1.78842045e+01], [44.67597270011902]
[ 4.76604025e+01  1.12222024e-04 -1.78842045e+01], [44.716368436813354]
[ 4.76604025e+01  1.12222075e-04 -1.78842045e+01], [44.7579984664917]
[ 4.76604025e+01  1.12222119e-04 -1.78842045e+01], [44.798128604888916]
[ 4.76604025e+01  1.12222158e-04 -1.78842045e+01], [44.839449644088745]
[ 4.76604025e+01  1.12222191e-04 -1.78842045e+01], [44.880979776382446]
[ 4.76604025e+01  1.12222220e-04 -1.78842045e+01], [44.92213988304138]
[ 4.76604025e+01  1.12222245e-04 -1.78842045e+01], [44.963244676589966]
[ 4.76604025e+01  1.12222266e-04 -1.78842045e+01], [45.00515174865723]
[ 4.76604025e+01  1.12222283e-04 -1.78842045e+01], [45.045164823532104]
[ 4.76604025e+01  1.12222300e-04 -1.78842045e+01], [45.08560037612915]
[ 4.76604025e+01  1.12222314e-04 -1.78842045e+01], [45.126272678375244]
[ 4.76604025e+01  1.12222326e-04 -1.78842045e+01], [45.16649889945984]
[ 4.76604025e+01  1.12222336e-04 -1.78842045e+01], [45.206422328948975]
[ 4.76604025e+01  1.12222345e-04 -1.78842045e+01], [45.24702739715576]
[ 4.76604025e+01  1.12222352e-04 -1.78842045e+01], [45.29253935813904]
[ 4.76604025e+01  1.12222360e-04 -1.78842045e+01], [45.333416223526]
[ 4.76604025e+01  1.12222367e-04 -1.78842045e+01], [45.37490940093994]
[ 4.76604025e+01  1.12222372e-04 -1.78842045e+01], [45.4155809879303]
[ 4.76604025e+01  1.12222377e-04 -1.78842045e+01], [45.45651030540466]
[ 4.76604025e+01  1.12222382e-04 -1.78842045e+01], [45.4991512298584]
[ 4.76604025e+01  1.12222387e-04 -1.78842045e+01], [45.55486726760864]
[ 4.76604025e+01  1.12222390e-04 -1.78842045e+01], [45.59829354286194]
[ 4.76604025e+01  1.12222392e-04 -1.78842045e+01], [45.639912605285645]
[ 4.76604025e+01  1.12222396e-04 -1.78842045e+01], [45.68105721473694]
[ 4.76604025e+01  1.12222400e-04 -1.78842045e+01], [45.72240877151489]
[ 4.76604025e+01  1.12222402e-04 -1.78842045e+01], [45.7633376121521]
[ 4.76604025e+01  1.12222405e-04 -1.78842045e+01], [45.80515003204346]
[ 4.76604025e+01  1.12222407e-04 -1.78842045e+01], [45.846760749816895]
[ 4.76604025e+01  1.12222410e-04 -1.78842045e+01], [45.88892674446106]
[ 4.76604025e+01  1.12222412e-04 -1.78842045e+01], [45.93132543563843]
[ 4.76604025e+01  1.12222413e-04 -1.78842045e+01], [45.97331118583679]
[ 4.75314627e+01  6.45278146e-05 -1.82427544e+01], [46.02128481864929]
[ 4.74082617e+01  2.15015389e-05 -1.85595013e+01], [46.06626534461975]
[ 4.73104806e+01 -1.14698138e-05 -1.88018829e+01], [46.10844683647156]
[ 4.72347595e+01 -3.44697629e-05 -1.89846662e+01], [46.149399518966675]
[ 4.71754590e+01 -4.85811792e-05 -1.91243945e+01], [46.192983865737915]
[ 4.71281507e+01 -5.51706412e-05 -1.92332307e+01], [46.23335099220276]
[ 4.70897421e+01 -5.56921497e-05 -1.93195087e+01], [46.27444410324097]
[ 4.70581089e+01 -5.15569200e-05 -1.93889265e+01], [46.31499147415161]
[ 4.70317706e+01 -4.40402153e-05 -1.94454505e+01], [46.35665416717529]
[ 4.70096670e+01 -3.42301013e-05 -1.94919092e+01], [46.39771342277527]
[ 4.69910153e+01 -2.30120640e-05 -1.95303716e+01], [46.44129300117493]
[ 4.69752185e+01 -1.10779258e-05 -1.95623896e+01], [46.49264740943909]
[ 4.69618086e+01  1.05186759e-06 -1.95891535e+01], [46.536346197128296]
[ 4.69504091e+01  1.30006414e-05 -1.96115952e+01], [46.579994440078735]
[ 4.69407117e+01  2.45076069e-05 -1.96304563e+01], [46.625014543533325]
[ 4.69324601e+01  3.54024420e-05 -1.96463355e+01], [46.66770601272583]
[ 4.69254388e+01  4.55835310e-05 -1.96597214e+01], [46.7224805355072]
[ 4.69194657e+01  5.50001048e-05 -1.96710162e+01], [46.767595529556274]
[ 4.69143860e+01  6.36380340e-05 -1.96805533e+01], [46.811607837677]
[ 4.69100677e+01  7.15088164e-05 -1.96886105e+01], [46.86326360702515]
[ 4.69063981e+01  7.86411899e-05 -1.96954200e+01], [46.90707612037659]
[ 4.69032810e+01  8.50748793e-05 -1.97011768e+01], [46.95284128189087]
[ 4.69006344e+01  9.08560002e-05 -1.97060446e+01], [46.99600315093994]
[ 4.68983880e+01  9.60337584e-05 -1.97101614e+01], [47.0523955821991]
[ 4.68964820e+01  1.00658113e-04 -1.97136434e+01], [47.0963237285614]
[ 4.68948653e+01  1.04778173e-04 -1.97165888e+01], [47.141401290893555]
[ 4.68934944e+01  1.08441134e-04 -1.97190804e+01], [47.184805393218994]
[ 4.68923323e+01  1.11691612e-04 -1.97211883e+01], [47.2383930683136]
[ 4.68913473e+01  1.14571256e-04 -1.97229716e+01], [47.28477478027344]
[ 4.68905128e+01  1.17118573e-04 -1.97244803e+01], [47.32715630531311]
[ 4.68898057e+01  1.19368888e-04 -1.97257567e+01], [47.370938777923584]
[ 4.68892068e+01  1.21354409e-04 -1.97268366e+01], [47.42143201828003]
[ 4.68886996e+01  1.23104345e-04 -1.97277503e+01], [47.46649169921875]
[ 4.68882701e+01  1.24645071e-04 -1.97285233e+01], [47.50917148590088]
[ 4.68879065e+01  1.26000321e-04 -1.97291774e+01], [47.56083393096924]
[ 4.68875986e+01  1.27191383e-04 -1.97297307e+01], [47.60326910018921]
[ 4.68873380e+01  1.28237295e-04 -1.97301989e+01], [47.64908242225647]
[ 4.68871174e+01  1.29155050e-04 -1.97305949e+01], [47.69108295440674]
[ 4.68869307e+01  1.29959778e-04 -1.97309300e+01], [47.742305755615234]
[ 4.68867727e+01  1.30664928e-04 -1.97312135e+01], [47.78678035736084]
[ 4.68866389e+01  1.31282433e-04 -1.97314534e+01], [47.829636573791504]
[ 4.68865258e+01  1.31822865e-04 -1.97316563e+01], [47.881200075149536]
[ 4.68864300e+01  1.32295576e-04 -1.97318280e+01], [47.92458176612854]
[ 4.68863490e+01  1.32708833e-04 -1.97319733e+01], [47.97021961212158]
[ 4.68862804e+01  1.33069929e-04 -1.97320961e+01], [48.01468086242676]
[ 4.68862224e+01  1.33385297e-04 -1.97322001e+01], [48.06537055969238]
[ 4.68861733e+01  1.33660601e-04 -1.97322880e+01], [48.10789775848389]
[ 4.68861318e+01  1.33900823e-04 -1.97323625e+01], [48.15323543548584]
[ 4.68860967e+01  1.34110350e-04 -1.97324254e+01], [48.198723554611206]
[ 4.68860669e+01  1.34293028e-04 -1.97324787e+01], [48.24872636795044]
[ 4.68860418e+01  1.34452237e-04 -1.97325237e+01], [48.29324269294739]
[ 4.68860205e+01  1.34590940e-04 -1.97325618e+01], [48.33875393867493]
[ 4.68860025e+01  1.34711737e-04 -1.97325941e+01], [48.381354331970215]
[ 4.68859873e+01  1.34816905e-04 -1.97326213e+01], [48.43388032913208]
[ 4.68859744e+01  1.34908435e-04 -1.97326444e+01], [48.47724437713623]
[ 4.68859635e+01  1.34988072e-04 -1.97326639e+01], [48.52219343185425]
[ 4.68859543e+01  1.35057339e-04 -1.97326804e+01], [48.56649684906006]
[ 4.68859465e+01  1.35117570e-04 -1.97326944e+01], [48.62033653259277]
[ 4.68859399e+01  1.35169930e-04 -1.97327062e+01], [48.67394948005676]
[ 4.68859343e+01  1.35215432e-04 -1.97327162e+01], [48.718801498413086]
[ 4.68859296e+01  1.35254967e-04 -1.97327247e+01], [48.76030611991882]
[ 4.68859256e+01  1.35289309e-04 -1.97327318e+01], [48.800549268722534]
[ 4.68859222e+01  1.35319132e-04 -1.97327379e+01], [48.85124325752258]
[ 4.68859194e+01  1.35345025e-04 -1.97327430e+01], [48.89504551887512]
[ 4.68859169e+01  1.35367500e-04 -1.97327473e+01], [48.94008207321167]
[ 4.68859149e+01  1.35387006e-04 -1.97327510e+01], [48.982666969299316]
[ 4.68859132e+01  1.35403931e-04 -1.97327541e+01], [49.03287744522095]
[ 4.68859117e+01  1.35418612e-04 -1.97327567e+01], [49.075363874435425]
[ 4.68859105e+01  1.35431345e-04 -1.97327589e+01], [49.12057876586914]
[ 4.68859094e+01  1.35442387e-04 -1.97327608e+01], [49.163339376449585]
[ 4.68859085e+01  1.35451959e-04 -1.97327624e+01], [49.21404266357422]
[ 4.68859078e+01  1.35460257e-04 -1.97327637e+01], [49.25831747055054]
[ 4.68859072e+01  1.35467450e-04 -1.97327649e+01], [49.303444623947144]
[ 4.68859066e+01  1.35473683e-04 -1.97327658e+01], [49.34357929229736]
[ 4.68859062e+01  1.35479083e-04 -1.97327667e+01], [49.38577222824097]
[ 4.68859058e+01  1.35483761e-04 -1.97327673e+01], [49.43760108947754]
[ 4.68859055e+01  1.35487813e-04 -1.97327679e+01], [49.48158001899719]
[ 4.68859052e+01  1.35491323e-04 -1.97327684e+01], [49.52808713912964]
[ 4.68859050e+01  1.35494361e-04 -1.97327688e+01], [49.56923055648804]
[ 4.68859048e+01  1.35496993e-04 -1.97327692e+01], [49.61052393913269]
[ 4.68859046e+01  1.35499270e-04 -1.97327695e+01], [49.66380500793457]
[ 4.68859044e+01  1.35501242e-04 -1.97327697e+01], [49.70681619644165]
[ 4.68859043e+01  1.35502949e-04 -1.97327699e+01], [49.74785780906677]
[ 4.68859042e+01  1.35504426e-04 -1.97327701e+01], [49.78944635391235]
[ 4.68859041e+01  1.35505703e-04 -1.97327703e+01], [49.8288938999176]
[ 4.68859041e+01  1.35506809e-04 -1.97327704e+01], [49.86785697937012]
[ 4.68859040e+01  1.35507767e-04 -1.97327705e+01], [49.90966844558716]
[ 4.68859040e+01  1.35508594e-04 -1.97327706e+01], [49.948864221572876]
[ 4.68859039e+01  1.35509311e-04 -1.97327707e+01], [49.988868951797485]
[ 4.68859039e+01  1.35509930e-04 -1.97327708e+01], [50.02943158149719]
[ 4.68859038e+01  1.35510466e-04 -1.97327708e+01], [50.06856822967529]
[ 4.68859038e+01  1.35510930e-04 -1.97327709e+01], [50.10866189002991]
[ 4.68859038e+01  1.35511331e-04 -1.97327709e+01], [50.14974093437195]
[ 4.68859038e+01  1.35511679e-04 -1.97327709e+01], [50.18921709060669]
[ 4.68859038e+01  1.35511979e-04 -1.97327710e+01], [50.22898745536804]
[ 4.68859038e+01  1.35512238e-04 -1.97327710e+01], [50.27082443237305]
[ 4.68859037e+01  1.35512462e-04 -1.97327710e+01], [50.311556339263916]
[ 4.67424411e+01  7.96171380e-05 -2.00753366e+01], [50.357028007507324]
[ 4.66081637e+01  2.91905709e-05 -2.03753801e+01], [50.40021824836731]
[ 4.65023943e+01 -9.73941171e-06 -2.06043089e+01], [50.44118022918701]
[ 4.64204727e+01 -3.72790119e-05 -2.07773223e+01], [50.49435806274414]
[ 4.63559502e+01 -5.46162600e-05 -2.09104166e+01], [50.538546323776245]
[ 4.63039947e+01 -6.32734186e-05 -2.10150484e+01], [50.57781004905701]
[ 4.62613323e+01 -6.48962739e-05 -2.10989203e+01], [50.61687612533569]
[ 4.62257645e+01 -6.10964225e-05 -2.11672245e+01], [50.65626573562622]
[ 4.61957834e+01 -5.33346311e-05 -2.12235407e+01], [50.69828796386719]
[ 4.61703188e+01 -4.28568204e-05 -2.12704091e+01], [50.7409930229187]
[ 4.61485817e+01 -3.06751892e-05 -2.13096878e+01], [50.78215527534485]
[ 4.61299682e+01 -1.75792651e-05 -2.13427756e+01], [50.82137656211853]
[ 4.61140000e+01 -4.16282068e-06 -2.13707536e+01], [50.860661029815674]
[ 4.61002878e+01  9.14337739e-06 -2.13944760e+01], [50.90281939506531]
[ 4.60885086e+01  2.20390205e-05 -2.14146305e+01], [50.94272422790527]
[ 4.60783896e+01  3.43250613e-05 -2.14317787e+01], [50.98215389251709]
[ 4.60696988e+01  4.58790447e-05 -2.14463845e+01], [51.02126502990723]
[ 4.60622371e+01  5.66351256e-05 -2.14588344e+01], [51.061068534851074]
[ 4.60558334e+01  6.65683445e-05 -2.14694527e+01], [51.10304522514343]
[ 4.60503400e+01  7.56825277e-05 -2.14785127e+01], [51.15275549888611]
[ 4.60456296e+01  8.40011452e-05 -2.14862453e+01], [51.19764709472656]
[ 4.60415923e+01  9.15605055e-05 -2.14928465e+01], [51.24178409576416]
[ 4.60381332e+01  9.84047766e-05 -2.14984829e+01], [51.283451557159424]
[ 4.60351706e+01  1.04582373e-04 -2.15032959e+01], [51.33458399772644]
[ 4.60326341e+01  1.10143391e-04 -2.15074063e+01], [51.37710976600647]
[ 4.60304630e+01  1.15137817e-04 -2.15109168e+01], [51.4226861000061]
[ 4.60286051e+01  1.19614315e-04 -2.15139152e+01], [51.46499967575073]
[ 4.60270157e+01  1.23619434e-04 -2.15164763e+01], [51.51603174209595]
[ 4.60256563e+01  1.27197103e-04 -2.15186638e+01], [51.55973815917969]
[ 4.60244937e+01  1.30388363e-04 -2.15205323e+01], [51.605101108551025]
[ 4.60234997e+01  1.33231262e-04 -2.15221284e+01], [51.6475625038147]
[ 4.60226499e+01  1.35760835e-04 -2.15234918e+01], [51.700621604919434]
[ 4.60219235e+01  1.38009175e-04 -2.15246563e+01], [51.74320340156555]
[ 4.60213026e+01  1.40005552e-04 -2.15256511e+01], [51.78835153579712]
[ 4.60207720e+01  1.41776561e-04 -2.15265008e+01], [51.83021593093872]
[ 4.60203186e+01  1.43346287e-04 -2.15272266e+01], [51.883066177368164]
[ 4.60199311e+01  1.44736490e-04 -2.15278466e+01], [51.92757964134216]
[ 4.60196000e+01  1.45966770e-04 -2.15283761e+01], [51.97102928161621]
[ 4.60193172e+01  1.47054755e-04 -2.15288285e+01], [52.022592306137085]
[ 4.60190756e+01  1.48016256e-04 -2.15292148e+01], [52.068161725997925]
[ 4.60188691e+01  1.48865442e-04 -2.15295449e+01], [52.113537073135376]
[ 4.60186928e+01  1.49614985e-04 -2.15298268e+01], [52.15573453903198]
[ 4.60185421e+01  1.50276202e-04 -2.15300676e+01], [52.20734786987305]
[ 4.60184134e+01  1.50859188e-04 -2.15302732e+01], [52.25148963928223]
[ 4.60183035e+01  1.51372933e-04 -2.15304489e+01], [52.29689621925354]
[ 4.60182096e+01  1.51825441e-04 -2.15305989e+01], [52.338980197906494]
[ 4.60181294e+01  1.52223825e-04 -2.15307271e+01], [52.39148926734924]
[ 4.60180609e+01  1.52574401e-04 -2.15308365e+01], [52.43433737754822]
[ 4.60180024e+01  1.52882778e-04 -2.15309300e+01], [52.47986054420471]
[ 4.60179524e+01  1.53153923e-04 -2.15310099e+01], [52.52219867706299]
[ 4.60179098e+01  1.53392239e-04 -2.15310781e+01], [52.57520627975464]
[ 4.60178733e+01  1.53601621e-04 -2.15311363e+01], [52.61987280845642]
[ 4.60178422e+01  1.53785516e-04 -2.15311861e+01], [52.66195297241211]
[ 4.60178156e+01  1.53946971e-04 -2.15312286e+01], [52.703030824661255]
[ 4.60177929e+01  1.54088677e-04 -2.15312649e+01], [52.753894567489624]
[ 4.60177735e+01  1.54213011e-04 -2.15312959e+01], [52.7990243434906]
[ 4.60177569e+01  1.54322068e-04 -2.15313223e+01], [52.84363865852356]
[ 4.60177428e+01  1.54417698e-04 -2.15313450e+01], [52.88523983955383]
[ 4.60177307e+01  1.54501530e-04 -2.15313643e+01], [52.937159061431885]
[ 4.60177203e+01  1.54574999e-04 -2.15313808e+01], [52.97970914840698]
[ 4.60177115e+01  1.54639368e-04 -2.15313949e+01], [53.024404525756836]
[ 4.60177040e+01  1.54695752e-04 -2.15314069e+01], [53.06637668609619]
[ 4.60176976e+01  1.54745127e-04 -2.15314172e+01], [53.10798358917236]
[ 4.60176921e+01  1.54788356e-04 -2.15314259e+01], [53.161234855651855]
[ 4.60176874e+01  1.54826194e-04 -2.15314334e+01], [53.20740032196045]
[ 4.60176834e+01  1.54859306e-04 -2.15314398e+01], [53.2494421005249]
[ 4.60176800e+01  1.54888276e-04 -2.15314453e+01], [53.292842864990234]
[ 4.60176770e+01  1.54913618e-04 -2.15314500e+01], [53.34643745422363]
[ 4.60176746e+01  1.54935780e-04 -2.15314540e+01], [53.39250302314758]
[ 4.60176724e+01  1.54955159e-04 -2.15314574e+01], [53.435057163238525]
[ 4.60176706e+01  1.54972101e-04 -2.15314603e+01], [53.479809522628784]
[ 4.60176690e+01  1.54986908e-04 -2.15314628e+01], [53.5305700302124]
[ 4.60176677e+01  1.54999850e-04 -2.15314649e+01], [53.57329058647156]
[ 4.60176666e+01  1.55011157e-04 -2.15314667e+01], [53.62370324134827]
[ 4.60176656e+01  1.55021035e-04 -2.15314682e+01], [53.67519521713257]
[ 4.60176648e+01  1.55029664e-04 -2.15314696e+01], [53.71879863739014]
[ 4.60176641e+01  1.55037199e-04 -2.15314707e+01], [53.76118850708008]
[ 4.60176635e+01  1.55043779e-04 -2.15314717e+01], [53.80544090270996]
[ 4.60176630e+01  1.55049523e-04 -2.15314725e+01], [53.846816539764404]
[ 4.60176625e+01  1.55054539e-04 -2.15314732e+01], [53.89816117286682]
[ 4.60176622e+01  1.55058917e-04 -2.15314738e+01], [53.94139242172241]
[ 4.60176618e+01  1.55062738e-04 -2.15314743e+01], [53.9873149394989]
[ 4.60176616e+01  1.55066072e-04 -2.15314747e+01], [54.028525829315186]
[ 4.60176613e+01  1.55068980e-04 -2.15314751e+01], [54.07758331298828]
[ 4.60176611e+01  1.55071518e-04 -2.15314754e+01], [54.12074637413025]
[ 4.60176610e+01  1.55073732e-04 -2.15314757e+01], [54.16572856903076]
[ 4.60176608e+01  1.55075664e-04 -2.15314759e+01], [54.208712100982666]
[ 4.60176607e+01  1.55077347e-04 -2.15314761e+01], [54.25852036476135]
[ 4.60176606e+01  1.55078817e-04 -2.15314763e+01], [54.30249905586243]
[ 4.60176605e+01  1.55080100e-04 -2.15314764e+01], [54.3503532409668]
[ 4.60176604e+01  1.55081217e-04 -2.15314766e+01], [54.39218330383301]
[ 4.60176603e+01  1.55082191e-04 -2.15314767e+01], [54.44130063056946]
[ 4.60176603e+01  1.55083041e-04 -2.15314768e+01], [54.48477292060852]
[ 4.60176602e+01  1.55083781e-04 -2.15314768e+01], [54.52975010871887]
[ 4.60176602e+01  1.55084426e-04 -2.15314769e+01], [54.572893381118774]
[ 4.60176602e+01  1.55084988e-04 -2.15314770e+01], [54.623661279678345]
[ 4.60176601e+01  1.55085478e-04 -2.15314770e+01], [54.66656756401062]
[ 4.60176601e+01  1.55085906e-04 -2.15314771e+01], [54.71176052093506]
[ 4.60176601e+01  1.55086278e-04 -2.15314771e+01], [54.75297260284424]
[ 4.60176601e+01  1.55086603e-04 -2.15314771e+01], [54.803274393081665]
[ 4.60176600e+01  1.55086887e-04 -2.15314771e+01], [54.84525990486145]
[ 4.60176600e+01  1.55087135e-04 -2.15314772e+01], [54.890376567840576]
[ 4.60176600e+01  1.55087351e-04 -2.15314772e+01], [54.93397378921509]
[ 4.60176600e+01  1.55087540e-04 -2.15314772e+01], [54.98309826850891]
[ 4.60176600e+01  1.55087704e-04 -2.15314772e+01], [55.031399726867676]
[ 4.60176600e+01  1.55087848e-04 -2.15314772e+01], [55.072606325149536]
[ 4.60176600e+01  1.55087972e-04 -2.15314772e+01], [55.116615533828735]
[ 4.60176600e+01  1.55088079e-04 -2.15314772e+01], [55.163689374923706]
[ 4.60176600e+01  1.55088175e-04 -2.15314773e+01], [55.208762407302856]
[ 4.60176600e+01  1.55088258e-04 -2.15314773e+01], [55.25889778137207]
[ 4.60176600e+01  1.55088332e-04 -2.15314773e+01], [55.30569505691528]
[ 4.60176600e+01  1.55088396e-04 -2.15314773e+01], [55.35402989387512]
[ 4.60176600e+01  1.55088452e-04 -2.15314773e+01], [55.39731955528259]
[ 4.60176600e+01  1.55088500e-04 -2.15314773e+01], [55.44050908088684]
[ 4.60176600e+01  1.55088542e-04 -2.15314773e+01], [55.49212908744812]
[ 4.60176600e+01  1.55088580e-04 -2.15314773e+01], [55.53797173500061]
[ 4.60176600e+01  1.55088614e-04 -2.15314773e+01], [55.58707809448242]
[ 4.60176600e+01  1.55088643e-04 -2.15314773e+01], [55.62986516952515]
[ 4.60176600e+01  1.55088668e-04 -2.15314773e+01], [55.669074058532715]
[ 4.60176600e+01  1.55088689e-04 -2.15314773e+01], [55.73058271408081]
[ 4.60176600e+01  1.55088710e-04 -2.15314773e+01], [55.77907991409302]
[ 4.60176600e+01  1.55088727e-04 -2.15314773e+01], [55.82437467575073]
[ 4.60176600e+01  1.55088745e-04 -2.15314773e+01], [55.869659185409546]
[ 4.60176600e+01  1.55088758e-04 -2.15314773e+01], [55.91509747505188]
[ 4.60176600e+01  1.55088771e-04 -2.15314773e+01], [55.962810754776]
[ 4.60176600e+01  1.55088782e-04 -2.15314773e+01], [56.007949352264404]
[ 4.60176600e+01  1.55088792e-04 -2.15314773e+01], [56.052241802215576]
[ 4.60176600e+01  1.55088800e-04 -2.15314773e+01], [56.09422755241394]
[ 4.60176600e+01  1.55088809e-04 -2.15314773e+01], [56.13572335243225]
[ 4.60176600e+01  1.55088817e-04 -2.15314773e+01], [56.17745018005371]
[ 4.60176600e+01  1.55088824e-04 -2.15314773e+01], [56.2172155380249]
[ 4.60176600e+01  1.55088832e-04 -2.15314773e+01], [56.257508993148804]
[ 4.60176600e+01  1.55088837e-04 -2.15314773e+01], [56.298828125]
[ 4.60176600e+01  1.55088841e-04 -2.15314773e+01], [56.33932185173035]
[ 4.60176600e+01  1.55088846e-04 -2.15314773e+01], [56.37944006919861]
[ 4.60176600e+01  1.55088851e-04 -2.15314773e+01], [56.419947385787964]
[ 4.60176600e+01  1.55088855e-04 -2.15314773e+01], [56.45979142189026]
[ 4.60176600e+01  1.55088858e-04 -2.15314773e+01], [56.49996590614319]
[ 4.60176600e+01  1.55088862e-04 -2.15314773e+01], [56.54133486747742]
[ 4.60176600e+01  1.55088867e-04 -2.15314773e+01], [56.580549001693726]
[ 4.60176600e+01  1.55088872e-04 -2.15314773e+01], [56.6192729473114]
[ 4.60176600e+01  1.55088874e-04 -2.15314773e+01], [56.658921003341675]
[ 4.60176600e+01  1.55088878e-04 -2.15314773e+01], [56.70156455039978]
[ 4.60176600e+01  1.55088881e-04 -2.15314773e+01], [56.74165892601013]
[ 4.60176600e+01  1.55088885e-04 -2.15314773e+01], [56.78188633918762]
[ 4.60176600e+01  1.55088888e-04 -2.15314773e+01], [56.822855710983276]
[ 4.60176600e+01  1.55088892e-04 -2.15314773e+01], [56.862621545791626]
[ 4.60176600e+01  1.55088895e-04 -2.15314773e+01], [56.90543270111084]
[ 4.60176600e+01  1.55088898e-04 -2.15314773e+01], [56.94769072532654]
[ 4.60176600e+01  1.55088901e-04 -2.15314773e+01], [56.989322662353516]
[ 4.60176600e+01  1.55088904e-04 -2.15314773e+01], [57.03006625175476]
[ 4.60176600e+01  1.55088906e-04 -2.15314773e+01], [57.07195019721985]
[ 4.60176600e+01  1.55088909e-04 -2.15314773e+01], [57.11233162879944]
[ 4.60176600e+01  1.55088912e-04 -2.15314773e+01], [57.15338373184204]
[ 4.60176600e+01  1.55088915e-04 -2.15314773e+01], [57.19341158866882]
[ 4.60176600e+01  1.55088918e-04 -2.15314773e+01], [57.234094858169556]
[ 4.60176600e+01  1.55088920e-04 -2.15314773e+01], [57.276524782180786]
[ 4.60176600e+01  1.55088921e-04 -2.15314773e+01], [57.31748104095459]
[ 4.60176600e+01  1.55088924e-04 -2.15314773e+01], [57.35935831069946]
[ 4.60176600e+01  1.55088929e-04 -2.15314773e+01], [57.401649713516235]
[ 4.60176600e+01  1.55088931e-04 -2.15314773e+01], [57.44228982925415]
[ 4.60176600e+01  1.55088933e-04 -2.15314773e+01], [57.48274803161621]
[ 4.60176600e+01  1.55088936e-04 -2.15314773e+01], [57.52539348602295]
[ 4.60176600e+01  1.55088938e-04 -2.15314773e+01], [57.56912159919739]
[ 4.60176600e+01  1.55088941e-04 -2.15314773e+01], [57.6103994846344]
[ 4.60176600e+01  1.55088944e-04 -2.15314773e+01], [57.65270280838013]
[ 4.60176600e+01  1.55088947e-04 -2.15314773e+01], [57.695645809173584]
[ 4.60176600e+01  1.55088949e-04 -2.15314773e+01], [57.7380633354187]
[ 4.60176600e+01  1.55088951e-04 -2.15314773e+01], [57.779041051864624]
[ 4.60176600e+01  1.55088954e-04 -2.15314773e+01], [57.820711612701416]
[ 4.60176600e+01  1.55088956e-04 -2.15314773e+01], [57.86226677894592]
[ 4.60176600e+01  1.55088959e-04 -2.15314773e+01], [57.9058632850647]
[ 4.60176600e+01  1.55088961e-04 -2.15314773e+01], [57.94673156738281]
[ 4.60176600e+01  1.55088964e-04 -2.15314773e+01], [57.99009728431702]
[ 4.60176600e+01  1.55088967e-04 -2.15314773e+01], [58.0318820476532]
[ 4.60176600e+01  1.55088969e-04 -2.15314773e+01], [58.07400727272034]
[ 4.60176600e+01  1.55088971e-04 -2.15314773e+01], [58.11506199836731]
[ 4.60176600e+01  1.55088973e-04 -2.15314773e+01], [58.157410860061646]
[ 4.60176600e+01  1.55088977e-04 -2.15314773e+01], [58.19856524467468]
[ 4.60176600e+01  1.55088981e-04 -2.15314773e+01], [58.24269080162048]
[ 4.60176600e+01  1.55088983e-04 -2.15314773e+01], [58.28649377822876]
[ 4.60176600e+01  1.55088986e-04 -2.15314773e+01], [58.32800841331482]
[ 4.60176600e+01  1.55088989e-04 -2.15314773e+01], [58.37035131454468]
[ 4.60176600e+01  1.55088993e-04 -2.15314773e+01], [58.41100835800171]
[ 4.60176600e+01  1.55088994e-04 -2.15314773e+01], [58.452373027801514]
[ 4.60176600e+01  1.55088997e-04 -2.15314773e+01], [58.49411082267761]
[ 4.60176600e+01  1.55088999e-04 -2.15314773e+01], [58.535364389419556]
[ 4.60176600e+01  1.55089000e-04 -2.15314773e+01], [58.5763578414917]
[ 4.60176600e+01  1.55089003e-04 -2.15314773e+01], [58.61891770362854]
[ 4.60176600e+01  1.55089005e-04 -2.15314773e+01], [58.6602098941803]
[ 4.60176600e+01  1.55089008e-04 -2.15314773e+01], [58.70166254043579]
[ 4.60176600e+01  1.55089012e-04 -2.15314773e+01], [58.7429633140564]
[ 4.60176600e+01  1.55089014e-04 -2.15314773e+01], [58.78703212738037]
[ 4.60176600e+01  1.55089017e-04 -2.15314773e+01], [58.82786583900452]
[ 4.60176600e+01  1.55089020e-04 -2.15314773e+01], [58.87011981010437]
[ 4.60176600e+01  1.55089023e-04 -2.15314773e+01], [58.9125440120697]
[ 4.60176600e+01  1.55089026e-04 -2.15314773e+01], [58.95351243019104]
