[ 0.  0. 58.], [1.9208705425262451]
[ 0.  0. 58.], [3.1860909461975098]
[ 0.  0. 58.], [3.3056554794311523]
[ 0.  0. 58.], [3.416086196899414]
[ 0.  0. 58.], [3.5265870094299316]
[ 0.  0. 58.], [3.6368069648742676]
[ 0.  0. 58.], [3.747652769088745]
[ 0.  0. 58.], [3.8608381748199463]
[ 0.  0. 58.], [3.971991777420044]
[ 0.  0. 58.], [4.0875372886657715]
[ 0.  0. 58.], [4.2180399894714355]
[ 0.  0. 58.], [4.332752704620361]
[ 0.  0. 58.], [4.444132089614868]
[ 0.  0. 58.], [4.554046154022217]
[ 0.  0. 58.], [4.665600061416626]
[ 0.  0. 58.], [4.776153087615967]
[ 0.  0. 58.], [4.886034727096558]
[ 0.  0. 58.], [4.995155096054077]
[ 0.  0. 58.], [5.1048102378845215]
[ 0.  0. 58.], [5.214470863342285]
[ 0.  0. 58.], [5.325835943222046]
[ 0.  0. 58.], [5.436688423156738]
[ 0.  0. 58.], [5.546445608139038]
[ 0.  0. 58.], [5.6556127071380615]
[ 0.  0. 58.], [5.764944791793823]
[ 0.  0. 58.], [5.87723183631897]
[ 0.  0. 58.], [5.989127159118652]
[ 0.  0. 58.], [6.101447582244873]
[ 0.  0. 58.], [6.212465524673462]
[ 0.  0. 58.], [6.322971820831299]
[ 0.  0. 58.], [6.4346935749053955]
[ 0.  0. 58.], [6.545293807983398]
[ 0.  0. 58.], [6.659546613693237]
[ 0.  0. 58.], [6.771772384643555]
[ 0.  0. 58.], [6.884322166442871]
[ 0.  0. 58.], [6.995919227600098]
[ 0.  0. 58.], [7.111631155014038]
[ 0.  0. 58.], [7.2273945808410645]
[ 0.  0. 58.], [7.338014602661133]
[ 0.  0. 58.], [7.449052810668945]
[ 0.  0. 58.], [7.560448884963989]
[ 0.  0. 58.], [7.671597719192505]
[ 0.  0. 58.], [7.7824928760528564]
[ 0.  0. 58.], [7.893430709838867]
[ 0.  0. 58.], [8.006243228912354]
[ 0.  0. 58.], [8.117176294326782]
[ 0.  0. 58.], [8.227124691009521]
[ 0.  0. 58.], [8.33936858177185]
[ 0.  0. 58.], [8.453226327896118]
[ 0.  0. 58.], [8.570460557937622]
[ 0.  0. 58.], [8.681942224502563]
[ 0.  0. 58.], [8.794294357299805]
[ 0.  0. 58.], [8.905173778533936]
[ 0.  0. 58.], [9.02053451538086]
[ 0.  0. 58.], [9.131268978118896]
[ 0.  0. 58.], [9.24115252494812]
[ 0.  0. 58.], [9.351562738418579]
[ 0.  0. 58.], [9.461649417877197]
[ 0.  0. 58.], [9.571260929107666]
[ 0.  0. 58.], [9.681143760681152]
[ 0.  0. 58.], [9.79664158821106]
[ 0.  0. 58.], [9.90860652923584]
[ 0.  0. 58.], [10.020851850509644]
[ 0.  0. 58.], [10.131788730621338]
[ 0.  0. 58.], [10.246424436569214]
[ 0.  0. 58.], [10.357883930206299]
[ 0.  0. 58.], [10.469825029373169]
[ 0.  0. 58.], [10.579798460006714]
[ 0.  0. 58.], [10.689959526062012]
[ 0.  0. 58.], [10.801204919815063]
[ 0.  0. 58.], [10.911954641342163]
[ 0.  0. 58.], [11.022359609603882]
[ 0.  0. 58.], [11.132647275924683]
[ 0.  0. 58.], [11.243510723114014]
[ 0.  0. 58.], [11.355319499969482]
[ 0.  0. 58.], [11.46571946144104]
[ 0.  0. 58.], [11.57717514038086]
[ 0.  0. 58.], [11.688660144805908]
[ 0.  0. 58.], [11.801382541656494]
[ 0.  0. 58.], [11.912092685699463]
[ 0.  0. 58.], [12.024269342422485]
[ 0.  0. 58.], [12.135989427566528]
[ 0.  0. 58.], [12.248929500579834]
[ 0.  0. 58.], [12.365181684494019]
[ 0.  0. 58.], [12.480286359786987]
[ 0.  0. 58.], [12.592246294021606]
[ 0.  0. 58.], [12.703589916229248]
[ 0.  0. 58.], [12.817523002624512]
[ 0.  0. 58.], [12.927735805511475]
[ 0.  0. 58.], [13.038341999053955]
[ 0.  0. 58.], [13.149142265319824]
[ 0.  0. 58.], [13.264407396316528]
[ 0.  0. 58.], [13.376758575439453]
[ 0.  0. 58.], [13.498610734939575]
[ 0.  0. 58.], [13.610107183456421]
[ 0.  0. 58.], [13.722057819366455]
[ 0.  0. 58.], [13.834378242492676]
[ 0.  0. 58.], [13.945926666259766]
[ 0.  0. 58.], [14.059688568115234]
[ 0.  0. 58.], [14.171759128570557]
[ 0.  0. 58.], [14.282588720321655]
[ 0.  0. 58.], [14.394882440567017]
[ 0.  0. 58.], [14.50521445274353]
[ 0.  0. 58.], [14.615613222122192]
[ 0.  0. 58.], [14.726375818252563]
[ 0.  0. 58.], [14.839632511138916]
[ 0.  0. 58.], [14.948331117630005]
[ 0.  0. 58.], [15.059648513793945]
[ 0.  0. 58.], [15.171172857284546]
[ 0.  0. 58.], [15.282796144485474]
[ 0.  0. 58.], [15.39480471611023]
[ 0.  0. 58.], [15.511497497558594]
[ 0.  0. 58.], [15.629729509353638]
[ 0.  0. 58.], [15.74651837348938]
[ 0.  0. 58.], [15.863624572753906]
[ 0.  0. 58.], [15.97949504852295]
[ 0.  0. 58.], [16.095587730407715]
[ 0.  0. 58.], [16.211602687835693]
[ 0.  0. 58.], [16.329798460006714]
[ 0.  0. 58.], [16.446768283843994]
[ 0.  0. 58.], [16.562822103500366]
[ 0.  0. 58.], [16.68023991584778]
[ 0.  0. 58.], [16.79278826713562]
[ 0.  0. 58.], [16.90359401702881]
[ 0.  0. 58.], [17.020994663238525]
[ 0.  0. 58.], [17.137336015701294]
[ 0.  0. 58.], [17.257713556289673]
[ 0.  0. 58.], [17.39677095413208]
[ 0.  0. 58.], [17.53555917739868]
[ 0.  0. 58.], [17.67057490348816]
[ 0.  0. 58.], [17.80650520324707]
[ 0.  0. 58.], [17.940754890441895]
[ 0.  0. 58.], [18.066317319869995]
[ 0.  0. 58.], [18.182633638381958]
[ 0.  0. 58.], [18.318371057510376]
[ 0.  0. 58.], [18.45346426963806]
[ 0.  0. 58.], [18.575469970703125]
[ 0.  0. 58.], [18.68571710586548]
[ 0.  0. 58.], [18.795743942260742]
[ 0.  0. 58.], [18.906952142715454]
[ 0.  0. 58.], [19.01678967475891]
[ 0.  0. 58.], [19.127466678619385]
[ 0.  0. 58.], [19.23938298225403]
[ 0.  0. 58.], [19.35055422782898]
[ 0.  0. 58.], [19.46108841896057]
[ 0.  0. 58.], [19.57098126411438]
[ 0.  0. 58.], [19.682149410247803]
[ 0.  0. 58.], [19.792837619781494]
[ 0.  0. 58.], [19.906222105026245]
[ 0.  0. 58.], [20.01811146736145]
[ 0.  0. 58.], [20.129255056381226]
[ 0.  0. 58.], [20.243162155151367]
[ 0.  0. 58.], [20.354660987854004]
[ 0.  0. 58.], [20.467206239700317]
[ 0.  0. 58.], [20.577250480651855]
[ 0.  0. 58.], [20.68682026863098]
[ 0.  0. 58.], [20.797314167022705]
[ 0.  0. 58.], [20.908539533615112]
[ 0.  0. 58.], [21.018487453460693]
[ 0.  0. 58.], [21.130824089050293]
[ 0.  0. 58.], [21.24261450767517]
[ 0.  0. 58.], [21.358624696731567]
[ 0.  0. 58.], [21.47457504272461]
[ 0.  0. 58.], [21.585473775863647]
[ 0.  0. 58.], [21.69789719581604]
[ 0.  0. 58.], [21.810386657714844]
[ 0.  0. 58.], [21.923206090927124]
[ 0.  0. 58.], [22.034984350204468]
[ 0.  0. 58.], [22.146509885787964]
[ 0.  0. 58.], [22.257188320159912]
[ 0.  0. 58.], [22.370845079421997]
[ 0.  0. 58.], [22.481680393218994]
[ 0.  0. 58.], [22.592539310455322]
[ 0.  0. 58.], [22.702974319458008]
[ 0.  0. 58.], [22.814896821975708]
[ 0.  0. 58.], [22.92482876777649]
[ 0.  0. 58.], [23.037094116210938]
[ 0.  0. 58.], [23.148406744003296]
[ 0.  0. 58.], [23.26009964942932]
[ 0.  0. 58.], [23.370980739593506]
[ 0.  0. 58.], [23.481485605239868]
[ 0.  0. 58.], [23.595278024673462]
[ 0.  0. 58.], [23.71194076538086]
[ 0.  0. 58.], [23.831136465072632]
[ 0.  0. 58.], [23.942622423171997]
[ 0.  0. 58.], [24.053856372833252]
[ 0.  0. 58.], [24.16532301902771]
[ 0.  0. 58.], [24.277186393737793]
[ 0.  0. 58.], [24.38811421394348]
[ 0.  0. 58.], [24.500160694122314]
[ 0.  0. 58.], [24.610289573669434]
[ 0.  0. 58.], [24.720930576324463]
[ 0.  0. 58.], [24.843934059143066]
[ 0.  0. 58.], [24.954395055770874]
[ 0.  0. 58.], [25.064912796020508]
[ 0.  0. 58.], [25.17535662651062]
[ 0.  0. 58.], [25.2876877784729]
[ 0.  0. 58.], [25.400238037109375]
[ 0.  0. 58.], [25.5111985206604]
[ 0.  0. 58.], [25.622774124145508]
[ 0.  0. 58.], [25.734270095825195]
[ 0.  0. 58.], [25.846824645996094]
[ 0.  0. 58.], [25.959866523742676]
[ 0.  0. 58.], [26.07163405418396]
[ 0.  0. 58.], [26.182451725006104]
[ 0.  0. 58.], [26.31923508644104]
[ 0.  0. 58.], [26.43639063835144]
[ 0.  0. 58.], [26.551857471466064]
[ 0.  0. 58.], [26.66802191734314]
[ 0.  0. 58.], [26.781882524490356]
[ 0.  0. 58.], [26.91456651687622]
[ 0.  0. 58.], [27.026659727096558]
[ 0.  0. 58.], [27.13994574546814]
[ 0.  0. 58.], [27.255180835723877]
[ 0.  0. 58.], [27.371457815170288]
[ 0.  0. 58.], [27.498026132583618]
[ 0.  0. 58.], [27.613327264785767]
[ 0.  0. 58.], [27.72702383995056]
[ 0.  0. 58.], [27.84487557411194]
[ 0.  0. 58.], [27.963414192199707]
[ 0.  0. 58.], [28.07665705680847]
[ 0.  0. 58.], [28.188358783721924]
[ 0.  0. 58.], [28.299660682678223]
[ 0.  0. 58.], [28.4169921875]
[ 0.  0. 58.], [28.533023595809937]
[ 0.  0. 58.], [28.660061836242676]
[ 0.  0. 58.], [28.77586340904236]
[ 0.  0. 58.], [28.88973593711853]
[ 0.  0. 58.], [29.00425148010254]
[ 0.  0. 58.], [29.115689516067505]
[ 0.  0. 58.], [29.22659659385681]
[ 0.  0. 58.], [29.353999376296997]
[ 0.  0. 58.], [29.48628330230713]
[ 0.  0. 58.], [29.61394762992859]
[ 0.  0. 58.], [29.74044895172119]
[ 0.  0. 58.], [29.86684823036194]
[ 0.  0. 58.], [29.99279236793518]
[ 0.  0. 58.], [30.11496615409851]
[ 0.  0. 58.], [30.239129066467285]
[ 0.  0. 58.], [30.35770297050476]
[ 0.  0. 58.], [30.47405743598938]
[ 0.  0. 58.], [30.586087703704834]
[ 0.  0. 58.], [30.700446128845215]
[ 0.  0. 58.], [30.813676118850708]
[ 0.  0. 58.], [30.92862558364868]
[ 0.  0. 58.], [31.04188847541809]
[ 0.  0. 58.], [31.15446448326111]
[ 0.  0. 58.], [31.268235206604004]
[ 0.  0. 58.], [31.382945775985718]
[ 0.  0. 58.], [31.50114631652832]
[ 0.  0. 58.], [31.618882417678833]
[ 0.  0. 58.], [31.739189624786377]
[ 0.  0. 58.], [31.877263069152832]
[ 0.  0. 58.], [32.014599561691284]
[ 0.  0. 58.], [32.132384300231934]
[ 0.  0. 58.], [32.252264976501465]
[ 0.  0. 58.], [32.363964557647705]
[ 0.  0. 58.], [32.48028111457825]
[ 0.  0. 58.], [32.597088098526]
[ 0.  0. 58.], [32.711803913116455]
[ 0.  0. 58.], [32.82524871826172]
[ 0.  0. 58.], [32.94295883178711]
[ 0.  0. 58.], [33.05963206291199]
[ 0.  0. 58.], [33.172062397003174]
[ 0.  0. 58.], [33.28869104385376]
[ 0.  0. 58.], [33.40491509437561]
[ 0.  0. 58.], [33.51659846305847]
[ 0.  0. 58.], [33.6285400390625]
[ 0.  0. 58.], [33.7453408241272]
[ 0.  0. 58.], [33.859639406204224]
[ 0.  0. 58.], [33.97509407997131]
[ 0.  0. 58.], [34.095494747161865]
[ 0.  0. 58.], [34.211504220962524]
[ 0.  0. 58.], [34.32898736000061]
[ 0.  0. 58.], [34.45378756523132]
[ 0.  0. 58.], [34.56821846961975]
[ 0.  0. 58.], [34.68363642692566]
[ 0.  0. 58.], [34.797075033187866]
[ 0.  0. 58.], [34.90987181663513]
[ 0.  0. 58.], [35.022977113723755]
[ 0.  0. 58.], [35.13885974884033]
[ 0.  0. 58.], [35.25181579589844]
[ 0.  0. 58.], [35.36953568458557]
[ 0.  0. 58.], [35.49040460586548]
[ 0.  0. 58.], [35.602468967437744]
[ 0.  0. 58.], [35.71474647521973]
[ 0.  0. 58.], [35.82949376106262]
[ 0.  0. 58.], [35.9482798576355]
[ 0.  0. 58.], [36.06722569465637]
[ 0.  0. 58.], [36.18473219871521]
[ 0.  0. 58.], [36.29988360404968]
[ 0.  0. 58.], [36.41270446777344]
[ 0.  0. 58.], [36.526753425598145]
[ 0.  0. 58.], [36.63856768608093]
[ 0.  0. 58.], [36.750555992126465]
[ 0.  0. 58.], [36.86513638496399]
[ 0.  0. 58.], [36.97837829589844]
[ 0.  0. 58.], [37.090564012527466]
[ 0.  0. 58.], [37.202946186065674]
[ 0.  0. 58.], [37.314863204956055]
[ 0.  0. 58.], [37.427565813064575]
[ 0.  0. 58.], [37.5481059551239]
[ 0.  0. 58.], [37.66279077529907]
[ 0.  0. 58.], [37.784558057785034]
[ 0.  0. 58.], [37.898457527160645]
[ 0.  0. 58.], [38.01203751564026]
[ 0.  0. 58.], [38.12715673446655]
[ 0.  0. 58.], [38.24055790901184]
[ 0.  0. 58.], [38.35278367996216]
[ 0.  0. 58.], [38.46902942657471]
[ 0.  0. 58.], [38.58596158027649]
[ 0.  0. 58.], [38.698878049850464]
[ 0.  0. 58.], [38.813071489334106]
[ 0.  0. 58.], [38.93123698234558]
[ 0.  0. 58.], [39.04466676712036]
[ 0.  0. 58.], [39.15747833251953]
[ 0.  0. 58.], [39.27348566055298]
[ 0.  0. 58.], [39.39259743690491]
[ 0.  0. 58.], [39.50834250450134]
[ 0.  0. 58.], [39.62858438491821]
[ 0.  0. 58.], [39.74461078643799]
[ 0.  0. 58.], [39.858463287353516]
[ 0.  0. 58.], [39.969672203063965]
[ 0.  0. 58.], [40.081669092178345]
[ 0.  0. 58.], [40.19361758232117]
[ 0.  0. 58.], [40.30906295776367]
[ 0.  0. 58.], [40.421547174453735]
[ 0.  0. 58.], [40.53292465209961]
[ 0.  0. 58.], [40.64428925514221]
[ 0.  0. 58.], [40.75787043571472]
[ 0.  0. 58.], [40.87871503829956]
[ 0.  0. 58.], [41.00281381607056]
[ 0.  0. 58.], [41.124370098114014]
[ 0.  0. 58.], [41.24592471122742]
[ 0.  0. 58.], [41.3611695766449]
[ 0.  0. 58.], [41.47748398780823]
[ 0.  0. 58.], [41.58933210372925]
[ 0.  0. 58.], [41.700989723205566]
[ 0.  0. 58.], [41.815961599349976]
[ 0.  0. 58.], [41.932782888412476]
[ 0.  0. 58.], [42.051387310028076]
[ 0.  0. 58.], [42.16714429855347]
[ 0.  0. 58.], [42.28263068199158]
[ 0.  0. 58.], [42.39635491371155]
[ 0.  0. 58.], [42.50867509841919]
[ 0.  0. 58.], [42.620513916015625]
[ 0.  0. 58.], [42.737046003341675]
[ 0.  0. 58.], [42.850581645965576]
[ 0.  0. 58.], [42.963119983673096]
[ 0.  0. 58.], [43.07521986961365]
[ 0.  0. 58.], [43.18961238861084]
[ 0.  0. 58.], [43.3026008605957]
[ 0.  0. 58.], [43.41624069213867]
[ 0.  0. 58.], [43.530210733413696]
[ 0.  0. 58.], [43.64184212684631]
[ 0.  0. 58.], [43.75483822822571]
[ 0.  0. 58.], [43.868414878845215]
[ 0.  0. 58.], [43.981175661087036]
[ 0.  0. 58.], [44.09303426742554]
[ 0.  0. 58.], [44.205986738204956]
[ 0.  0. 58.], [44.31788158416748]
[ 0.  0. 58.], [44.42958307266235]
[ 0.  0. 58.], [44.54147005081177]
[ 0.  0. 58.], [44.65466237068176]
[ 0.  0. 58.], [44.76760768890381]
[ 0.  0. 58.], [44.88259792327881]
[ 0.  0. 58.], [45.00248622894287]
[ 0.  0. 58.], [45.12049579620361]
[ 0.  0. 58.], [45.23861074447632]
[ 0.  0. 58.], [45.35314202308655]
[ 0.  0. 58.], [45.488492012023926]
[ 0.  0. 58.], [45.60369896888733]
[ 0.  0. 58.], [45.716439723968506]
[ 0.  0. 58.], [45.83577251434326]
[ 0.  0. 58.], [45.9536566734314]
[ 0.  0. 58.], [46.07081961631775]
[ 0.  0. 58.], [46.184487104415894]
[ 0.  0. 58.], [46.30400347709656]
[ 0.  0. 58.], [46.419987201690674]
[ 0.  0. 58.], [46.53240394592285]
[ 0.  0. 58.], [46.64391732215881]
[ 0.  0. 58.], [46.75624871253967]
[ 0.  0. 58.], [46.87044024467468]
[ 0.  0. 58.], [46.982905626297]
[ 0.  0. 58.], [47.094746112823486]
[ 0.  0. 58.], [47.21103858947754]
[ 0.  0. 58.], [47.32411050796509]
[ 0.  0. 58.], [47.4363157749176]
[ 0.  0. 58.], [47.54901480674744]
[ 0.  0. 58.], [47.66087341308594]
[ 0.  0. 58.], [47.77392530441284]
[ 0.  0. 58.], [47.887234926223755]
[ 0.  0. 58.], [47.99899649620056]
[ 0.  0. 58.], [48.110435247421265]
[ 0.  0. 58.], [48.22246265411377]
[ 0.  0. 58.], [48.340847969055176]
[ 0.  0. 58.], [48.46085977554321]
[ 0.  0. 58.], [48.573803663253784]
[ 0.  0. 58.], [48.68597984313965]
[ 0.  0. 58.], [48.804269552230835]
[ 0.  0. 58.], [48.91793990135193]
[ 0.  0. 58.], [49.03008508682251]
[ 0.  0. 58.], [49.141533613204956]
[ 0.  0. 58.], [49.255664348602295]
[ 0.  0. 58.], [49.36848521232605]
[ 0.  0. 58.], [49.48139762878418]
[ 0.  0. 58.], [49.593215465545654]
[ 0.  0. 58.], [49.70575714111328]
[ 0.  0. 58.], [49.825336933135986]
[ 0.  0. 58.], [49.93983864784241]
[ 0.  0. 58.], [50.05217742919922]
[ 0.  0. 58.], [50.16465616226196]
[ 0.  0. 58.], [50.2770791053772]
[ 0.  0. 58.], [50.39018774032593]
[ 0.  0. 58.], [50.50276565551758]
[ 0.  0. 58.], [50.62025594711304]
[ 0.  0. 58.], [50.73741436004639]
[ 0.  0. 58.], [50.86647415161133]
[ 0.  0. 58.], [51.01383423805237]
[ 0.  0. 58.], [51.156822204589844]
[ 0.  0. 58.], [51.29014444351196]
[ 0.  0. 58.], [51.437220096588135]
[ 0.  0. 58.], [51.54811668395996]
[ 0.  0. 58.], [51.659926414489746]
[ 0.  0. 58.], [51.77061414718628]
[ 0.  0. 58.], [51.88319206237793]
[ 0.  0. 58.], [51.99728727340698]
[ 0.  0. 58.], [52.12876605987549]
[ 0.  0. 58.], [52.26821279525757]
[ 0.  0. 58.], [52.406017780303955]
[ 0.  0. 58.], [52.53537964820862]
[ 0.  0. 58.], [52.64803194999695]
[ 0.  0. 58.], [52.77620553970337]
[ 0.  0. 58.], [52.89558935165405]
[ 0.  0. 58.], [53.02590465545654]
[ 0.  0. 58.], [53.152315855026245]
[ 0.  0. 58.], [53.27842974662781]
[ 0.  0. 58.], [53.40739393234253]
[ 0.  0. 58.], [53.53537344932556]
[ 0.  0. 58.], [53.665316343307495]
[ 0.  0. 58.], [53.78788089752197]
[ 0.  0. 58.], [53.92522597312927]
[ 0.  0. 58.], [54.04524374008179]
[ 0.  0. 58.], [54.1792631149292]
[ 0.  0. 58.], [54.302292585372925]
[ 0.  0. 58.], [54.44897437095642]
[ 0.  0. 58.], [54.57526755332947]
[ 0.  0. 58.], [54.733757972717285]
[ 0.  0. 58.], [54.869277238845825]
[ 0.  0. 58.], [55.02605080604553]
[ 0.  0. 58.], [55.161957025527954]
[ 0.  0. 58.], [55.29680776596069]
[ 0.  0. 58.], [55.42738723754883]
[ 0.  0. 58.], [55.54194927215576]
[ 0.  0. 58.], [55.659507036209106]
[ 0.  0. 58.], [55.775166273117065]
[ 0.  0. 58.], [55.89548444747925]
[ 0.  0. 58.], [56.009061336517334]
[ 0.  0. 58.], [56.12209105491638]
[ 0.  0. 58.], [56.23573565483093]
[ 0.  0. 58.], [56.34705305099487]
[ 0.  0. 58.], [56.46211528778076]
[ 0.  0. 58.], [56.5744366645813]
[ 0.  0. 58.], [56.68759036064148]
[ 0.  0. 58.], [56.79951858520508]
[ 0.  0. 58.], [56.91199564933777]
[ 0.  0. 58.], [57.023340702056885]
[ 0.  0. 58.], [57.13573479652405]
[ 0.  0. 58.], [57.247758865356445]
[ 0.  0. 58.], [57.36031174659729]
[ 0.  0. 58.], [57.47238111495972]
[ 0.  0. 58.], [57.584715127944946]
[ 0.  0. 58.], [57.69674777984619]
[ 0.  0. 58.], [57.80818462371826]
[ 0.  0. 58.], [57.9203462600708]
[ 0.  0. 58.], [58.03401017189026]
[ 0.  0. 58.], [58.14624214172363]
[ 0.  0. 58.], [58.259289026260376]
[ 0.  0. 58.], [58.373228549957275]
[ 0.  0. 58.], [58.494109869003296]
[ 0.  0. 58.], [58.60583162307739]
[ 0.  0. 58.], [58.717495918273926]
[ 0.  0. 58.], [58.82980918884277]
[ 0.  0. 58.], [58.940540075302124]
[ 0.  0. 58.], [59.05177593231201]
[ 0.  0. 58.], [59.163217544555664]
[ 0.  0. 58.], [59.2804057598114]
[ 0.  0. 58.], [59.413461208343506]
[ 0.  0. 58.], [59.541804790496826]
[ 0.  0. 58.], [59.688623666763306]
[ 0.  0. 58.], [59.80334234237671]
[ 0.  0. 58.], [59.91641569137573]
[ 0.  0. 58.], [60.029449462890625]
[ 0.  0. 58.], [60.14160418510437]
[ 0.  0. 58.], [60.255260705947876]
[ 0.  0. 58.], [60.367284059524536]
[ 0.  0. 58.], [60.478222370147705]
[ 0.  0. 58.], [60.591411113739014]
[ 0.  0. 58.], [60.70411252975464]
[ 0.  0. 58.], [60.815415382385254]
[ 0.  0. 58.], [60.927518367767334]
[ 0.  0. 58.], [61.03777575492859]
[ 0.  0. 58.], [61.149681091308594]
[ 0.  0. 58.], [61.26272940635681]
[ 0.  0. 58.], [61.37707829475403]
[ 0.  0. 58.], [61.49199724197388]
[ 0.  0. 58.], [61.60411763191223]
[ 0.  0. 58.], [61.716184854507446]
[ 0.  0. 58.], [61.830169916152954]
[ 0.  0. 58.], [61.94241428375244]
[ 0.  0. 58.], [62.05425000190735]
[ 0.  0. 58.], [62.166072368621826]
[ 0.  0. 58.], [62.28028202056885]
[ 0.  0. 58.], [62.39166784286499]
[ 0.  0. 58.], [62.51061272621155]
[ 0.  0. 58.], [62.63128900527954]
[ 0.  0. 58.], [62.74254631996155]
[ 0.  0. 58.], [62.854368448257446]
[ 0.  0. 58.], [62.965489864349365]
[ 0.  0. 58.], [63.07815384864807]
[ 0.  0. 58.], [63.190104484558105]
[ 0.  0. 58.], [63.30248808860779]
[ 0.  0. 58.], [63.414337396621704]
[ 0.  0. 58.], [63.525662422180176]
[ 0.  0. 58.], [63.63904857635498]
[ 0.  0. 58.], [63.750582456588745]
[ 0.  0. 58.], [63.86968779563904]
[ 0.  0. 58.], [63.98543047904968]
[ 0.  0. 58.], [64.10088896751404]
[ 0.  0. 58.], [64.21352577209473]
[ 0.  0. 58.], [64.32603120803833]
[ 0.  0. 58.], [64.43862414360046]
[ 0.  0. 58.], [64.55091333389282]
[ 0.  0. 58.], [64.66323852539062]
[ 0.  0. 58.], [64.77668142318726]
[ 0.  0. 58.], [64.89313292503357]
[ 0.  0. 58.], [65.00529050827026]
[ 0.  0. 58.], [65.11753416061401]
[ 0.  0. 58.], [65.23083400726318]
[ 0.  0. 58.], [65.34251666069031]
[ 0.  0. 58.], [65.45536303520203]
[ 0.  0. 58.], [65.5672824382782]
[ 0.  0. 58.], [65.6788330078125]
[ 0.  0. 58.], [65.79093265533447]
[ 0.  0. 58.], [65.90381097793579]
[ 0.  0. 58.], [66.01573634147644]
[ 0.  0. 58.], [66.14607787132263]
[ 0.  0. 58.], [66.2587673664093]
[ 0.  0. 58.], [66.37136268615723]
[ 0.  0. 58.], [66.48374557495117]
[ 0.  0. 58.], [66.59662795066833]
[ 0.  0. 58.], [66.70930171012878]
[ 0.  0. 58.], [66.82346558570862]
[ 0.  0. 58.], [66.93646907806396]
[ 0.  0. 58.], [67.04787111282349]
[ 0.  0. 58.], [67.15941309928894]
[ 0.  0. 58.], [67.27212381362915]
[ 0.  0. 58.], [67.38505482673645]
[ 0.  0. 58.], [67.49810194969177]
[ 0.  0. 58.], [67.6099591255188]
[ 0.  0. 58.], [67.72210240364075]
[ 0.  0. 58.], [67.83306193351746]
[ 0.  0. 58.], [67.94558930397034]
[ 0.  0. 58.], [68.05878496170044]
[ 0.  0. 58.], [68.17198944091797]
[ 0.  0. 58.], [68.28523921966553]
[ 0.  0. 58.], [68.39761328697205]
[ 0.  0. 58.], [68.50929880142212]
[ 0.  0. 58.], [68.62409853935242]
[ 0.  0. 58.], [68.7359938621521]
[ 0.  0. 58.], [68.84740471839905]
[ 0.  0. 58.], [68.96305251121521]
[ 0.  0. 58.], [69.07529330253601]
[ 0.  0. 58.], [69.18763017654419]
[ 0.  0. 58.], [69.29988145828247]
[ 0.  0. 58.], [69.41232490539551]
[ 0.  0. 58.], [69.5304708480835]
[ 0.  0. 58.], [69.69365930557251]
[ 0.  0. 58.], [69.82636380195618]
[ 0.  0. 58.], [69.9527633190155]
[ 0.  0. 58.], [70.08219456672668]
[ 0.  0. 58.], [70.2068727016449]
[ 0.  0. 58.], [70.36487293243408]
[ 0.  0. 58.], [70.50387120246887]
[ 0.  0. 58.], [70.64190697669983]
[ 0.  0. 58.], [70.7803373336792]
[ 0.  0. 58.], [70.89502120018005]
[ 0.  0. 58.], [71.0082619190216]
[ 0.  0. 58.], [71.12127447128296]
[ 0.  0. 58.], [71.23362469673157]
[ 0.  0. 58.], [71.34519481658936]
[ 0.  0. 58.], [71.46191787719727]
[ 0.  0. 58.], [71.573814868927]
[ 0.  0. 58.], [71.68622422218323]
[ 0.  0. 58.], [71.7978515625]
[ 0.  0. 58.], [71.91023588180542]
[ 0.  0. 58.], [72.02309322357178]
[ 0.  0. 58.], [72.13805341720581]
[ 0.  0. 58.], [72.25211215019226]
[ 0.  0. 58.], [72.36404013633728]
[ 0.  0. 58.], [72.47608304023743]
[ 0.  0. 58.], [72.58894562721252]
[ 0.  0. 58.], [72.70041561126709]
[ 0.  0. 58.], [72.81232500076294]
[ 0.  0. 58.], [72.92423248291016]
[ 0.  0. 58.], [73.03658652305603]
[ 0.  0. 58.], [73.14724850654602]
[ 0.  0. 58.], [73.26278519630432]
[ 0.  0. 58.], [73.37518525123596]
[ 0.  0. 58.], [73.48884892463684]
[ 0.  0. 58.], [73.60090208053589]
[ 0.  0. 58.], [73.71282076835632]
[ 0.  0. 58.], [73.8261411190033]
[ 0.  0. 58.], [73.93888330459595]
[ 0.  0. 58.], [74.05085492134094]
[ 0.  0. 58.], [74.1623809337616]
[ 0.  0. 58.], [74.27605390548706]
[ 0.  0. 58.], [74.38838744163513]
[ 0.  0. 58.], [74.4997045993805]
[ 0.  0. 58.], [74.61617827415466]
[ 0.  0. 58.], [74.7276623249054]
[ 0.  0. 58.], [74.84049963951111]
[ 0.  0. 58.], [74.95281624794006]
[ 0.  0. 58.], [75.06521487236023]
[ 0.  0. 58.], [75.17848587036133]
[ 0.  0. 58.], [75.29141640663147]
[ 0.  0. 58.], [75.40323543548584]
[ 0.  0. 58.], [75.51529598236084]
[ 0.  0. 58.], [75.62988305091858]
[ 0.  0. 58.], [75.74283480644226]
[ 0.  0. 58.], [75.85638189315796]
[ 0.  0. 58.], [75.96951627731323]
[ 0.  0. 58.], [76.08169317245483]
[ 0.  0. 58.], [76.1935977935791]
[ 0.  0. 58.], [76.30639171600342]
[ 0.  0. 58.], [76.4237129688263]
[ 0.  0. 58.], [76.53755283355713]
[ 0.  0. 58.], [76.64845013618469]
[ 0.  0. 58.], [76.75937342643738]
[ 0.  0. 58.], [76.87172150611877]
[ 0.  0. 58.], [76.98399829864502]
[ 0.  0. 58.], [77.09888243675232]
[ 0.  0. 58.], [77.21277737617493]
[ 0.  0. 58.], [77.32563948631287]
[ 0.  0. 58.], [77.43803358078003]
[ 0.  0. 58.], [77.55009627342224]
[ 0.  0. 58.], [77.66240119934082]
[ 0.  0. 58.], [77.77584433555603]
[ 0.  0. 58.], [77.88984036445618]
[ 0.  0. 58.], [78.0015275478363]
[ 0.  0. 58.], [78.11252617835999]
[ 0.  0. 58.], [78.22384762763977]
[ 0.  0. 58.], [78.33748364448547]
[ 0.  0. 58.], [78.44993019104004]
[ 0.  0. 58.], [78.56125783920288]
[ 0.  0. 58.], [78.67193126678467]
[ 0.  0. 58.], [78.78385019302368]
[ 0.  0. 58.], [78.89800024032593]
[ 0.  0. 58.], [79.00885224342346]
[ 0.  0. 58.], [79.1208426952362]
[ 0.  0. 58.], [79.23387455940247]
[ 0.  0. 58.], [79.34667754173279]
[ 0.  0. 58.], [79.45922493934631]
[ 0.  0. 58.], [79.57089018821716]
[ 0.  0. 58.], [79.6830701828003]
[ 0.  0. 58.], [79.79387831687927]
[ 0.  0. 58.], [79.90560555458069]
[ 0.  0. 58.], [80.01795077323914]
[ 0.  0. 58.], [80.13063979148865]
[ 0.  0. 58.], [80.2428629398346]
[ 0.  0. 58.], [80.35382175445557]
[ 0.  0. 58.], [80.46668887138367]
[ 0.  0. 58.], [80.57749795913696]
[ 0.  0. 58.], [80.68908190727234]
[ 0.  0. 58.], [80.80058479309082]
[ 0.  0. 58.], [80.91250324249268]
[ 0.  0. 58.], [81.02421617507935]
[ 0.  0. 58.], [81.13673853874207]
[ 0.  0. 58.], [81.24910235404968]
[ 0.  0. 58.], [81.3650267124176]
[ 0.  0. 58.], [81.4828884601593]
[ 0.  0. 58.], [81.59686350822449]
[ 0.  0. 58.], [81.70902276039124]
[ 0.  0. 58.], [81.820969581604]
[ 0.  0. 58.], [81.93305015563965]
[ 0.  0. 58.], [82.04531192779541]
[ 0.  0. 58.], [82.1579053401947]
[ 0.  0. 58.], [82.27082180976868]
[ 0.  0. 58.], [82.38926815986633]
[ 0.  0. 58.], [82.5015172958374]
[ 0.  0. 58.], [82.61287069320679]
[ 0.  0. 58.], [82.7250623703003]
[ 0.  0. 58.], [82.83549046516418]
[ 0.  0. 58.], [82.94672727584839]
[ 0.  0. 58.], [83.05775928497314]
[ 0.  0. 58.], [83.16829085350037]
[ 0.  0. 58.], [83.27998781204224]
[ 0.  0. 58.], [83.39492392539978]
[ 0.  0. 58.], [83.50836634635925]
[ 0.  0. 58.], [83.62410092353821]
[ 0.  0. 58.], [83.73733139038086]
[ 0.  0. 58.], [83.8490047454834]
[ 0.  0. 58.], [83.96091818809509]
[ 0.  0. 58.], [84.07159471511841]
[ 0.  0. 58.], [84.1837728023529]
[ 0.  0. 58.], [84.29781985282898]
[ 0.  0. 58.], [84.43127727508545]
[ 0.  0. 58.], [84.56433486938477]
[ 0.  0. 58.], [84.67512321472168]
[ 0.  0. 58.], [84.78734016418457]
[ 0.  0. 58.], [84.90174961090088]
[ 0.  0. 58.], [85.01594638824463]
[ 0.  0. 58.], [85.12940335273743]
[ 0.  0. 58.], [85.2396559715271]
[ 0.  0. 58.], [85.3496253490448]
[ 0.  0. 58.], [85.46100997924805]
[ 0.  0. 58.], [85.57133889198303]
[ 0.  0. 58.], [85.68194627761841]
[ 0.  0. 58.], [85.79293060302734]
[ 0.  0. 58.], [85.90362977981567]
[ 0.  0. 58.], [86.01338458061218]
[ 0.  0. 58.], [86.12480139732361]
[ 0.  0. 58.], [86.24057340621948]
[ 0.  0. 58.], [86.36231756210327]
[ 0.  0. 58.], [86.486403465271]
[ 0.  0. 58.], [86.60558605194092]
[ 0.  0. 58.], [86.72516107559204]
[ 0.  0. 58.], [86.85272669792175]
[ 0.  0. 58.], [86.97296357154846]
[ 0.  0. 58.], [87.09202265739441]
[ 0.  0. 58.], [87.20296883583069]
[ 0.  0. 58.], [87.31798124313354]
[ 0.  0. 58.], [87.43082523345947]
[ 0.  0. 58.], [87.56428456306458]
[ 0.  0. 58.], [87.69814324378967]
[ 0.  0. 58.], [87.84020137786865]
[ 0.  0. 58.], [87.95888113975525]
[ 0.  0. 58.], [88.09548735618591]
[ 0.  0. 58.], [88.23037886619568]
[ 0.  0. 58.], [88.36028456687927]
[ 0.  0. 58.], [88.48021245002747]
[ 0.  0. 58.], [88.59638786315918]
[ 0.  0. 58.], [88.70806932449341]
[ 0.  0. 58.], [88.82097148895264]
[ 0.  0. 58.], [88.9399938583374]
[ 0.  0. 58.], [89.0524034500122]
[ 0.  0. 58.], [89.16448974609375]
[ 0.  0. 58.], [89.27916145324707]
[ 0.  0. 58.], [89.40122675895691]
[ 0.  0. 58.], [89.5200788974762]
[ 0.  0. 58.], [89.63178825378418]
