[4.65310174e-310 4.65310227e-310 4.65290359e-310], [1.2022602558135986]
[4.65310174e-310 4.65310227e-310 4.65290359e-310], [2.496168851852417]
[4.65310174e-310 4.65310227e-310 4.65290359e-310], [2.6302080154418945]
[4.65310174e-310 4.65310227e-310 4.65290359e-310], [2.7515578269958496]
[4.65310174e-310 4.65310227e-310 4.65290359e-310], [2.8692972660064697]
[4.65310174e-310 4.65310227e-310 4.65290359e-310], [2.988525390625]
[4.65310174e-310 4.65310227e-310 4.65290359e-310], [3.1094279289245605]
[4.65310174e-310 4.65310227e-310 4.65290359e-310], [3.2268335819244385]
[4.65310174e-310 4.65310227e-310 4.65290359e-310], [3.3539416790008545]
[4.65310174e-310 4.65310227e-310 4.65290359e-310], [3.4720993041992188]
[4.65310174e-310 4.65310227e-310 4.65290359e-310], [3.5943796634674072]
[4.65310174e-310 4.65310227e-310 4.65290359e-310], [3.713822364807129]
[4.65310174e-310 4.65310227e-310 4.65290359e-310], [3.8294408321380615]
[4.65310174e-310 4.65310227e-310 4.65290359e-310], [3.9493255615234375]
[4.65310174e-310 4.65310227e-310 4.65290359e-310], [4.071736574172974]
[4.65310174e-310 4.65310227e-310 4.65290359e-310], [4.189404010772705]
[4.65310174e-310 4.65310227e-310 4.65290359e-310], [4.304749250411987]
[4.65310174e-310 4.65310227e-310 4.65290359e-310], [4.425658464431763]
[4.65310174e-310 4.65310227e-310 4.65290359e-310], [4.561475515365601]
[4.65310174e-310 4.65310227e-310 4.65290359e-310], [4.737212657928467]
[4.65310174e-310 4.65310227e-310 4.65290359e-310], [4.873754262924194]
[4.65310174e-310 4.65310227e-310 4.65290359e-310], [5.007936477661133]
[4.65310174e-310 4.65310227e-310 4.65290359e-310], [5.135769844055176]
[4.65310174e-310 4.65310227e-310 4.65290359e-310], [5.263497591018677]
[4.65310174e-310 4.65310227e-310 4.65290359e-310], [5.3865203857421875]
[4.65310174e-310 4.65310227e-310 4.65290359e-310], [5.51287055015564]
[4.65310174e-310 4.65310227e-310 4.65290359e-310], [5.638264179229736]
[4.65310174e-310 4.65310227e-310 4.65290359e-310], [5.76373553276062]
[4.65310174e-310 4.65310227e-310 4.65290359e-310], [5.892010450363159]
[4.65310174e-310 4.65310227e-310 4.65290359e-310], [6.011838912963867]
[4.65310174e-310 4.65310227e-310 4.65290359e-310], [6.145004749298096]
[4.65310174e-310 4.65310227e-310 4.65290359e-310], [6.272920608520508]
[4.65310174e-310 4.65310227e-310 4.65290359e-310], [6.393414735794067]
[4.65310174e-310 4.65310227e-310 4.65290359e-310], [6.516189813613892]
[4.65310174e-310 4.65310227e-310 4.65290359e-310], [6.639312267303467]
[4.65310174e-310 4.65310227e-310 4.65290359e-310], [6.759686470031738]
[4.65310174e-310 4.65310227e-310 4.65290359e-310], [6.883765697479248]
[4.65310174e-310 4.65310227e-310 4.65290359e-310], [7.003812074661255]
[4.65310174e-310 4.65310227e-310 4.65290359e-310], [7.1252055168151855]
[4.65310174e-310 4.65310227e-310 4.65290359e-310], [7.245968580245972]
[4.65310174e-310 4.65310227e-310 4.65290359e-310], [7.3652732372283936]
[4.65310174e-310 4.65310227e-310 4.65290359e-310], [7.487562417984009]
[4.65310174e-310 4.65310227e-310 4.65290359e-310], [7.605600118637085]
[4.65310174e-310 4.65310227e-310 4.65290359e-310], [7.724296808242798]
[4.65310174e-310 4.65310227e-310 4.65290359e-310], [7.8427886962890625]
[4.65310174e-310 4.65310227e-310 4.65290359e-310], [7.962028980255127]
[4.65310174e-310 4.65310227e-310 4.65290359e-310], [8.090163230895996]
[4.65310174e-310 4.65310227e-310 4.65290359e-310], [8.210234880447388]
[4.65310174e-310 4.65310227e-310 4.65290359e-310], [8.33241868019104]
[4.65310174e-310 4.65310227e-310 4.65290359e-310], [8.454830884933472]
[4.65310174e-310 4.65310227e-310 4.65290359e-310], [8.571750164031982]
[4.65310174e-310 4.65310227e-310 4.65290359e-310], [8.687369346618652]
[4.65310174e-310 4.65310227e-310 4.65290359e-310], [8.803771257400513]
[4.65310174e-310 4.65310227e-310 4.65290359e-310], [8.920297861099243]
[4.65310174e-310 4.65310227e-310 4.65290359e-310], [9.036312818527222]
[4.65310174e-310 4.65310227e-310 4.65290359e-310], [9.173320055007935]
[4.65310174e-310 4.65310227e-310 4.65290359e-310], [9.298206329345703]
[4.65310174e-310 4.65310227e-310 4.65290359e-310], [9.420827388763428]
[4.65310174e-310 4.65310227e-310 4.65290359e-310], [9.541087865829468]
[4.65310174e-310 4.65310227e-310 4.65290359e-310], [9.665154218673706]
[4.65310174e-310 4.65310227e-310 4.65290359e-310], [9.788263320922852]
[4.65310174e-310 4.65310227e-310 4.65290359e-310], [9.907615184783936]
[4.65310174e-310 4.65310227e-310 4.65290359e-310], [10.026741743087769]
[4.65310174e-310 4.65310227e-310 4.65290359e-310], [10.142840147018433]
[4.65310174e-310 4.65310227e-310 4.65290359e-310], [10.262085199356079]
[4.65310174e-310 4.65310227e-310 4.65290359e-310], [10.380490064620972]
[4.65310174e-310 4.65310227e-310 4.65290359e-310], [10.49826955795288]
[4.65310174e-310 4.65310227e-310 4.65290359e-310], [10.616562128067017]
[4.65310174e-310 4.65310227e-310 4.65290359e-310], [10.735605001449585]
[4.65310174e-310 4.65310227e-310 4.65290359e-310], [10.854463815689087]
[4.65310174e-310 4.65310227e-310 4.65290359e-310], [10.973070859909058]
[4.65310174e-310 4.65310227e-310 4.65290359e-310], [11.093236446380615]
[4.65310174e-310 4.65310227e-310 4.65290359e-310], [11.216443538665771]
[4.65310174e-310 4.65310227e-310 4.65290359e-310], [11.33586573600769]
[4.65310174e-310 4.65310227e-310 4.65290359e-310], [11.453698635101318]
[4.65310174e-310 4.65310227e-310 4.65290359e-310], [11.572501420974731]
[4.65310174e-310 4.65310227e-310 4.65290359e-310], [11.691898822784424]
[4.65310174e-310 4.65310227e-310 4.65290359e-310], [11.809357404708862]
[4.65310174e-310 4.65310227e-310 4.65290359e-310], [11.927962303161621]
[4.65310174e-310 4.65310227e-310 4.65290359e-310], [12.045506238937378]
[4.65310174e-310 4.65310227e-310 4.65290359e-310], [12.16680645942688]
[4.65310174e-310 4.65310227e-310 4.65290359e-310], [12.285441398620605]
[4.65310174e-310 4.65310227e-310 4.65290359e-310], [12.404476404190063]
[4.65310174e-310 4.65310227e-310 4.65290359e-310], [12.521443605422974]
[4.65310174e-310 4.65310227e-310 4.65290359e-310], [12.643789529800415]
[4.65310174e-310 4.65310227e-310 4.65290359e-310], [12.767324447631836]
[4.65310174e-310 4.65310227e-310 4.65290359e-310], [12.888287544250488]
[4.65310174e-310 4.65310227e-310 4.65290359e-310], [13.008741855621338]
[4.65310174e-310 4.65310227e-310 4.65290359e-310], [13.136089086532593]
[4.65310174e-310 4.65310227e-310 4.65290359e-310], [13.264375686645508]
[4.65310174e-310 4.65310227e-310 4.65290359e-310], [13.400254487991333]
[4.65310174e-310 4.65310227e-310 4.65290359e-310], [13.532990455627441]
[4.65310174e-310 4.65310227e-310 4.65290359e-310], [13.660381555557251]
[4.65310174e-310 4.65310227e-310 4.65290359e-310], [13.781649589538574]
[4.65310174e-310 4.65310227e-310 4.65290359e-310], [13.924306869506836]
[4.65310174e-310 4.65310227e-310 4.65290359e-310], [14.06480622291565]
[4.65310174e-310 4.65310227e-310 4.65290359e-310], [14.192388534545898]
[4.65310174e-310 4.65310227e-310 4.65290359e-310], [14.31643295288086]
[4.65310174e-310 4.65310227e-310 4.65290359e-310], [14.437283754348755]
[4.65310174e-310 4.65310227e-310 4.65290359e-310], [14.55796194076538]
[4.65310174e-310 4.65310227e-310 4.65290359e-310], [14.67870831489563]
[4.65310174e-310 4.65310227e-310 4.65290359e-310], [14.801534414291382]
[4.65310174e-310 4.65310227e-310 4.65290359e-310], [14.938704013824463]
[4.65310174e-310 4.65310227e-310 4.65290359e-310], [15.066794872283936]
[4.65310174e-310 4.65310227e-310 4.65290359e-310], [15.199314594268799]
[4.65310174e-310 4.65310227e-310 4.65290359e-310], [15.33850359916687]
[4.65310174e-310 4.65310227e-310 4.65290359e-310], [15.476150035858154]
[4.65310174e-310 4.65310227e-310 4.65290359e-310], [15.627461433410645]
[4.65310174e-310 4.65310227e-310 4.65290359e-310], [15.749594688415527]
[4.65310174e-310 4.65310227e-310 4.65290359e-310], [15.875405073165894]
[4.65310174e-310 4.65310227e-310 4.65290359e-310], [15.994516134262085]
[4.65310174e-310 4.65310227e-310 4.65290359e-310], [16.11586833000183]
[4.65310174e-310 4.65310227e-310 4.65290359e-310], [16.237978219985962]
[4.65310174e-310 4.65310227e-310 4.65290359e-310], [16.361234426498413]
[4.65310174e-310 4.65310227e-310 4.65290359e-310], [16.499484300613403]
[4.65310174e-310 4.65310227e-310 4.65290359e-310], [16.632580518722534]
[4.65310174e-310 4.65310227e-310 4.65290359e-310], [16.764748096466064]
[4.65310174e-310 4.65310227e-310 4.65290359e-310], [16.88870358467102]
[4.65310174e-310 4.65310227e-310 4.65290359e-310], [17.009387016296387]
[4.65310174e-310 4.65310227e-310 4.65290359e-310], [17.12739610671997]
[4.65310174e-310 4.65310227e-310 4.65290359e-310], [17.25087571144104]
[4.65310174e-310 4.65310227e-310 4.65290359e-310], [17.376742601394653]
[4.65310174e-310 4.65310227e-310 4.65290359e-310], [17.50313949584961]
[4.65310174e-310 4.65310227e-310 4.65290359e-310], [17.622852087020874]
[4.65310174e-310 4.65310227e-310 4.65290359e-310], [17.741889715194702]
[4.65310174e-310 4.65310227e-310 4.65290359e-310], [17.86130690574646]
[4.65310174e-310 4.65310227e-310 4.65290359e-310], [17.980736255645752]
[4.65310174e-310 4.65310227e-310 4.65290359e-310], [18.09667444229126]
[4.65310174e-310 4.65310227e-310 4.65290359e-310], [18.21807074546814]
[4.65310174e-310 4.65310227e-310 4.65290359e-310], [18.358633756637573]
[4.65310174e-310 4.65310227e-310 4.65290359e-310], [18.51611042022705]
[4.65310174e-310 4.65310227e-310 4.65290359e-310], [18.64206838607788]
[4.65310174e-310 4.65310227e-310 4.65290359e-310], [18.761702060699463]
[4.65310174e-310 4.65310227e-310 4.65290359e-310], [18.879498958587646]
[4.65310174e-310 4.65310227e-310 4.65290359e-310], [18.999690055847168]
[4.65310174e-310 4.65310227e-310 4.65290359e-310], [19.135088443756104]
[4.65310174e-310 4.65310227e-310 4.65290359e-310], [19.264405250549316]
[4.65310174e-310 4.65310227e-310 4.65290359e-310], [19.38053822517395]
[4.65310174e-310 4.65310227e-310 4.65290359e-310], [19.49842143058777]
[4.65310174e-310 4.65310227e-310 4.65290359e-310], [19.619993686676025]
[4.65310174e-310 4.65310227e-310 4.65290359e-310], [19.75636887550354]
[4.65310174e-310 4.65310227e-310 4.65290359e-310], [19.871240377426147]
[4.65310174e-310 4.65310227e-310 4.65290359e-310], [19.98838448524475]
[4.65310174e-310 4.65310227e-310 4.65290359e-310], [20.10688877105713]
[4.65310174e-310 4.65310227e-310 4.65290359e-310], [20.241968393325806]
[4.65310174e-310 4.65310227e-310 4.65290359e-310], [20.358155727386475]
[4.65310174e-310 4.65310227e-310 4.65290359e-310], [20.5006422996521]
[4.65310174e-310 4.65310227e-310 4.65290359e-310], [20.61853337287903]
[4.65310174e-310 4.65310227e-310 4.65290359e-310], [20.733675718307495]
[4.65310174e-310 4.65310227e-310 4.65290359e-310], [20.850660800933838]
[4.65310174e-310 4.65310227e-310 4.65290359e-310], [20.967845916748047]
[4.65310174e-310 4.65310227e-310 4.65290359e-310], [21.085368633270264]
[4.65310174e-310 4.65310227e-310 4.65290359e-310], [21.20105767250061]
[4.65310174e-310 4.65310227e-310 4.65290359e-310], [21.31861901283264]
[4.65310174e-310 4.65310227e-310 4.65290359e-310], [21.434698820114136]
[4.65310174e-310 4.65310227e-310 4.65290359e-310], [21.552534341812134]
[4.65310174e-310 4.65310227e-310 4.65290359e-310], [21.672536849975586]
[4.65310174e-310 4.65310227e-310 4.65290359e-310], [21.793415784835815]
[4.65310174e-310 4.65310227e-310 4.65290359e-310], [21.909743309020996]
[4.65310174e-310 4.65310227e-310 4.65290359e-310], [22.02339005470276]
[4.65310174e-310 4.65310227e-310 4.65290359e-310], [22.141533136367798]
[4.65310174e-310 4.65310227e-310 4.65290359e-310], [22.259745359420776]
[4.65310174e-310 4.65310227e-310 4.65290359e-310], [22.374717712402344]
[4.65310174e-310 4.65310227e-310 4.65290359e-310], [22.495017051696777]
[4.65310174e-310 4.65310227e-310 4.65290359e-310], [22.613213062286377]
[4.65310174e-310 4.65310227e-310 4.65290359e-310], [22.733954191207886]
[4.65310174e-310 4.65310227e-310 4.65290359e-310], [22.849339723587036]
[4.65310174e-310 4.65310227e-310 4.65290359e-310], [22.96726107597351]
[4.65310174e-310 4.65310227e-310 4.65290359e-310], [23.087780475616455]
[4.65310174e-310 4.65310227e-310 4.65290359e-310], [23.20934271812439]
[4.65310174e-310 4.65310227e-310 4.65290359e-310], [23.32536506652832]
[4.65310174e-310 4.65310227e-310 4.65290359e-310], [23.46276545524597]
[4.65310174e-310 4.65310227e-310 4.65290359e-310], [23.582818746566772]
[4.65310174e-310 4.65310227e-310 4.65290359e-310], [23.705254077911377]
[4.65310174e-310 4.65310227e-310 4.65290359e-310], [23.824419260025024]
[4.65310174e-310 4.65310227e-310 4.65290359e-310], [23.94036889076233]
[4.65310174e-310 4.65310227e-310 4.65290359e-310], [24.05852746963501]
[4.65310174e-310 4.65310227e-310 4.65290359e-310], [24.22474765777588]
[4.65310174e-310 4.65310227e-310 4.65290359e-310], [24.35061526298523]
[4.65310174e-310 4.65310227e-310 4.65290359e-310], [24.469210863113403]
[4.65310174e-310 4.65310227e-310 4.65290359e-310], [24.58835458755493]
[4.65310174e-310 4.65310227e-310 4.65290359e-310], [24.703255891799927]
[4.65310174e-310 4.65310227e-310 4.65290359e-310], [24.821992874145508]
[4.65310174e-310 4.65310227e-310 4.65290359e-310], [24.93735909461975]
[4.65310174e-310 4.65310227e-310 4.65290359e-310], [25.056089401245117]
[4.65310174e-310 4.65310227e-310 4.65290359e-310], [25.174426078796387]
[4.65310174e-310 4.65310227e-310 4.65290359e-310], [25.292532444000244]
[4.65310174e-310 4.65310227e-310 4.65290359e-310], [25.40886926651001]
[4.65310174e-310 4.65310227e-310 4.65290359e-310], [25.526787996292114]
[4.65310174e-310 4.65310227e-310 4.65290359e-310], [25.642525911331177]
[4.65310174e-310 4.65310227e-310 4.65290359e-310], [25.76073145866394]
[4.65310174e-310 4.65310227e-310 4.65290359e-310], [25.879868984222412]
[4.65310174e-310 4.65310227e-310 4.65290359e-310], [26.014792680740356]
[4.65310174e-310 4.65310227e-310 4.65290359e-310], [26.134881496429443]
[4.65310174e-310 4.65310227e-310 4.65290359e-310], [26.251871824264526]
[4.65310174e-310 4.65310227e-310 4.65290359e-310], [26.369011163711548]
[4.65310174e-310 4.65310227e-310 4.65290359e-310], [26.492074728012085]
[4.65310174e-310 4.65310227e-310 4.65290359e-310], [26.609453201293945]
[4.65310174e-310 4.65310227e-310 4.65290359e-310], [26.72964644432068]
[4.65310174e-310 4.65310227e-310 4.65290359e-310], [26.848877906799316]
[4.65310174e-310 4.65310227e-310 4.65290359e-310], [26.966258764266968]
[4.65310174e-310 4.65310227e-310 4.65290359e-310], [27.083796501159668]
[4.65310174e-310 4.65310227e-310 4.65290359e-310], [27.20076084136963]
[4.65310174e-310 4.65310227e-310 4.65290359e-310], [27.32019853591919]
[4.65310174e-310 4.65310227e-310 4.65290359e-310], [27.43744659423828]
[4.65310174e-310 4.65310227e-310 4.65290359e-310], [27.556722402572632]
[4.65310174e-310 4.65310227e-310 4.65290359e-310], [27.673782110214233]
[4.65310174e-310 4.65310227e-310 4.65290359e-310], [27.794069528579712]
[4.65310174e-310 4.65310227e-310 4.65290359e-310], [27.912678718566895]
[4.65310174e-310 4.65310227e-310 4.65290359e-310], [28.029661417007446]
[4.65310174e-310 4.65310227e-310 4.65290359e-310], [28.153380870819092]
[4.65310174e-310 4.65310227e-310 4.65290359e-310], [28.278013706207275]
[4.65310174e-310 4.65310227e-310 4.65290359e-310], [28.39544153213501]
[4.65310174e-310 4.65310227e-310 4.65290359e-310], [28.514610052108765]
[4.65310174e-310 4.65310227e-310 4.65290359e-310], [28.6342134475708]
[4.65310174e-310 4.65310227e-310 4.65290359e-310], [28.751704931259155]
[4.65310174e-310 4.65310227e-310 4.65290359e-310], [28.874075412750244]
[4.65310174e-310 4.65310227e-310 4.65290359e-310], [28.994471788406372]
[4.65310174e-310 4.65310227e-310 4.65290359e-310], [29.114729166030884]
[4.65310174e-310 4.65310227e-310 4.65290359e-310], [29.234469413757324]
[4.65310174e-310 4.65310227e-310 4.65290359e-310], [29.352975845336914]
[4.65310174e-310 4.65310227e-310 4.65290359e-310], [29.47262477874756]
[4.65310174e-310 4.65310227e-310 4.65290359e-310], [29.589234828948975]
[4.65310174e-310 4.65310227e-310 4.65290359e-310], [29.706546306610107]
[4.65310174e-310 4.65310227e-310 4.65290359e-310], [29.82712697982788]
[4.65310174e-310 4.65310227e-310 4.65290359e-310], [29.948282718658447]
[4.65310174e-310 4.65310227e-310 4.65290359e-310], [30.067514896392822]
[4.65310174e-310 4.65310227e-310 4.65290359e-310], [30.187626361846924]
[4.65310174e-310 4.65310227e-310 4.65290359e-310], [30.30434775352478]
[4.65310174e-310 4.65310227e-310 4.65290359e-310], [30.421602964401245]
[4.65310174e-310 4.65310227e-310 4.65290359e-310], [30.542704343795776]
[4.65310174e-310 4.65310227e-310 4.65290359e-310], [30.659324645996094]
[4.65310174e-310 4.65310227e-310 4.65290359e-310], [30.776991844177246]
[4.65310174e-310 4.65310227e-310 4.65290359e-310], [30.897361040115356]
[4.65310174e-310 4.65310227e-310 4.65290359e-310], [31.014936685562134]
[4.65310174e-310 4.65310227e-310 4.65290359e-310], [31.135627508163452]
[4.65310174e-310 4.65310227e-310 4.65290359e-310], [31.258637189865112]
[4.65310174e-310 4.65310227e-310 4.65290359e-310], [31.37508273124695]
[4.65310174e-310 4.65310227e-310 4.65290359e-310], [31.492644548416138]
[4.65310174e-310 4.65310227e-310 4.65290359e-310], [31.609477996826172]
[4.65310174e-310 4.65310227e-310 4.65290359e-310], [31.724833726882935]
[4.65310174e-310 4.65310227e-310 4.65290359e-310], [31.854974031448364]
[4.65310174e-310 4.65310227e-310 4.65290359e-310], [31.97015929222107]
[4.65310174e-310 4.65310227e-310 4.65290359e-310], [32.08898663520813]
[4.65310174e-310 4.65310227e-310 4.65290359e-310], [32.21465873718262]
[4.65310174e-310 4.65310227e-310 4.65290359e-310], [32.34304690361023]
[4.65310174e-310 4.65310227e-310 4.65290359e-310], [32.47096085548401]
[4.65310174e-310 4.65310227e-310 4.65290359e-310], [32.61183285713196]
[4.65310174e-310 4.65310227e-310 4.65290359e-310], [32.74146842956543]
[4.65310174e-310 4.65310227e-310 4.65290359e-310], [32.85843086242676]
[4.65310174e-310 4.65310227e-310 4.65290359e-310], [32.98198127746582]
[4.65310174e-310 4.65310227e-310 4.65290359e-310], [33.11309027671814]
[4.65310174e-310 4.65310227e-310 4.65290359e-310], [33.233668088912964]
[4.65310174e-310 4.65310227e-310 4.65290359e-310], [33.373772859573364]
[4.65310174e-310 4.65310227e-310 4.65290359e-310], [33.514917850494385]
[4.65310174e-310 4.65310227e-310 4.65290359e-310], [33.63635587692261]
[4.65310174e-310 4.65310227e-310 4.65290359e-310], [33.75426530838013]
[4.65310174e-310 4.65310227e-310 4.65290359e-310], [33.873902797698975]
[4.65310174e-310 4.65310227e-310 4.65290359e-310], [33.99312400817871]
[4.65310174e-310 4.65310227e-310 4.65290359e-310], [34.11170291900635]
[4.65310174e-310 4.65310227e-310 4.65290359e-310], [34.23084831237793]
[4.65310174e-310 4.65310227e-310 4.65290359e-310], [34.35139012336731]
[4.65310174e-310 4.65310227e-310 4.65290359e-310], [34.46839141845703]
[4.65310174e-310 4.65310227e-310 4.65290359e-310], [34.60630249977112]
[4.65310174e-310 4.65310227e-310 4.65290359e-310], [34.73299217224121]
[4.65310174e-310 4.65310227e-310 4.65290359e-310], [34.85971164703369]
[4.65310174e-310 4.65310227e-310 4.65290359e-310], [34.975796937942505]
[4.65310174e-310 4.65310227e-310 4.65290359e-310], [35.09568762779236]
[4.65310174e-310 4.65310227e-310 4.65290359e-310], [35.23569345474243]
[4.65310174e-310 4.65310227e-310 4.65290359e-310], [35.37248229980469]
[4.65310174e-310 4.65310227e-310 4.65290359e-310], [35.49709486961365]
[4.65310174e-310 4.65310227e-310 4.65290359e-310], [35.61528944969177]
[4.65310174e-310 4.65310227e-310 4.65290359e-310], [35.73744082450867]
[4.65310174e-310 4.65310227e-310 4.65290359e-310], [35.859594106674194]
[4.65310174e-310 4.65310227e-310 4.65290359e-310], [35.98073148727417]
[4.65310174e-310 4.65310227e-310 4.65290359e-310], [36.10194635391235]
[4.65310174e-310 4.65310227e-310 4.65290359e-310], [36.22165083885193]
[4.65310174e-310 4.65310227e-310 4.65290359e-310], [36.34036111831665]
[4.65310174e-310 4.65310227e-310 4.65290359e-310], [36.45797419548035]
[4.65310174e-310 4.65310227e-310 4.65290359e-310], [36.578601360321045]
[4.65310174e-310 4.65310227e-310 4.65290359e-310], [36.70014214515686]
[4.65310174e-310 4.65310227e-310 4.65290359e-310], [36.81616544723511]
[4.65310174e-310 4.65310227e-310 4.65290359e-310], [36.937793493270874]
[4.65310174e-310 4.65310227e-310 4.65290359e-310], [37.06425499916077]
[4.65310174e-310 4.65310227e-310 4.65290359e-310], [37.18483543395996]
[4.65310174e-310 4.65310227e-310 4.65290359e-310], [37.3060941696167]
[4.65310174e-310 4.65310227e-310 4.65290359e-310], [37.44476914405823]
[4.65310174e-310 4.65310227e-310 4.65290359e-310], [37.56525897979736]
[4.65310174e-310 4.65310227e-310 4.65290359e-310], [37.68437051773071]
[4.65310174e-310 4.65310227e-310 4.65290359e-310], [37.802844524383545]
[4.65310174e-310 4.65310227e-310 4.65290359e-310], [37.92631387710571]
[4.65310174e-310 4.65310227e-310 4.65290359e-310], [38.04682660102844]
[4.65310174e-310 4.65310227e-310 4.65290359e-310], [38.16866874694824]
[4.65310174e-310 4.65310227e-310 4.65290359e-310], [38.300493478775024]
[4.65310174e-310 4.65310227e-310 4.65290359e-310], [38.4200541973114]
[4.65310174e-310 4.65310227e-310 4.65290359e-310], [38.54393124580383]
[4.65310174e-310 4.65310227e-310 4.65290359e-310], [38.66368842124939]
[4.65310174e-310 4.65310227e-310 4.65290359e-310], [38.78280711174011]
[4.65310174e-310 4.65310227e-310 4.65290359e-310], [38.90395760536194]
[4.65310174e-310 4.65310227e-310 4.65290359e-310], [39.023932695388794]
[4.65310174e-310 4.65310227e-310 4.65290359e-310], [39.16809916496277]
[4.65310174e-310 4.65310227e-310 4.65290359e-310], [39.294108629226685]
[4.65310174e-310 4.65310227e-310 4.65290359e-310], [39.41155672073364]
[4.65310174e-310 4.65310227e-310 4.65290359e-310], [39.54772639274597]
[4.65310174e-310 4.65310227e-310 4.65290359e-310], [39.66441369056702]
[4.65310174e-310 4.65310227e-310 4.65290359e-310], [39.783480644226074]
[4.65310174e-310 4.65310227e-310 4.65290359e-310], [39.900768995285034]
[4.65310174e-310 4.65310227e-310 4.65290359e-310], [40.02037763595581]
[4.65310174e-310 4.65310227e-310 4.65290359e-310], [40.13786721229553]
[4.65310174e-310 4.65310227e-310 4.65290359e-310], [40.27394914627075]
[4.65310174e-310 4.65310227e-310 4.65290359e-310], [40.41369652748108]
[4.65310174e-310 4.65310227e-310 4.65290359e-310], [40.533596992492676]
[4.65310174e-310 4.65310227e-310 4.65290359e-310], [40.65194535255432]
[4.65310174e-310 4.65310227e-310 4.65290359e-310], [40.786104917526245]
[4.65310174e-310 4.65310227e-310 4.65290359e-310], [40.91602802276611]
[4.65310174e-310 4.65310227e-310 4.65290359e-310], [41.04674315452576]
[4.65310174e-310 4.65310227e-310 4.65290359e-310], [41.166011810302734]
[4.65310174e-310 4.65310227e-310 4.65290359e-310], [41.28679418563843]
[4.65310174e-310 4.65310227e-310 4.65290359e-310], [41.40912890434265]
[4.65310174e-310 4.65310227e-310 4.65290359e-310], [41.528589725494385]
[4.65310174e-310 4.65310227e-310 4.65290359e-310], [41.64998006820679]
[4.65310174e-310 4.65310227e-310 4.65290359e-310], [41.772432804107666]
[4.65310174e-310 4.65310227e-310 4.65290359e-310], [41.903610944747925]
[4.65310174e-310 4.65310227e-310 4.65290359e-310], [42.0239577293396]
[4.65310174e-310 4.65310227e-310 4.65290359e-310], [42.1449077129364]
[4.65310174e-310 4.65310227e-310 4.65290359e-310], [42.262722969055176]
[4.65310174e-310 4.65310227e-310 4.65290359e-310], [42.37903189659119]
[4.65310174e-310 4.65310227e-310 4.65290359e-310], [42.49727964401245]
[4.65310174e-310 4.65310227e-310 4.65290359e-310], [42.614792346954346]
[4.65310174e-310 4.65310227e-310 4.65290359e-310], [42.73402404785156]
[4.65310174e-310 4.65310227e-310 4.65290359e-310], [42.85287690162659]
[4.65310174e-310 4.65310227e-310 4.65290359e-310], [42.970706939697266]
[4.65310174e-310 4.65310227e-310 4.65290359e-310], [43.08897948265076]
[4.65310174e-310 4.65310227e-310 4.65290359e-310], [43.21166753768921]
[4.65310174e-310 4.65310227e-310 4.65290359e-310], [43.33302593231201]
[4.65310174e-310 4.65310227e-310 4.65290359e-310], [43.456104040145874]
[4.65310174e-310 4.65310227e-310 4.65290359e-310], [43.578113317489624]
[4.65310174e-310 4.65310227e-310 4.65290359e-310], [43.69895625114441]
[4.65310174e-310 4.65310227e-310 4.65290359e-310], [43.837109327316284]
[4.65310174e-310 4.65310227e-310 4.65290359e-310], [43.9592719078064]
[4.65310174e-310 4.65310227e-310 4.65290359e-310], [44.08199071884155]
[4.65310174e-310 4.65310227e-310 4.65290359e-310], [44.218974351882935]
[4.65310174e-310 4.65310227e-310 4.65290359e-310], [44.33874011039734]
[4.65310174e-310 4.65310227e-310 4.65290359e-310], [44.45725703239441]
[4.65310174e-310 4.65310227e-310 4.65290359e-310], [44.57479739189148]
[4.65310174e-310 4.65310227e-310 4.65290359e-310], [44.69190239906311]
[4.65310174e-310 4.65310227e-310 4.65290359e-310], [44.806984424591064]
[4.65310174e-310 4.65310227e-310 4.65290359e-310], [44.92652750015259]
[4.65310174e-310 4.65310227e-310 4.65290359e-310], [45.041834354400635]
[4.65310174e-310 4.65310227e-310 4.65290359e-310], [45.15900230407715]
[4.65310174e-310 4.65310227e-310 4.65290359e-310], [45.275416135787964]
[4.65310174e-310 4.65310227e-310 4.65290359e-310], [45.39251136779785]
[4.65310174e-310 4.65310227e-310 4.65290359e-310], [45.51191830635071]
[4.65310174e-310 4.65310227e-310 4.65290359e-310], [45.63372826576233]
[4.65310174e-310 4.65310227e-310 4.65290359e-310], [45.75294828414917]
[4.65310174e-310 4.65310227e-310 4.65290359e-310], [45.871827840805054]
[4.65310174e-310 4.65310227e-310 4.65290359e-310], [45.991567850112915]
[4.65310174e-310 4.65310227e-310 4.65290359e-310], [46.10860633850098]
[4.65310174e-310 4.65310227e-310 4.65290359e-310], [46.22608995437622]
[4.65310174e-310 4.65310227e-310 4.65290359e-310], [46.343544006347656]
[4.65310174e-310 4.65310227e-310 4.65290359e-310], [46.46510410308838]
[4.65310174e-310 4.65310227e-310 4.65290359e-310], [46.58539605140686]
[4.65310174e-310 4.65310227e-310 4.65290359e-310], [46.705469846725464]
[4.65310174e-310 4.65310227e-310 4.65290359e-310], [46.821534156799316]
[4.65310174e-310 4.65310227e-310 4.65290359e-310], [46.94356179237366]
[4.65310174e-310 4.65310227e-310 4.65290359e-310], [47.067450523376465]
[4.65310174e-310 4.65310227e-310 4.65290359e-310], [47.18523120880127]
[4.65310174e-310 4.65310227e-310 4.65290359e-310], [47.304932594299316]
[4.65310174e-310 4.65310227e-310 4.65290359e-310], [47.421186447143555]
[4.65310174e-310 4.65310227e-310 4.65290359e-310], [47.53984785079956]
[4.65310174e-310 4.65310227e-310 4.65290359e-310], [47.656450271606445]
[4.65310174e-310 4.65310227e-310 4.65290359e-310], [47.77850127220154]
[4.65310174e-310 4.65310227e-310 4.65290359e-310], [47.89491558074951]
[4.65310174e-310 4.65310227e-310 4.65290359e-310], [48.015673875808716]
[4.65310174e-310 4.65310227e-310 4.65290359e-310], [48.133211851119995]
[4.65310174e-310 4.65310227e-310 4.65290359e-310], [48.25617527961731]
[4.65310174e-310 4.65310227e-310 4.65290359e-310], [48.37396168708801]
[4.65310174e-310 4.65310227e-310 4.65290359e-310], [48.49322032928467]
[4.65310174e-310 4.65310227e-310 4.65290359e-310], [48.61176943778992]
[4.65310174e-310 4.65310227e-310 4.65290359e-310], [48.72925281524658]
[4.65310174e-310 4.65310227e-310 4.65290359e-310], [48.84423112869263]
[4.65310174e-310 4.65310227e-310 4.65290359e-310], [48.96529984474182]
[4.65310174e-310 4.65310227e-310 4.65290359e-310], [49.08324980735779]
[4.65310174e-310 4.65310227e-310 4.65290359e-310], [49.20577883720398]
[4.65310174e-310 4.65310227e-310 4.65290359e-310], [49.32966351509094]
[4.65310174e-310 4.65310227e-310 4.65290359e-310], [49.445561170578]
[4.65310174e-310 4.65310227e-310 4.65290359e-310], [49.56500053405762]
[4.65310174e-310 4.65310227e-310 4.65290359e-310], [49.684415340423584]
[4.65310174e-310 4.65310227e-310 4.65290359e-310], [49.80414915084839]
[4.65310174e-310 4.65310227e-310 4.65290359e-310], [49.93166208267212]
[4.65310174e-310 4.65310227e-310 4.65290359e-310], [50.062174558639526]
[4.65310174e-310 4.65310227e-310 4.65290359e-310], [50.18778133392334]
[4.65310174e-310 4.65310227e-310 4.65290359e-310], [50.324097633361816]
[4.65310174e-310 4.65310227e-310 4.65290359e-310], [50.44934296607971]
[4.65310174e-310 4.65310227e-310 4.65290359e-310], [50.59380578994751]
[4.65310174e-310 4.65310227e-310 4.65290359e-310], [50.71812391281128]
[4.65310174e-310 4.65310227e-310 4.65290359e-310], [50.837148904800415]
[4.65310174e-310 4.65310227e-310 4.65290359e-310], [50.97686457633972]
[4.65310174e-310 4.65310227e-310 4.65290359e-310], [51.09749937057495]
[4.65310174e-310 4.65310227e-310 4.65290359e-310], [51.23798990249634]
[4.65310174e-310 4.65310227e-310 4.65290359e-310], [51.35565686225891]
[4.65310174e-310 4.65310227e-310 4.65290359e-310], [51.481077671051025]
[4.65310174e-310 4.65310227e-310 4.65290359e-310], [51.601656913757324]
[4.65310174e-310 4.65310227e-310 4.65290359e-310], [51.71829795837402]
[4.65310174e-310 4.65310227e-310 4.65290359e-310], [51.837305307388306]
[4.65310174e-310 4.65310227e-310 4.65290359e-310], [51.96060872077942]
[4.65310174e-310 4.65310227e-310 4.65290359e-310], [52.081899642944336]
[4.65310174e-310 4.65310227e-310 4.65290359e-310], [52.21073937416077]
[4.65310174e-310 4.65310227e-310 4.65290359e-310], [52.3391489982605]
[4.65310174e-310 4.65310227e-310 4.65290359e-310], [52.46487021446228]
[4.65310174e-310 4.65310227e-310 4.65290359e-310], [52.59691762924194]
[4.65310174e-310 4.65310227e-310 4.65290359e-310], [52.7226767539978]
[4.65310174e-310 4.65310227e-310 4.65290359e-310], [52.84769630432129]
[4.65310174e-310 4.65310227e-310 4.65290359e-310], [52.97344160079956]
[4.65310174e-310 4.65310227e-310 4.65290359e-310], [53.102282762527466]
[4.65310174e-310 4.65310227e-310 4.65290359e-310], [53.228752851486206]
[4.65310174e-310 4.65310227e-310 4.65290359e-310], [53.35508966445923]
[4.65310174e-310 4.65310227e-310 4.65290359e-310], [53.470218896865845]
[4.65310174e-310 4.65310227e-310 4.65290359e-310], [53.61666440963745]
[4.65310174e-310 4.65310227e-310 4.65290359e-310], [53.74146366119385]
[4.65310174e-310 4.65310227e-310 4.65290359e-310], [53.86527180671692]
[4.65310174e-310 4.65310227e-310 4.65290359e-310], [54.01115107536316]
[4.65310174e-310 4.65310227e-310 4.65290359e-310], [54.13258242607117]
[4.65310174e-310 4.65310227e-310 4.65290359e-310], [54.263566732406616]
[4.65310174e-310 4.65310227e-310 4.65290359e-310], [54.37842059135437]
[4.65310174e-310 4.65310227e-310 4.65290359e-310], [54.51693677902222]
[4.65310174e-310 4.65310227e-310 4.65290359e-310], [54.63989233970642]
[4.65310174e-310 4.65310227e-310 4.65290359e-310], [54.761818647384644]
[4.65310174e-310 4.65310227e-310 4.65290359e-310], [54.89724540710449]
[4.65310174e-310 4.65310227e-310 4.65290359e-310], [55.01573920249939]
[4.65310174e-310 4.65310227e-310 4.65290359e-310], [55.133344411849976]
[4.65310174e-310 4.65310227e-310 4.65290359e-310], [55.272643089294434]
[4.65310174e-310 4.65310227e-310 4.65290359e-310], [55.41412878036499]
[4.65310174e-310 4.65310227e-310 4.65290359e-310], [55.555033683776855]
[4.65310174e-310 4.65310227e-310 4.65290359e-310], [55.693804025650024]
[4.65310174e-310 4.65310227e-310 4.65290359e-310], [55.827106952667236]
[4.65310174e-310 4.65310227e-310 4.65290359e-310], [55.947372913360596]
[4.65310174e-310 4.65310227e-310 4.65290359e-310], [56.068300008773804]
[4.65310174e-310 4.65310227e-310 4.65290359e-310], [56.20030331611633]
[4.65310174e-310 4.65310227e-310 4.65290359e-310], [56.31830334663391]
[4.65310174e-310 4.65310227e-310 4.65290359e-310], [56.43885540962219]
[4.65310174e-310 4.65310227e-310 4.65290359e-310], [56.55900549888611]
[4.65310174e-310 4.65310227e-310 4.65290359e-310], [56.677231550216675]
[4.65310174e-310 4.65310227e-310 4.65290359e-310], [56.81367826461792]
[4.65310174e-310 4.65310227e-310 4.65290359e-310], [56.933802366256714]
[4.65310174e-310 4.65310227e-310 4.65290359e-310], [57.05366325378418]
[4.65310174e-310 4.65310227e-310 4.65290359e-310], [57.17308831214905]
[4.65310174e-310 4.65310227e-310 4.65290359e-310], [57.293137311935425]
[4.65310174e-310 4.65310227e-310 4.65290359e-310], [57.41535782814026]
[4.65310174e-310 4.65310227e-310 4.65290359e-310], [57.55237412452698]
[4.65310174e-310 4.65310227e-310 4.65290359e-310], [57.67185926437378]
[4.65310174e-310 4.65310227e-310 4.65290359e-310], [57.79434418678284]
[4.65310174e-310 4.65310227e-310 4.65290359e-310], [57.929896116256714]
[4.65310174e-310 4.65310227e-310 4.65290359e-310], [58.04751968383789]
[4.65310174e-310 4.65310227e-310 4.65290359e-310], [58.18401765823364]
[4.65310174e-310 4.65310227e-310 4.65290359e-310], [58.30172514915466]
[4.65310174e-310 4.65310227e-310 4.65290359e-310], [58.421435832977295]
[4.65310174e-310 4.65310227e-310 4.65290359e-310], [58.53918957710266]
[4.65310174e-310 4.65310227e-310 4.65290359e-310], [58.65588927268982]
[4.65310174e-310 4.65310227e-310 4.65290359e-310], [58.77174091339111]
[4.65310174e-310 4.65310227e-310 4.65290359e-310], [58.890557289123535]
[4.65310174e-310 4.65310227e-310 4.65290359e-310], [59.00805640220642]
[4.65310174e-310 4.65310227e-310 4.65290359e-310], [59.12493562698364]
[4.65310174e-310 4.65310227e-310 4.65290359e-310], [59.2416136264801]
[4.65310174e-310 4.65310227e-310 4.65290359e-310], [59.358059883117676]
[4.65310174e-310 4.65310227e-310 4.65290359e-310], [59.47503471374512]
[4.65310174e-310 4.65310227e-310 4.65290359e-310], [59.59167432785034]
[4.65310174e-310 4.65310227e-310 4.65290359e-310], [59.70745491981506]
[4.65310174e-310 4.65310227e-310 4.65290359e-310], [59.8240385055542]
[4.65310174e-310 4.65310227e-310 4.65290359e-310], [59.94178247451782]
[4.65310174e-310 4.65310227e-310 4.65290359e-310], [60.05767107009888]
[4.65310174e-310 4.65310227e-310 4.65290359e-310], [60.177610635757446]
[4.65310174e-310 4.65310227e-310 4.65290359e-310], [60.29841589927673]
[4.65310174e-310 4.65310227e-310 4.65290359e-310], [60.41666865348816]
[4.65310174e-310 4.65310227e-310 4.65290359e-310], [60.53658580780029]
[4.65310174e-310 4.65310227e-310 4.65290359e-310], [60.6521098613739]
[4.65310174e-310 4.65310227e-310 4.65290359e-310], [60.77005386352539]
[4.65310174e-310 4.65310227e-310 4.65290359e-310], [60.96557807922363]
[4.65310174e-310 4.65310227e-310 4.65290359e-310], [61.082270860672]
[4.65310174e-310 4.65310227e-310 4.65290359e-310], [61.20105314254761]
[4.65310174e-310 4.65310227e-310 4.65290359e-310], [61.33885407447815]
[4.65310174e-310 4.65310227e-310 4.65290359e-310], [61.457884550094604]
[4.65310174e-310 4.65310227e-310 4.65290359e-310], [61.57519459724426]
[4.65310174e-310 4.65310227e-310 4.65290359e-310], [61.69103717803955]
[4.65310174e-310 4.65310227e-310 4.65290359e-310], [61.808823585510254]
[4.65310174e-310 4.65310227e-310 4.65290359e-310], [61.92584776878357]
[4.65310174e-310 4.65310227e-310 4.65290359e-310], [62.0400767326355]
[4.65310174e-310 4.65310227e-310 4.65290359e-310], [62.15937066078186]
[4.65310174e-310 4.65310227e-310 4.65290359e-310], [62.276092767715454]
[4.65310174e-310 4.65310227e-310 4.65290359e-310], [62.39165234565735]
[4.65310174e-310 4.65310227e-310 4.65290359e-310], [62.50989294052124]
[4.65310174e-310 4.65310227e-310 4.65290359e-310], [62.64636826515198]
[4.65310174e-310 4.65310227e-310 4.65290359e-310], [62.7621431350708]
[4.65310174e-310 4.65310227e-310 4.65290359e-310], [62.87973070144653]
[4.65310174e-310 4.65310227e-310 4.65290359e-310], [62.99465894699097]
[4.65310174e-310 4.65310227e-310 4.65290359e-310], [63.11297917366028]
[4.65310174e-310 4.65310227e-310 4.65290359e-310], [63.22834873199463]
[4.65310174e-310 4.65310227e-310 4.65290359e-310], [63.344672441482544]
[4.65310174e-310 4.65310227e-310 4.65290359e-310], [63.46260190010071]
[4.65310174e-310 4.65310227e-310 4.65290359e-310], [63.58196496963501]
[4.65310174e-310 4.65310227e-310 4.65290359e-310], [63.69959306716919]
[4.65310174e-310 4.65310227e-310 4.65290359e-310], [63.840659618377686]
[4.65310174e-310 4.65310227e-310 4.65290359e-310], [63.958083391189575]
[4.65310174e-310 4.65310227e-310 4.65290359e-310], [64.0751223564148]
[4.65310174e-310 4.65310227e-310 4.65290359e-310], [64.19209265708923]
[4.65310174e-310 4.65310227e-310 4.65290359e-310], [64.31008219718933]
[4.65310174e-310 4.65310227e-310 4.65290359e-310], [64.42965698242188]
[4.65310174e-310 4.65310227e-310 4.65290359e-310], [64.54680323600769]
[4.65310174e-310 4.65310227e-310 4.65290359e-310], [64.66325831413269]
[4.65310174e-310 4.65310227e-310 4.65290359e-310], [64.77990293502808]
[4.65310174e-310 4.65310227e-310 4.65290359e-310], [64.8984899520874]
[4.65310174e-310 4.65310227e-310 4.65290359e-310], [65.01753520965576]
[4.65310174e-310 4.65310227e-310 4.65290359e-310], [65.13599634170532]
[4.65310174e-310 4.65310227e-310 4.65290359e-310], [65.25471591949463]
[4.65310174e-310 4.65310227e-310 4.65290359e-310], [65.37302422523499]
[4.65310174e-310 4.65310227e-310 4.65290359e-310], [65.49194955825806]
[4.65310174e-310 4.65310227e-310 4.65290359e-310], [65.61346054077148]
[4.65310174e-310 4.65310227e-310 4.65290359e-310], [65.73193192481995]
[4.65310174e-310 4.65310227e-310 4.65290359e-310], [65.8500063419342]
[4.65310174e-310 4.65310227e-310 4.65290359e-310], [65.99039816856384]
[4.65310174e-310 4.65310227e-310 4.65290359e-310], [66.12995481491089]
[4.65310174e-310 4.65310227e-310 4.65290359e-310], [66.26416444778442]
[4.65310174e-310 4.65310227e-310 4.65290359e-310], [66.4040253162384]
[4.65310174e-310 4.65310227e-310 4.65290359e-310], [66.53269219398499]
[4.65310174e-310 4.65310227e-310 4.65290359e-310], [66.65278911590576]
[4.65310174e-310 4.65310227e-310 4.65290359e-310], [66.77071142196655]
[4.65310174e-310 4.65310227e-310 4.65290359e-310], [66.8904287815094]
[4.65310174e-310 4.65310227e-310 4.65290359e-310], [67.01089549064636]
[4.65310174e-310 4.65310227e-310 4.65290359e-310], [67.13298463821411]
[4.65310174e-310 4.65310227e-310 4.65290359e-310], [67.25127243995667]
[4.65310174e-310 4.65310227e-310 4.65290359e-310], [67.36851096153259]
[4.65310174e-310 4.65310227e-310 4.65290359e-310], [67.48612666130066]
[4.65310174e-310 4.65310227e-310 4.65290359e-310], [67.605628490448]
[4.65310174e-310 4.65310227e-310 4.65290359e-310], [67.72509670257568]
[4.65310174e-310 4.65310227e-310 4.65290359e-310], [67.84641289710999]
[4.65310174e-310 4.65310227e-310 4.65290359e-310], [67.96507835388184]
[4.65310174e-310 4.65310227e-310 4.65290359e-310], [68.0877296924591]
[4.65310174e-310 4.65310227e-310 4.65290359e-310], [68.2067232131958]
[4.65310174e-310 4.65310227e-310 4.65290359e-310], [68.33264207839966]
[4.65310174e-310 4.65310227e-310 4.65290359e-310], [68.45314836502075]
[4.65310174e-310 4.65310227e-310 4.65290359e-310], [68.57649850845337]
[4.65310174e-310 4.65310227e-310 4.65290359e-310], [68.69745397567749]
[4.65310174e-310 4.65310227e-310 4.65290359e-310], [68.84064269065857]
[4.65310174e-310 4.65310227e-310 4.65290359e-310], [68.95853972434998]
[4.65310174e-310 4.65310227e-310 4.65290359e-310], [69.07568120956421]
[4.65310174e-310 4.65310227e-310 4.65290359e-310], [69.1969223022461]
[4.65310174e-310 4.65310227e-310 4.65290359e-310], [69.32906126976013]
[4.65310174e-310 4.65310227e-310 4.65290359e-310], [69.45709109306335]
[4.65310174e-310 4.65310227e-310 4.65290359e-310], [69.5847499370575]
[4.65310174e-310 4.65310227e-310 4.65290359e-310], [69.70604300498962]
[4.65310174e-310 4.65310227e-310 4.65290359e-310], [69.82580161094666]
[4.65310174e-310 4.65310227e-310 4.65290359e-310], [69.9469096660614]
[4.65310174e-310 4.65310227e-310 4.65290359e-310], [70.06415128707886]
[4.65310174e-310 4.65310227e-310 4.65290359e-310], [70.18823075294495]
[4.65310174e-310 4.65310227e-310 4.65290359e-310], [70.30677676200867]
[4.65310174e-310 4.65310227e-310 4.65290359e-310], [70.4455099105835]
[4.65310174e-310 4.65310227e-310 4.65290359e-310], [70.56318068504333]
[4.65310174e-310 4.65310227e-310 4.65290359e-310], [70.68226194381714]
[4.65310174e-310 4.65310227e-310 4.65290359e-310], [70.80004668235779]
[4.65310174e-310 4.65310227e-310 4.65290359e-310], [70.91832733154297]
[4.65310174e-310 4.65310227e-310 4.65290359e-310], [71.0490620136261]
[4.65310174e-310 4.65310227e-310 4.65290359e-310], [71.16653251647949]
[4.65310174e-310 4.65310227e-310 4.65290359e-310], [71.28740286827087]
[4.65310174e-310 4.65310227e-310 4.65290359e-310], [71.4077627658844]
[4.65310174e-310 4.65310227e-310 4.65290359e-310], [71.52502083778381]
[4.65310174e-310 4.65310227e-310 4.65290359e-310], [71.64158272743225]
[4.65310174e-310 4.65310227e-310 4.65290359e-310], [71.75745511054993]
[4.65310174e-310 4.65310227e-310 4.65290359e-310], [71.87677478790283]
[4.65310174e-310 4.65310227e-310 4.65290359e-310], [71.99695253372192]
[4.65310174e-310 4.65310227e-310 4.65290359e-310], [72.13850450515747]
[4.65310174e-310 4.65310227e-310 4.65290359e-310], [72.277596950531]
[4.65310174e-310 4.65310227e-310 4.65290359e-310], [72.40255546569824]
[4.65310174e-310 4.65310227e-310 4.65290359e-310], [72.53342175483704]
[4.65310174e-310 4.65310227e-310 4.65290359e-310], [72.66431951522827]
[4.65310174e-310 4.65310227e-310 4.65290359e-310], [72.78316020965576]
[4.65310174e-310 4.65310227e-310 4.65290359e-310], [72.90329790115356]
[4.65310174e-310 4.65310227e-310 4.65290359e-310], [73.04468989372253]
[4.65310174e-310 4.65310227e-310 4.65290359e-310], [73.17076539993286]
[4.65310174e-310 4.65310227e-310 4.65290359e-310], [73.29077672958374]
[4.65310174e-310 4.65310227e-310 4.65290359e-310], [73.40951561927795]
[4.65310174e-310 4.65310227e-310 4.65290359e-310], [73.52971458435059]
[4.65310174e-310 4.65310227e-310 4.65290359e-310], [73.6479914188385]
[4.65310174e-310 4.65310227e-310 4.65290359e-310], [73.78412103652954]
[4.65310174e-310 4.65310227e-310 4.65290359e-310], [73.9225606918335]
[4.65310174e-310 4.65310227e-310 4.65290359e-310], [74.04199743270874]
[4.65310174e-310 4.65310227e-310 4.65290359e-310], [74.16008234024048]
[4.65310174e-310 4.65310227e-310 4.65290359e-310], [74.27950143814087]
[4.65310174e-310 4.65310227e-310 4.65290359e-310], [74.39811682701111]
[4.65310174e-310 4.65310227e-310 4.65290359e-310], [74.52891540527344]
[4.65310174e-310 4.65310227e-310 4.65290359e-310], [74.64711833000183]
[4.65310174e-310 4.65310227e-310 4.65290359e-310], [74.76940536499023]
[4.65310174e-310 4.65310227e-310 4.65290359e-310], [74.88910460472107]
[4.65310174e-310 4.65310227e-310 4.65290359e-310], [75.00841331481934]
[4.65310174e-310 4.65310227e-310 4.65290359e-310], [75.13166999816895]
[4.65310174e-310 4.65310227e-310 4.65290359e-310], [75.27417182922363]
[4.65310174e-310 4.65310227e-310 4.65290359e-310], [75.4019775390625]
[4.65310174e-310 4.65310227e-310 4.65290359e-310], [75.52263951301575]
[4.65310174e-310 4.65310227e-310 4.65290359e-310], [75.64107275009155]
[4.65310174e-310 4.65310227e-310 4.65290359e-310], [75.75948214530945]
[4.65310174e-310 4.65310227e-310 4.65290359e-310], [75.87943363189697]
[4.65310174e-310 4.65310227e-310 4.65290359e-310], [75.99734258651733]
[4.65310174e-310 4.65310227e-310 4.65290359e-310], [76.13415622711182]
[4.65310174e-310 4.65310227e-310 4.65290359e-310], [76.2513976097107]
[4.65310174e-310 4.65310227e-310 4.65290359e-310], [76.37021565437317]
[4.65310174e-310 4.65310227e-310 4.65290359e-310], [76.49066472053528]
[4.65310174e-310 4.65310227e-310 4.65290359e-310], [76.60932207107544]
[4.65310174e-310 4.65310227e-310 4.65290359e-310], [76.72495985031128]
[4.65310174e-310 4.65310227e-310 4.65290359e-310], [76.8421778678894]
[4.65310174e-310 4.65310227e-310 4.65290359e-310], [76.96083450317383]
[4.65310174e-310 4.65310227e-310 4.65290359e-310], [77.10147857666016]
[4.65310174e-310 4.65310227e-310 4.65290359e-310], [77.22249817848206]
[4.65310174e-310 4.65310227e-310 4.65290359e-310], [77.34428286552429]
[4.65310174e-310 4.65310227e-310 4.65290359e-310], [77.46608543395996]
[4.65310174e-310 4.65310227e-310 4.65290359e-310], [77.58909606933594]
[4.65310174e-310 4.65310227e-310 4.65290359e-310], [77.71075797080994]
[4.65310174e-310 4.65310227e-310 4.65290359e-310], [77.84886002540588]
[4.65310174e-310 4.65310227e-310 4.65290359e-310], [77.96767950057983]
[4.65310174e-310 4.65310227e-310 4.65290359e-310], [78.09214305877686]
[4.65310174e-310 4.65310227e-310 4.65290359e-310], [78.21228814125061]
[4.65310174e-310 4.65310227e-310 4.65290359e-310], [78.32991766929626]
[4.65310174e-310 4.65310227e-310 4.65290359e-310], [78.4490647315979]
[4.65310174e-310 4.65310227e-310 4.65290359e-310], [78.56812834739685]
[4.65310174e-310 4.65310227e-310 4.65290359e-310], [78.6890001296997]
[4.65310174e-310 4.65310227e-310 4.65290359e-310], [78.81323647499084]
[4.65310174e-310 4.65310227e-310 4.65290359e-310], [78.95620656013489]
[4.65310174e-310 4.65310227e-310 4.65290359e-310], [79.0944755077362]
[4.65310174e-310 4.65310227e-310 4.65290359e-310], [79.22106647491455]
[4.65310174e-310 4.65310227e-310 4.65290359e-310], [79.35620450973511]
[4.65310174e-310 4.65310227e-310 4.65290359e-310], [79.47394561767578]
[4.65310174e-310 4.65310227e-310 4.65290359e-310], [79.59391331672668]
[4.65310174e-310 4.65310227e-310 4.65290359e-310], [79.73785877227783]
[4.65310174e-310 4.65310227e-310 4.65290359e-310], [79.86606860160828]
[4.65310174e-310 4.65310227e-310 4.65290359e-310], [79.98798489570618]
[4.65310174e-310 4.65310227e-310 4.65290359e-310], [80.10781860351562]
[4.65310174e-310 4.65310227e-310 4.65290359e-310], [80.22323560714722]
[4.65310174e-310 4.65310227e-310 4.65290359e-310], [80.36680793762207]
[4.65310174e-310 4.65310227e-310 4.65290359e-310], [80.49455904960632]
[4.65310174e-310 4.65310227e-310 4.65290359e-310], [80.61588478088379]
[4.65310174e-310 4.65310227e-310 4.65290359e-310], [80.7351553440094]
[4.65310174e-310 4.65310227e-310 4.65290359e-310], [80.87520813941956]
[4.65310174e-310 4.65310227e-310 4.65290359e-310], [81.01230525970459]
[4.65310174e-310 4.65310227e-310 4.65290359e-310], [81.14656615257263]
[4.65310174e-310 4.65310227e-310 4.65290359e-310], [81.26696348190308]
[4.65310174e-310 4.65310227e-310 4.65290359e-310], [81.38440799713135]
[4.65310174e-310 4.65310227e-310 4.65290359e-310], [81.50646209716797]
[4.65310174e-310 4.65310227e-310 4.65290359e-310], [81.62870144844055]
[4.65310174e-310 4.65310227e-310 4.65290359e-310], [81.75145411491394]
[4.65310174e-310 4.65310227e-310 4.65290359e-310], [81.87572860717773]
[4.65310174e-310 4.65310227e-310 4.65290359e-310], [81.99838662147522]
[4.65310174e-310 4.65310227e-310 4.65290359e-310], [82.11746215820312]
[4.65310174e-310 4.65310227e-310 4.65290359e-310], [82.2715175151825]
[4.65310174e-310 4.65310227e-310 4.65290359e-310], [82.39153122901917]
[4.65310174e-310 4.65310227e-310 4.65290359e-310], [82.51673650741577]
[4.65310174e-310 4.65310227e-310 4.65290359e-310], [82.63809180259705]
[4.65310174e-310 4.65310227e-310 4.65290359e-310], [82.7597484588623]
[4.65310174e-310 4.65310227e-310 4.65290359e-310], [82.8870313167572]
[4.65310174e-310 4.65310227e-310 4.65290359e-310], [83.03076386451721]
[4.65310174e-310 4.65310227e-310 4.65290359e-310], [83.16654896736145]
[4.65310174e-310 4.65310227e-310 4.65290359e-310], [83.29018044471741]
[4.65310174e-310 4.65310227e-310 4.65290359e-310], [83.4129626750946]
[4.65310174e-310 4.65310227e-310 4.65290359e-310], [83.53882622718811]
[4.65310174e-310 4.65310227e-310 4.65290359e-310], [83.66312646865845]
[4.65310174e-310 4.65310227e-310 4.65290359e-310], [83.79069519042969]
[4.65310174e-310 4.65310227e-310 4.65290359e-310], [83.90819144248962]
[4.65310174e-310 4.65310227e-310 4.65290359e-310], [84.02526688575745]
[4.65310174e-310 4.65310227e-310 4.65290359e-310], [84.14470171928406]
[4.65310174e-310 4.65310227e-310 4.65290359e-310], [84.29089951515198]
[4.65310174e-310 4.65310227e-310 4.65290359e-310], [84.42107892036438]
[4.65310174e-310 4.65310227e-310 4.65290359e-310], [84.55859184265137]
[4.65310174e-310 4.65310227e-310 4.65290359e-310], [84.68738842010498]
[4.65310174e-310 4.65310227e-310 4.65290359e-310], [84.81690573692322]
[4.65310174e-310 4.65310227e-310 4.65290359e-310], [84.93640947341919]
[4.65310174e-310 4.65310227e-310 4.65290359e-310], [85.0652379989624]
[4.65310174e-310 4.65310227e-310 4.65290359e-310], [85.18474078178406]
[4.65310174e-310 4.65310227e-310 4.65290359e-310], [85.31206250190735]
[4.65310174e-310 4.65310227e-310 4.65290359e-310], [85.42863631248474]
[4.65310174e-310 4.65310227e-310 4.65290359e-310], [85.54761791229248]
[4.65310174e-310 4.65310227e-310 4.65290359e-310], [85.66648626327515]
[4.65310174e-310 4.65310227e-310 4.65290359e-310], [85.78506565093994]
[4.65310174e-310 4.65310227e-310 4.65290359e-310], [85.92403292655945]
[4.65310174e-310 4.65310227e-310 4.65290359e-310], [86.04034543037415]
[4.65310174e-310 4.65310227e-310 4.65290359e-310], [86.16315937042236]
[4.65310174e-310 4.65310227e-310 4.65290359e-310], [86.28271055221558]
[4.65310174e-310 4.65310227e-310 4.65290359e-310], [86.40087223052979]
[4.65310174e-310 4.65310227e-310 4.65290359e-310], [86.52135276794434]
[4.65310174e-310 4.65310227e-310 4.65290359e-310], [86.64889311790466]
[4.65310174e-310 4.65310227e-310 4.65290359e-310], [86.78105306625366]
[4.65310174e-310 4.65310227e-310 4.65290359e-310], [86.90243363380432]
[4.65310174e-310 4.65310227e-310 4.65290359e-310], [87.02407026290894]
[4.65310174e-310 4.65310227e-310 4.65290359e-310], [87.14717435836792]
[4.65310174e-310 4.65310227e-310 4.65290359e-310], [87.27255845069885]
[4.65310174e-310 4.65310227e-310 4.65290359e-310], [87.39257621765137]
[4.65310174e-310 4.65310227e-310 4.65290359e-310], [87.51817727088928]
[4.65310174e-310 4.65310227e-310 4.65290359e-310], [87.64091944694519]
[4.65310174e-310 4.65310227e-310 4.65290359e-310], [87.76210427284241]
[4.65310174e-310 4.65310227e-310 4.65290359e-310], [87.88074588775635]
[4.65310174e-310 4.65310227e-310 4.65290359e-310], [88.0099983215332]
[4.65310174e-310 4.65310227e-310 4.65290359e-310], [88.13450932502747]
[4.65310174e-310 4.65310227e-310 4.65290359e-310], [88.26089692115784]
[4.65310174e-310 4.65310227e-310 4.65290359e-310], [88.38378429412842]
[4.65310174e-310 4.65310227e-310 4.65290359e-310], [88.50789308547974]
[4.65310174e-310 4.65310227e-310 4.65290359e-310], [88.63340711593628]
[4.65310174e-310 4.65310227e-310 4.65290359e-310], [88.76079654693604]
[4.65310174e-310 4.65310227e-310 4.65290359e-310], [88.8827874660492]
[4.65310174e-310 4.65310227e-310 4.65290359e-310], [89.0040237903595]
[4.65310174e-310 4.65310227e-310 4.65290359e-310], [89.12495183944702]
[4.65310174e-310 4.65310227e-310 4.65290359e-310], [89.2541573047638]
[4.65310174e-310 4.65310227e-310 4.65290359e-310], [89.37043857574463]
[4.65310174e-310 4.65310227e-310 4.65290359e-310], [89.49249815940857]
[4.65310174e-310 4.65310227e-310 4.65290359e-310], [89.61186814308167]
[4.65310174e-310 4.65310227e-310 4.65290359e-310], [89.73312664031982]
[4.65310174e-310 4.65310227e-310 4.65290359e-310], [89.85005116462708]
[4.65310174e-310 4.65310227e-310 4.65290359e-310], [89.96822738647461]
[4.65310174e-310 4.65310227e-310 4.65290359e-310], [90.08983731269836]
[4.65310174e-310 4.65310227e-310 4.65290359e-310], [90.20855617523193]
[4.65310174e-310 4.65310227e-310 4.65290359e-310], [90.3477771282196]
[4.65310174e-310 4.65310227e-310 4.65290359e-310], [90.48680877685547]
[4.65310174e-310 4.65310227e-310 4.65290359e-310], [90.62646555900574]
[4.65310174e-310 4.65310227e-310 4.65290359e-310], [90.76541447639465]
[4.65310174e-310 4.65310227e-310 4.65290359e-310], [90.89431667327881]
[4.65310174e-310 4.65310227e-310 4.65290359e-310], [91.01632380485535]
[4.65310174e-310 4.65310227e-310 4.65290359e-310], [91.13756203651428]
[4.65310174e-310 4.65310227e-310 4.65290359e-310], [91.26926565170288]
[4.65310174e-310 4.65310227e-310 4.65290359e-310], [91.4187080860138]
[4.65310174e-310 4.65310227e-310 4.65290359e-310], [91.53919768333435]
[4.65310174e-310 4.65310227e-310 4.65290359e-310], [91.6643419265747]
[4.65310174e-310 4.65310227e-310 4.65290359e-310], [91.7861840724945]
[4.65310174e-310 4.65310227e-310 4.65290359e-310], [91.91021823883057]
[4.65310174e-310 4.65310227e-310 4.65290359e-310], [92.03510117530823]
[4.65310174e-310 4.65310227e-310 4.65290359e-310], [92.16383814811707]
[4.65310174e-310 4.65310227e-310 4.65290359e-310], [92.28654170036316]
[4.65310174e-310 4.65310227e-310 4.65290359e-310], [92.40929198265076]
[4.65310174e-310 4.65310227e-310 4.65290359e-310], [92.53396606445312]
[4.65310174e-310 4.65310227e-310 4.65290359e-310], [92.65143418312073]
[4.65310174e-310 4.65310227e-310 4.65290359e-310], [92.7729139328003]
[4.65310174e-310 4.65310227e-310 4.65290359e-310], [92.9106137752533]
[4.65310174e-310 4.65310227e-310 4.65290359e-310], [93.05570554733276]
[4.65310174e-310 4.65310227e-310 4.65290359e-310], [93.17453908920288]
[4.65310174e-310 4.65310227e-310 4.65290359e-310], [93.29841756820679]
[4.65310174e-310 4.65310227e-310 4.65290359e-310], [93.41699314117432]
[4.65310174e-310 4.65310227e-310 4.65290359e-310], [93.54782319068909]
[4.65310174e-310 4.65310227e-310 4.65290359e-310], [93.67473769187927]
[4.65310174e-310 4.65310227e-310 4.65290359e-310], [93.79278063774109]
[4.65310174e-310 4.65310227e-310 4.65290359e-310], [93.91520690917969]
[4.65310174e-310 4.65310227e-310 4.65290359e-310], [94.04134845733643]
[4.65310174e-310 4.65310227e-310 4.65290359e-310], [94.19052815437317]
[4.65310174e-310 4.65310227e-310 4.65290359e-310], [94.3196017742157]
[4.65310174e-310 4.65310227e-310 4.65290359e-310], [94.44580078125]
[4.65310174e-310 4.65310227e-310 4.65290359e-310], [94.57254457473755]
[4.65310174e-310 4.65310227e-310 4.65290359e-310], [94.6993522644043]
[4.65310174e-310 4.65310227e-310 4.65290359e-310], [94.82228779792786]
[4.65310174e-310 4.65310227e-310 4.65290359e-310], [94.94630646705627]
[4.65310174e-310 4.65310227e-310 4.65290359e-310], [95.06677269935608]
[4.65310174e-310 4.65310227e-310 4.65290359e-310], [95.19090151786804]
[4.65310174e-310 4.65310227e-310 4.65290359e-310], [95.31097507476807]
[4.65310174e-310 4.65310227e-310 4.65290359e-310], [95.42833399772644]
[4.65310174e-310 4.65310227e-310 4.65290359e-310], [95.5519871711731]
[4.65310174e-310 4.65310227e-310 4.65290359e-310], [95.67235970497131]
[4.65310174e-310 4.65310227e-310 4.65290359e-310], [95.79602789878845]
[4.65310174e-310 4.65310227e-310 4.65290359e-310], [95.91588950157166]
[4.65310174e-310 4.65310227e-310 4.65290359e-310], [96.03518342971802]
[4.65310174e-310 4.65310227e-310 4.65290359e-310], [96.16887593269348]
[4.65310174e-310 4.65310227e-310 4.65290359e-310], [96.29641509056091]
[4.65310174e-310 4.65310227e-310 4.65290359e-310], [96.41685032844543]
[4.65310174e-310 4.65310227e-310 4.65290359e-310], [96.54613733291626]
[4.65310174e-310 4.65310227e-310 4.65290359e-310], [96.68673157691956]
[4.65310174e-310 4.65310227e-310 4.65290359e-310], [96.80645871162415]
[4.65310174e-310 4.65310227e-310 4.65290359e-310], [96.92509245872498]
[4.65310174e-310 4.65310227e-310 4.65290359e-310], [97.04494833946228]
[4.65310174e-310 4.65310227e-310 4.65290359e-310], [97.16404366493225]
[4.65310174e-310 4.65310227e-310 4.65290359e-310], [97.28354954719543]
[4.65310174e-310 4.65310227e-310 4.65290359e-310], [97.40155029296875]
[4.65310174e-310 4.65310227e-310 4.65290359e-310], [97.52260661125183]
[4.65310174e-310 4.65310227e-310 4.65290359e-310], [97.64069318771362]
[4.65310174e-310 4.65310227e-310 4.65290359e-310], [97.76582193374634]
[4.65310174e-310 4.65310227e-310 4.65290359e-310], [97.8825364112854]
[4.65310174e-310 4.65310227e-310 4.65290359e-310], [98.00341582298279]
[4.65310174e-310 4.65310227e-310 4.65290359e-310], [98.12144684791565]
[4.65310174e-310 4.65310227e-310 4.65290359e-310], [98.23953032493591]
[4.65310174e-310 4.65310227e-310 4.65290359e-310], [98.35910677909851]
[4.65310174e-310 4.65310227e-310 4.65290359e-310], [98.48818111419678]
[4.65310174e-310 4.65310227e-310 4.65290359e-310], [98.62945556640625]
[4.65310174e-310 4.65310227e-310 4.65290359e-310], [98.7528784275055]
[4.65310174e-310 4.65310227e-310 4.65290359e-310], [98.87170624732971]
[4.65310174e-310 4.65310227e-310 4.65290359e-310], [98.99139714241028]
[4.65310174e-310 4.65310227e-310 4.65290359e-310], [99.11448931694031]
[4.65310174e-310 4.65310227e-310 4.65290359e-310], [99.23483681678772]
[4.65310174e-310 4.65310227e-310 4.65290359e-310], [99.35730624198914]
[4.65310174e-310 4.65310227e-310 4.65290359e-310], [99.4753406047821]
[4.65310174e-310 4.65310227e-310 4.65290359e-310], [99.59518337249756]
[4.65310174e-310 4.65310227e-310 4.65290359e-310], [99.71217107772827]
[4.65310174e-310 4.65310227e-310 4.65290359e-310], [99.82889461517334]
[4.65310174e-310 4.65310227e-310 4.65290359e-310], [99.94650316238403]
[4.65310174e-310 4.65310227e-310 4.65290359e-310], [100.06393909454346]
[4.65310174e-310 4.65310227e-310 4.65290359e-310], [100.18915820121765]
[4.65310174e-310 4.65310227e-310 4.65290359e-310], [100.32736372947693]
[4.65310174e-310 4.65310227e-310 4.65290359e-310], [100.44873714447021]
[4.65310174e-310 4.65310227e-310 4.65290359e-310], [100.58666682243347]
[4.65310174e-310 4.65310227e-310 4.65290359e-310], [100.72719025611877]
[4.65310174e-310 4.65310227e-310 4.65290359e-310], [100.8478512763977]
[4.65310174e-310 4.65310227e-310 4.65290359e-310], [100.99432444572449]
[4.65310174e-310 4.65310227e-310 4.65290359e-310], [101.11419916152954]
[4.65310174e-310 4.65310227e-310 4.65290359e-310], [101.23217940330505]
[4.65310174e-310 4.65310227e-310 4.65290359e-310], [101.36947464942932]
[4.65310174e-310 4.65310227e-310 4.65290359e-310], [101.50178146362305]
[4.65310174e-310 4.65310227e-310 4.65290359e-310], [101.62011790275574]
[4.65310174e-310 4.65310227e-310 4.65290359e-310], [101.74132204055786]
[4.65310174e-310 4.65310227e-310 4.65290359e-310], [101.85697841644287]
[4.65310174e-310 4.65310227e-310 4.65290359e-310], [101.97779965400696]
[4.65310174e-310 4.65310227e-310 4.65290359e-310], [102.09923672676086]
[4.65310174e-310 4.65310227e-310 4.65290359e-310], [102.2165801525116]
[4.65310174e-310 4.65310227e-310 4.65290359e-310], [102.33528804779053]
[4.65310174e-310 4.65310227e-310 4.65290359e-310], [102.4553050994873]
[4.65310174e-310 4.65310227e-310 4.65290359e-310], [102.5745496749878]
[4.65310174e-310 4.65310227e-310 4.65290359e-310], [102.69167017936707]
[4.65310174e-310 4.65310227e-310 4.65290359e-310], [102.81039190292358]
[4.65310174e-310 4.65310227e-310 4.65290359e-310], [102.92956137657166]
[4.65310174e-310 4.65310227e-310 4.65290359e-310], [103.05146265029907]
[4.65310174e-310 4.65310227e-310 4.65290359e-310], [103.17391800880432]
[4.65310174e-310 4.65310227e-310 4.65290359e-310], [103.29194045066833]
[4.65310174e-310 4.65310227e-310 4.65290359e-310], [103.41317987442017]
[4.65310174e-310 4.65310227e-310 4.65290359e-310], [103.53077387809753]
[4.65310174e-310 4.65310227e-310 4.65290359e-310], [103.65546536445618]
[4.65310174e-310 4.65310227e-310 4.65290359e-310], [103.77544951438904]
[4.65310174e-310 4.65310227e-310 4.65290359e-310], [103.92125082015991]
[4.65310174e-310 4.65310227e-310 4.65290359e-310], [104.04711127281189]
[4.65310174e-310 4.65310227e-310 4.65290359e-310], [104.181800365448]
[4.65310174e-310 4.65310227e-310 4.65290359e-310], [104.30086374282837]
[4.65310174e-310 4.65310227e-310 4.65290359e-310], [104.42189192771912]
[4.65310174e-310 4.65310227e-310 4.65290359e-310], [104.5437159538269]
[4.65310174e-310 4.65310227e-310 4.65290359e-310], [104.66548466682434]
[4.65310174e-310 4.65310227e-310 4.65290359e-310], [104.78575587272644]
[4.65310174e-310 4.65310227e-310 4.65290359e-310], [104.9287736415863]
[4.65310174e-310 4.65310227e-310 4.65290359e-310], [105.0566635131836]
[4.65310174e-310 4.65310227e-310 4.65290359e-310], [105.17999625205994]
[4.65310174e-310 4.65310227e-310 4.65290359e-310], [105.31664204597473]
[4.65310174e-310 4.65310227e-310 4.65290359e-310], [105.4433662891388]
[4.65310174e-310 4.65310227e-310 4.65290359e-310], [105.56415319442749]
[4.65310174e-310 4.65310227e-310 4.65290359e-310], [105.68428826332092]
[4.65310174e-310 4.65310227e-310 4.65290359e-310], [105.80381202697754]
[4.65310174e-310 4.65310227e-310 4.65290359e-310], [105.92413973808289]
[4.65310174e-310 4.65310227e-310 4.65290359e-310], [106.04752206802368]
[4.65310174e-310 4.65310227e-310 4.65290359e-310], [106.16584420204163]
[4.65310174e-310 4.65310227e-310 4.65290359e-310], [106.28496551513672]
[4.65310174e-310 4.65310227e-310 4.65290359e-310], [106.40488409996033]
[4.65310174e-310 4.65310227e-310 4.65290359e-310], [106.52994465827942]
[4.65310174e-310 4.65310227e-310 4.65290359e-310], [106.66568970680237]
[4.65310174e-310 4.65310227e-310 4.65290359e-310], [106.80485153198242]
[4.65310174e-310 4.65310227e-310 4.65290359e-310], [106.9229564666748]
[4.65310174e-310 4.65310227e-310 4.65290359e-310], [107.04441738128662]
[4.65310174e-310 4.65310227e-310 4.65290359e-310], [107.18346953392029]
[4.65310174e-310 4.65310227e-310 4.65290359e-310], [107.30042386054993]
[4.65310174e-310 4.65310227e-310 4.65290359e-310], [107.41929030418396]
[4.65310174e-310 4.65310227e-310 4.65290359e-310], [107.5400915145874]
[4.65310174e-310 4.65310227e-310 4.65290359e-310], [107.67384481430054]
[4.65310174e-310 4.65310227e-310 4.65290359e-310], [107.79412150382996]
[4.65310174e-310 4.65310227e-310 4.65290359e-310], [107.91324806213379]
[4.65310174e-310 4.65310227e-310 4.65290359e-310], [108.03994178771973]
[4.65310174e-310 4.65310227e-310 4.65290359e-310], [108.17623209953308]
[4.65310174e-310 4.65310227e-310 4.65290359e-310], [108.31012892723083]
[4.65310174e-310 4.65310227e-310 4.65290359e-310], [108.43415641784668]
[4.65310174e-310 4.65310227e-310 4.65290359e-310], [108.55834364891052]
[4.65310174e-310 4.65310227e-310 4.65290359e-310], [108.68221950531006]
[4.65310174e-310 4.65310227e-310 4.65290359e-310], [108.8035249710083]
[4.65310174e-310 4.65310227e-310 4.65290359e-310], [108.94431662559509]
[4.65310174e-310 4.65310227e-310 4.65290359e-310], [109.07189226150513]
[4.65310174e-310 4.65310227e-310 4.65290359e-310], [109.20641088485718]
[4.65310174e-310 4.65310227e-310 4.65290359e-310], [109.3473813533783]
[4.65310174e-310 4.65310227e-310 4.65290359e-310], [109.4695475101471]
[4.65310174e-310 4.65310227e-310 4.65290359e-310], [109.59006881713867]
[4.65310174e-310 4.65310227e-310 4.65290359e-310], [109.70916414260864]
[4.65310174e-310 4.65310227e-310 4.65290359e-310], [109.83483266830444]
[4.65310174e-310 4.65310227e-310 4.65290359e-310], [109.95580554008484]
[4.65310174e-310 4.65310227e-310 4.65290359e-310], [110.08739900588989]
[4.65310174e-310 4.65310227e-310 4.65290359e-310], [110.21241736412048]
[4.65310174e-310 4.65310227e-310 4.65290359e-310], [110.33072423934937]
[4.65310174e-310 4.65310227e-310 4.65290359e-310], [110.45756387710571]
[4.65310174e-310 4.65310227e-310 4.65290359e-310], [110.57930755615234]
[4.65310174e-310 4.65310227e-310 4.65290359e-310], [110.70258402824402]
[4.65310174e-310 4.65310227e-310 4.65290359e-310], [110.82687187194824]
[4.65310174e-310 4.65310227e-310 4.65290359e-310], [110.96949481964111]
[4.65310174e-310 4.65310227e-310 4.65290359e-310], [111.09020042419434]
[4.65310174e-310 4.65310227e-310 4.65290359e-310], [111.2110333442688]
[4.65310174e-310 4.65310227e-310 4.65290359e-310], [111.33450818061829]
[4.65310174e-310 4.65310227e-310 4.65290359e-310], [111.454758644104]
[4.65310174e-310 4.65310227e-310 4.65290359e-310], [111.57753467559814]
[4.65310174e-310 4.65310227e-310 4.65290359e-310], [111.69746613502502]
[4.65310174e-310 4.65310227e-310 4.65290359e-310], [111.81890511512756]
[4.65310174e-310 4.65310227e-310 4.65290359e-310], [111.94145655632019]
[4.65310174e-310 4.65310227e-310 4.65290359e-310], [112.06388998031616]
[4.65310174e-310 4.65310227e-310 4.65290359e-310], [112.18032598495483]
[4.65310174e-310 4.65310227e-310 4.65290359e-310], [112.30199384689331]
[4.65310174e-310 4.65310227e-310 4.65290359e-310], [112.42332148551941]
[4.65310174e-310 4.65310227e-310 4.65290359e-310], [112.56378221511841]
[4.65310174e-310 4.65310227e-310 4.65290359e-310], [112.69532084465027]
[4.65310174e-310 4.65310227e-310 4.65290359e-310], [112.82436394691467]
[4.65310174e-310 4.65310227e-310 4.65290359e-310], [112.94155812263489]
[4.65310174e-310 4.65310227e-310 4.65290359e-310], [113.06198811531067]
[4.65310174e-310 4.65310227e-310 4.65290359e-310], [113.18126511573792]
[4.65310174e-310 4.65310227e-310 4.65290359e-310], [113.29936671257019]
[4.65310174e-310 4.65310227e-310 4.65290359e-310], [113.44401788711548]
[4.65310174e-310 4.65310227e-310 4.65290359e-310], [113.56605839729309]
[4.65310174e-310 4.65310227e-310 4.65290359e-310], [113.68626666069031]
[4.65310174e-310 4.65310227e-310 4.65290359e-310], [113.80593013763428]
[4.65310174e-310 4.65310227e-310 4.65290359e-310], [113.92741203308105]
[4.65310174e-310 4.65310227e-310 4.65290359e-310], [114.06530284881592]
[4.65310174e-310 4.65310227e-310 4.65290359e-310], [114.18810081481934]
[4.65310174e-310 4.65310227e-310 4.65290359e-310], [114.32550382614136]
[4.65310174e-310 4.65310227e-310 4.65290359e-310], [114.44540619850159]
[4.65310174e-310 4.65310227e-310 4.65290359e-310], [114.56185126304626]
[4.65310174e-310 4.65310227e-310 4.65290359e-310], [114.6776852607727]
[4.65310174e-310 4.65310227e-310 4.65290359e-310], [114.79484391212463]
[4.65310174e-310 4.65310227e-310 4.65290359e-310], [114.91213870048523]
[4.65310174e-310 4.65310227e-310 4.65290359e-310], [115.03082251548767]
[4.65310174e-310 4.65310227e-310 4.65290359e-310], [115.15884184837341]
[4.65310174e-310 4.65310227e-310 4.65290359e-310], [115.27803659439087]
[4.65310174e-310 4.65310227e-310 4.65290359e-310], [115.40384197235107]
[4.65310174e-310 4.65310227e-310 4.65290359e-310], [115.52197527885437]
[4.65310174e-310 4.65310227e-310 4.65290359e-310], [115.64187502861023]
[4.65310174e-310 4.65310227e-310 4.65290359e-310], [115.76212620735168]
[4.65310174e-310 4.65310227e-310 4.65290359e-310], [115.88293290138245]
[4.65310174e-310 4.65310227e-310 4.65290359e-310], [116.00455260276794]
[4.65310174e-310 4.65310227e-310 4.65290359e-310], [116.15512084960938]
[4.65310174e-310 4.65310227e-310 4.65290359e-310], [116.27492475509644]
[4.65310174e-310 4.65310227e-310 4.65290359e-310], [116.4162209033966]
[4.65310174e-310 4.65310227e-310 4.65290359e-310], [116.53415513038635]
[4.65310174e-310 4.65310227e-310 4.65290359e-310], [116.65348196029663]
[4.65310174e-310 4.65310227e-310 4.65290359e-310], [116.77485680580139]
[4.65310174e-310 4.65310227e-310 4.65290359e-310], [116.89382100105286]
[4.65310174e-310 4.65310227e-310 4.65290359e-310], [117.02636671066284]
[4.65310174e-310 4.65310227e-310 4.65290359e-310], [117.16166806221008]
[4.65310174e-310 4.65310227e-310 4.65290359e-310], [117.28032779693604]
[4.65310174e-310 4.65310227e-310 4.65290359e-310], [117.4003095626831]
[4.65310174e-310 4.65310227e-310 4.65290359e-310], [117.52449989318848]
[4.65310174e-310 4.65310227e-310 4.65290359e-310], [117.64364814758301]
[4.65310174e-310 4.65310227e-310 4.65290359e-310], [117.76475238800049]
[4.65310174e-310 4.65310227e-310 4.65290359e-310], [117.90392780303955]
[4.65310174e-310 4.65310227e-310 4.65290359e-310], [118.04447674751282]
[4.65310174e-310 4.65310227e-310 4.65290359e-310], [118.16271805763245]
[4.65310174e-310 4.65310227e-310 4.65290359e-310], [118.31573677062988]
[4.65310174e-310 4.65310227e-310 4.65290359e-310], [118.45570540428162]
[4.65310174e-310 4.65310227e-310 4.65290359e-310], [118.59200692176819]
[4.65310174e-310 4.65310227e-310 4.65290359e-310], [118.7248466014862]
[4.65310174e-310 4.65310227e-310 4.65290359e-310], [118.85243606567383]
[4.65310174e-310 4.65310227e-310 4.65290359e-310], [118.96864557266235]
[4.65310174e-310 4.65310227e-310 4.65290359e-310], [119.08838605880737]
[4.65310174e-310 4.65310227e-310 4.65290359e-310], [119.20724940299988]
[4.65310174e-310 4.65310227e-310 4.65290359e-310], [119.32416653633118]
[4.65310174e-310 4.65310227e-310 4.65290359e-310], [119.43952417373657]
[4.65310174e-310 4.65310227e-310 4.65290359e-310], [119.55810284614563]
[4.65310174e-310 4.65310227e-310 4.65290359e-310], [119.67406511306763]
[4.65310174e-310 4.65310227e-310 4.65290359e-310], [119.79263639450073]
[4.65310174e-310 4.65310227e-310 4.65290359e-310], [119.91142702102661]
[4.65310174e-310 4.65310227e-310 4.65290359e-310], [120.03252291679382]
[4.65310174e-310 4.65310227e-310 4.65290359e-310], [120.15297341346741]
[4.65310174e-310 4.65310227e-310 4.65290359e-310], [120.26938366889954]
[4.65310174e-310 4.65310227e-310 4.65290359e-310], [120.388436794281]
[4.65310174e-310 4.65310227e-310 4.65290359e-310], [120.51002836227417]
[4.65310174e-310 4.65310227e-310 4.65290359e-310], [120.63197946548462]
[4.65310174e-310 4.65310227e-310 4.65290359e-310], [120.75466179847717]
[4.65310174e-310 4.65310227e-310 4.65290359e-310], [120.87332844734192]
[4.65310174e-310 4.65310227e-310 4.65290359e-310], [120.99280095100403]
[4.65310174e-310 4.65310227e-310 4.65290359e-310], [121.11674451828003]
[4.65310174e-310 4.65310227e-310 4.65290359e-310], [121.23560762405396]
[4.65310174e-310 4.65310227e-310 4.65290359e-310], [121.35978531837463]
[4.65310174e-310 4.65310227e-310 4.65290359e-310], [121.49544167518616]
[4.65310174e-310 4.65310227e-310 4.65290359e-310], [121.61998867988586]
[4.65310174e-310 4.65310227e-310 4.65290359e-310], [121.74168992042542]
[4.65310174e-310 4.65310227e-310 4.65290359e-310], [121.86090850830078]
[4.65310174e-310 4.65310227e-310 4.65290359e-310], [121.97849941253662]
[4.65310174e-310 4.65310227e-310 4.65290359e-310], [122.09795308113098]
[4.65310174e-310 4.65310227e-310 4.65290359e-310], [122.2196958065033]
[4.65310174e-310 4.65310227e-310 4.65290359e-310], [122.33692479133606]
[4.65310174e-310 4.65310227e-310 4.65290359e-310], [122.4756691455841]
[4.65310174e-310 4.65310227e-310 4.65290359e-310], [122.60353183746338]
[4.65310174e-310 4.65310227e-310 4.65290359e-310], [122.72785687446594]
[4.65310174e-310 4.65310227e-310 4.65290359e-310], [122.85057926177979]
[4.65310174e-310 4.65310227e-310 4.65290359e-310], [122.99179911613464]
[4.65310174e-310 4.65310227e-310 4.65290359e-310], [123.15306043624878]
[4.65310174e-310 4.65310227e-310 4.65290359e-310], [123.29317808151245]
[4.65310174e-310 4.65310227e-310 4.65290359e-310], [123.41077446937561]
[4.65310174e-310 4.65310227e-310 4.65290359e-310], [123.52812695503235]
[4.65310174e-310 4.65310227e-310 4.65290359e-310], [123.6612856388092]
[4.65310174e-310 4.65310227e-310 4.65290359e-310], [123.77759289741516]
[4.65310174e-310 4.65310227e-310 4.65290359e-310], [123.89479780197144]
[4.65310174e-310 4.65310227e-310 4.65290359e-310], [124.01169538497925]
[4.65310174e-310 4.65310227e-310 4.65290359e-310], [124.12900352478027]
[4.65310174e-310 4.65310227e-310 4.65290359e-310], [124.2440140247345]
[4.65310174e-310 4.65310227e-310 4.65290359e-310], [124.36252570152283]
[4.65310174e-310 4.65310227e-310 4.65290359e-310], [124.47848153114319]
[4.65310174e-310 4.65310227e-310 4.65290359e-310], [124.59807801246643]
[4.65310174e-310 4.65310227e-310 4.65290359e-310], [124.73791193962097]
[4.65310174e-310 4.65310227e-310 4.65290359e-310], [124.86372828483582]
[4.65310174e-310 4.65310227e-310 4.65290359e-310], [124.9828233718872]
[4.65310174e-310 4.65310227e-310 4.65290359e-310], [125.10567259788513]
[4.65310174e-310 4.65310227e-310 4.65290359e-310], [125.22299528121948]
[4.65310174e-310 4.65310227e-310 4.65290359e-310], [125.34602236747742]
[4.65310174e-310 4.65310227e-310 4.65290359e-310], [125.469886302948]
[4.65310174e-310 4.65310227e-310 4.65290359e-310], [125.59183239936829]
[4.65310174e-310 4.65310227e-310 4.65290359e-310], [125.71374678611755]
[4.65310174e-310 4.65310227e-310 4.65290359e-310], [125.85924506187439]
[4.65310174e-310 4.65310227e-310 4.65290359e-310], [125.982497215271]
[4.65310174e-310 4.65310227e-310 4.65290359e-310], [126.11197924613953]
[4.65310174e-310 4.65310227e-310 4.65290359e-310], [126.22725510597229]
[4.65310174e-310 4.65310227e-310 4.65290359e-310], [126.35994410514832]
[4.65310174e-310 4.65310227e-310 4.65290359e-310], [126.47728443145752]
[4.65310174e-310 4.65310227e-310 4.65290359e-310], [126.5956060886383]
[4.65310174e-310 4.65310227e-310 4.65290359e-310], [126.70922565460205]
[4.65310174e-310 4.65310227e-310 4.65290359e-310], [126.82558393478394]
[4.65310174e-310 4.65310227e-310 4.65290359e-310], [126.94377851486206]
[4.65310174e-310 4.65310227e-310 4.65290359e-310], [127.06154799461365]
[4.65310174e-310 4.65310227e-310 4.65290359e-310], [127.19622898101807]
[4.65310174e-310 4.65310227e-310 4.65290359e-310], [127.33470606803894]
[4.65310174e-310 4.65310227e-310 4.65290359e-310], [127.46521782875061]
[4.65310174e-310 4.65310227e-310 4.65290359e-310], [127.58064317703247]
[4.65310174e-310 4.65310227e-310 4.65290359e-310], [127.69669723510742]
[4.65310174e-310 4.65310227e-310 4.65290359e-310], [127.81469130516052]
[4.65310174e-310 4.65310227e-310 4.65290359e-310], [127.93437194824219]
[4.65310174e-310 4.65310227e-310 4.65290359e-310], [128.0511405467987]
[4.65310174e-310 4.65310227e-310 4.65290359e-310], [128.18559861183167]
[4.65310174e-310 4.65310227e-310 4.65290359e-310], [128.300678730011]
[4.65310174e-310 4.65310227e-310 4.65290359e-310], [128.4215850830078]
[4.65310174e-310 4.65310227e-310 4.65290359e-310], [128.54066562652588]
[4.65310174e-310 4.65310227e-310 4.65290359e-310], [128.65805101394653]
[4.65310174e-310 4.65310227e-310 4.65290359e-310], [128.7722945213318]
[4.65310174e-310 4.65310227e-310 4.65290359e-310], [128.88695216178894]
[4.65310174e-310 4.65310227e-310 4.65290359e-310], [129.0028977394104]
[4.65310174e-310 4.65310227e-310 4.65290359e-310], [129.12170672416687]
[4.65310174e-310 4.65310227e-310 4.65290359e-310], [129.23808646202087]
[4.65310174e-310 4.65310227e-310 4.65290359e-310], [129.35464024543762]
[4.65310174e-310 4.65310227e-310 4.65290359e-310], [129.47181510925293]
[4.65310174e-310 4.65310227e-310 4.65290359e-310], [129.5880103111267]
[4.65310174e-310 4.65310227e-310 4.65290359e-310], [129.70449495315552]
[4.65310174e-310 4.65310227e-310 4.65290359e-310], [129.82109928131104]
[4.65310174e-310 4.65310227e-310 4.65290359e-310], [129.9359736442566]
[4.65310174e-310 4.65310227e-310 4.65290359e-310], [130.05007433891296]
[4.65310174e-310 4.65310227e-310 4.65290359e-310], [130.1810269355774]
[4.65310174e-310 4.65310227e-310 4.65290359e-310], [130.30299925804138]
[4.65310174e-310 4.65310227e-310 4.65290359e-310], [130.41762113571167]
[4.65310174e-310 4.65310227e-310 4.65290359e-310], [130.54023432731628]
[4.65310174e-310 4.65310227e-310 4.65290359e-310], [130.66204953193665]
[4.65310174e-310 4.65310227e-310 4.65290359e-310], [130.78387784957886]
[4.65310174e-310 4.65310227e-310 4.65290359e-310], [130.91703867912292]
[4.65310174e-310 4.65310227e-310 4.65290359e-310], [131.03349137306213]
[4.65310174e-310 4.65310227e-310 4.65290359e-310], [131.16767001152039]
[4.65310174e-310 4.65310227e-310 4.65290359e-310], [131.3080096244812]
[4.65310174e-310 4.65310227e-310 4.65290359e-310], [131.448344707489]
[4.65310174e-310 4.65310227e-310 4.65290359e-310], [131.5879340171814]
[4.65310174e-310 4.65310227e-310 4.65290359e-310], [131.70369625091553]
[4.65310174e-310 4.65310227e-310 4.65290359e-310], [131.8224482536316]
[4.65310174e-310 4.65310227e-310 4.65290359e-310], [131.95162773132324]
[4.65310174e-310 4.65310227e-310 4.65290359e-310], [132.09797191619873]
[4.65310174e-310 4.65310227e-310 4.65290359e-310], [132.2134075164795]
[4.65310174e-310 4.65310227e-310 4.65290359e-310], [132.33045601844788]
[4.65310174e-310 4.65310227e-310 4.65290359e-310], [132.47578263282776]
[4.65310174e-310 4.65310227e-310 4.65290359e-310], [132.5922782421112]
[4.65310174e-310 4.65310227e-310 4.65290359e-310], [132.71451091766357]
[4.65310174e-310 4.65310227e-310 4.65290359e-310], [132.8355929851532]
[4.65310174e-310 4.65310227e-310 4.65290359e-310], [132.950825214386]
[4.65310174e-310 4.65310227e-310 4.65290359e-310], [133.08896374702454]
[4.65310174e-310 4.65310227e-310 4.65290359e-310], [133.23354768753052]
[4.65310174e-310 4.65310227e-310 4.65290359e-310], [133.3794002532959]
[4.65310174e-310 4.65310227e-310 4.65290359e-310], [133.52281022071838]
[4.65310174e-310 4.65310227e-310 4.65290359e-310], [133.66479992866516]
[4.65310174e-310 4.65310227e-310 4.65290359e-310], [133.7977499961853]
[4.65310174e-310 4.65310227e-310 4.65290359e-310], [133.91945505142212]
[4.65310174e-310 4.65310227e-310 4.65290359e-310], [134.04019165039062]
[4.65310174e-310 4.65310227e-310 4.65290359e-310], [134.16292786598206]
[4.65310174e-310 4.65310227e-310 4.65290359e-310], [134.31404161453247]
[4.65310174e-310 4.65310227e-310 4.65290359e-310], [134.46307754516602]
[4.65310174e-310 4.65310227e-310 4.65290359e-310], [134.61549973487854]
[4.65310174e-310 4.65310227e-310 4.65290359e-310], [134.76489782333374]
[4.65310174e-310 4.65310227e-310 4.65290359e-310], [134.89900588989258]
[4.65310174e-310 4.65310227e-310 4.65290359e-310], [135.03815340995789]
[4.65310174e-310 4.65310227e-310 4.65290359e-310], [135.17560052871704]
[4.65310174e-310 4.65310227e-310 4.65290359e-310], [135.3158724308014]
[4.65310174e-310 4.65310227e-310 4.65290359e-310], [135.43748807907104]
