[1.11022302e-14 0.00000000e+00 5.00000000e+01], [17.617329597473145]
[1.49944319e-14 1.19719783e-14 5.00000000e+01], [18.909491062164307]
[3.86681837e-02 1.39367029e-03 5.00219893e+01], [19.063735723495483]
[1.01851013e-01 3.28120053e-03 5.00453280e+01], [19.21020531654358]
[1.87401004e-01 5.15256341e-03 5.00718877e+01], [19.376335859298706]
[2.94770000e-01 6.50522923e-03 5.01020897e+01], [19.52305841445923]
[4.25049427e-01 8.32618606e-03 5.01367377e+01], [19.66990375518799]
[5.78163022e-01 1.01233434e-02 5.01752319e+01], [19.81758427619934]
[7.55384511e-01 1.18883751e-02 5.02180294e+01], [19.96454381942749]
[9.55973258e-01 1.41207301e-02 5.02640187e+01], [20.11205530166626]
[1.17943244e+00 1.68223415e-02 5.03128062e+01], [20.258827447891235]
[1.39141609e+00 1.00758010e-02 5.03454467e+01], [20.408653736114502]
[1.62730326e+00 1.70776056e-02 5.03925986e+01], [20.558079957962036]
[1.88662159e+00 2.37378871e-02 5.04432650e+01], [20.705719709396362]
[2.16840459e+00 3.23515367e-02 5.04956935e+01], [20.853068113327026]
[ 2.46262581  0.05146107 50.54439581], [21.000965356826782]
[ 2.7696062   0.07924562 50.5924542 ], [21.14900279045105]
[ 3.0845809   0.09079436 50.63730307], [21.297391176223755]
[ 3.40956007  0.10097115 50.6816781 ], [21.448949575424194]
[ 3.74758644  0.12855963 50.72643766], [21.596089839935303]
[ 4.08949525  0.14369432 50.76535447], [21.743806838989258]
[ 4.44197387  0.16095872 50.80477278], [21.892505645751953]
[ 4.80032861  0.19127271 50.84029544], [22.040806770324707]
[ 5.17024025  0.23747571 50.87563339], [22.187371253967285]
[ 5.55881116  0.27925691 50.91219073], [22.334818363189697]
[ 5.9574004   0.32191938 50.94330493], [22.484802961349487]
[ 6.36975689  0.36321189 50.9726741 ], [22.63103175163269]
[ 6.79309552  0.40353096 50.99790814], [22.78272843360901]
[ 7.22211142  0.44040275 51.01703605], [22.96137046813965]
[ 7.66843433  0.49264965 51.03673598], [23.10960364341736]
[ 8.10477306  0.52768872 51.04140171], [23.25769019126892]
[ 8.53270948  0.60372926 51.03938028], [23.40808391571045]
[ 8.91147258  0.70178506 51.01359548], [23.567675352096558]
[ 9.27392913  0.81786378 50.99008212], [23.719514846801758]
[ 9.5827009   0.93262886 50.94782654], [23.868410348892212]
[ 9.8840832   1.07146098 50.91530604], [24.039108991622925]
[10.14259003  1.22544607 50.86856603], [24.186264276504517]
[10.38779035  1.38700102 50.82716626], [24.335129022598267]
[10.61251137  1.55148294 50.78301327], [24.51716709136963]
[10.8156476   1.72221149 50.73686766], [24.664973258972168]
[11.00305283  1.90272063 50.69140687], [24.813312768936157]
[11.18340456  2.09755635 50.64816323], [24.961043119430542]
[11.33768336  2.28789168 50.59892815], [25.10890769958496]
[11.48270996  2.49981708 50.55288066], [25.256497144699097]
[11.61030157  2.71541447 50.50437384], [25.406851291656494]
[11.73012523  2.94697636 50.45744582], [25.55794596672058]
[11.82134064  3.16094815 50.40527426], [25.70639944076538]
[11.90520556  3.39756346 50.35731604], [25.856319665908813]
[11.98385444  3.6434888  50.30999178], [26.00525999069214]
[12.05548876  3.89778614 50.2614558 ], [26.15287947654724]
[12.11327818  4.13250512 50.2121912 ], [26.30172300338745]
[12.16711218  4.37690745 50.16489844], [26.458349227905273]
[12.20958504  4.6328602  50.11442303], [26.61865782737732]
[12.22786651  4.87215055 50.0611327 ], [26.771366596221924]
[12.24858458  5.11544073 50.01444791], [26.9448721408844]
[12.26914788  5.35704255 49.96832246], [27.093950748443604]
[12.28052951  5.61214119 49.9178313 ], [27.243789672851562]
[12.26234598  5.82811119 49.86576989], [27.395945072174072]
[12.2393612   6.06493447 49.81757909], [27.551212072372437]
[12.21490334  6.30146117 49.77075825], [27.707838773727417]
[12.18022315  6.55457935 49.71901577], [27.85710334777832]
[12.13857508  6.81925644 49.66483302], [28.005006313323975]
[12.08904806  7.09316628 49.60768436], [28.152583122253418]
[12.02510269  7.3715982  49.54659565], [28.300646781921387]
[11.95206794  7.6387595  49.48749177], [28.45139241218567]
[11.8677363   7.90530756 49.42757263], [28.60019850730896]
[11.77422485  8.18415767 49.36481018], [28.749176740646362]
[11.67230274  8.46648025 49.30001085], [28.897346019744873]
[11.54147163  8.7661521  49.30523196], [29.062629222869873]
[11.39894876  9.07262482 49.31690806], [29.21062684059143]
[11.25958018  9.37143486 49.3254505 ], [29.368557691574097]
[11.11125548  9.66539048 49.33452123], [29.516391038894653]
[10.9319269   9.94630102 49.35074615], [29.665241241455078]
[10.72879842 10.20587812 49.37729253], [29.813505172729492]
[10.57869282 10.43574308 49.37389352], [29.95944046974182]
[10.38323156 10.67257782 49.391961  ], [30.10670804977417]
[10.17678538 10.92196584 49.40911485], [30.25392460823059]
[ 9.9245936  11.13177217 49.43991939], [30.401567220687866]
[ 9.67350167 11.35022499 49.46623153], [30.549397468566895]
[ 9.44041913 11.55182063 49.48547074], [30.698370456695557]
[ 9.19814601 11.75860285 49.50462941], [30.845043182373047]
[ 8.94868679 11.93998793 49.52417878], [30.991933345794678]
[ 8.7097459  12.10865373 49.53883852], [31.138751983642578]
[ 8.46213634 12.28456515 49.55382865], [31.286473989486694]
[ 8.20330447 12.4659243  49.56826304], [31.433559894561768]
[ 7.96311458 12.62723858 49.57564536], [31.581300020217896]
[ 7.73481154 12.77859865 49.58058872], [31.728152751922607]
[ 7.48737551 12.93351786 49.58839715], [31.875167846679688]
[ 7.23830628 13.06896139 49.59362569], [32.02250862121582]
[ 6.98333232 13.21085222 49.59859933], [32.2029447555542]
[ 6.71242648 13.3563405  49.60547034], [32.34974431991577]
[ 6.4425159  13.47738431 49.61505939], [32.52818417549133]
[ 6.16339746 13.60686384 49.62622082], [32.67558693885803]
[ 5.8846059  13.72571468 49.63374847], [32.83004379272461]
[ 5.59301669 13.83499824 49.64709085], [33.08032178878784]
[ 5.29506883 13.94682672 49.65880104], [33.249465227127075]
[ 4.98673646 14.05596142 49.67008763], [33.40095353126526]
[ 4.69088351 14.13771257 49.68499646], [33.55564522743225]
[ 4.39489363 14.21502236 49.70447763], [33.705886125564575]
[ 4.09782682 14.29015562 49.72104861], [33.855384826660156]
[ 3.80064922 14.36280522 49.73520028], [34.00590634346008]
[ 3.48937114 14.43507589 49.74978568], [34.18778991699219]
[ 3.16449728 14.50510618 49.76622207], [34.337809801101685]
[ 2.83948902 14.5597875  49.78238515], [34.48784255981445]
[ 2.50431693 14.61214367 49.7979514 ], [34.637529373168945]
[ 2.17296499 14.66188252 49.80915447], [34.78813433647156]
[ 1.86100802 14.69885471 49.83386607], [34.938310623168945]
[ 1.54982942 14.72822578 49.86442896], [35.088730335235596]
[ 1.25242378 14.74848459 49.88946127], [35.23942303657532]
[ 0.93759865 14.76605784 49.92251805], [35.39031529426575]
[ 0.63461064 14.76275119 49.94536442], [35.54076337814331]
[ 0.33425122 14.75579765 49.97021669], [35.691086292266846]
[4.62444943e-02 1.47355134e+01 4.99890337e+01], [35.84116864204407]
[-0.2511977  14.71627031 50.01437912], [36.02338123321533]
[-0.5621576  14.69433089 50.04234522], [36.17489552497864]
[-0.86167949 14.66286035 50.06270012], [36.35579442977905]
[-1.17145471 14.62189414 50.08558701], [36.50832271575928]
[-1.47685822 14.57827094 50.10654056], [36.658362865448]
[-1.76398014 14.52356508 50.11955582], [36.80820846557617]
[-2.04989113 14.4614367  50.13359223], [36.95840263366699]
[-2.34928072 14.39466556 50.15163678], [37.10921502113342]
[-2.65745893 14.32475898 50.17015212], [37.259429693222046]
[-2.97593015 14.25198514 50.18882494], [37.41038942337036]
[-3.27593625 14.16944645 50.19852184], [37.56008839607239]
[-3.55972263 14.07438271 50.20339141], [37.710349798202515]
[-3.84040822 13.97315691 50.20943276], [37.89902710914612]
[-4.13506308 13.86568211 50.21843193], [38.04961133003235]
[-4.43621549 13.75505015 50.22707361], [38.19860100746155]
[-4.74672139 13.64013684 50.23501751], [38.34789776802063]
[-5.06725686 13.52136181 50.24194571], [38.498984575271606]
[-5.35474166 13.40410742 50.24024187], [38.6484591960907]
[-5.635884   13.28083282 50.23705024], [38.797839403152466]
[-5.92823937 13.15227072 50.2353868 ], [38.94806098937988]
[-6.19985533 13.01193948 50.22623883], [39.0977509021759]
[-6.47715594 12.86900334 50.22014976], [39.274473667144775]
[-6.7267705  12.71789885 50.20740611], [39.42590856552124]
[-6.97680159 12.57429163 50.19975392], [39.574796199798584]
[-7.22613378 12.43268469 50.19101498], [39.72424125671387]
[-7.48133609 12.2854237  50.18029304], [39.87358474731445]
[-7.72905276 12.13149011 50.16613878], [40.054529666900635]
[-7.98314825 11.97354104 50.15238371], [40.204346656799316]
[-8.23922899 11.82053034 50.13890574], [40.354103326797485]
[-8.50763299 11.6539301  50.12058685], [40.50219464302063]
[-8.74975682 11.48198062 50.0975215 ], [40.65101385116577]
[-8.98960911 11.31268064 50.0771827 ], [40.80086874961853]
[-9.21737758 11.13940216 50.0539714 ], [40.951008796691895]
[-9.44769731 10.96491037 50.03146097], [41.1013605594635]
[-9.67414478 10.79302717 50.00832372], [41.25196146965027]
[-9.90296278 10.61704891 49.98288486], [41.40376687049866]
[-10.11966761  10.44312634  49.95631907], [41.55419373512268]
[-10.33470193  10.26288052  49.92766641], [41.70521783828735]
[-10.52178128  10.07624476  49.8963258 ], [41.85556435585022]
[-10.70196741   9.9007009   49.87145829], [42.00546932220459]
[-10.88549846   9.71928321  49.8438787 ], [42.154924154281616]
[-11.06713289   9.53347742  49.81459994], [42.305583477020264]
[-11.24495423   9.34991579  49.7860252 ], [42.45628213882446]
[-11.41945346   9.15533125  49.78367579], [42.702141523361206]
[-11.59178267   8.95105725  49.80658155], [42.85355305671692]
[-11.7684387    8.73823387  49.8285361 ], [43.002991914749146]
[-11.94005544   8.5256078   49.85378208], [43.15259575843811]
[-12.11341112   8.30412806  49.87855841], [43.308258295059204]
[-12.2752693    8.0647427   49.90892785], [43.504969358444214]
[-12.39796978   7.82527555  49.95130239], [43.65604877471924]
[-12.52796336   7.57603512  49.99289076], [43.80529856681824]
[-12.63059942   7.37527879  50.03016893], [43.95400071144104]
[-12.72948844   7.13956659  50.07147715], [44.1033673286438]
[-12.83127268   6.91434911  50.10876898], [44.294973850250244]
[-12.8863488    6.66957573  50.16128224], [44.443522453308105]
[-12.95367776   6.42407866  50.20945297], [44.6172981262207]
[-13.01743678   6.18676487  50.25433406], [44.76620006561279]
[-13.08480315   5.92814112  50.29877779], [44.914705753326416]
[-13.12810434   5.6836091   50.3463765 ], [45.06234860420227]
[-13.17540223   5.43654545  50.38895975], [45.21150231361389]
[-13.22679967   5.16752903  50.4320829 ], [45.36162543296814]
[-13.27257174   4.92341992  50.4708582 ], [45.520047664642334]
[-13.32327855   4.6507105   50.50911135], [45.66814994812012]
[-13.33044028   4.38246365  50.55767842], [45.81598162651062]
[-13.33949289   4.12795831  50.60053279], [45.963024616241455]
[-13.34452585   3.84980396  50.645431  ], [46.11062407493591]
[-13.34827175   3.5660699   50.68987015], [46.28894662857056]
[-13.35136614   3.27817852  50.73236364], [46.43993926048279]
[-13.34902585   2.99160786  50.77346463], [46.62747526168823]
[-13.34437321   2.69538905  50.81403755], [46.77403974533081]
[-13.33909542   2.39406855  50.8531504 ], [46.92013072967529]
[-13.32985212   2.08367149  50.89227215], [47.09266400337219]
[-13.31880414   1.76125274  50.93183089], [47.239418745040894]
[-13.269412     1.45775874  50.97722661], [47.42465138435364]
[-13.21705962   1.15217817  51.02268853], [47.57349181175232]
[-13.15598766   0.82773299  51.06874526], [47.72184920310974]
[-13.08989555   0.49650127  51.11387871], [47.89666676521301]
[-13.02236725   0.181902    51.15794386], [48.067819356918335]
[-12.94904461  -0.15392497  51.20236462], [48.21618580818176]
[-12.86973356  -0.49531243  51.24782098], [48.36608648300171]
[-12.78458374  -0.84173099  51.29180109], [48.52953481674194]
[-12.69384119  -1.16869651  51.3329559 ], [48.67765974998474]
[-12.60200567  -1.49062665  51.37286655], [48.826314210891724]
[-12.5049685   -1.80289158  51.40806674], [48.97469425201416]
[-12.40869347  -2.09241429  51.44542498], [49.121931314468384]
[-12.30844937  -2.37955262  51.48168685], [49.268965005874634]
[-12.20999042  -2.63770732  51.51746459], [49.417776346206665]
[-12.10051397  -2.91515793  51.54977506], [49.56559705734253]
[-11.98828047  -3.19564033  51.58455785], [49.714051246643066]
[-11.87150415  -3.456178    51.61754882], [49.86123442649841]
[-11.74676069  -3.72756138  51.65176922], [50.01207709312439]
[-11.62329761  -3.96517862  51.68685374], [50.160024881362915]
[-11.49075681  -4.20538755  51.72017956], [50.30892086029053]
[-11.35148473  -4.46133424  51.75585531], [50.459298849105835]
[-11.2082516   -4.701431    51.79166354], [50.607563972473145]
[-11.05922011  -4.92662228  51.82794158], [50.755374908447266]
[-10.9021114   -5.15612348  51.86556808], [50.9034104347229]
[-10.74222095  -5.36577495  51.90475824], [51.051565647125244]
[-10.57423861  -5.56493718  51.94441821], [51.225971698760986]
[-10.39793008  -5.77975512  51.98348297], [51.374634742736816]
[-10.22352197  -5.95810685  52.02850178], [51.52633762359619]
[-10.04165823  -6.13733385  52.07470793], [51.70710587501526]
[-9.84884254 -6.32062216 52.11966973], [51.88168144226074]
[-9.66209916 -6.48520742 52.16975634], [52.02967023849487]
[-9.47741452 -6.65806695 52.20412722], [52.178770542144775]
[-9.28438959 -6.83618652 52.24186132], [52.32617211341858]
[-9.0858821  -6.99148371 52.28406716], [52.47661066055298]
[-8.88661298 -7.12683303 52.32718807], [52.62473702430725]
[-8.69725022 -7.27578604 52.36750509], [52.77210068702698]
[-8.51413192 -7.40261638 52.41285302], [52.94374060630798]
[-8.32463183 -7.53317563 52.45428861], [53.0934157371521]
[-8.13611055 -7.63370756 52.49984845], [53.24346089363098]
[-7.94785395 -7.75645572 52.53075631], [53.39399576187134]
[-7.76008995 -7.85096823 52.57299956], [53.54316163063049]
[-7.55817676 -7.95161512 52.61454257], [53.69195199012756]
[-7.37338283 -8.01157492 52.6681854 ], [53.84326386451721]
[-7.19566281 -8.10683528 52.69051848], [53.99184560775757]
[-7.012276   -8.18317254 52.7219447 ], [54.14284586906433]
[-6.82911462 -8.27700413 52.7420402 ], [54.324098348617554]
[-6.64149194 -8.34895062 52.7696769 ], [54.47169899940491]
[-6.44423375 -8.41629826 52.80044746], [54.619181394577026]
[-6.22982979 -8.49365947 52.8316945 ], [54.767452001571655]
[-6.0126225  -8.5368161  52.87138671], [54.91624164581299]
[-5.80846665 -8.59972331 52.88598837], [55.064398527145386]
[-5.5896066  -8.6625921  52.90603214], [55.21210050582886]
[-5.39544465 -8.69139002 52.93138553], [55.35966444015503]
[-5.18227685 -8.73277406 52.95598127], [55.508647203445435]
[-4.9772797  -8.77435816 52.9764373 ], [55.6572163105011]
[-4.75668586 -8.81827286 52.99781678], [55.80466270446777]
[-4.53644156 -8.83519182 53.03594575], [55.952845096588135]
[-4.31898776 -8.858107   53.06108484], [56.10004186630249]
[-4.11724316 -8.89756897 53.06582229], [56.272294998168945]
[-3.91744081 -8.9065315  53.08410598], [56.42039442062378]
[-3.71962332 -8.91287077 53.106352  ], [56.56702470779419]
[-3.51484039 -8.91274303 53.12782744], [56.7146475315094]
[-3.31660317 -8.92944348 53.12882546], [56.86213278770447]
[-3.11721533 -8.94931785 53.1288838 ], [57.009247064590454]
[-2.90973013 -8.96717588 53.12896712], [57.17041873931885]
[-2.71107905 -8.98318531 53.12896373], [57.33785533905029]
[-2.49426401 -9.00106361 53.12567713], [57.487239360809326]
[-2.34462194 -8.97723184 53.11947285], [57.63488149642944]
[-2.16345099 -8.9661643  53.10899165], [57.806538343429565]
[-1.98480122 -8.95289374 53.10109749], [57.98725986480713]
[-1.79396876 -8.95064412 53.0850176 ], [58.166297912597656]
[-1.58259785 -8.95797435 53.06844925], [58.35424089431763]
[-1.3537279  -8.96611527 53.0509664 ], [58.51444435119629]
[-1.11432575 -8.97524682 53.03435736], [58.69801425933838]
[-0.87933484 -8.98663303 53.01157675], [58.845879793167114]
[-0.66862086 -8.98138673 52.99408033], [58.99721097946167]
[-0.46720672 -8.98288489 52.96366546], [59.144837379455566]
[-0.25979619 -8.97252166 52.94042369], [59.29229497909546]
[-3.25894457e-02 -8.96463040e+00  5.29142314e+01], [59.44454312324524]
[ 0.17892482 -8.95174258 52.89771203], [59.60422110557556]
[ 0.39529458 -8.9378102  52.86846207], [59.7532901763916]
[ 0.60186499 -8.91679824 52.8425334 ], [59.90484571456909]
[ 0.82153649 -8.88538737 52.82172577], [60.052754402160645]
[ 1.05707777 -8.85234931 52.8009348 ], [60.2006618976593]
[ 1.26109828 -8.81791032 52.77512743], [60.34923458099365]
[ 1.49147807 -8.79005086 52.74509137], [60.50268483161926]
[ 1.73336685 -8.76613007 52.70952378], [60.64963412284851]
[ 1.95784637 -8.72922822 52.68117182], [60.79754853248596]
[ 2.19680351 -8.69464661 52.6473426 ], [60.94590091705322]
[ 2.41459939 -8.65959289 52.60989465], [61.09411573410034]
[ 2.63115036 -8.62458537 52.57154063], [61.24278116226196]
[ 2.84122231 -8.57097998 52.54048025], [61.47465801239014]
[ 3.06313722 -8.52300051 52.50339061], [61.627700328826904]
[ 3.27924232 -8.48129719 52.46404446], [61.780497550964355]
[ 3.50386881 -8.43054911 52.42798696], [61.95861101150513]
[ 3.71138478 -8.37208133 52.39583309], [62.10938787460327]
[ 3.89471651 -8.3005086  52.37264439], [62.260350465774536]
[ 4.10502398 -8.2266446  52.34386143], [62.41473889350891]
[ 4.30558039 -8.15970437 52.31331277], [62.56799507141113]
[ 4.52074259 -8.09232267 52.28065628], [62.7167329788208]
[ 4.73475265 -8.01534107 52.25239968], [62.86905241012573]
[ 4.95943863 -7.92951353 52.22402066], [63.021576166152954]
[ 5.19058324 -7.84958296 52.19079066], [63.17621421813965]
[ 5.40059774 -7.78218063 52.15661901], [63.32991003990173]
[ 5.61575839 -7.70811892 52.12047651], [63.48319220542908]
[ 5.83469095 -7.62870418 52.0871313 ], [63.632391929626465]
[ 6.06368344 -7.53872713 52.05374414], [63.78099870681763]
[ 6.30296201 -7.43597961 52.02174767], [63.932995557785034]
[ 6.53591781 -7.33773437 51.98499085], [64.08301401138306]
[ 6.76328087 -7.22716327 51.95346445], [64.230877161026]
[ 7.00372545 -7.11113352 51.92076246], [64.40946221351624]
[ 7.26193377 -6.99141295 51.88553684], [64.55616307258606]
[ 7.49737122 -6.87383102 51.84961956], [64.7042145729065]
[ 7.73917314 -6.74209502 51.81629895], [64.85398721694946]
[ 7.96814377 -6.62160858 51.77969476], [65.00228500366211]
[ 8.20148889 -6.48313527 51.74260817], [65.14943146705627]
[ 8.4258653  -6.34054977 51.70932323], [65.29666423797607]
[ 8.64408433 -6.21005208 51.67302293], [65.44664478302002]
[ 8.84982833 -6.07048913 51.64304243], [65.59380531311035]
[ 9.0642618  -5.91781694 51.61194389], [65.74337840080261]
[ 9.26114321 -5.7623466  51.58579424], [65.89246988296509]
[ 9.45120295 -5.58692623 51.56394124], [66.0436737537384]
[ 9.6505395  -5.39947123 51.54095752], [66.19802904129028]
[ 9.83050035 -5.22921296 51.51763994], [66.34600973129272]
[10.02120587 -5.05097969 51.49075749], [66.49309754371643]
[10.18991711 -4.87824406 51.46750128], [66.64006900787354]
[10.3438369  -4.68834454 51.45048977], [66.78769183158875]
[10.47219817 -4.5081933  51.43788946], [66.95984554290771]
[10.60762043 -4.313659   51.4222798 ], [67.107004404068]
[10.73033618 -4.13318445 51.40399811], [67.25380659103394]
[10.85495451 -3.93461662 51.38614905], [67.42740726470947]
[10.98956445 -3.72500568 51.36577794], [67.57454800605774]
[11.10093568 -3.52510223 51.35373549], [67.72140383720398]
[11.22275613 -3.31386773 51.33713492], [67.88921785354614]
[11.35412344 -3.09533217 51.31667709], [68.03741693496704]
[11.46141523 -2.89180444 51.29845075], [68.1868999004364]
[11.58113837 -2.67423951 51.27652423], [68.33546042442322]
[11.66958349 -2.46514885 51.26365748], [68.48349332809448]
[11.75388387 -2.24941371 51.25199864], [68.63241004943848]
[11.81832368 -2.04355616 51.24160343], [68.81113696098328]
[11.88745147 -1.82951651 51.22767557], [68.95813918113708]
[11.96683526 -1.60338742 51.210303  ], [69.105459690094]
[12.04274401 -1.37461019 51.19160367], [69.2533528804779]
[12.11579578 -1.14362645 51.17425573], [69.40258145332336]
[12.18919507 -0.89053449 51.15593147], [69.58277130126953]
[12.23428002 -0.64678493 51.14229611], [69.77820587158203]
[12.28306196 -0.38336679 51.12644156], [69.9432475566864]
[12.31878272 -0.13131981 51.11130079], [70.09069561958313]
[12.36053758  0.12989787 51.09212185], [70.23883938789368]
[12.40440226  0.40362214 51.07334389], [70.3868465423584]
[12.42628802  0.65846097 51.05824959], [70.53592777252197]
[12.4557398   0.92634361 51.03758307], [70.68440890312195]
[12.4445684   1.17172478 51.02999963], [70.83462691307068]
[12.43634688  1.4210815  51.01915127], [70.9845769405365]
[12.42520588  1.68766297 51.00741833], [71.13463521003723]
[12.4158118   1.96191096 50.99318214], [71.2849702835083]
[12.37799944  2.22139128 50.98703938], [71.43650841712952]
[12.33985856  2.483003   50.97825322], [71.5885260105133]
[12.31306391  2.745607   50.9627882 ], [71.73808693885803]
[12.26393458  2.97826333 50.95268288], [71.88789629936218]
[12.22498468  3.21927386 50.93547162], [72.06942415237427]
[12.18533513  3.47184936 50.91823591], [72.22107362747192]
[12.13530995  3.73390707 50.90203295], [72.36881494522095]
[12.09403353  3.98142309 50.88281029], [72.51870918273926]
[12.03191711  4.21042132 50.86502628], [72.66885995864868]
[11.98191862  4.44159566 50.84107477], [72.82103133201599]
[11.92075669  4.67872578 50.82155931], [72.99816107749939]
[11.85374364  4.93062919 50.79957639], [73.14795875549316]
[11.77316587  5.17325881 50.77883363], [73.32445311546326]
[11.68814032  5.39555124 50.76005454], [73.47551584243774]
[11.59977977  5.63466696 50.74105488], [73.62523221969604]
[11.51288617  5.87341141 50.71917908], [73.77578330039978]
[11.43415036  6.09775417 50.69440295], [73.92616701126099]
[11.34129413  6.31944586 50.67497861], [74.07660555839539]
[11.25306859  6.54223753 50.65199248], [74.2275562286377]
[11.17517427  6.75898781 50.62114793], [74.37709307670593]
[11.08094981  6.98694346 50.59138209], [74.52730512619019]
[10.98008492  7.22527694 50.56238637], [74.67687964439392]
[10.89233481  7.44748129 50.52905193], [74.85914659500122]
[10.79540327  7.67725983 50.4985706 ], [75.00872826576233]
[10.65536229  7.88398908 50.48028934], [75.15842700004578]
[10.51370889  8.1092458  50.4590547 ], [75.30871391296387]
[10.36375391  8.33931398 50.43793184], [75.45920610427856]
[10.20624535  8.58094579 50.41619015], [75.60969591140747]
[10.05552544  8.81455571 50.38730426], [75.75917506217957]
[ 9.89928271  9.05232273 50.35835927], [75.9081289768219]
[ 9.73781255  9.28843237 50.33126553], [76.05750584602356]
[ 9.56445221  9.53362311 50.30504518], [76.20620918273926]
[ 9.40253069  9.76828141 50.27114904], [76.35533285140991]
[ 9.22381974 10.00656748 50.24019366], [76.5046136379242]
[ 9.03962118 10.25507297 50.20706448], [76.6539204120636]
[ 8.84079891 10.50809436 50.17588636], [76.80268406867981]
[ 8.65009022 10.75040613 50.14411227], [76.98327136039734]
[ 8.44144795 10.98584726 50.11401555], [77.1325831413269]
[ 8.25061615 11.19965422 50.07860866], [77.28235864639282]
[ 8.04941723 11.40548235 50.04714486], [77.43650531768799]
[ 7.84719082 11.6138644  50.01448058], [77.61604261398315]
[ 7.64235968 11.81516525 49.98097369], [77.79541373252869]
[ 7.43422813 11.9980637  49.9533364 ], [77.977614402771]
[ 7.21665892 12.19061449 49.92590686], [78.12732028961182]
[ 7.00508255 12.36423026 49.89775262], [78.27706170082092]
[ 6.78232245 12.5424429  49.8713587 ], [78.42773962020874]
[ 6.54932226 12.71792629 49.84688535], [78.5771267414093]
[ 6.31847424 12.87258806 49.82408877], [78.72526717185974]
[ 6.08210416 13.02592756 49.80306353], [78.87451577186584]
[ 5.83117535 13.17955485 49.78582033], [79.04078245162964]
[ 5.57960946 13.32081032 49.77011662], [79.19034242630005]
[ 5.31778965 13.46474946 49.75617627], [79.36280035972595]
[ 5.06265412 13.59920048 49.73943286], [79.51313066482544]
[ 4.79363879 13.7387112  49.72304146], [79.66315627098083]
[ 4.54115043 13.83872822 49.71289208], [79.81464982032776]
[ 4.28305707 13.9380828  49.70960683], [79.96447420120239]
[ 4.02392581 14.03406914 49.70440757], [80.1417064666748]
[ 3.7512495  14.13233969 49.69915184], [80.29163908958435]
[ 3.48942763 14.22312989 49.69198636], [80.4423155784607]
[ 3.21247767 14.31408305 49.68528356], [80.59174346923828]
[ 2.93361278 14.39591888 49.70790631], [80.75016045570374]
[ 2.64429876 14.47398474 49.74306716], [80.89929842948914]
[ 2.3444057  14.55303354 49.7820318 ], [81.04823756217957]
[ 2.04475398 14.62928333 49.81691016], [81.19692993164062]
[ 1.75378661 14.69956995 49.84515608], [81.3440854549408]
[ 1.44883478 14.73200697 49.87085923], [81.49674034118652]
[ 1.14506653 14.76960986 49.90193722], [81.64370393753052]
[ 0.85351218 14.79422228 49.92411624], [81.79098391532898]
[ 0.54727633 14.79428013 49.94885747], [81.9385097026825]
[ 0.25484806 14.78866123 49.97048638], [82.0866150856018]
[-0.05301867 14.78246456 49.99893902], [82.2352511882782]
[-0.34666122 14.76627321 50.01885596], [82.38275671005249]
[-0.65215025 14.74733636 50.04374373], [82.53376364707947]
[-0.9411068  14.7156136  50.05975748], [82.6829628944397]
[-1.22643784 14.68188968 50.07693815], [82.83334827423096]
[-1.49549853 14.63527849 50.08738089], [82.98252558708191]
[-1.77613938 14.58833405 50.10462241], [83.15534973144531]
[-2.05611372 14.53166223 50.11894638], [83.30449533462524]
[-2.34753424 14.47201326 50.13671812], [83.47924661636353]
[-2.6311256  14.40734004 50.15014617], [83.62772130966187]
[-2.92934754 14.33881558 50.16684149], [83.77575302124023]
[-3.22016533 14.263175   50.17846829], [83.92355799674988]
[-3.49347665 14.17304377 50.18328307], [84.07167267799377]
[-3.77810316 14.08266007 50.19408127], [84.2198269367218]
[-4.06857159 13.98856297 50.20400812], [84.36749148368835]
[-4.36047509 13.8866233  50.21122742], [84.51589798927307]
[-4.66558682 13.77843356 50.21952108], [84.665354013443]
[-4.98016942 13.66621141 50.22692498], [84.81478309631348]
[-5.28097636 13.54750062 50.22778772], [84.96461462974548]
[-5.56006437 13.4304258  50.22526293], [85.11482048034668]
[-5.84993613 13.30959654 50.22439912], [85.26428866386414]
[-6.12535138 13.17536839 50.21662223], [85.41317749023438]
[-6.40640185 13.03460632 50.21052683], [85.56131219863892]
[-6.66528822 12.88697248 50.19935293], [85.70958065986633]
[-6.931418   12.73753947 50.19126223], [85.85807204246521]
[-7.19533739 12.59440358 50.18334989], [86.00646471977234]
[-7.44276863 12.4547247  50.1718846 ], [86.1548547744751]
[-7.69835506 12.30919836 50.15985859], [86.30377006530762]
[-7.96694575 12.15154245 50.14547917], [86.45314359664917]
[-8.20262194 11.99067859 50.12584188], [86.60224556922913]
[-8.43893862 11.83094955 50.10939675], [86.75149464607239]
[-8.68424497 11.66513108 50.09169844], [86.9003210067749]
[-8.94093964 11.48712167 50.07077888], [87.04826092720032]
[-9.17287417 11.3140956  50.04829886], [87.22315573692322]
[-9.40654937 11.14118575 50.02652172], [87.37138938903809]
[-9.64241103 10.9677513  50.00353348], [87.51995348930359]
[-9.87635405 10.79424336 49.97870538], [87.66820406913757]
[-10.08818706  10.61123098  49.94883901], [87.85600471496582]
[-10.2928283   10.43326682  49.92287661], [88.00496125221252]
[-10.49642209  10.25114656  49.89528597], [88.15348982810974]
[-10.70773189  10.06043086  49.86544669], [88.30248355865479]
[-10.90255106   9.88495768  49.83873506], [88.45030570030212]
[-11.10159382   9.70046167  49.80778028], [88.62950348854065]
[-11.30112873   9.51398913  49.77595114], [88.77895045280457]
[-11.49112534   9.33473269  49.74510297], [88.96144127845764]
[-11.69014083   9.14024428  49.70841992], [89.10973286628723]
[-11.84498554   8.96191631  49.67665776], [89.26058030128479]
[-12.00107533   8.77121795  49.64308448], [89.40985155105591]
[-12.15002717   8.57973492  49.61099201], [89.5580461025238]
[-12.29317585   8.38854788  49.57966551], [89.70539021492004]
[-12.43577852   8.19032485  49.54629362], [89.85355520248413]
[-12.5745686    7.99185702  49.5135422 ], [90.00285720825195]
[-12.70672066   7.79502383  49.48140586], [90.15158200263977]
[-12.83736711   7.59085199  49.44677517], [90.33006000518799]
[-12.97414815   7.37180754  49.40773576], [90.47957849502563]
[-13.11022311   7.1444164   49.36704155], [90.6278989315033]
[-13.24826554   6.88840737  49.37504272], [90.77487111091614]
[-13.3890049    6.61091383  49.41208993], [90.92310953140259]
[-13.51936926   6.33756304  49.45210342], [91.0713415145874]
[-13.64847901   6.04980371  49.49401068], [91.22001957893372]
[-13.78150534   5.7466351   49.53586621], [91.36818027496338]
[-13.91313218   5.4325028   49.57868306], [91.51677966117859]
[-14.03016883   5.18207298  49.61312855], [91.66475296020508]
[-14.11382952   4.87413562  49.66217726], [91.81273126602173]
[-14.19927477   4.56669983  49.70771201], [91.96085548400879]
[-14.26204777   4.24864622  49.76167794], [92.10912084579468]
[-14.32341311   3.94887126  49.80969535], [92.25595307350159]
[-14.35853496   3.63891825  49.86477931], [92.40402007102966]
[-14.39556317   3.34723767  49.91384102], [92.55180335044861]
[-14.42958725   3.03891263  49.96148606], [92.74626231193542]
[-14.46381832   2.71702677  50.00865473], [92.89702010154724]
[-14.45976099   2.4125093   50.05934913], [93.04569721221924]
[-14.44573354   2.12523304  50.11119712], [93.19509291648865]
[-14.42340315   1.83483347  50.16446274], [93.3452877998352]
[-14.39550184   1.54341618  50.21726933], [93.5050368309021]
[-14.36711094   1.23009937  50.27047734], [93.65441679954529]
[-14.33550546   0.9104393   50.32329023], [93.80261135101318]
[-14.29932879   0.584449    50.37513729], [93.95112490653992]
[-14.25973822   0.25218918  50.42694185], [94.1000566482544]
[-14.1861457   -0.06036319  50.48548843], [94.24888968467712]
[-14.0945702   -0.37163383  50.5472762 ], [94.39713287353516]
[-13.99517829  -0.67898339  50.60950274], [94.57691073417664]
[-13.8906437   -0.98779952  50.66929019], [94.80767703056335]
[-13.78062492  -1.30294864  50.72904912], [94.95790672302246]
[-13.66576567  -1.62928067  50.79064848], [95.106760263443]
[-13.5458116   -1.96467753  50.85271787], [95.25626254081726]
[-13.42102109  -2.28463135  50.91293694], [95.41284656524658]
[-13.29046974  -2.59904363  50.97252203], [95.5607385635376]
[-13.16281025  -2.88582203  51.03386308], [95.70851564407349]
[-13.02780144  -3.18624486  51.0916753 ], [95.85516500473022]
[-12.8872996   -3.47514217  51.15014248], [96.00256967544556]
[-12.75009995  -3.72396391  51.21039237], [96.15220141410828]
[-12.60374186  -3.97956476  51.26673434], [96.30156445503235]
[-12.45399846  -4.22118144  51.32414505], [96.45005941390991]
[-12.30586827  -4.43073941  51.38669021], [96.60060691833496]
[-12.14288349  -4.65804184  51.44264239], [96.75107049942017]
[-11.97567562  -4.88024211  51.50105838], [96.9014847278595]
[-11.82252169  -5.0739151   51.54656424], [97.05184006690979]
[-11.66084895  -5.27620676  51.59670909], [97.2021381855011]
[-11.49069077  -5.48682774  51.64743461], [97.35288381576538]
[-11.31923359  -5.65924942  51.70124288], [97.50342297554016]
[-11.15870724  -5.85577285  51.73692828], [97.6542456150055]
[-10.98536452  -6.06741217  51.77481577], [97.80427551269531]
[-10.80793062  -6.25758141  51.81849836], [97.95265507698059]
[-10.61866398  -6.46458755  51.86007786], [98.10197186470032]
[-10.43331913  -6.62576188  51.91149753], [98.25106549263]
[-10.23858825  -6.78795466  51.96120419], [98.40501666069031]
[-10.03446452  -6.95078572  52.01157719], [98.56108665466309]
[-9.8352799  -7.13850032 52.04218764], [98.70997142791748]
[-9.6325587  -7.31274334 52.08018828], [98.86127257347107]
[-9.41211935 -7.50029572 52.12225563], [99.04787945747375]
[-9.18951327 -7.65512328 52.16476856], [99.23011612892151]
[-8.97012153 -7.7864162  52.21411159], [99.39840626716614]
