[0. 0. 0.], [1.2026121616363525]
[0.0e+00 1.0e-02 5.8e+01], [2.496203899383545]
[-1.0e-02  0.0e+00  5.8e+01], [2.6305174827575684]
[-1.000e-02  0.000e+00  5.799e+01], [2.751812696456909]
[-1.0e-02  0.0e+00  5.8e+01], [2.8695833683013916]
[-1.0e-02  0.0e+00  5.8e+01], [2.988771915435791]
[-1.000e-02  0.000e+00  5.799e+01], [3.1096651554107666]
[-1.000e-02  1.000e-02  5.799e+01], [3.2271225452423096]
[-1.000e-02  1.000e-02  5.799e+01], [3.3540894985198975]
[-1.000e-02  1.000e-02  5.799e+01], [3.4725186824798584]
[4.0e-02 4.0e-02 5.8e+01], [3.59462833404541]
[ 0.77  0.21 58.15], [3.7141590118408203]
[ 1.1  -0.25 58.25], [3.8296754360198975]
[ 1.32 -0.15 58.3 ], [3.949622869491577]
[ 1.55 -0.22 58.34], [4.0719099044799805]
[ 1.82 -0.26 58.38], [4.189651966094971]
[ 2.   -0.37 58.43], [4.304991960525513]
[ 2.38 -0.34 58.48], [4.426125764846802]
[ 2.65 -0.5  58.54], [4.561743974685669]
[ 3.05 -0.57 58.6 ], [4.73759651184082]
[ 3.37 -0.69 58.64], [4.873979568481445]
[ 3.81 -0.72 58.69], [5.008140325546265]
[ 4.3  -0.87 58.76], [5.1359803676605225]
[ 4.73 -1.   58.8 ], [5.264425992965698]
[ 5.27 -1.11 58.85], [5.386906623840332]
[ 5.87 -1.27 58.9 ], [5.5135369300842285]
[ 6.66 -1.34 58.92], [5.638521194458008]
[ 7.21 -1.49 58.95], [5.764319658279419]
[ 7.94 -1.56 58.96], [5.892383813858032]
[ 8.65 -1.53 58.95], [6.012151479721069]
[ 9.37 -1.66 58.93], [6.145310640335083]
[10.18 -1.87 58.89], [6.273239374160767]
[10.92 -1.89 58.83], [6.394386053085327]
[11.73 -2.02 58.76], [6.51660680770874]
[12.48 -1.89 58.66], [6.640072822570801]
[13.44 -1.89 58.52], [6.760134935379028]
[14.08 -1.99 58.4 ], [6.884094953536987]
[15.02 -1.99 58.22], [7.004170656204224]
[15.79 -1.88 58.04], [7.126010179519653]
[16.35 -1.72 57.91], [7.246876239776611]
[17.04 -1.65 57.73], [7.365681409835815]
[17.74 -1.85 57.53], [7.487818002700806]
[18.59 -1.54 57.28], [7.606229066848755]
[19.   -1.56 57.15], [7.724869728088379]
[19.69 -1.47 56.91], [7.84344220161438]
[20.29 -1.29 56.71], [7.962939739227295]
[20.93 -1.23 56.46], [8.090658903121948]
[21.68 -1.16 56.16], [8.210507869720459]
[22.43 -1.12 55.84], [8.333117961883545]
[22.75 -1.13 55.7 ], [8.455150604248047]
[23.27 -1.04 55.46], [8.572530508041382]
[23.78 -1.06 55.22], [8.687779664993286]
[24.3  -1.04 54.96], [8.804255485534668]
[24.9  -0.94 54.65], [8.92060375213623]
[25.49 -0.81 54.33], [9.036502361297607]
[25.8  -0.89 54.16], [9.174038171768188]
[26.26 -0.63 53.9 ], [9.298697710037231]
[26.42 -0.44 53.82], [9.421116590499878]
[26.59 -0.33 53.73], [9.541749238967896]
[27.44  0.38 53.24], [9.66556715965271]
[28.79  1.12 52.38], [9.788564443588257]
[28.88  2.11 52.75], [9.907971858978271]
[30.59  2.98 51.77], [10.02753758430481]
[31.38  3.52 51.43], [10.143195152282715]
[31.98  4.37 51.14], [10.262798547744751]
[32.37  4.89 51.07], [10.381028413772583]
[32.64  5.2  51.17], [10.498720169067383]
[32.77  5.84 51.38], [10.617174863815308]
[32.82  6.16 51.71], [10.736372709274292]
[32.83  6.46 52.09], [10.85483455657959]
[32.47  6.82 52.84], [10.97391128540039]
[32.1   7.01 53.58], [11.093632698059082]
[31.42  6.87 54.5 ], [11.217511415481567]
[30.72  7.32 55.43], [11.336181163787842]
[29.85  6.98 56.44], [11.454776287078857]
[28.91  6.59 57.44], [11.57313585281372]
[27.94  6.35 58.33], [11.692383766174316]
[27.41  6.53 58.82], [11.809803009033203]
[27.06  6.67 59.1 ], [11.928741455078125]
[26.24  6.58 59.65], [12.045716047286987]
[25.83  7.52 59.76], [12.167303323745728]
[25.08  7.59 60.13], [12.28630781173706]
[24.6   7.7  60.31], [12.404903650283813]
[24.57  8.71 60.13], [12.52180290222168]
[24.2   8.77 60.2 ], [12.644510984420776]
[23.98  8.7  60.21], [12.767688512802124]
[23.28  9.42 60.26], [12.88862943649292]
[22.92  8.31 60.52], [13.009025573730469]
[23.12  8.45 60.23], [13.136313915252686]
[22.19  9.3  60.37], [13.265096664428711]
[22.11  8.91 60.3 ], [13.400704145431519]
[22.46  9.51 59.89], [13.533711910247803]
[22.21  9.39 59.89], [13.660804748535156]
[21.89  9.46 59.87], [13.782091856002808]
[21.64  9.4  59.86], [13.924918413162231]
[21.48  9.51 59.75], [14.065036296844482]
[21.45 10.09 59.55], [14.193103075027466]
[21.34 10.63 59.38], [14.31674313545227]
[21.52 11.06 59.1 ], [14.437535524368286]
[21.09 11.17 59.14], [14.558302164077759]
[21.26 11.03 59.03], [14.678999900817871]
[20.81 11.18 59.09], [14.802335500717163]
[21.07 11.22 58.91], [14.938860416412354]
[21.12 11.57 58.73], [15.067143201828003]
[21.28 11.56 58.62], [15.199998140335083]
[21.27 11.96 58.45], [15.33875846862793]
[21.26 12.62 58.19], [15.476547241210938]
[20.95 12.74 58.31], [15.627763748168945]
[20.34 13.39 58.4 ], [15.749900102615356]
[20.34 13.52 58.35], [15.876145601272583]
[20.28 13.6  58.34], [15.994860172271729]
[20.19 13.81 58.29], [16.11623191833496]
[20.11 14.02 58.24], [16.238706350326538]
[20.05 14.14 58.22], [16.36152195930481]
[20.01 14.26 58.19], [16.499966621398926]
[19.94 14.34 58.19], [16.632999897003174]
[19.93 14.46 58.15], [16.765119314193726]
[20.22 14.84 57.93], [16.889671564102173]
[20.09 15.19 57.84], [17.00972032546997]
[20.1  15.27 57.81], [17.127678394317627]
[19.84 15.42 57.88], [17.251426458358765]
[19.71 16.13 57.69], [17.377673625946045]
[19.44 16.49 57.7 ], [17.5034658908844]
[19.45 16.64 57.66], [17.623398303985596]
[19.14 16.91 57.7 ], [17.742448329925537]
[19.06 17.05 57.69], [17.86194109916687]
[18.82 17.25 57.72], [17.98120903968811]
[18.67 17.42 57.73], [18.09716248512268]
[18.58 17.72 57.64], [18.218461513519287]
[18.19 18.01 57.7 ], [18.35926651954651]
[18.33 18.52 57.53], [18.51634645462036]
[18.8  19.45 57.05], [18.64252209663391]
[18.8  19.86 56.93], [18.762051820755005]
[18.65 19.95 56.96], [18.879793167114258]
[18.15 20.04 57.13], [18.99998688697815]
[17.52 20.16 57.34], [19.135923624038696]
[16.95 20.23 57.55], [19.265026807785034]
[16.86 20.23 57.63], [19.38103413581848]
[16.51 20.17 57.8 ], [19.499042510986328]
[16.5  20.21 57.8 ], [19.620771646499634]
[16.44 20.27 57.79], [19.756730794906616]
[16.37 20.31 57.79], [19.871803522109985]
[16.04 20.48 57.84], [19.988667249679565]
[15.8  20.52 57.91], [20.107374668121338]
[15.35 20.68 58.01], [20.24233341217041]
[15.2  20.79 58.  ], [20.358574628829956]
[15.11 20.87 58.  ], [20.50097632408142]
[14.58 21.21 58.  ], [20.619305849075317]
[14.43 21.35 57.96], [20.733961820602417]
[14.34 21.51 57.9 ], [20.850954055786133]
[13.95 21.9  57.8 ], [20.96818494796753]
[13.54 22.02 57.85], [21.08574891090393]
[13.06 21.8  58.03], [21.20131540298462]
[12.92 21.91 58.01], [21.318933725357056]
[12.84 22.02 57.98], [21.435041427612305]
[12.61 22.2  57.96], [21.55281639099121]
[12.42 22.23 58.  ], [21.67285943031311]
[12.31 22.26 58.02], [21.7940616607666]
[12.22 22.31 58.01], [21.910293102264404]
[11.92 22.47 58.02], [22.023971796035767]
[11.73 22.57 58.  ], [22.14195942878723]
[11.62 22.7  57.96], [22.260135889053345]
[11.25 22.97 57.89], [22.375007152557373]
[10.95 23.15 57.86], [22.495580911636353]
[10.54 23.32 57.85], [22.613612413406372]
[10.28 23.43 57.84], [22.734649181365967]
[10.01 23.56 57.82], [22.84963893890381]
[ 9.62 23.73 57.8 ], [22.967864990234375]
[ 9.49 23.82 57.78], [23.088025093078613]
[ 9.27 23.95 57.76], [23.209671020507812]
[ 9.07 24.06 57.72], [23.32583451271057]
[ 8.71 24.24 57.69], [23.463027238845825]
[ 8.56 24.33 57.66], [23.583130836486816]
[ 8.17 24.49 57.63], [23.705695390701294]
[ 7.95 24.64 57.59], [23.824675798416138]
[ 7.83 24.72 57.56], [23.940627813339233]
[ 7.4  24.86 57.53], [24.05892276763916]
[ 7.18 25.01 57.48], [24.22502613067627]
[ 6.61 25.25 57.43], [24.350895643234253]
[ 6.47 25.23 57.47], [24.469754219055176]
[ 6.24 25.18 57.56], [24.588639736175537]
[ 6.02 25.03 57.73], [24.703659772872925]
[ 5.94 24.8  57.91], [24.822455883026123]
[ 5.43 24.31 58.22], [24.93775200843811]
[ 5.07 24.57 58.12], [25.056491136550903]
[ 4.88 24.74 58.03], [25.174750804901123]
[ 4.79 24.8  57.99], [25.29306435585022]
[ 4.37 24.95 57.93], [25.4092435836792]
[ 4.18 25.09 57.87], [25.52748417854309]
[ 4.04 25.18 57.84], [25.642879962921143]
[ 3.91 25.19 57.83], [25.761491298675537]
[ 3.52 25.34 57.76], [25.880487203598022]
[ 3.24 25.46 57.7 ], [26.015550136566162]
[ 2.7  25.68 57.6 ], [26.135488033294678]
[ 2.52 25.78 57.55], [26.252367973327637]
[ 2.37 25.83 57.52], [26.36947798728943]
[ 2.11 25.93 57.45], [26.492318868637085]
[ 1.61 26.07 57.38], [26.610021352767944]
[ 1.43 26.1  57.38], [26.72980046272278]
[ 0.98 26.07 57.42], [26.849428415298462]
[ 0.91 25.84 57.62], [26.966593742370605]
[ 0.52 25.65 57.78], [27.084391355514526]
[ 0.36 25.52 57.89], [27.20104742050171]
[ 0.27 25.53 57.89], [27.320836544036865]
[-0.21 25.67 57.81], [27.437729597091675]
[-0.33 25.69 57.81], [27.557326316833496]
[-0.74 25.46 57.9 ], [27.674198389053345]
[-0.89 25.43 57.89], [27.794737339019775]
[-1.31 25.52 57.83], [27.913172006607056]
[-1.62 25.55 57.8 ], [28.03002953529358]
[-1.76 25.51 57.82], [28.1536648273468]
[-2.2  25.52 57.79], [28.27858304977417]
[-2.52 25.61 57.7 ], [28.395719528198242]
[-2.61 25.62 57.69], [28.515260696411133]
[-2.73 25.64 57.68], [28.63478136062622]
[-2.86 25.65 57.66], [28.7524995803833]
[-3.26 25.72 57.6 ], [28.874459266662598]
[-3.64 25.45 57.72], [28.995028734207153]
[-3.83 25.17 57.87], [29.115230798721313]
[-4.3  25.08 57.89], [29.23482847213745]
[-4.49 24.98 57.95], [29.353628158569336]
[-4.63 24.93 57.97], [29.473025798797607]
[-5.17 24.98 57.87], [29.58952784538269]
[-5.34 25.03 57.83], [29.70685052871704]
[-5.45 25.05 57.8 ], [29.827518224716187]
[-5.57 24.98 57.83], [29.948920011520386]
[-6.15 24.95 57.74], [30.06807565689087]
[-6.46 24.83 57.75], [30.188416481018066]
[-6.62 24.78 57.75], [30.304633378982544]
[-7.07 24.69 57.71], [30.422001123428345]
[-7.49 24.73 57.62], [30.543296337127686]
[-7.58 24.74 57.61], [30.6597261428833]
[-7.64 24.65 57.68], [30.77738380432129]
[-7.69 24.49 57.78], [30.89756488800049]
[-7.96 24.26 57.87], [31.0152907371521]
[-8.17 24.1  57.94], [31.136120557785034]
[-8.48 24.06 57.93], [31.259236335754395]
[-8.97 23.57 58.05], [31.37559962272644]
[-8.95 23.67 58.  ], [31.493237018585205]
[-9.43 23.83 57.8 ], [31.60998272895813]
[-9.72 23.79 57.75], [31.72542643547058]
[-9.8  23.78 57.73], [31.85546088218689]
[-9.9  23.62 57.82], [31.970752000808716]
[-10.57  23.21  57.84], [32.08956170082092]
[-10.81  23.17  57.81], [32.21507906913757]
[-11.    23.1   57.81], [32.34363341331482]
[-11.15  22.98  57.83], [32.47149038314819]
[-11.22  22.84  57.89], [32.612162828445435]
[-11.66  22.77  57.84], [32.74183106422424]
[-11.92  22.69  57.82], [32.858768463134766]
[-12.31  22.41  57.82], [32.982444763183594]
[-12.44  22.31  57.83], [33.11347222328186]
[-12.59  22.13  57.87], [33.23370337486267]
[-12.94  22.04  57.83], [33.37438416481018]
[-13.32  21.87  57.81], [33.51556062698364]
[-13.39  21.72  57.89], [33.636958599090576]
[-13.47  21.56  57.97], [33.75453329086304]
[-13.55  21.49  57.98], [33.87447166442871]
[-13.87  21.12  58.02], [33.99368762969971]
[-14.03  20.91  58.06], [34.11258149147034]
[-14.17  20.8   58.05], [34.231481313705444]
[-14.26  20.81  58.02], [34.352075815200806]
[-14.54  20.76  57.95], [34.46915030479431]
[-14.86  20.65  57.89], [34.60686540603638]
[-15.03  20.66  57.83], [34.73343324661255]
[-15.45  20.28  57.79], [34.86031937599182]
[-15.44  20.3   57.8 ], [34.97673034667969]
[-15.5   20.22  57.83], [35.096166372299194]
[-15.93  20.08  57.74], [35.23605275154114]
[-16.17  19.83  57.79], [35.372897148132324]
[-16.71  19.1   57.86], [35.497464418411255]
[-16.69  18.95  57.96], [35.61595582962036]
[-17.17  18.77  57.87], [35.73785090446472]
[-17.43  18.48  57.91], [35.859896659851074]
[-17.54  18.4   57.9 ], [35.98109149932861]
[-17.63  18.31  57.91], [36.10232949256897]
[-17.7   18.28  57.9 ], [36.22239661216736]
[-17.79  18.26  57.87], [36.34073829650879]
[-17.86  18.17  57.88], [36.458341121673584]
[-18.09  17.88  57.86], [36.57911539077759]
[-18.25  17.7   57.86], [36.70095729827881]
[-18.42  17.47  57.87], [36.81666541099548]
[-18.7   17.36  57.81], [36.938005447387695]
[-19.17  16.93  57.75], [37.064708948135376]
[-19.33  16.53  57.83], [37.185314416885376]
[-19.5   16.21  57.9 ], [37.30671668052673]
[-19.56  15.93  58.  ], [37.445170640945435]
[-19.69  15.59  58.06], [37.566012144088745]
[-19.74  15.54  58.07], [37.68473696708679]
[-19.79  15.46  58.07], [37.80304193496704]
[-19.84  15.42  58.07], [37.92681002616882]
[-19.9   15.34  58.07], [38.047712087631226]
[-20.27  15.19  57.93], [38.16886019706726]
[-20.74  15.06  57.73], [38.30102515220642]
[-20.96  14.84  57.68], [38.42040967941284]
[-21.04  14.81  57.65], [38.54423785209656]
[-21.14  14.61  57.68], [38.66401934623718]
[-21.22  14.36  57.72], [38.78320002555847]
[-21.23  14.16  57.8 ], [38.904253244400024]
[-21.75  13.49  57.71], [39.02421307563782]
[-22.05  13.24  57.66], [39.16852426528931]
[-22.29  12.87  57.66], [39.29483413696289]
[-22.44  12.43  57.74], [39.411837100982666]
[-22.54  12.04  57.82], [39.548128604888916]
[-22.63  11.62  57.9 ], [39.66475296020508]
[-22.7   11.26  57.99], [39.78370761871338]
[-22.73  11.23  58.  ], [39.90114164352417]
[-22.76  11.2   57.98], [40.02065348625183]
[-22.78  11.18  57.98], [40.138434410095215]
[-22.83  11.23  57.94], [40.274372577667236]
[-22.8   11.28  57.94], [40.41403412818909]
[-22.92  11.2   57.89], [40.53393006324768]
[-22.92  10.99  57.95], [40.65247654914856]
[-23.1   10.48  57.95], [40.786378145217896]
[-23.3   10.1   57.94], [40.91719961166382]
[-23.44   9.58  57.99], [41.047054290771484]
[-23.78   8.77  57.94], [41.16612124443054]
[-23.86   8.52  57.95], [41.28699254989624]
[-23.93   8.27  57.96], [41.41008234024048]
[-23.98   8.17  57.97], [41.52879309654236]
[-24.01   8.1   57.97], [41.65061163902283]
[-24.07   8.02  57.95], [41.77303194999695]
[-24.12   7.94  57.94], [41.904008865356445]
[-24.17   7.84  57.93], [42.02483558654785]
[-24.2    7.83  57.92], [42.145183086395264]
[-24.21   7.76  57.94], [42.26353406906128]
[-24.43   7.32  57.85], [42.37939524650574]
[-24.51   6.97  57.86], [42.49763607978821]
[-24.64   6.59  57.84], [42.61506628990173]
[-24.78   6.17  57.82], [42.73443675041199]
[-24.86   5.84  57.82], [42.85356569290161]
[-25.04   5.28  57.78], [42.97123575210571]
[-25.15   4.81  57.77], [43.08960723876953]
[-25.18   4.45  57.82], [43.21218156814575]
[-25.23   4.06  57.86], [43.33353877067566]
[-25.23   3.85  57.91], [43.45673179626465]
[-25.22   3.79  57.94], [43.5786292552948]
[-25.35   3.55  57.87], [43.69951820373535]
[-25.35   3.55  57.87], [43.83773851394653]
[-25.17   3.41  58.  ], [43.96036505699158]
[-24.91   3.09  58.18], [44.08246898651123]
[-24.96   2.96  58.16], [44.21930742263794]
[-24.98   2.91  58.16], [44.33937406539917]
[-25.04   2.73  58.13], [44.45771360397339]
[-25.01   2.68  58.16], [44.57508611679077]
[-25.07   2.49  58.14], [44.69230914115906]
[-25.26   2.08  58.01], [44.80726599693298]
[-25.29   1.8   58.01], [44.92713189125061]
[-25.37   1.54  57.96], [45.042128801345825]
[-25.58   1.07  57.81], [45.15955305099487]
[-25.64   0.72  57.78], [45.27572226524353]
[-25.75   0.26  57.73], [45.393020153045654]
[-25.79  -0.11  57.74], [45.51244759559631]
[-25.62  -0.58  57.85], [45.63416767120361]
[-25.38  -1.1   58.02], [45.753602027893066]
[-25.36  -1.53  58.04], [45.87242889404297]
[-25.34  -1.71  58.05], [45.992501974105835]
[-25.41  -1.8   58.02], [46.1089813709259]
[-25.38  -1.95  58.04], [46.226417779922485]
[-25.38  -1.94  58.06], [46.34381914138794]
[-25.07  -2.21  58.24], [46.46569347381592]
[-25.03  -2.35  58.25], [46.585673093795776]
[-25.03  -2.48  58.25], [46.70606708526611]
[-24.99  -2.5   58.27], [46.821738958358765]
[-25.12  -2.73  58.16], [46.94384169578552]
[-25.04  -3.02  58.15], [47.06806015968323]
[-24.85  -3.35  58.25], [47.18561053276062]
[-24.82  -3.48  58.25], [47.305558919906616]
[-24.86  -3.59  58.2 ], [47.42152285575867]
[-25.1   -4.11  57.97], [47.5404748916626]
[-25.08  -4.26  57.97], [47.65672516822815]
[-24.96  -4.57  58.  ], [47.77936816215515]
[-24.93  -5.23  57.92], [47.89555215835571]
[-24.82  -5.57  57.95], [48.01595330238342]
[-24.77  -5.84  57.97], [48.13358950614929]
[-24.76  -6.13  57.95], [48.256781578063965]
[-24.72  -6.45  57.94], [48.37424945831299]
[-24.69  -6.79  57.92], [48.49415469169617]
[-24.7   -6.75  57.92], [48.612112522125244]
[-24.52  -6.8   58.02], [48.72960376739502]
[-24.27  -6.91  58.15], [48.84460401535034]
[-24.28  -7.09  58.13], [48.96559405326843]
[-24.28  -7.25  58.11], [49.08352732658386]
[-24.04  -7.64  58.19], [49.20633387565613]
[-23.76  -8.09  58.3 ], [49.33027362823486]
[-23.92  -8.44  58.1 ], [49.446112394332886]
[-23.95  -8.75  58.03], [49.56552243232727]
[-23.96  -9.14  57.96], [49.68473482131958]
[-23.7   -9.45  58.03], [49.80470013618469]
[-23.41  -9.64  58.18], [49.932281255722046]
[-23.38  -9.77  58.17], [50.062437295913696]
[-23.39  -9.85  58.15], [50.188114404678345]
[-23.2  -10.11  58.22], [50.324612617492676]
[-22.88 -10.23  58.36], [50.4503858089447]
[-23.03 -10.57  58.15], [50.59429955482483]
[-22.77 -10.72  58.25], [50.71867489814758]
[-22.53 -10.89  58.34], [50.83736038208008]
[-22.53 -11.07  58.3 ], [50.977567195892334]
[-22.5  -11.25  58.27], [51.0980327129364]
[-22.52 -11.51  58.19], [51.238845348358154]
[-22.61 -11.96  57.98], [51.35629963874817]
[-22.36 -12.19  58.07], [51.48182415962219]
[-22.18 -12.43  58.09], [51.60183310508728]
[-22.16 -12.59  58.06], [51.71886134147644]
[-21.87 -12.78  58.17], [51.837867736816406]
[-21.52 -13.01  58.29], [51.961288928985596]
[-21.45 -13.2   58.29], [52.08223605155945]
[-21.07 -13.49  58.41], [52.21109700202942]
[-21.04 -13.93  58.27], [52.339641094207764]
[-21.06 -14.28  58.13], [52.46516823768616]
[-20.79 -14.54  58.17], [52.59751319885254]
[-20.52 -14.72  58.25], [52.72326374053955]
[-20.57 -14.72  58.23], [52.84800624847412]
[-20.27 -14.8   58.35], [52.973797082901]
[-20.07 -14.8   58.43], [53.10311317443848]
[-20.02 -14.67  58.47], [53.229350090026855]
[-19.94 -14.67  58.49], [53.35572528839111]
[-19.74 -14.78  58.55], [53.470752239227295]
[-19.57 -15.1   58.48], [53.61718130111694]
[-19.55 -15.42  58.36], [53.741748094558716]
[-19.25 -15.78  58.37], [53.86574387550354]
[-19.19 -16.28  58.16], [54.01164889335632]
[-18.85 -16.73  58.14], [54.13296675682068]
[-18.58 -16.85  58.22], [54.264150857925415]
[-18.52 -16.95  58.2 ], [54.37878060340881]
[-18.55 -17.01  58.18], [54.517115354537964]
[-18.24 -17.17  58.24], [54.64019775390625]
[-18.04 -17.31  58.28], [54.76195955276489]
[-18.14 -17.43  58.15], [54.897653579711914]
[-18.05 -17.75  58.01], [55.01633358001709]
[-17.68 -17.92  58.1 ], [55.133644104003906]
[-17.67 -18.01  58.06], [55.2730655670166]
[-17.48 -18.21  58.06], [55.41477990150452]
[-17.06 -18.52  58.12], [55.555415630340576]
[-16.99 -18.7   58.08], [55.69446301460266]
[-16.84 -18.98  58.04], [55.82749652862549]
[-16.52 -19.33  58.03], [55.947993755340576]
[-16.29 -19.65  58.  ], [56.06890845298767]
[-16.19 -19.89  57.95], [56.20056366920471]
[-16.14 -20.06  57.89], [56.31891751289368]
[-15.88 -20.19  57.94], [56.439268827438354]
[-15.55 -20.37  57.98], [56.55926775932312]
[-15.32 -20.28  58.18], [56.67772316932678]
[-15.05 -20.39  58.24], [56.81434202194214]
[-14.6  -20.52  58.35], [56.93430733680725]
[-14.6  -20.57  58.32], [57.05435872077942]
[-14.3  -20.69  58.37], [57.17345380783081]
[-13.9  -20.81  58.45], [57.293675661087036]
[-13.85 -20.92  58.42], [57.41597580909729]
[-13.79 -21.1   58.31], [57.552921772003174]
[-13.58 -21.38  58.2 ], [57.67249035835266]
[-13.43 -21.38  58.23], [57.794920682907104]
[-13.26 -21.34  58.3 ], [57.93012523651123]
[-12.89 -21.36  58.38], [58.04814791679382]
[-12.84 -21.27  58.43], [58.184285163879395]
[-12.49 -21.32  58.49], [58.30222272872925]
[-12.15 -21.65  58.45], [58.42176604270935]
[-11.75 -21.98  58.38], [58.53956890106201]
[-11.39 -22.18  58.4 ], [58.656357765197754]
[-11.38 -22.3   58.31], [58.77212858200073]
[-11.3  -22.49  58.19], [58.89103436470032]
[-11.01 -22.59  58.2 ], [59.008405923843384]
[-11.07 -22.66  58.14], [59.12515330314636]
[-10.85 -22.75  58.14], [59.24194645881653]
[-10.55 -22.87  58.15], [59.35846257209778]
[-10.27 -22.97  58.15], [59.47536087036133]
[ -9.96 -23.13  58.14], [59.591949224472046]
[ -9.68 -23.33  58.11], [59.70781707763672]
[ -9.41 -23.17  58.3 ], [59.82439637184143]
[ -9.11 -23.17  58.35], [59.942323446273804]
[ -8.78 -23.3   58.36], [60.058220624923706]
[ -8.68 -23.38  58.35], [60.177947998046875]
[ -8.35 -23.62  58.28], [60.298738956451416]
[ -7.97 -23.87  58.22], [60.41732215881348]
[ -7.89 -24.05  58.14], [60.53715753555298]
[ -7.66 -24.16  58.12], [60.65271329879761]
[ -7.35 -24.22  58.13], [60.770514249801636]
[ -7.22 -24.25  58.14], [60.966036319732666]
[ -6.88 -24.42  58.09], [61.082886934280396]
[ -6.58 -24.51  58.07], [61.20164966583252]
[ -6.45 -24.54  58.07], [61.33951759338379]
[ -6.38 -24.58  58.07], [61.45829725265503]
[ -6.31 -24.63  58.04], [61.57572388648987]
[ -5.88 -24.54  58.2 ], [61.69145679473877]
[ -5.55 -24.61  58.21], [61.809218645095825]
[ -5.21 -24.68  58.21], [61.92616081237793]
[ -4.81 -24.73  58.22], [62.04046988487244]
[ -4.48 -24.82  58.19], [62.15958499908447]
[ -4.19 -24.88  58.17], [62.27631998062134]
[ -3.92 -24.97  58.13], [62.392099142074585]
[ -3.92 -24.98  58.13], [62.51019859313965]
[ -3.86 -24.98  58.13], [62.64677429199219]
[ -3.36 -24.86  58.28], [62.76253604888916]
[ -3.13 -24.94  58.26], [62.880285024642944]
[ -2.79 -25.    58.23], [62.99518179893494]
[ -2.56 -25.03  58.22], [63.11326575279236]
[ -2.23 -25.08  58.2 ], [63.22862434387207]
[ -1.96 -25.12  58.18], [63.34492516517639]
[ -1.83 -25.16  58.16], [63.46273183822632]
[ -1.58 -25.19  58.13], [63.582210540771484]
[ -1.29 -25.25  58.09], [63.69978713989258]
[ -1.21 -25.27  58.08], [63.8411500453949]
[ -0.94 -25.18  58.17], [63.9588565826416]
[ -0.62 -25.22  58.16], [64.07535815238953]
[ -0.27 -25.31  58.1 ], [64.1926658153534]
[ 1.000e-02 -2.543e+01  5.802e+01], [64.31062722206116]
[  0.32 -25.43  58.01], [64.43014645576477]
[  0.6  -25.41  57.99], [64.54713201522827]
[  1.16 -25.3   58.08], [64.66357326507568]
[  1.46 -25.4   57.99], [64.78029227256775]
[  1.67 -25.34  58.02], [64.89883875846863]
[  1.75 -25.34  58.01], [65.01797580718994]
[  2.13 -25.23  58.11], [65.13655638694763]
[  2.26 -25.15  58.15], [65.25515556335449]
[  2.36 -25.23  58.11], [65.37346768379211]
[  2.56 -25.14  58.14], [65.49210238456726]
[  2.67 -25.25  58.05], [65.61392951011658]
[  3.33 -25.08  58.12], [65.7324767112732]
[  3.48 -25.09  58.1 ], [65.85049939155579]
[  3.67 -25.05  58.12], [65.99081754684448]
[  3.91 -25.12  58.03], [66.13016700744629]
[  4.71 -24.87  58.12], [66.2644534111023]
[  5.03 -24.97  58.  ], [66.40422940254211]
[  5.4  -24.96  57.93], [66.53317666053772]
[  5.6  -24.98  57.87], [66.65343403816223]
[  5.67 -24.86  57.94], [66.77099108695984]
[  5.76 -24.83  57.95], [66.89099669456482]
[  5.86 -24.8   57.96], [67.01119208335876]
[  6.21 -24.62  58.03], [67.13354468345642]
[  6.36 -24.6   58.03], [67.25162601470947]
[  6.36 -24.64  57.99], [67.36907458305359]
[  6.93 -24.43  58.06], [67.48655819892883]
[  7.12 -24.43  58.02], [67.60628819465637]
[  7.41 -24.39  57.99], [67.72536993026733]
[  7.97 -24.2   58.02], [67.84717321395874]
[  8.11 -24.21  57.96], [67.96535515785217]
[  8.43 -24.19  57.91], [68.0882728099823]
[  8.63 -24.21  57.83], [68.20705151557922]
[  9.13 -24.    57.87], [68.33315324783325]
[  9.33 -23.92  57.88], [68.45349836349487]
[  9.65 -23.79  57.9 ], [68.57703280448914]
[  9.82 -23.66  57.94], [68.69779181480408]
[  9.94 -23.5   58.01], [68.84080600738525]
[ 10.05 -23.25  58.13], [68.95913982391357]
[ 10.28 -23.03  58.2 ], [69.07649946212769]
[ 10.62 -22.73  58.3 ], [69.19751691818237]
[ 10.77 -22.68  58.28], [69.32927227020264]
[ 10.94 -22.69  58.22], [69.45766949653625]
[ 11.15 -22.69  58.16], [69.58522582054138]
[ 11.4  -22.71  58.04], [69.70676922798157]
[ 11.58 -22.72  57.97], [69.82633471488953]
[ 11.88 -22.6   57.92], [69.94767880439758]
[ 12.56 -22.24  57.91], [70.06445050239563]
[ 12.66 -22.14  57.91], [70.18875813484192]
[ 12.76 -21.93  57.99], [70.30709266662598]
[ 13.23 -21.5   58.1 ], [70.44570851325989]
[ 13.25 -21.44  58.12], [70.56396269798279]
[ 13.41 -21.33  58.13], [70.68273115158081]
[ 13.43 -21.37  58.11], [70.80056428909302]
[ 13.57 -21.36  58.05], [70.918874502182]
[ 14.12 -21.12  58.  ], [71.04996824264526]
[ 14.39 -21.11  57.88], [71.16696572303772]
[ 14.57 -21.06  57.84], [71.2876923084259]
[ 14.68 -21.05  57.8 ], [71.4083251953125]
[ 14.86 -20.85  57.85], [71.52551698684692]
[ 15.35 -20.43  57.9 ], [71.64209604263306]
[ 15.47 -20.24  57.97], [71.75790786743164]
[ 15.92 -19.84  58.01], [71.87704968452454]
[ 15.98 -19.69  58.06], [71.9977638721466]
[ 16.14 -19.54  58.06], [72.13906717300415]
[ 16.35 -19.42  58.01], [72.27776217460632]
[ 16.56 -19.45  57.89], [72.40328359603882]
[ 17.12 -19.12  57.83], [72.53368473052979]
[ 17.2  -19.16  57.77], [72.6649317741394]
[ 17.32 -18.96  57.82], [72.78351950645447]
[ 17.37 -18.89  57.83], [72.90378069877625]
[ 17.83 -18.52  57.82], [73.0449070930481]
[ 17.91 -18.46  57.83], [73.17138624191284]
[ 18.05 -18.27  57.85], [73.29107093811035]
[ 18.39 -17.83  57.93], [73.40982699394226]
[ 18.52 -17.62  57.96], [73.53025698661804]
[ 18.7  -17.46  57.96], [73.64871907234192]
[ 18.76 -17.34  57.98], [73.7846736907959]
[ 19.05 -16.99  58.02], [73.92305302619934]
[ 19.23 -16.74  58.05], [74.04230761528015]
[ 19.28 -16.55  58.1 ], [74.16036558151245]
[ 19.32 -16.39  58.15], [74.27988004684448]
[ 19.4  -16.21  58.19], [74.39845323562622]
[ 19.48 -16.14  58.18], [74.52924084663391]
[ 19.59 -16.07  58.16], [74.64750790596008]
[ 19.64 -16.05  58.14], [74.7699806690216]
[ 19.62 -15.99  58.16], [74.88959574699402]
[ 20.2  -15.4   58.14], [75.00892663002014]
[ 20.23 -15.24  58.18], [75.13224363327026]
[ 20.41 -14.98  58.18], [75.27457213401794]
[ 21.01 -14.39  58.1 ], [75.40268564224243]
[ 21.18 -14.18  58.06], [75.52340269088745]
[ 21.37 -13.84  58.08], [75.64156746864319]
[ 21.38 -13.71  58.11], [75.75999808311462]
[ 21.39 -13.56  58.16], [75.87999892234802]
[ 21.42 -13.38  58.19], [75.99797248840332]
[ 21.47 -13.15  58.24], [76.13445997238159]
[ 21.48 -12.92  58.31], [76.25201177597046]
[ 21.52 -12.75  58.33], [76.37087726593018]
[ 22.03 -12.22  58.26], [76.49092054367065]
[ 22.07 -12.1   58.27], [76.60969161987305]
[ 22.16 -11.85  58.28], [76.7252049446106]
[ 22.29 -11.71  58.23], [76.84255409240723]
[ 22.48 -11.52  58.15], [76.96130657196045]
[ 22.65 -11.37  58.08], [77.10172390937805]
[ 22.84 -10.99  58.06], [77.22325491905212]
[ 22.97 -10.78  58.01], [77.34491539001465]
[ 23.09 -10.6   57.98], [77.46631979942322]
[ 23.43 -10.25  57.89], [77.58929061889648]
[23.55 -9.97 57.91], [77.71106147766113]
[23.49 -9.73 58.02], [77.84925627708435]
[23.48 -9.39 58.14], [77.96849155426025]
[23.46 -9.25 58.2 ], [78.09230041503906]
[23.45 -9.11 58.23], [78.21268820762634]
[23.49 -8.95 58.25], [78.33049511909485]
[23.51 -8.78 58.27], [78.44943070411682]
[23.53 -8.59 58.3 ], [78.56867122650146]
[23.59 -8.39 58.32], [78.68949127197266]
[23.69 -8.25 58.29], [78.81352853775024]
[23.82 -8.1  58.25], [78.95675778388977]
[24.16 -7.65 58.13], [79.09499931335449]
[24.29 -7.37 58.09], [79.2212610244751]
[24.52 -7.14 57.98], [79.35672640800476]
[24.54 -6.72 58.05], [79.4743766784668]
[24.41 -6.58 58.14], [79.59423971176147]
[24.86 -5.99 58.01], [79.7384729385376]
[24.83 -5.55 58.1 ], [79.86662936210632]
[24.89 -5.28 58.1 ], [79.98824334144592]
[24.91 -5.1  58.11], [80.10815739631653]
[24.89 -4.94 58.15], [80.22380065917969]
[24.94 -4.76 58.14], [80.3670551776886]
[24.96 -4.47 58.16], [80.49487137794495]
[24.93 -4.3  58.2 ], [80.61626482009888]
[24.95 -4.13 58.2 ], [80.73590469360352]
[24.98 -3.93 58.21], [80.87546491622925]
[24.93 -3.69 58.26], [81.0125789642334]
[24.94 -3.45 58.28], [81.14696621894836]
[24.94 -3.31 58.28], [81.26753234863281]
[25.04 -3.07 58.25], [81.38485503196716]
[24.94 -2.69 58.34], [81.50690722465515]
[24.94 -2.54 58.34], [81.62901663780212]
[24.95 -2.39 58.35], [81.75202918052673]
[24.84 -1.93 58.43], [81.87635493278503]
[25.29 -1.32 58.24], [81.99875521659851]
[25.19 -0.73 58.33], [82.1181571483612]
[25.27 -0.61 58.26], [82.27219939231873]
[25.48 -0.35 58.13], [82.39217758178711]
[25.56 -0.2  58.05], [82.517098903656]
[25.42 -0.11 58.08], [82.63836717605591]
[25.23 -0.06 58.17], [82.76034808158875]
[25.16  0.14 58.23], [82.8872618675232]
[25.01  0.3  58.32], [83.03092813491821]
[24.81  0.49 58.46], [83.16728806495667]
[25.16  1.31 58.3 ], [83.29059267044067]
[25.15  1.43 58.31], [83.41350674629211]
[25.08  1.93 58.32], [83.53922581672668]
[25.18  2.07 58.24], [83.6638696193695]
[25.25  2.15 58.17], [83.79101490974426]
[25.28  2.63 58.11], [83.90892028808594]
[25.31  2.77 58.07], [84.02546715736389]
[25.34  2.92 58.04], [84.14523577690125]
[25.28  3.25 58.04], [84.29150247573853]
[25.15  3.59 58.11], [84.42135953903198]
[25.    3.77 58.2 ], [84.55910992622375]
[24.96  3.99 58.22], [84.68793368339539]
[24.85  4.23 58.26], [84.81759834289551]
[24.79  4.52 58.26], [84.93692708015442]
[24.77  4.66 58.26], [85.0659167766571]
[24.76  4.83 58.24], [85.18536520004272]
[24.72  4.94 58.24], [85.31257200241089]
[24.6   5.32 58.27], [85.42887711524963]
[24.63  5.43 58.23], [85.54795527458191]
[24.45  5.95 58.26], [85.66686940193176]
[24.43  6.07 58.25], [85.78532981872559]
[24.43  6.21 58.23], [85.92471599578857]
[24.29  6.86 58.2 ], [86.04070901870728]
[24.27  6.93 58.19], [86.16362977027893]
[24.22  7.01 58.2 ], [86.28298211097717]
[24.12  7.49 58.17], [86.40126466751099]
[24.09  7.64 58.14], [86.52167439460754]
[24.11  7.86 58.1 ], [86.64939546585083]
[23.94  7.98 58.17], [86.7814667224884]
[23.73  8.47 58.2 ], [86.90279293060303]
[23.64  8.65 58.23], [87.02471113204956]
[23.63  8.81 58.2 ], [87.14743661880493]
[23.39  9.42 58.19], [87.27326464653015]
[23.41  9.51 58.15], [87.39314126968384]
[23.39  9.59 58.14], [87.51899099349976]
[23.23 10.1  58.09], [87.64124894142151]
[23.24 10.18 58.06], [87.76269912719727]
[23.2  10.26 58.06], [87.88117384910583]
[23.12 10.34 58.08], [88.01036095619202]
[22.92 10.84 58.06], [88.13527727127075]
[22.89 10.98 58.04], [88.26110172271729]
[22.72 11.13 58.09], [88.38438320159912]
[22.51 11.55 58.09], [88.5083122253418]
[22.41 11.74 58.08], [88.63374137878418]
[22.68 12.22 57.85], [88.76136541366577]
[22.49 12.41 57.91], [88.88315176963806]
[22.17 13.01 57.91], [89.00435090065002]
[22.12 13.12 57.91], [89.12516045570374]
[22.08 13.21 57.88], [89.25486493110657]
[21.68 12.98 58.11], [89.37080121040344]
[21.57 13.17 58.11], [89.49316048622131]
[21.39 13.39 58.14], [89.61221957206726]
[21.16 13.67 58.16], [89.73370361328125]
[21.42 14.05 57.95], [89.85041236877441]
[21.28 14.2  57.97], [89.96865963935852]
[20.91 14.7  57.98], [90.09055137634277]
[20.83 14.93 57.94], [90.20883345603943]
[20.74 15.02 57.93], [90.34810447692871]
[20.48 15.63 57.83], [90.48710560798645]
[20.35 15.78 57.84], [90.62695860862732]
[20.13 15.97 57.88], [90.76596260070801]
[20.06 16.08 57.86], [90.89445185661316]
[19.89 16.23 57.88], [91.01667070388794]
[19.31 16.05 58.16], [91.13801527023315]
[19.17 16.23 58.15], [91.26983904838562]
[19.14 16.52 58.06], [91.41902089118958]
[19.02 16.64 58.05], [91.53974318504333]
[19.27 17.01 57.83], [91.66473531723022]
[19.08 17.14 57.87], [91.78657031059265]
[18.85 17.33 57.9 ], [91.91093707084656]
[18.7  17.55 57.86], [92.03566408157349]
[18.46 17.79 57.86], [92.1645233631134]
[18.23 17.99 57.89], [92.28695869445801]
[18.18 18.09 57.86], [92.4099702835083]
[17.85 18.48 57.81], [92.53432369232178]
[17.53 18.76 57.82], [92.65191578865051]
[17.24 18.96 57.85], [92.77319955825806]
[16.95 19.18 57.87], [92.91092205047607]
[16.9  19.3  57.83], [93.05600643157959]
[16.8  19.44 57.81], [93.17485523223877]
[16.66 19.48 57.82], [93.29904341697693]
[16.31 19.83 57.78], [93.4176115989685]
[16.15 19.98 57.77], [93.54806709289551]
[16.07 20.1  57.74], [93.67512154579163]
[15.85 20.33 57.72], [93.79355478286743]
[15.65 20.48 57.73], [93.91545057296753]
[15.36 20.69 57.73], [94.04181504249573]
[15.1  20.88 57.73], [94.19087171554565]
[14.64 21.06 57.8 ], [94.32024645805359]
[14.46 21.25 57.76], [94.44611763954163]
[14.37 21.42 57.68], [94.5728771686554]
[14.08 21.6  57.68], [94.69971036911011]
[13.74 21.76 57.7 ], [94.82256817817688]
[13.63 21.82 57.7 ], [94.94691228866577]
[13.52 21.86 57.72], [95.06763648986816]
[13.26 22.02 57.73], [95.19145274162292]
[13.13 22.09 57.73], [95.31158542633057]
[13.06 22.15 57.71], [95.42869520187378]
[12.83 22.31 57.7 ], [95.55224013328552]
[12.47 22.45 57.74], [95.67297172546387]
[12.15 22.62 57.75], [95.79657745361328]
[11.97 22.76 57.73], [95.9164171218872]
[11.6  22.93 57.74], [96.03534197807312]
[11.37 23.02 57.74], [96.16912317276001]
[11.   23.19 57.75], [96.29682731628418]
[10.72 23.29 57.76], [96.41716170310974]
[10.59 23.36 57.76], [96.54699921607971]
[10.37 23.46 57.75], [96.68735003471375]
[10.06 23.66 57.72], [96.80710029602051]
[ 9.97 23.69 57.72], [96.92549395561218]
[ 9.58 23.75 57.76], [97.04556584358215]
[ 9.4  23.86 57.74], [97.16442966461182]
[ 9.32 23.89 57.74], [97.28377985954285]
[ 9.03 24.02 57.72], [97.40183162689209]
[ 8.76 24.17 57.7 ], [97.52306509017944]
[ 8.61 24.53 57.57], [97.64105868339539]
[ 8.42 24.7  57.52], [97.76644921302795]
[ 8.23 24.86 57.46], [97.88312935829163]
[ 7.44 24.66 57.66], [98.00396370887756]
[ 7.28 24.82 57.59], [98.12190198898315]
[ 6.87 24.99 57.56], [98.24010729789734]
[ 6.7  25.01 57.58], [98.35942268371582]
[ 6.36 25.21 57.51], [98.48893475532532]
[ 6.1  25.28 57.51], [98.62971353530884]
[ 5.62 25.46 57.46], [98.75323796272278]
[ 5.47 25.52 57.45], [98.87269306182861]
[ 5.34 25.51 57.47], [98.99156665802002]
[ 5.03 25.62 57.44], [99.1149730682373]
[ 4.68 25.71 57.44], [99.23546624183655]
[ 4.4  25.75 57.45], [99.35812830924988]
[ 4.13 25.7  57.53], [99.47574996948242]
[ 4.08 25.54 57.66], [99.59573698043823]
[ 4.   25.37 57.8 ], [99.71248126029968]
[ 3.7 25.3 57.9], [99.82915878295898]
[ 3.51 25.21 57.99], [99.94681239128113]
[ 3.43 25.25 57.98], [100.06443762779236]
[ 3.09 25.4  57.91], [100.18972325325012]
[ 2.76 25.55 57.84], [100.32825636863708]
[ 1.77 25.43 57.86], [100.44920492172241]
[ 1.61 25.64 57.75], [100.58707356452942]
[ 1.15 25.83 57.63], [100.72769546508789]
[ 0.88 25.94 57.55], [100.84813594818115]
[ 0.77 25.99 57.52], [100.99454116821289]
[ 0.66 26.01 57.51], [101.11465358734131]
[ 0.57 25.95 57.55], [101.23283576965332]
[ 0.39 25.94 57.57], [101.36995887756348]
[ 0.   25.89 57.63], [101.5023295879364]
[-0.17 25.73 57.76], [101.6204879283905]
[-0.52 25.68 57.82], [101.74211120605469]
[-0.88 25.39 57.95], [101.85722041130066]
[-1.02 25.33 57.96], [101.97815299034119]
[-1.43 25.41 57.89], [102.09963035583496]
[-1.72 25.44 57.85], [102.21691513061523]
[-1.86 25.46 57.84], [102.33557033538818]
[-2.24 25.55 57.75], [102.45590376853943]
[-2.57 25.57 57.71], [102.57475137710571]
[-2.64 25.58 57.71], [102.69196557998657]
[-2.72 25.52 57.74], [102.81076669692993]
[-3.05 25.63 57.67], [102.9298164844513]
[-3.4  25.72 57.58], [103.05171799659729]
[-3.85 25.65 57.56], [103.17467093467712]
[-4.41 25.49 57.57], [103.29257726669312]
[-4.49 25.47 57.57], [103.41338968276978]
[-4.67 25.4  57.59], [103.53109502792358]
[-5.04 25.42 57.55], [103.65583777427673]
[-5.26 25.33 57.61], [103.7761800289154]
[-5.33 25.09 57.76], [103.9215841293335]
[-5.8  24.95 57.82], [104.04771733283997]
[-6.02 24.71 57.96], [104.18235683441162]
[-6.23 24.31 58.17], [104.30117344856262]
[-6.73 24.19 58.15], [104.42255592346191]
[-7.06 24.19 58.08], [104.54420399665833]
[-7.19 24.29 57.99], [104.66581869125366]
[-7.32 24.29 57.96], [104.78592038154602]
[-7.42 24.31 57.92], [104.92931318283081]
[-7.47 24.4  57.86], [105.05704617500305]
[-7.52 24.44 57.83], [105.18056106567383]
[-7.95 24.48 57.7 ], [105.31728291511536]
[-8.21 24.57 57.6 ], [105.44384956359863]
[-8.69 24.21 57.64], [105.56451225280762]
[-8.93 24.39 57.49], [105.68460440635681]
[-9.4  24.48 57.32], [105.80417370796204]
[-9.59 24.42 57.31], [105.9245138168335]
[-10.01  24.31  57.31], [106.04782438278198]
[-10.1   23.92  57.57], [106.16635775566101]
[-10.52  23.05  57.93], [106.28553366661072]
[-10.89  22.63  58.13], [106.40543055534363]
[-11.15  22.09  58.39], [106.53024578094482]
[-11.3   21.93  58.47], [106.66598796844482]
[-11.47  21.94  58.4 ], [106.80508780479431]
[-11.65  22.35  58.1 ], [106.92332696914673]
[-11.71  22.53  57.96], [107.04501295089722]
[-11.74  22.73  57.83], [107.1838686466217]
[-11.82  22.8   57.76], [107.30074954032898]
[-11.91  22.84  57.7 ], [107.41970491409302]
[-12.16  22.64  57.7 ], [107.54109334945679]
[-12.56  22.59  57.6 ], [107.67404580116272]
[-12.83  22.39  57.62], [107.79451370239258]
[-13.28  22.    57.71], [107.91401481628418]
[-13.78  21.45  57.85], [108.04025959968567]
[-14.25  20.9   57.97], [108.17672944068909]
[-14.62  20.97  57.82], [108.31045651435852]
[-14.81  20.93  57.76], [108.43479943275452]
[-14.89  20.94  57.72], [108.55862140655518]
[-14.97  20.91  57.72], [108.68309760093689]
[-15.27  20.62  57.7 ], [108.8040668964386]
[-15.29  20.61  57.72], [108.94493770599365]
[-15.43  20.36  57.79], [109.07213711738586]
[-15.45  20.11  57.92], [109.2070586681366]
[-15.67  19.72  58.03], [109.34788346290588]
[-15.94  19.51  58.05], [109.4698965549469]
[-16.18  19.56  57.94], [109.59080338478088]
[-16.32  19.43  57.95], [109.70958948135376]
[-16.34  19.44  57.94], [109.83530306816101]
[-16.41  19.43  57.92], [109.95652556419373]
[-16.75  19.05  57.91], [110.08805966377258]
[-16.82  18.94  57.92], [110.21276998519897]
[-17.23  18.84  57.8 ], [110.3311083316803]
[-17.75  18.45  57.71], [110.45848798751831]
[-17.88  18.26  57.75], [110.5797529220581]
[-18.33  17.99  57.68], [110.70340466499329]
[-18.67  17.92  57.57], [110.82716155052185]
[-18.78  17.68  57.64], [110.97029733657837]
[-18.88  17.35  57.75], [111.09081792831421]
[-18.93  17.13  57.85], [111.21151614189148]
[-18.99  16.83  57.97], [111.335134267807]
[-19.05  16.53  58.06], [111.45508217811584]
[-19.29  16.22  58.05], [111.57842016220093]
[-19.46  15.9   58.07], [111.69778418540955]
[-19.55  15.8   58.08], [111.81959939002991]
[-19.66  15.63  58.07], [111.94176292419434]
[-19.7   15.64  58.06], [112.06418323516846]
[-19.73  15.63  58.05], [112.18072414398193]
[-20.1   15.56  57.89], [112.30222821235657]
[-20.38  15.52  57.76], [112.42405009269714]
[-20.68  15.18  57.69], [112.56419014930725]
[-20.74  15.09  57.7 ], [112.69610929489136]
[-20.85  14.87  57.71], [112.82496094703674]
[-20.88  14.67  57.78], [112.94212460517883]
[-21.09  14.48  57.77], [113.06237053871155]
[-21.78  13.79  57.6 ], [113.18222522735596]
[-21.9   13.47  57.67], [113.2995674610138]
[-22.02  13.02  57.76], [113.44439911842346]
[-22.13  12.51  57.88], [113.56657242774963]
[-22.21  12.13  57.98], [113.68708443641663]
[-22.26  11.79  58.07], [113.80655241012573]
[-22.31  11.72  58.06], [113.92790985107422]
[-22.34  11.76  58.03], [114.06557536125183]
[-22.41  11.85  57.96], [114.18875789642334]
[-22.41  11.89  57.95], [114.3260612487793]
[-22.46  11.92  57.91], [114.44599390029907]
[-22.49  11.85  57.93], [114.5626573562622]
[-22.78  11.37  57.85], [114.67788457870483]
[-22.82  11.3   57.84], [114.79503726959229]
[-22.93  11.09  57.84], [114.91254329681396]
[-23.32  10.48  57.76], [115.03111815452576]
[-23.61   9.88  57.75], [115.15908169746399]
[-24.05   9.02  57.69], [115.27830910682678]
[-24.22   8.31  57.75], [115.40447926521301]
[-24.32   8.02  57.76], [115.52278804779053]
[-24.36   7.91  57.76], [115.64231824874878]
[-24.16   8.18  57.89], [115.76269769668579]
[-24.09   8.06  57.96], [115.88347673416138]
[-23.94   7.91  58.08], [116.00517654418945]
[-23.75   7.75  58.22], [116.1553258895874]
[-23.83   7.73  58.18], [116.2759017944336]
[-23.85   7.68  58.18], [116.41645288467407]
[-23.87   7.62  58.17], [116.5347831249237]
[-24.06   7.32  58.09], [116.65420341491699]
[-24.18   7.13  58.02], [116.77534866333008]
[-24.28   7.06  57.99], [116.89422297477722]
[-24.42   6.93  57.92], [117.02682328224182]
[-24.9    6.44  57.67], [117.1619074344635]
[-25.12   6.16  57.59], [117.28050303459167]
[-25.18   5.8   57.61], [117.40086054801941]
[-25.54   4.94  57.47], [117.52503061294556]
[-25.58   4.42  57.52], [117.64401006698608]
[-25.62   3.77  57.61], [117.76527762413025]
[-25.7    3.07  57.65], [117.90422368049622]
[-25.53   2.62  57.89], [118.04479384422302]
[-25.55   2.62  57.89], [118.1628942489624]
[-25.24   2.57  58.09], [118.31638765335083]
[-24.92   2.94  58.3 ], [118.4564266204834]
[-24.84   3.16  58.33], [118.5923216342926]
[-24.85   3.24  58.31], [118.72510194778442]
[-24.85   3.31  58.3 ], [118.85276699066162]
[-25.13   2.94  58.09], [118.96895813941956]
[-24.88   2.88  58.22], [119.08888959884644]
[-24.96   2.58  58.13], [119.20758771896362]
[-25.15   2.36  57.97], [119.32439923286438]
[-25.2    2.19  57.95], [119.43997263908386]
[-25.44   1.19  57.81], [119.5583724975586]
[-25.62   0.21  57.77], [119.67432856559753]
[-25.94  -0.85  57.64], [119.79293298721313]
[-26.01  -1.82  57.61], [119.91169476509094]
[-25.97  -1.95  57.63], [120.03292346000671]
[-25.79  -1.83  57.76], [120.1536214351654]
[-25.4   -1.36  58.04], [120.26970410346985]
[-25.47  -1.14  58.  ], [120.38907623291016]
[-25.02  -0.99  58.32], [120.51026964187622]
[-24.91  -0.92  58.38], [120.6323618888855]
[-24.85  -0.7   58.42], [120.75525164604187]
[-25.03  -0.9   58.26], [120.87368607521057]
[-25.03  -0.87  58.25], [120.99297714233398]
[-25.33  -1.34  58.  ], [121.11707472801208]
[-25.49  -1.82  57.84], [121.23620271682739]
[-25.55  -2.58  57.78], [121.36040949821472]
[-25.56  -3.75  57.71], [121.49593591690063]
[-25.4   -5.04  57.71], [121.62063479423523]
[-25.33  -5.15  57.75], [121.74256181716919]
[-25.3   -5.29  57.76], [121.86119103431702]
[-25.31  -5.35  57.76], [121.97915482521057]
[-25.08  -5.02  57.99], [122.09848213195801]
[-24.93  -5.27  58.07], [122.22061538696289]
[-24.76  -5.43  58.15], [122.33717799186707]
[-24.63  -5.44  58.23], [122.47639799118042]
[-24.62  -5.51  58.22], [122.60406947135925]
[-24.57  -5.55  58.26], [122.72841787338257]
[-24.59  -5.73  58.21], [122.85080695152283]
[-24.59  -5.78  58.21], [122.99213004112244]
[-24.39  -5.98  58.29], [123.15342116355896]
[-24.38  -6.5   58.2 ], [123.29411959648132]
[-24.34  -6.66  58.19], [123.41135096549988]
[-24.29  -6.9   58.19], [123.52842974662781]
[-24.15  -7.54  58.14], [123.66179060935974]
[-24.04  -8.11  58.12], [123.7778992652893]
[-24.01  -8.56  58.06], [123.89499306678772]
[-24.    -8.67  58.06], [124.01197481155396]
[-23.7   -8.86  58.2 ], [124.12933564186096]
[-23.44  -9.14  58.29], [124.24440217018127]
[-23.44  -9.2   58.28], [124.36283135414124]
[-23.44  -9.22  58.28], [124.478835105896]
[-23.37  -9.54  58.21], [124.59845352172852]
[-23.11  -9.85  58.26], [124.73845601081848]
[-23.14  -9.96  58.23], [124.86400198936462]
[-22.92 -10.1   58.31], [124.98318862915039]
[-22.68 -10.25  58.42], [125.1066381931305]
[-22.73 -10.52  58.3 ], [125.22325444221497]
[-22.83 -10.7   58.16], [125.34662556648254]
[-22.77 -10.81  58.16], [125.47014236450195]
[-22.53 -11.02  58.25], [125.59245157241821]
[-22.45 -11.31  58.19], [125.71393871307373]
[-22.51 -11.49  58.07], [125.85987997055054]
[-22.48 -11.74  58.03], [125.98333811759949]
[-22.27 -12.16  58.03], [126.11236262321472]
[-21.8  -12.63  58.17], [126.22782516479492]
[-21.6  -12.97  58.22], [126.3601565361023]
[-21.29 -13.53  58.23], [126.47766828536987]
[-21.32 -13.6   58.18], [126.59617328643799]
[-21.3  -13.7   58.16], [126.70953035354614]
[-21.24 -13.78  58.17], [126.82603311538696]
[-21.07 -13.91  58.23], [126.94409155845642]
[-20.81 -14.07  58.31], [127.0619535446167]
[-20.8  -14.3   58.21], [127.19654369354248]
[-20.57 -14.59  58.19], [127.3349061012268]
[-20.32 -14.74  58.27], [127.46593427658081]
[-20.31 -14.82  58.24], [127.58104252815247]
[-20.25 -14.88  58.24], [127.69739365577698]
[-20.12 -15.01  58.26], [127.81490850448608]
[-19.92 -15.16  58.31], [127.93500185012817]
[-19.58 -15.35  58.4 ], [128.05155038833618]
[-19.43 -15.72  58.29], [128.1860077381134]
[-19.33 -15.94  58.24], [128.3012731075287]
[-19.34 -15.96  58.21], [128.4222731590271]
[-19.03 -16.18  58.29], [128.54087376594543]
[-18.69 -16.47  58.34], [128.65830159187317]
[-18.79 -16.78  58.16], [128.77250790596008]
[-18.73 -17.22  57.99], [128.8874351978302]
[-18.47 -17.51  57.98], [129.00368404388428]
[-18.39 -17.57  57.97], [129.1222538948059]
[-18.2  -17.68  58.03], [129.2387511730194]
[-17.86 -17.82  58.13], [129.35485339164734]
[-17.71 -17.95  58.13], [129.47259974479675]
[-17.61 -18.12  58.11], [129.58838725090027]
[-17.48 -18.29  58.1 ], [129.70482635498047]
[-17.2  -18.56  58.12], [129.82138776779175]
[-16.85 -18.91  58.13], [129.93661522865295]
[-16.6  -19.1   58.15], [130.05053997039795]
[-16.31 -19.36  58.16], [130.18135452270508]
[-16.27 -19.53  58.1 ], [130.30341172218323]
[-16.27 -19.49  58.12], [130.41803312301636]
[-16.06 -19.53  58.18], [130.54057216644287]
[-15.72 -19.71  58.23], [130.66244530677795]
[-15.55 -19.72  58.29], [130.78436303138733]
[-15.3  -19.96  58.27], [130.91735935211182]
[-14.99 -20.07  58.33], [131.03366208076477]
[-14.93 -20.08  58.35], [131.16811299324036]
[-14.65 -20.19  58.4 ], [131.3088984489441]
[-14.2  -20.47  58.43], [131.44846153259277]
[-14.13 -20.92  58.2 ], [131.5879611968994]
[-13.89 -21.29  58.09], [131.70412302017212]
[-13.74 -21.42  58.08], [131.8229033946991]
[-13.7  -21.5   58.05], [131.95179533958435]
[-13.66 -21.61  58.01], [132.0985906124115]
[-13.35 -21.71  58.05], [132.2139823436737]
[-13.01 -21.87  58.07], [132.33098149299622]
[-12.72 -21.77  58.28], [132.47616744041443]
[-12.32 -21.87  58.35], [132.59255123138428]
[-11.94 -22.02  58.39], [132.71475839614868]
[-11.57 -22.13  58.42], [132.83597254753113]
[-11.33 -22.24  58.42], [132.95126271247864]
[-11.31 -22.36  58.34], [133.0891752243042]
[-11.24 -22.58  58.21], [133.2337830066681]
[-10.99 -22.66  58.23], [133.37958455085754]
[-10.96 -22.68  58.21], [133.52315187454224]
[-10.86 -22.73  58.21], [133.66513776779175]
[-10.58 -22.8   58.24], [133.79790115356445]
[-10.28 -22.92  58.25], [133.91972017288208]
[-10.2  -22.95  58.24], [134.0406301021576]
[ -9.95 -23.03  58.25], [134.16313648223877]
[ -9.61 -23.16  58.25], [134.3142900466919]
[ -9.16 -23.32  58.26], [134.46347069740295]
[ -8.68 -23.55  58.23], [134.61566400527954]
[ -8.25 -23.68  58.24], [134.76510190963745]
[ -8.27 -23.67  58.23], [134.89929342269897]
[ -8.17 -23.75  58.2 ], [135.03839230537415]
[ -8.13 -23.73  58.22], [135.1759181022644]
[ -7.89 -23.83  58.21], [135.31619548797607]
[ -7.61 -23.88  58.21], [135.43770670890808]
