[ 0.  0. 58.], [1.5003712177276611]
[ 0.5  0.  58. ], [2.9193058013916016]
[ 1.  0. 58.], [3.0708131790161133]
[ 1.5  0.  58. ], [3.2069835662841797]
[ 2.  0. 58.], [3.341478109359741]
[ 2.5  0.  58. ], [3.4644033908843994]
[ 3.  0. 58.], [3.610638380050659]
[ 3.5  0.  58. ], [3.7550995349884033]
[ 4.  0. 58.], [3.8990399837493896]
[ 4.5  0.  58. ], [4.030939817428589]
[ 5.  0. 58.], [4.153170824050903]
[ 5.5  0.  58. ], [4.293841600418091]
[ 6.  0. 58.], [4.430438280105591]
[ 6.5  0.  58. ], [4.563058614730835]
[ 7.  0. 58.], [4.706529378890991]
[ 7.5  0.  58. ], [4.833107233047485]
[ 8.  0. 58.], [4.981582880020142]
[ 8.5  0.  58. ], [5.117986440658569]
[ 9.  0. 58.], [5.245819807052612]
[ 9.5  0.  58. ], [5.373372554779053]
[10.  0. 58.], [5.524289846420288]
[10.5  0.  58. ], [5.65824031829834]
[11.  0. 58.], [5.804080247879028]
[11.5  0.  58. ], [5.948836088180542]
[12.  0. 58.], [6.0762083530426025]
[12.5  0.  58. ], [6.2090771198272705]
[13.  0. 58.], [6.339254379272461]
[13.5  0.  58. ], [6.475723028182983]
[14.  0. 58.], [6.612936973571777]
[14.5  0.  58. ], [6.75505256652832]
[15.  0. 58.], [6.8847496509552]
[15.5  0.  58. ], [7.019563436508179]
[16.  0. 58.], [7.152330636978149]
[16.5  0.  58. ], [7.292484283447266]
[17.  0. 58.], [7.420687437057495]
[17.5  0.  58. ], [7.566534996032715]
[18.  0. 58.], [7.700197458267212]
[18.5  0.  58. ], [7.822077035903931]
[19.  0. 58.], [7.952427864074707]
[19.5  0.  58. ], [8.085773706436157]
[20.  0. 58.], [8.245823621749878]
[20.5  0.  58. ], [8.40440559387207]
[21.  0. 58.], [8.535263538360596]
[21.5  0.  58. ], [8.662506580352783]
[22.  0. 58.], [8.791725397109985]
[22.5  0.  58. ], [8.918468713760376]
[23.  0. 58.], [9.045641899108887]
[23.5  0.  58. ], [9.18435549736023]
[24.  0. 58.], [9.310698509216309]
[24.5  0.  58. ], [9.439919710159302]
[25.  0. 58.], [9.584012508392334]
[24.99451709  0.5235605  58.        ], [9.719605684280396]
[24.98766401  0.78526898 58.        ], [9.8570077419281]
[24.97807075  1.04689134 58.        ], [10.005460739135742]
[24.96573837  1.30839891 58.        ], [10.14243745803833]
[24.95066821  1.56976299 58.        ], [10.272749185562134]
[24.93286193  1.83095493 58.        ], [10.411955118179321]
[24.91232148  2.09194608 58.        ], [10.558310508728027]
[24.88904912  2.35270783 58.        ], [10.697349309921265]
[24.86304738  2.61321158 58.        ], [10.825639247894287]
[24.83431914  2.87342876 58.        ], [10.95376205444336]
[24.80286753  3.13333084 58.        ], [11.082746028900146]
[24.76869601  3.39288931 58.        ], [11.21000599861145]
[24.73180832  3.65207571 58.        ], [11.340118408203125]
[24.69220851  3.91086163 58.        ], [11.469257593154907]
[24.64990093  4.16921867 58.        ], [11.591609239578247]
[24.6048902   4.42711851 58.        ], [11.727577686309814]
[24.55718127  4.68453286 58.        ], [11.859874486923218]
[24.50677937  4.94143351 58.        ], [11.984428882598877]
[24.45369002  5.19779227 58.        ], [12.11481523513794]
[24.39791905  5.45358103 58.        ], [12.251303911209106]
[24.33947257  5.70877175 58.        ], [12.393570899963379]
[24.278357    5.96333644 58.        ], [12.52963638305664]
[24.21457903  6.21724718 58.        ], [12.672146320343018]
[24.14814566  6.47047613 58.        ], [12.810091733932495]
[24.07906417  6.72299552 58.        ], [12.957393407821655]
[24.00734214  6.97477765 58.        ], [13.10993218421936]
[23.93298744  7.22579492 58.        ], [13.241607666015625]
[23.85600821  7.47601981 58.        ], [13.382118701934814]
[23.77641291  7.72542486 58.        ], [13.513373613357544]
[23.69421025  7.97398273 58.        ], [13.66023850440979]
[23.60940926  8.22166617 58.        ], [13.803905010223389]
[23.52201922  8.46844801 58.        ], [13.941665410995483]
[23.43204974  8.71430118 58.        ], [14.078809261322021]
[23.33951066  8.95919874 58.        ], [14.209787607192993]
[23.24441215  9.20311382 58.        ], [14.35477089881897]
[23.14676462  9.44601967 58.        ], [14.48512077331543]
[23.04657879  9.68788966 58.        ], [14.62163496017456]
[22.94386564  9.92869727 58.        ], [14.748565435409546]
[22.83863644 10.16841608 58.        ], [14.895116806030273]
[22.73090273 10.40701981 58.        ], [15.021143913269043]
[22.62067631 10.64448229 58.        ], [15.145570278167725]
[22.50796929 10.88077748 58.        ], [15.279593229293823]
[22.39279401 11.11587948 58.        ], [15.411856651306152]
[22.2751631  11.34976249 58.        ], [15.541891098022461]
[22.15508948 11.58240088 58.        ], [15.66824722290039]
[22.0325863  11.81376912 58.        ], [15.796537160873413]
[21.907667   12.04384185 58.        ], [15.92916750907898]
[21.78034528 12.27259384 58.        ], [16.058125734329224]
[21.65063509 12.5        58.        ], [16.190924406051636]
[21.51855068 12.72603539 58.        ], [16.33570408821106]
[21.3841065  12.95067523 58.        ], [16.465294361114502]
[21.24731732 13.17389489 58.        ], [16.605102062225342]
[21.10819814 13.39566987 58.        ], [16.73857831954956]
[20.9667642  13.61597588 58.        ], [16.871362447738647]
[20.82303102 13.83478873 58.        ], [17.01066756248474]
[20.67701436 14.05208445 58.        ], [17.144461393356323]
[20.52873023 14.26783919 58.        ], [17.288495779037476]
[20.37819489 14.48202931 58.        ], [17.41219663619995]
[20.22542486 14.69463131 58.        ], [17.539745330810547]
[20.07043688 14.90562187 58.        ], [17.667394638061523]
[19.91324795 15.11497787 58.        ], [17.797832012176514]
[19.75387531 15.32267634 58.        ], [17.93994665145874]
[19.59233643 15.52869451 58.        ], [18.07613968849182]
[19.42864904 15.73300978 58.        ], [18.204060554504395]
[19.26283107 15.93559974 58.        ], [18.354453086853027]
[19.09490072 16.13644219 58.        ], [18.498186111450195]
[18.92487639 16.3355151  58.        ], [18.64613962173462]
[18.75277674 16.53279663 58.        ], [18.78230595588684]
[18.57862064 16.72826516 58.        ], [18.914160013198853]
[18.40242718 16.92189924 58.        ], [19.0481276512146]
[18.22421569 17.11367765 58.        ], [19.181304931640625]
[18.0440057  17.30357935 58.        ], [19.307660341262817]
[17.86181699 17.49158351 58.        ], [19.432758569717407]
[17.67766953 17.67766953 58.        ], [19.569375038146973]
[17.49158351 17.86181699 58.        ], [19.716335773468018]
[17.30357935 18.0440057  58.        ], [19.85677671432495]
[17.11367765 18.22421569 58.        ], [20.002399921417236]
[16.92189924 18.40242718 58.        ], [20.14721918106079]
[16.72826516 18.57862064 58.        ], [20.28545045852661]
[16.53279663 18.75277674 58.        ], [20.432106494903564]
[16.3355151  18.92487639 58.        ], [20.576648235321045]
[16.13644219 19.09490072 58.        ], [20.7258563041687]
[15.93559974 19.26283107 58.        ], [20.877231121063232]
[15.73300978 19.42864904 58.        ], [21.02243947982788]
[15.52869451 19.59233643 58.        ], [21.16850233078003]
[15.32267634 19.75387531 58.        ], [21.310637712478638]
[15.11497787 19.91324795 58.        ], [21.477349042892456]
[14.90562187 20.07043688 58.        ], [21.637468338012695]
[14.69463131 20.22542486 58.        ], [21.7911593914032]
[14.48202931 20.37819489 58.        ], [21.94234538078308]
[14.26783919 20.52873023 58.        ], [22.09734797477722]
[14.05208445 20.67701436 58.        ], [22.246771812438965]
[13.83478873 20.82303102 58.        ], [22.394557237625122]
[13.61597588 20.9667642  58.        ], [22.540317058563232]
[13.39566987 21.10819814 58.        ], [22.687589168548584]
[13.17389489 21.24731732 58.        ], [22.852689743041992]
[12.95067523 21.3841065  58.        ], [22.98992395401001]
[12.72603539 21.51855068 58.        ], [23.149039030075073]
[12.5        21.65063509 58.        ], [23.295587301254272]
[12.27259384 21.78034528 58.        ], [23.43021249771118]
[12.04384185 21.907667   58.        ], [23.566147327423096]
[11.81376912 22.0325863  58.        ], [23.69979953765869]
[11.58240088 22.15508948 58.        ], [23.83672308921814]
[11.34976249 22.2751631  58.        ], [23.9685697555542]
[11.11587948 22.39279401 58.        ], [24.11470675468445]
[10.88077748 22.50796929 58.        ], [24.260953664779663]
[10.64448229 22.62067631 58.        ], [24.391368627548218]
[10.40701981 22.73090273 58.        ], [24.53393030166626]
[10.16841608 22.83863644 58.        ], [24.666261672973633]
[ 9.92869727 22.94386564 58.        ], [24.805893421173096]
[ 9.68788966 23.04657879 58.        ], [24.946635484695435]
[ 9.44601967 23.14676462 58.        ], [25.07972002029419]
[ 9.20311382 23.24441215 58.        ], [25.21473979949951]
[ 8.95919874 23.33951066 58.        ], [25.355325937271118]
[ 8.71430118 23.43204974 58.        ], [25.48564863204956]
[ 8.46844801 23.52201922 58.        ], [25.62421989440918]
[ 8.22166617 23.60940926 58.        ], [25.76014280319214]
[ 7.97398273 23.69421025 58.        ], [25.900949716567993]
[ 7.72542486 23.77641291 58.        ], [26.0370934009552]
[ 7.47601981 23.85600821 58.        ], [26.17083239555359]
[ 7.22579492 23.93298744 58.        ], [26.3202805519104]
[ 6.97477765 24.00734214 58.        ], [26.47461175918579]
[ 6.72299552 24.07906417 58.        ], [26.630848169326782]
[ 6.47047613 24.14814566 58.        ], [26.796223640441895]
[ 6.21724718 24.21457903 58.        ], [26.941657066345215]
[ 5.96333644 24.278357   58.        ], [27.07739567756653]
[ 5.70877175 24.33947257 58.        ], [27.222045421600342]
[ 5.45358103 24.39791905 58.        ], [27.37101912498474]
[ 5.19779227 24.45369002 58.        ], [27.522936820983887]
[ 4.94143351 24.50677937 58.        ], [27.67464828491211]
[ 4.68453286 24.55718127 58.        ], [27.821300268173218]
[ 4.42711851 24.6048902  58.        ], [27.955381393432617]
[ 4.16921867 24.64990093 58.        ], [28.095248699188232]
[ 3.91086163 24.69220851 58.        ], [28.226834535598755]
[ 3.65207571 24.73180832 58.        ], [28.358490228652954]
[ 3.39288931 24.76869601 58.        ], [28.495848894119263]
[ 3.13333084 24.80286753 58.        ], [28.623311519622803]
[ 2.87342876 24.83431914 58.        ], [28.761142253875732]
[ 2.61321158 24.86304738 58.        ], [28.9187912940979]
[ 2.35270783 24.88904912 58.        ], [29.07382869720459]
[ 2.09194608 24.91232148 58.        ], [29.226661205291748]
[ 1.83095493 24.93286193 58.        ], [29.404955863952637]
[ 1.56976299 24.95066821 58.        ], [29.56112575531006]
[ 1.30839891 24.96573837 58.        ], [29.70898199081421]
[ 1.04689134 24.97807075 58.        ], [29.851065397262573]
[ 0.78526898 24.98766401 58.        ], [29.987188816070557]
[ 0.5235605  24.99451709 58.        ], [30.121228218078613]
[ 0.2617946  24.99862923 58.        ], [30.255865812301636]
[1.5308085e-15 2.5000000e+01 5.8000000e+01], [30.386043310165405]
[-0.2617946  24.99862923 58.        ], [30.519697189331055]
[-0.5235605  24.99451709 58.        ], [30.660049438476562]
[-0.78526898 24.98766401 58.        ], [30.79719614982605]
[-1.04689134 24.97807075 58.        ], [30.937180042266846]
[-1.30839891 24.96573837 58.        ], [31.074010372161865]
[-1.56976299 24.95066821 58.        ], [31.21049666404724]
[-1.83095493 24.93286193 58.        ], [31.34954309463501]
[-2.09194608 24.91232148 58.        ], [31.493638038635254]
[-2.35270783 24.88904912 58.        ], [31.64877700805664]
[-2.61321158 24.86304738 58.        ], [31.793312549591064]
[-2.87342876 24.83431914 58.        ], [31.937533617019653]
[-3.13333084 24.80286753 58.        ], [32.0895562171936]
[-3.39288931 24.76869601 58.        ], [32.22470307350159]
[-3.65207571 24.73180832 58.        ], [32.36743950843811]
[-3.91086163 24.69220851 58.        ], [32.510157346725464]
[-4.16921867 24.64990093 58.        ], [32.65530347824097]
[-4.42711851 24.6048902  58.        ], [32.79498910903931]
[-4.68453286 24.55718127 58.        ], [32.92181372642517]
[-4.94143351 24.50677937 58.        ], [33.06734108924866]
[-5.19779227 24.45369002 58.        ], [33.19763207435608]
[-5.45358103 24.39791905 58.        ], [33.336196422576904]
[-5.70877175 24.33947257 58.        ], [33.48434829711914]
[-5.96333644 24.278357   58.        ], [33.630672454833984]
[-6.21724718 24.21457903 58.        ], [33.75768303871155]
[-6.47047613 24.14814566 58.        ], [33.90815019607544]
[-6.72299552 24.07906417 58.        ], [34.054237842559814]
[-6.97477765 24.00734214 58.        ], [34.20020031929016]
[-7.22579492 23.93298744 58.        ], [34.35088872909546]
[-7.47601981 23.85600821 58.        ], [34.502883195877075]
[-7.72542486 23.77641291 58.        ], [34.64198589324951]
[-7.97398273 23.69421025 58.        ], [34.791455030441284]
[-8.22166617 23.60940926 58.        ], [34.933255195617676]
[-8.46844801 23.52201922 58.        ], [35.07681155204773]
[-8.71430118 23.43204974 58.        ], [35.21884775161743]
[-8.95919874 23.33951066 58.        ], [35.35465097427368]
[-9.20311382 23.24441215 58.        ], [35.48667621612549]
[-9.44601967 23.14676462 58.        ], [35.64162015914917]
[-9.68788966 23.04657879 58.        ], [35.77595400810242]
[-9.92869727 22.94386564 58.        ], [35.91692566871643]
[-10.16841608  22.83863644  58.        ], [36.05367851257324]
[-10.40701981  22.73090273  58.        ], [36.19109225273132]
[-10.64448229  22.62067631  58.        ], [36.34634351730347]
[-10.88077748  22.50796929  58.        ], [36.48012113571167]
[-11.11587948  22.39279401  58.        ], [36.62313413619995]
[-11.34976249  22.2751631   58.        ], [36.761810302734375]
[-11.58240088  22.15508948  58.        ], [36.90360116958618]
[-11.81376912  22.0325863   58.        ], [37.042497396469116]
[-12.04384185  21.907667    58.        ], [37.19651961326599]
[-12.27259384  21.78034528  58.        ], [37.34072256088257]
[-12.5         21.65063509  58.        ], [37.47367763519287]
[-12.72603539  21.51855068  58.        ], [37.61376094818115]
[-12.95067523  21.3841065   58.        ], [37.74470400810242]
[-13.17389489  21.24731732  58.        ], [37.883076190948486]
[-13.39566987  21.10819814  58.        ], [38.019033432006836]
[-13.61597588  20.9667642   58.        ], [38.15579056739807]
[-13.83478873  20.82303102  58.        ], [38.295742988586426]
[-14.05208445  20.67701436  58.        ], [38.433887004852295]
[-14.26783919  20.52873023  58.        ], [38.57387399673462]
[-14.48202931  20.37819489  58.        ], [38.71251153945923]
[-14.69463131  20.22542486  58.        ], [38.85335302352905]
[-14.90562187  20.07043688  58.        ], [38.98449683189392]
[-15.11497787  19.91324795  58.        ], [39.13810873031616]
[-15.32267634  19.75387531  58.        ], [39.28566002845764]
[-15.52869451  19.59233643  58.        ], [39.422940492630005]
[-15.73300978  19.42864904  58.        ], [39.56178545951843]
[-15.93559974  19.26283107  58.        ], [39.71304225921631]
[-16.13644219  19.09490072  58.        ], [39.84332084655762]
[-16.3355151   18.92487639  58.        ], [39.97947406768799]
[-16.53279663  18.75277674  58.        ], [40.112367391586304]
[-16.72826516  18.57862064  58.        ], [40.25206398963928]
[-16.92189924  18.40242718  58.        ], [40.38626313209534]
[-17.11367765  18.22421569  58.        ], [40.52306365966797]
[-17.30357935  18.0440057   58.        ], [40.653653383255005]
[-17.49158351  17.86181699  58.        ], [40.794015645980835]
[-17.67766953  17.67766953  58.        ], [40.93343901634216]
[-17.86181699  17.49158351  58.        ], [41.06677484512329]
[-18.0440057   17.30357935  58.        ], [41.20310020446777]
[-18.22421569  17.11367765  58.        ], [41.339348793029785]
[-18.40242718  16.92189924  58.        ], [41.47013282775879]
[-18.57862064  16.72826516  58.        ], [41.62152361869812]
[-18.75277674  16.53279663  58.        ], [41.770228147506714]
[-18.92487639  16.3355151   58.        ], [41.90976524353027]
[-19.09490072  16.13644219  58.        ], [42.05934977531433]
[-19.26283107  15.93559974  58.        ], [42.190171241760254]
[-19.42864904  15.73300978  58.        ], [42.33176875114441]
[-19.59233643  15.52869451  58.        ], [42.47721719741821]
[-19.75387531  15.32267634  58.        ], [42.62485957145691]
[-19.91324795  15.11497787  58.        ], [42.7766478061676]
[-20.07043688  14.90562187  58.        ], [42.93426322937012]
[-20.22542486  14.69463131  58.        ], [43.083884716033936]
[-20.37819489  14.48202931  58.        ], [43.2435827255249]
[-20.52873023  14.26783919  58.        ], [43.382346391677856]
[-20.67701436  14.05208445  58.        ], [43.522740840911865]
[-20.82303102  13.83478873  58.        ], [43.65853524208069]
[-20.9667642   13.61597588  58.        ], [43.7962851524353]
[-21.10819814  13.39566987  58.        ], [43.930964946746826]
[-21.24731732  13.17389489  58.        ], [44.06944918632507]
[-21.3841065   12.95067523  58.        ], [44.2034125328064]
[-21.51855068  12.72603539  58.        ], [44.338765144348145]
[-21.65063509  12.5         58.        ], [44.484760761260986]
[-21.78034528  12.27259384  58.        ], [44.62271857261658]
[-21.907667    12.04384185  58.        ], [44.75611972808838]
[-22.0325863   11.81376912  58.        ], [44.89778399467468]
[-22.15508948  11.58240088  58.        ], [45.04212260246277]
[-22.2751631   11.34976249  58.        ], [45.17592453956604]
[-22.39279401  11.11587948  58.        ], [45.303818225860596]
[-22.50796929  10.88077748  58.        ], [45.465535402297974]
[-22.62067631  10.64448229  58.        ], [45.61036252975464]
[-22.73090273  10.40701981  58.        ], [45.7573983669281]
[-22.83863644  10.16841608  58.        ], [45.90175223350525]
[-22.94386564   9.92869727  58.        ], [46.050272703170776]
[-23.04657879   9.68788966  58.        ], [46.19118070602417]
[-23.14676462   9.44601967  58.        ], [46.336220026016235]
[-23.24441215   9.20311382  58.        ], [46.48183488845825]
[-23.33951066   8.95919874  58.        ], [46.631213426589966]
[-23.43204974   8.71430118  58.        ], [46.78396725654602]
[-23.52201922   8.46844801  58.        ], [46.911272287368774]
[-23.60940926   8.22166617  58.        ], [47.05187797546387]
[-23.69421025   7.97398273  58.        ], [47.19926333427429]
[-23.77641291   7.72542486  58.        ], [47.34505081176758]
[-23.85600821   7.47601981  58.        ], [47.49532341957092]
[-23.93298744   7.22579492  58.        ], [47.64529204368591]
[-24.00734214   6.97477765  58.        ], [47.77456831932068]
[-24.07906417   6.72299552  58.        ], [47.913310289382935]
[-24.14814566   6.47047613  58.        ], [48.046345472335815]
[-24.21457903   6.21724718  58.        ], [48.191922187805176]
[-24.278357     5.96333644  58.        ], [48.34205603599548]
[-24.33947257   5.70877175  58.        ], [48.478838205337524]
[-24.39791905   5.45358103  58.        ], [48.619646072387695]
[-24.45369002   5.19779227  58.        ], [48.7625949382782]
[-24.50677937   4.94143351  58.        ], [48.896811962127686]
[-24.55718127   4.68453286  58.        ], [49.0413613319397]
[-24.6048902    4.42711851  58.        ], [49.174437284469604]
[-24.64990093   4.16921867  58.        ], [49.32599186897278]
[-24.69220851   3.91086163  58.        ], [49.46680021286011]
[-24.73180832   3.65207571  58.        ], [49.5953528881073]
[-24.76869601   3.39288931  58.        ], [49.73177719116211]
[-24.80286753   3.13333084  58.        ], [49.881067514419556]
[-24.83431914   2.87342876  58.        ], [50.03014159202576]
[-24.86304738   2.61321158  58.        ], [50.16535305976868]
[-24.88904912   2.35270783  58.        ], [50.30811810493469]
[-24.91232148   2.09194608  58.        ], [50.44762420654297]
[-24.93286193   1.83095493  58.        ], [50.58031916618347]
[-24.95066821   1.56976299  58.        ], [50.71393704414368]
[-24.96573837   1.30839891  58.        ], [50.85246133804321]
[-24.97807075   1.04689134  58.        ], [50.98260498046875]
[-24.98766401   0.78526898  58.        ], [51.11479067802429]
[-24.99451709   0.5235605   58.        ], [51.24872899055481]
[-24.99862923   0.2617946   58.        ], [51.37710380554199]
[-2.500000e+01  3.061617e-15  5.800000e+01], [51.511696100234985]
[-24.99862923  -0.2617946   58.        ], [51.6546745300293]
[-24.99451709  -0.5235605   58.        ], [51.784910678863525]
[-24.98766401  -0.78526898  58.        ], [51.921088218688965]
[-24.97807075  -1.04689134  58.        ], [52.05320858955383]
[-24.96573837  -1.30839891  58.        ], [52.20240664482117]
[-24.95066821  -1.56976299  58.        ], [52.34906816482544]
[-24.93286193  -1.83095493  58.        ], [52.485817670822144]
[-24.91232148  -2.09194608  58.        ], [52.6187949180603]
[-24.88904912  -2.35270783  58.        ], [52.75108575820923]
[-24.86304738  -2.61321158  58.        ], [52.882816553115845]
[-24.83431914  -2.87342876  58.        ], [53.01514148712158]
[-24.80286753  -3.13333084  58.        ], [53.141512870788574]
[-24.76869601  -3.39288931  58.        ], [53.281694173812866]
[-24.73180832  -3.65207571  58.        ], [53.415032386779785]
[-24.69220851  -3.91086163  58.        ], [53.5480318069458]
[-24.64990093  -4.16921867  58.        ], [53.68109202384949]
[-24.6048902   -4.42711851  58.        ], [53.80855417251587]
[-24.55718127  -4.68453286  58.        ], [53.94137644767761]
[-24.50677937  -4.94143351  58.        ], [54.06771636009216]
[-24.45369002  -5.19779227  58.        ], [54.20094037055969]
[-24.39791905  -5.45358103  58.        ], [54.33133339881897]
[-24.33947257  -5.70877175  58.        ], [54.4645209312439]
[-24.278357    -5.96333644  58.        ], [54.607075214385986]
[-24.21457903  -6.21724718  58.        ], [54.751633644104004]
[-24.14814566  -6.47047613  58.        ], [54.89463424682617]
[-24.07906417  -6.72299552  58.        ], [55.03810405731201]
[-24.00734214  -6.97477765  58.        ], [55.180769205093384]
[-23.93298744  -7.22579492  58.        ], [55.31407356262207]
[-23.85600821  -7.47601981  58.        ], [55.454524755477905]
[-23.77641291  -7.72542486  58.        ], [55.58873248100281]
[-23.69421025  -7.97398273  58.        ], [55.72533416748047]
[-23.60940926  -8.22166617  58.        ], [55.86123752593994]
[-23.52201922  -8.46844801  58.        ], [55.994826316833496]
[-23.43204974  -8.71430118  58.        ], [56.13523316383362]
[-23.33951066  -8.95919874  58.        ], [56.26856541633606]
[-23.24441215  -9.20311382  58.        ], [56.40361785888672]
[-23.14676462  -9.44601967  58.        ], [56.53728938102722]
[-23.04657879  -9.68788966  58.        ], [56.66895151138306]
[-22.94386564  -9.92869727  58.        ], [56.80889320373535]
[-22.83863644 -10.16841608  58.        ], [56.943742752075195]
[-22.73090273 -10.40701981  58.        ], [57.0821807384491]
[-22.62067631 -10.64448229  58.        ], [57.21829557418823]
[-22.50796929 -10.88077748  58.        ], [57.36158204078674]
[-22.39279401 -11.11587948  58.        ], [57.498313188552856]
[-22.2751631  -11.34976249  58.        ], [57.632057428359985]
[-22.15508948 -11.58240088  58.        ], [57.775030851364136]
[-22.0325863  -11.81376912  58.        ], [57.91694712638855]
[-21.907667   -12.04384185  58.        ], [58.05634260177612]
[-21.78034528 -12.27259384  58.        ], [58.191529512405396]
[-21.65063509 -12.5         58.        ], [58.32417154312134]
[-21.51855068 -12.72603539  58.        ], [58.46220517158508]
[-21.3841065  -12.95067523  58.        ], [58.608481645584106]
[-21.24731732 -13.17389489  58.        ], [58.75295948982239]
[-21.10819814 -13.39566987  58.        ], [58.92023849487305]
[-20.9667642  -13.61597588  58.        ], [59.0569064617157]
[-20.82303102 -13.83478873  58.        ], [59.19549036026001]
[-20.67701436 -14.05208445  58.        ], [59.32851314544678]
[-20.52873023 -14.26783919  58.        ], [59.46323800086975]
[-20.37819489 -14.48202931  58.        ], [59.60124659538269]
[-20.22542486 -14.69463131  58.        ], [59.737611532211304]
[-20.07043688 -14.90562187  58.        ], [59.88343596458435]
[-19.91324795 -15.11497787  58.        ], [60.01710391044617]
[-19.75387531 -15.32267634  58.        ], [60.14934277534485]
[-19.59233643 -15.52869451  58.        ], [60.28122615814209]
[-19.42864904 -15.73300978  58.        ], [60.424986600875854]
[-19.26283107 -15.93559974  58.        ], [60.55219912528992]
[-19.09490072 -16.13644219  58.        ], [60.69310545921326]
[-18.92487639 -16.3355151   58.        ], [60.82703948020935]
[-18.75277674 -16.53279663  58.        ], [60.953617811203]
[-18.57862064 -16.72826516  58.        ], [61.09152936935425]
[-18.40242718 -16.92189924  58.        ], [61.214346408843994]
[-18.22421569 -17.11367765  58.        ], [61.35054922103882]
[-18.0440057  -17.30357935  58.        ], [61.4841206073761]
[-17.86181699 -17.49158351  58.        ], [61.612656354904175]
[-17.67766953 -17.67766953  58.        ], [61.742875814437866]
[-17.49158351 -17.86181699  58.        ], [61.89191269874573]
[-17.30357935 -18.0440057   58.        ], [62.02649641036987]
[-17.11367765 -18.22421569  58.        ], [62.162068605422974]
[-16.92189924 -18.40242718  58.        ], [62.30476093292236]
[-16.72826516 -18.57862064  58.        ], [62.45463013648987]
[-16.53279663 -18.75277674  58.        ], [62.59369087219238]
[-16.3355151  -18.92487639  58.        ], [62.735692262649536]
[-16.13644219 -19.09490072  58.        ], [62.86634135246277]
[-15.93559974 -19.26283107  58.        ], [63.00064015388489]
[-15.73300978 -19.42864904  58.        ], [63.13682174682617]
[-15.52869451 -19.59233643  58.        ], [63.2674515247345]
[-15.32267634 -19.75387531  58.        ], [63.40603971481323]
[-15.11497787 -19.91324795  58.        ], [63.539785385131836]
[-14.90562187 -20.07043688  58.        ], [63.69557976722717]
[-14.69463131 -20.22542486  58.        ], [63.82864809036255]
[-14.48202931 -20.37819489  58.        ], [63.96366214752197]
[-14.26783919 -20.52873023  58.        ], [64.10320210456848]
[-14.05208445 -20.67701436  58.        ], [64.24134516716003]
[-13.83478873 -20.82303102  58.        ], [64.3761215209961]
[-13.61597588 -20.9667642   58.        ], [64.5205945968628]
[-13.39566987 -21.10819814  58.        ], [64.65528225898743]
[-13.17389489 -21.24731732  58.        ], [64.79954504966736]
[-12.95067523 -21.3841065   58.        ], [64.93783259391785]
[-12.72603539 -21.51855068  58.        ], [65.07725119590759]
[-12.5        -21.65063509  58.        ], [65.21785306930542]
[-12.27259384 -21.78034528  58.        ], [65.35571336746216]
[-12.04384185 -21.907667    58.        ], [65.49995279312134]
[-11.81376912 -22.0325863   58.        ], [65.63808727264404]
[-11.58240088 -22.15508948  58.        ], [65.76621198654175]
[-11.34976249 -22.2751631   58.        ], [65.90754628181458]
[-11.11587948 -22.39279401  58.        ], [66.05153012275696]
[-10.88077748 -22.50796929  58.        ], [66.19323706626892]
[-10.64448229 -22.62067631  58.        ], [66.33158111572266]
[-10.40701981 -22.73090273  58.        ], [66.4719660282135]
[-10.16841608 -22.83863644  58.        ], [66.62513542175293]
[ -9.92869727 -22.94386564  58.        ], [66.77165699005127]
[ -9.68788966 -23.04657879  58.        ], [66.91511559486389]
[ -9.44601967 -23.14676462  58.        ], [67.04678177833557]
[ -9.20311382 -23.24441215  58.        ], [67.18044090270996]
[ -8.95919874 -23.33951066  58.        ], [67.31734609603882]
[ -8.71430118 -23.43204974  58.        ], [67.4493420124054]
[ -8.46844801 -23.52201922  58.        ], [67.58016991615295]
[ -8.22166617 -23.60940926  58.        ], [67.71241164207458]
[ -7.97398273 -23.69421025  58.        ], [67.8540608882904]
[ -7.72542486 -23.77641291  58.        ], [67.98503732681274]
[ -7.47601981 -23.85600821  58.        ], [68.11452150344849]
[ -7.22579492 -23.93298744  58.        ], [68.25303936004639]
[ -6.97477765 -24.00734214  58.        ], [68.39236664772034]
[ -6.72299552 -24.07906417  58.        ], [68.53258037567139]
[ -6.47047613 -24.14814566  58.        ], [68.66686844825745]
[ -6.21724718 -24.21457903  58.        ], [68.79496669769287]
[ -5.96333644 -24.278357    58.        ], [68.92714428901672]
[ -5.70877175 -24.33947257  58.        ], [69.0711259841919]
[ -5.45358103 -24.39791905  58.        ], [69.21743535995483]
[ -5.19779227 -24.45369002  58.        ], [69.35706377029419]
[ -4.94143351 -24.50677937  58.        ], [69.50031280517578]
[ -4.68453286 -24.55718127  58.        ], [69.65125250816345]
[ -4.42711851 -24.6048902   58.        ], [69.79625868797302]
[ -4.16921867 -24.64990093  58.        ], [69.94105887413025]
[ -3.91086163 -24.69220851  58.        ], [70.0850977897644]
[ -3.65207571 -24.73180832  58.        ], [70.2305166721344]
[ -3.39288931 -24.76869601  58.        ], [70.37412190437317]
[ -3.13333084 -24.80286753  58.        ], [70.50831699371338]
[ -2.87342876 -24.83431914  58.        ], [70.65041518211365]
[ -2.61321158 -24.86304738  58.        ], [70.8001139163971]
[ -2.35270783 -24.88904912  58.        ], [70.94449877738953]
[ -2.09194608 -24.91232148  58.        ], [71.09432554244995]
[ -1.83095493 -24.93286193  58.        ], [71.24591135978699]
[ -1.56976299 -24.95066821  58.        ], [71.39374232292175]
[ -1.30839891 -24.96573837  58.        ], [71.53996729850769]
[ -1.04689134 -24.97807075  58.        ], [71.69461750984192]
[ -0.78526898 -24.98766401  58.        ], [71.83462977409363]
[ -0.5235605  -24.99451709  58.        ], [71.98286008834839]
[ -0.2617946  -24.99862923  58.        ], [72.10862994194031]
[-4.5924255e-15 -2.5000000e+01  5.8000000e+01], [72.24345302581787]
[  0.2617946  -24.99862923  58.        ], [72.37864875793457]
[  0.5235605  -24.99451709  58.        ], [72.51357173919678]
[  0.78526898 -24.98766401  58.        ], [72.66011667251587]
[  1.04689134 -24.97807075  58.        ], [72.80452966690063]
[  1.30839891 -24.96573837  58.        ], [72.9456398487091]
[  1.56976299 -24.95066821  58.        ], [73.08888602256775]
[  1.83095493 -24.93286193  58.        ], [73.23630428314209]
[  2.09194608 -24.91232148  58.        ], [73.37540912628174]
[  2.35270783 -24.88904912  58.        ], [73.50344967842102]
[  2.61321158 -24.86304738  58.        ], [73.64025330543518]
[  2.87342876 -24.83431914  58.        ], [73.78047895431519]
[  3.13333084 -24.80286753  58.        ], [73.91264748573303]
[  3.39288931 -24.76869601  58.        ], [74.04441547393799]
[  3.65207571 -24.73180832  58.        ], [74.17951250076294]
[  3.91086163 -24.69220851  58.        ], [74.31509304046631]
[  4.16921867 -24.64990093  58.        ], [74.44738626480103]
[  4.42711851 -24.6048902   58.        ], [74.58181810379028]
[  4.68453286 -24.55718127  58.        ], [74.72277617454529]
[  4.94143351 -24.50677937  58.        ], [74.86014223098755]
[  5.19779227 -24.45369002  58.        ], [74.99564218521118]
[  5.45358103 -24.39791905  58.        ], [75.13344168663025]
[  5.70877175 -24.33947257  58.        ], [75.27652597427368]
[  5.96333644 -24.278357    58.        ], [75.41404318809509]
[  6.21724718 -24.21457903  58.        ], [75.55138850212097]
[  6.47047613 -24.14814566  58.        ], [75.69398403167725]
[  6.72299552 -24.07906417  58.        ], [75.8350830078125]
[  6.97477765 -24.00734214  58.        ], [75.97610664367676]
[  7.22579492 -23.93298744  58.        ], [76.10837197303772]
[  7.47601981 -23.85600821  58.        ], [76.24790000915527]
[  7.72542486 -23.77641291  58.        ], [76.38004302978516]
[  7.97398273 -23.69421025  58.        ], [76.53733777999878]
[  8.22166617 -23.60940926  58.        ], [76.68310904502869]
[  8.46844801 -23.52201922  58.        ], [76.82130527496338]
[  8.71430118 -23.43204974  58.        ], [76.97671103477478]
[  8.95919874 -23.33951066  58.        ], [77.12294721603394]
[  9.20311382 -23.24441215  58.        ], [77.2675769329071]
[  9.44601967 -23.14676462  58.        ], [77.40443587303162]
[  9.68788966 -23.04657879  58.        ], [77.54031491279602]
[  9.92869727 -22.94386564  58.        ], [77.67517399787903]
[ 10.16841608 -22.83863644  58.        ], [77.81540608406067]
[ 10.40701981 -22.73090273  58.        ], [77.9621217250824]
