[ 0.  0. 50.], [33.463156938552856]
[ 0.4  0.  50. ], [34.74877309799194]
[ 0.8  0.  50. ], [34.904622077941895]
[ 1.2  0.  50. ], [35.05175805091858]
[ 1.6  0.  50. ], [35.20048213005066]
[ 2.  0. 50.], [35.349700689315796]
[ 2.4  0.  50. ], [35.50851082801819]
[ 2.8  0.  50. ], [35.66037726402283]
[ 3.2  0.  50. ], [35.81336712837219]
[ 3.6  0.  50. ], [35.964792251586914]
[ 4.  0. 50.], [36.11717987060547]
[ 4.4  0.  50. ], [36.27704644203186]
[ 4.8  0.  50. ], [36.42949104309082]
[ 5.2  0.  50. ], [36.615419149398804]
[ 5.6  0.  50. ], [36.76598310470581]
[ 6.  0. 50.], [36.92535924911499]
[ 6.4  0.  50. ], [37.07905840873718]
[ 6.8  0.  50. ], [37.2316210269928]
[ 7.2  0.  50. ], [37.38338232040405]
[ 7.6  0.  50. ], [37.536253929138184]
[ 8.  0. 50.], [37.688384771347046]
[ 8.4  0.  50. ], [37.867982387542725]
[ 8.8  0.  50. ], [38.02152466773987]
[ 9.2  0.  50. ], [38.17828416824341]
[ 9.6  0.  50. ], [38.33002185821533]
[10.  0. 50.], [38.47968530654907]
[10.4  0.  50. ], [38.62873721122742]
[10.8  0.  50. ], [38.77802348136902]
[11.2  0.  50. ], [38.94533157348633]
[11.6  0.  50. ], [39.12878084182739]
[12.  0. 50.], [39.27875995635986]
[12.4  0.  50. ], [39.438234090805054]
[12.8  0.  50. ], [39.596561670303345]
[13.2  0.  50. ], [39.75384879112244]
[13.6  0.  50. ], [39.90799355506897]
[14.  0. 50.], [40.059932708740234]
[14.4  0.  50. ], [40.21220374107361]
[14.8  0.  50. ], [40.36576008796692]
[15.2  0.  50. ], [40.51779794692993]
[15.6  0.  50. ], [40.66927218437195]
[16.  0. 50.], [40.82121300697327]
[16.4  0.  50. ], [41.00635051727295]
[16.8  0.  50. ], [41.16856527328491]
[17.2  0.  50. ], [41.323063373565674]
[17.6  0.  50. ], [41.51017379760742]
[18.  0. 50.], [41.66003680229187]
[18.4  0.  50. ], [41.81028437614441]
[18.8  0.  50. ], [41.959381341934204]
[19.2  0.  50. ], [42.109503984451294]
[19.6  0.  50. ], [42.25698113441467]
[20.  0. 50.], [42.40879011154175]
[20.   0.4 50. ], [42.55831289291382]
[20.   0.8 50. ], [42.73812246322632]
[20.   1.2 50. ], [42.88691210746765]
[20.   1.6 50. ], [43.037209033966064]
[20.  2. 50.], [43.18512558937073]
[20.   2.4 50. ], [43.33506155014038]
[20.   2.8 50. ], [43.4883828163147]
[20.   3.2 50. ], [43.63927340507507]
[20.   3.6 50. ], [43.78850603103638]
[20.  4. 50.], [43.97456121444702]
[20.   4.4 50. ], [44.14667344093323]
[20.   4.8 50. ], [44.39314842224121]
[20.   5.2 50. ], [44.544837474823]
[20.   5.6 50. ], [44.693970918655396]
[20.  6. 50.], [44.842907667160034]
[20.   6.4 50. ], [44.99315905570984]
[20.   6.8 50. ], [45.142733097076416]
[20.   7.2 50. ], [45.29125475883484]
[20.   7.6 50. ], [45.4403076171875]
[20.  8. 50.], [45.58957552909851]
[20.   8.4 50. ], [45.73873972892761]
[20.   8.8 50. ], [45.88868689537048]
[20.   9.2 50. ], [46.06694722175598]
[20.   9.6 50. ], [46.219902753829956]
[20. 10. 50.], [46.40357756614685]
[20.  10.4 50. ], [46.55732607841492]
[20.  10.8 50. ], [46.71011734008789]
[20.  11.2 50. ], [46.89939880371094]
[20.  11.6 50. ], [47.055047273635864]
[20. 12. 50.], [47.209280014038086]
[20.  12.4 50. ], [47.36600208282471]
[20.  12.8 50. ], [47.519911766052246]
[20.  13.2 50. ], [47.675546169281006]
[20.  13.6 50. ], [47.857091426849365]
[20. 14. 50.], [48.00951838493347]
[20.  14.4 50. ], [48.19071292877197]
[20.  14.8 50. ], [48.365803480148315]
[20.  15.2 50. ], [48.5210223197937]
[20.  15.6 50. ], [48.710188150405884]
[20. 16. 50.], [48.858113050460815]
[20.  16.4 50. ], [49.00731682777405]
[20.  16.8 50. ], [49.19089221954346]
[20.  17.2 50. ], [49.33857774734497]
[20.  17.6 50. ], [49.487502336502075]
[20. 18. 50.], [49.63707995414734]
[20.  18.4 50. ], [49.825695753097534]
[20.  18.8 50. ], [49.97419238090515]
[20.  19.2 50. ], [50.1235408782959]
[20.  19.6 50. ], [50.27195882797241]
[20. 20. 50.], [50.42163944244385]
[19.8 20.  50. ], [50.57528805732727]
[19.6 20.  50. ], [50.724098205566406]
[19.4 20.  50. ], [50.87260460853577]
[19.2 20.  50. ], [51.022210359573364]
[19. 20. 50.], [51.17685079574585]
[18.8 20.  50. ], [51.325384855270386]
[18.6 20.  50. ], [51.477078914642334]
[18.4 20.  50. ], [51.62675905227661]
[18.2 20.  50. ], [51.77604818344116]
[18. 20. 50.], [51.924684286117554]
[17.8 20.  50. ], [52.074302673339844]
[17.6 20.  50. ], [52.22301459312439]
[17.4 20.  50. ], [52.37220907211304]
[17.2 20.  50. ], [52.5220685005188]
[17. 20. 50.], [52.67111301422119]
[16.8 20.  50. ], [52.820862770080566]
[16.6 20.  50. ], [52.96997833251953]
[16.4 20.  50. ], [53.11957335472107]
[16.2 20.  50. ], [53.26868009567261]
[16. 20. 50.], [53.41862392425537]
[15.8 20.  50. ], [53.56710243225098]
[15.6 20.  50. ], [53.71623682975769]
[15.4 20.  50. ], [53.87258243560791]
[15.2 20.  50. ], [54.022252321243286]
[15. 20. 50.], [54.189146995544434]
[14.8 20.  50. ], [54.354453325271606]
[14.6 20.  50. ], [54.50376009941101]
[14.4 20.  50. ], [54.68455386161804]
[14.2 20.  50. ], [54.834951639175415]
[14. 20. 50.], [54.98542094230652]
[13.8 20.  50. ], [55.1761634349823]
[13.6 20.  50. ], [55.325905323028564]
[13.4 20.  50. ], [55.48070549964905]
[13.2 20.  50. ], [55.62875318527222]
[13. 20. 50.], [55.77845644950867]
[12.8 20.  50. ], [55.94013857841492]
[12.6 20.  50. ], [56.09007811546326]
[12.4 20.  50. ], [56.24238157272339]
[12.2 20.  50. ], [56.39607882499695]
[12. 20. 50.], [56.545602560043335]
[11.8 20.  50. ], [56.69518756866455]
[11.6 20.  50. ], [56.844457149505615]
[11.4 20.  50. ], [57.05034780502319]
[11.2 20.  50. ], [57.27217650413513]
[11. 20. 50.], [57.4227511882782]
[10.8 20.  50. ], [57.57087564468384]
[10.6 20.  50. ], [57.72145938873291]
[10.4 20.  50. ], [57.912683963775635]
[10.2 20.  50. ], [58.100200176239014]
[10. 20. 50.], [58.249703884124756]
[ 9.8 20.  50. ], [58.40329623222351]
[ 9.6 20.  50. ], [58.56643271446228]
[ 9.4 20.  50. ], [58.718602895736694]
[ 9.2 20.  50. ], [58.87129521369934]
[ 9. 20. 50.], [59.022804737091064]
[ 8.8 20.  50. ], [59.17535424232483]
[ 8.6 20.  50. ], [59.32705473899841]
[ 8.4 20.  50. ], [59.513432264328]
[ 8.2 20.  50. ], [59.665729999542236]
[ 8. 20. 50.], [59.819822788238525]
[ 7.8 20.  50. ], [59.97184705734253]
[ 7.6 20.  50. ], [60.123629093170166]
[ 7.4 20.  50. ], [60.27453637123108]
[ 7.2 20.  50. ], [60.44521522521973]
[ 7. 20. 50.], [60.60060715675354]
[ 6.8 20.  50. ], [60.778820276260376]
[ 6.6 20.  50. ], [60.95379567146301]
[ 6.4 20.  50. ], [61.1110417842865]
[ 6.2 20.  50. ], [61.26281499862671]
[ 6. 20. 50.], [61.41494584083557]
[ 5.8 20.  50. ], [61.56792879104614]
[ 5.6 20.  50. ], [61.720454931259155]
[ 5.4 20.  50. ], [61.902063608169556]
[ 5.2 20.  50. ], [62.08634066581726]
[ 5. 20. 50.], [62.23827767372131]
[ 4.8 20.  50. ], [62.387906074523926]
[ 4.6 20.  50. ], [62.53932332992554]
[ 4.4 20.  50. ], [62.68918299674988]
[ 4.2 20.  50. ], [62.87045073509216]
[ 4. 20. 50.], [63.020469665527344]
[ 3.8 20.  50. ], [63.16991829872131]
[ 3.6 20.  50. ], [63.319920778274536]
[ 3.4 20.  50. ], [63.471835136413574]
[ 3.2 20.  50. ], [63.62149238586426]
[ 3. 20. 50.], [63.806644439697266]
[ 2.8 20.  50. ], [63.95923614501953]
[ 2.6 20.  50. ], [64.11001563072205]
[ 2.4 20.  50. ], [64.26229286193848]
[ 2.2 20.  50. ], [64.41823363304138]
[ 2. 20. 50.], [64.57390832901001]
[ 1.8 20.  50. ], [64.72552227973938]
[ 1.6 20.  50. ], [64.91105127334595]
[ 1.4 20.  50. ], [65.06258273124695]
[ 1.2 20.  50. ], [65.21831774711609]
[ 1. 20. 50.], [65.40114188194275]
[ 0.8 20.  50. ], [65.5503101348877]
[ 0.6 20.  50. ], [65.69998908042908]
[ 0.4 20.  50. ], [65.84800696372986]
[ 0.2 20.  50. ], [66.00212001800537]
[3.75810494e-14 2.00000000e+01 5.00000000e+01], [66.16986560821533]
[-0.2 20.  50. ], [66.321533203125]
[-0.4 20.  50. ], [66.47493577003479]
[-0.6 20.  50. ], [66.65474653244019]
[-0.8 20.  50. ], [66.82939124107361]
[-1. 20. 50.], [67.00144004821777]
[-1.2 20.  50. ], [67.15460562705994]
[-1.4 20.  50. ], [67.30957865715027]
[-1.6 20.  50. ], [67.46238732337952]
[-1.8 20.  50. ], [67.61619329452515]
[-2. 20. 50.], [67.76859712600708]
[-2.2 20.  50. ], [67.91939806938171]
[-2.4 20.  50. ], [68.06879544258118]
[-2.6 20.  50. ], [68.22132301330566]
[-2.8 20.  50. ], [68.37112879753113]
[-3. 20. 50.], [68.52164387702942]
[-3.2 20.  50. ], [68.67069935798645]
[-3.4 20.  50. ], [68.82009649276733]
[-3.6 20.  50. ], [68.97230458259583]
[-3.8 20.  50. ], [69.12571215629578]
[-4. 20. 50.], [69.27607607841492]
[-4.2 20.  50. ], [69.42595863342285]
[-4.4 20.  50. ], [69.61275935173035]
[-4.6 20.  50. ], [69.80730032920837]
[-4.8 20.  50. ], [69.95742154121399]
[-5. 20. 50.], [70.1092300415039]
[-5.2 20.  50. ], [70.26056003570557]
[-5.4 20.  50. ], [70.4117214679718]
[-5.6 20.  50. ], [70.57726073265076]
[-5.8 20.  50. ], [70.72678971290588]
[-6. 20. 50.], [70.8768527507782]
[-6.2 20.  50. ], [71.02812623977661]
[-6.4 20.  50. ], [71.17905354499817]
[-6.6 20.  50. ], [71.33486318588257]
[-6.8 20.  50. ], [71.48502779006958]
[-7. 20. 50.], [71.63537001609802]
[-7.2 20.  50. ], [71.78527927398682]
[-7.4 20.  50. ], [71.93669247627258]
[-7.6 20.  50. ], [72.08661532402039]
[-7.8 20.  50. ], [72.23749542236328]
[-8. 20. 50.], [72.38888216018677]
[-8.2 20.  50. ], [72.53960990905762]
[-8.4 20.  50. ], [72.6884114742279]
[-8.6 20.  50. ], [72.83748030662537]
[-8.8 20.  50. ], [72.98635768890381]
[-9. 20. 50.], [73.13515853881836]
[-9.2 20.  50. ], [73.28448557853699]
[-9.4 20.  50. ], [73.46183943748474]
[-9.6 20.  50. ], [73.6120913028717]
[-9.8 20.  50. ], [73.76245927810669]
[-10.  20.  50.], [73.93956160545349]
[-10.2  20.   50. ], [74.08961820602417]
[-10.4  20.   50. ], [74.26423454284668]
[-10.6  20.   50. ], [74.4143168926239]
[-10.8  20.   50. ], [74.59366226196289]
[-11.  20.  50.], [74.76772618293762]
[-11.2  20.   50. ], [74.91791558265686]
[-11.4  20.   50. ], [75.09965300559998]
[-11.6  20.   50. ], [75.25140738487244]
[-11.8  20.   50. ], [75.40317678451538]
[-12.  20.  50.], [75.55487895011902]
[-12.2  20.   50. ], [75.73085379600525]
[-12.4  20.   50. ], [75.88163042068481]
[-12.6  20.   50. ], [76.03132343292236]
[-12.8  20.   50. ], [76.18136477470398]
[-13.  20.  50.], [76.32968640327454]
[-13.2  20.   50. ], [76.48123955726624]
[-13.4  20.   50. ], [76.63032388687134]
[-13.6  20.   50. ], [76.77839374542236]
[-13.8  20.   50. ], [76.92876696586609]
[-14.  20.  50.], [77.07850384712219]
[-14.2  20.   50. ], [77.23092341423035]
[-14.4  20.   50. ], [77.38210010528564]
[-14.6  20.   50. ], [77.53256678581238]
[-14.8  20.   50. ], [77.68210577964783]
[-15.  20.  50.], [77.83194756507874]
[-15.2  20.   50. ], [77.98210096359253]
[-15.4  20.   50. ], [78.13232374191284]
[-15.6  20.   50. ], [78.28201270103455]
[-15.8  20.   50. ], [78.43163728713989]
[-16.  20.  50.], [78.58116936683655]
[-16.2  20.   50. ], [78.76329517364502]
[-16.4  20.   50. ], [78.92300605773926]
[-16.6  20.   50. ], [79.07321119308472]
[-16.8  20.   50. ], [79.22350835800171]
[-17.  20.  50.], [79.37403869628906]
[-17.2  20.   50. ], [79.52487421035767]
[-17.4  20.   50. ], [79.67445921897888]
[-17.6  20.   50. ], [79.8264434337616]
[-17.8  20.   50. ], [79.97584843635559]
[-18.  20.  50.], [80.16961717605591]
[-18.2  20.   50. ], [80.31985521316528]
[-18.4  20.   50. ], [80.47199869155884]
[-18.6  20.   50. ], [80.62942457199097]
[-18.8  20.   50. ], [80.80998110771179]
[-19.  20.  50.], [80.95913696289062]
[-19.2  20.   50. ], [81.10900807380676]
[-19.4  20.   50. ], [81.30049562454224]
[-19.6  20.   50. ], [81.45980215072632]
[-19.8  20.   50. ], [81.61109066009521]
[-20.  20.  50.], [81.75992465019226]
[-20.   19.8  50. ], [81.91002464294434]
[-20.   19.6  50. ], [82.05991125106812]
[-20.   19.4  50. ], [82.2105131149292]
[-20.   19.2  50. ], [82.36012363433838]
[-20.  19.  50.], [82.50978517532349]
[-20.   18.8  50. ], [82.65945386886597]
[-20.   18.6  50. ], [82.81057906150818]
[-20.   18.4  50. ], [82.96023750305176]
[-20.   18.2  50. ], [83.14242625236511]
[-20.  18.  50.], [83.29282474517822]
[-20.   17.8  50. ], [83.4428915977478]
[-20.   17.6  50. ], [83.59361839294434]
[-20.   17.4  50. ], [83.74454140663147]
[-20.   17.2  50. ], [83.89435172080994]
[-20.  17.  50.], [84.07631707191467]
[-20.   16.8  50. ], [84.22626972198486]
[-20.   16.6  50. ], [84.47198152542114]
[-20.   16.4  50. ], [84.66149401664734]
[-20.   16.2  50. ], [84.84198546409607]
[-20.  16.  50.], [84.99631333351135]
[-20.   15.8  50. ], [85.15146732330322]
[-20.   15.6  50. ], [85.3012490272522]
[-20.   15.4  50. ], [85.45152449607849]
[-20.   15.2  50. ], [85.6021888256073]
[-20.  15.  50.], [85.75166416168213]
[-20.   14.8  50. ], [85.90226554870605]
[-20.   14.6  50. ], [86.05112624168396]
[-20.   14.4  50. ], [86.20251965522766]
[-20.   14.2  50. ], [86.35185074806213]
[-20.  14.  50.], [86.50339818000793]
[-20.   13.8  50. ], [86.65209412574768]
[-20.   13.6  50. ], [86.80126595497131]
[-20.   13.4  50. ], [86.95005059242249]
[-20.   13.2  50. ], [87.09944128990173]
[-20.  13.  50.], [87.24815821647644]
[-20.   12.8  50. ], [87.39670753479004]
[-20.   12.6  50. ], [87.547119140625]
[-20.   12.4  50. ], [87.69546127319336]
[-20.   12.2  50. ], [87.87441182136536]
[-20.  12.  50.], [88.02247357368469]
[-20.   11.8  50. ], [88.17165517807007]
[-20.   11.6  50. ], [88.32096552848816]
[-20.   11.4  50. ], [88.5095443725586]
[-20.   11.2  50. ], [88.70027709007263]
[-20.  11.  50.], [88.85211777687073]
[-20.   10.8  50. ], [89.00461506843567]
[-20.   10.6  50. ], [89.15410852432251]
[-20.   10.4  50. ], [89.3042209148407]
[-20.   10.2  50. ], [89.45654845237732]
[-20.  10.  50.], [89.60803580284119]
[-20.    9.8  50. ], [89.75765299797058]
[-20.    9.6  50. ], [89.9076418876648]
[-20.    9.4  50. ], [90.05979013442993]
[-20.    9.2  50. ], [90.24295926094055]
[-20.   9.  50.], [90.39357781410217]
[-20.    8.8  50. ], [90.54453873634338]
[-20.    8.6  50. ], [90.69425892829895]
[-20.    8.4  50. ], [90.84374690055847]
[-20.    8.2  50. ], [91.01927423477173]
[-20.   8.  50.], [91.17194628715515]
[-20.    7.8  50. ], [91.32171845436096]
[-20.    7.6  50. ], [91.504399061203]
[-20.    7.4  50. ], [91.65451908111572]
[-20.    7.2  50. ], [91.80413103103638]
[-20.   7.  50.], [91.95626544952393]
[-20.    6.8  50. ], [92.10658121109009]
[-20.    6.6  50. ], [92.25451588630676]
[-20.    6.4  50. ], [92.40338397026062]
[-20.    6.2  50. ], [92.55553483963013]
[-20.   6.  50.], [92.70841860771179]
[-20.    5.8  50. ], [92.8591673374176]
[-20.    5.6  50. ], [93.0096697807312]
[-20.    5.4  50. ], [93.16147422790527]
[-20.    5.2  50. ], [93.31538939476013]
[-20.   5.  50.], [93.4647376537323]
[-20.    4.8  50. ], [93.61657500267029]
[-20.    4.6  50. ], [93.83287572860718]
[-20.    4.4  50. ], [94.0104079246521]
[-20.    4.2  50. ], [94.16299057006836]
[-20.   4.  50.], [94.31389951705933]
[-20.    3.8  50. ], [94.46303701400757]
[-20.    3.6  50. ], [94.63839173316956]
[-20.    3.4  50. ], [94.78743386268616]
[-20.    3.2  50. ], [94.93738889694214]
[-20.   3.  50.], [95.0891637802124]
[-20.    2.8  50. ], [95.26900577545166]
[-20.    2.6  50. ], [95.42179131507874]
[-20.    2.4  50. ], [95.67285656929016]
[-20.    2.2  50. ], [95.82339382171631]
[-20.   2.  50.], [95.97319555282593]
[-20.    1.8  50. ], [96.1248140335083]
[-20.    1.6  50. ], [96.27479934692383]
[-20.    1.4  50. ], [96.42452669143677]
[-20.    1.2  50. ], [96.57345724105835]
[-20.   1.  50.], [96.72379422187805]
[-20.    0.8  50. ], [96.8720772266388]
[-20.    0.6  50. ], [97.04146885871887]
[-20.    0.4  50. ], [97.19343304634094]
[-20.    0.2  50. ], [97.34480118751526]
[-2.00000000e+01  3.75810494e-14  5.00000000e+01], [97.49663615226746]
[-20.   -0.2  50. ], [97.6477460861206]
[-20.   -0.4  50. ], [97.79806923866272]
[-20.   -0.6  50. ], [97.94795060157776]
[-20.   -0.8  50. ], [98.09864115715027]
[-20.  -1.  50.], [98.24870300292969]
[-20.   -1.2  50. ], [98.42493772506714]
[-20.   -1.4  50. ], [98.57926487922668]
[-20.   -1.6  50. ], [98.73210716247559]
[-20.   -1.8  50. ], [98.88746094703674]
[-20.  -2.  50.], [99.06128811836243]
[-20.   -2.2  50. ], [99.22388029098511]
[-20.   -2.4  50. ], [99.37337398529053]
[-20.   -2.6  50. ], [99.52259135246277]
[-20.   -2.8  50. ], [99.68663740158081]
[-20.  -3.  50.], [99.83809041976929]
[-20.   -3.2  50. ], [99.98929381370544]
[-20.   -3.4  50. ], [100.13947319984436]
[-20.   -3.6  50. ], [100.39268112182617]
[-20.   -3.8  50. ], [100.5555009841919]
[-20.  -4.  50.], [100.70450448989868]
[-20.   -4.2  50. ], [100.85420393943787]
[-20.   -4.4  50. ], [101.0040168762207]
[-20.   -4.6  50. ], [101.1583776473999]
[-20.   -4.8  50. ], [101.3077244758606]
[-20.  -5.  50.], [101.45621991157532]
[-20.   -5.2  50. ], [101.6058783531189]
[-20.   -5.4  50. ], [101.7553448677063]
[-20.   -5.6  50. ], [101.90471267700195]
[-20.   -5.8  50. ], [102.05365085601807]
[-20.  -6.  50.], [102.20492005348206]
[-20.   -6.2  50. ], [102.35402035713196]
[-20.   -6.4  50. ], [102.50442552566528]
[-20.   -6.6  50. ], [102.65354251861572]
[-20.   -6.8  50. ], [102.80329895019531]
[-20.  -7.  50.], [102.95244026184082]
[-20.   -7.2  50. ], [103.10238075256348]
[-20.   -7.4  50. ], [103.25127863883972]
[-20.   -7.6  50. ], [103.40068554878235]
[-20.   -7.8  50. ], [103.54982447624207]
[-20.  -8.  50.], [103.69945335388184]
[-20.   -8.2  50. ], [103.8485152721405]
[-20.   -8.4  50. ], [103.99687910079956]
[-20.   -8.6  50. ], [104.14806532859802]
[-20.   -8.8  50. ], [104.29729437828064]
[-20.  -9.  50.], [104.44760704040527]
[-20.   -9.2  50. ], [104.5972990989685]
[-20.   -9.4  50. ], [104.74765205383301]
[-20.   -9.6  50. ], [104.92537498474121]
[-20.   -9.8  50. ], [105.0760440826416]
[-20. -10.  50.], [105.2255437374115]
[-20.  -10.2  50. ], [105.37475442886353]
[-20.  -10.4  50. ], [105.52952170372009]
[-20.  -10.6  50. ], [105.67944169044495]
[-20.  -10.8  50. ], [105.83100461959839]
[-20. -11.  50.], [105.98038840293884]
[-20.  -11.2  50. ], [106.13078546524048]
[-20.  -11.4  50. ], [106.28117227554321]
[-20.  -11.6  50. ], [106.43083238601685]
[-20.  -11.8  50. ], [106.61204075813293]
[-20. -12.  50.], [106.76603269577026]
[-20.  -12.2  50. ], [106.91689896583557]
[-20.  -12.4  50. ], [107.06772422790527]
[-20.  -12.6  50. ], [107.2206678390503]
[-20.  -12.8  50. ], [107.37038278579712]
[-20. -13.  50.], [107.52079486846924]
[-20.  -13.2  50. ], [107.69761419296265]
[-20.  -13.4  50. ], [107.86160469055176]
[-20.  -13.6  50. ], [108.0121328830719]
[-20.  -13.8  50. ], [108.16262722015381]
[-20. -14.  50.], [108.31119847297668]
[-20.  -14.2  50. ], [108.46415376663208]
[-20.  -14.4  50. ], [108.61685752868652]
[-20.  -14.6  50. ], [108.76537609100342]
[-20.  -14.8  50. ], [108.91995692253113]
[-20. -15.  50.], [109.06932473182678]
[-20.  -15.2  50. ], [109.24422693252563]
[-20.  -15.4  50. ], [109.39584398269653]
[-20.  -15.6  50. ], [109.54773092269897]
[-20.  -15.8  50. ], [109.7001519203186]
[-20. -16.  50.], [109.85227370262146]
[-20.  -16.2  50. ], [110.03749465942383]
[-20.  -16.4  50. ], [110.22994685173035]
[-20.  -16.6  50. ], [110.41551542282104]
[-20.  -16.8  50. ], [110.57171559333801]
[-20. -17.  50.], [110.72328519821167]
[-20.  -17.2  50. ], [110.8749098777771]
[-20.  -17.4  50. ], [111.02710175514221]
[-20.  -17.6  50. ], [111.1806845664978]
[-20.  -17.8  50. ], [111.33169198036194]
[-20. -18.  50.], [111.48110747337341]
[-20.  -18.2  50. ], [111.66148900985718]
[-20.  -18.4  50. ], [111.8105947971344]
[-20.  -18.6  50. ], [111.9605884552002]
[-20.  -18.8  50. ], [112.10996198654175]
[-20. -19.  50.], [112.25822567939758]
[-20.  -19.2  50. ], [112.4080171585083]
[-20.  -19.4  50. ], [112.5577871799469]
[-20.  -19.6  50. ], [112.71128058433533]
[-20.  -19.8  50. ], [112.86031770706177]
[-20. -20.  50.], [113.0097553730011]
[-19.8 -20.   50. ], [113.15969729423523]
[-19.6 -20.   50. ], [113.31141066551208]
[-19.4 -20.   50. ], [113.4639585018158]
[-19.2 -20.   50. ], [113.61402034759521]
[-19. -20.  50.], [113.76342511177063]
[-18.8 -20.   50. ], [113.914395570755]
[-18.6 -20.   50. ], [114.06406426429749]
[-18.4 -20.   50. ], [114.21344327926636]
[-18.2 -20.   50. ], [114.36231923103333]
[-18. -20.  50.], [114.5415449142456]
[-17.8 -20.   50. ], [114.69004797935486]
[-17.6 -20.   50. ], [114.87954235076904]
[-17.4 -20.   50. ], [115.03659582138062]
[-17.2 -20.   50. ], [115.18883419036865]
[-17. -20.  50.], [115.3375985622406]
[-16.8 -20.   50. ], [115.49088144302368]
[-16.6 -20.   50. ], [115.64151906967163]
[-16.4 -20.   50. ], [115.79158067703247]
[-16.2 -20.   50. ], [115.9434232711792]
[-16. -20.  50.], [116.09380960464478]
[-15.8 -20.   50. ], [116.2474193572998]
[-15.6 -20.   50. ], [116.39864492416382]
[-15.4 -20.   50. ], [116.54845428466797]
[-15.2 -20.   50. ], [116.70230889320374]
[-15. -20.  50.], [116.85132956504822]
[-14.8 -20.   50. ], [117.00415396690369]
[-14.6 -20.   50. ], [117.19671964645386]
[-14.4 -20.   50. ], [117.34805464744568]
[-14.2 -20.   50. ], [117.49839401245117]
[-14. -20.  50.], [117.64772629737854]
[-13.8 -20.   50. ], [117.80012083053589]
[-13.6 -20.   50. ], [117.95321679115295]
[-13.4 -20.   50. ], [118.10277700424194]
[-13.2 -20.   50. ], [118.25167202949524]
[-13. -20.  50.], [118.40158581733704]
[-12.8 -20.   50. ], [118.55122542381287]
[-12.6 -20.   50. ], [118.70068693161011]
[-12.4 -20.   50. ], [118.85050058364868]
[-12.2 -20.   50. ], [118.9996497631073]
[-12. -20.  50.], [119.14969730377197]
[-11.8 -20.   50. ], [119.29937553405762]
[-11.6 -20.   50. ], [119.44873237609863]
[-11.4 -20.   50. ], [119.59971761703491]
[-11.2 -20.   50. ], [119.74970841407776]
[-11. -20.  50.], [119.9300000667572]
[-10.8 -20.   50. ], [120.11042809486389]
[-10.6 -20.   50. ], [120.29110670089722]
[-10.4 -20.   50. ], [120.44827651977539]
[-10.2 -20.   50. ], [120.59844660758972]
[-10. -20.  50.], [120.7475094795227]
[ -9.8 -20.   50. ], [120.89648628234863]
[ -9.6 -20.   50. ], [121.08095908164978]
[ -9.4 -20.   50. ], [121.26140475273132]
[ -9.2 -20.   50. ], [121.41087794303894]
[ -9. -20.  50.], [121.60114359855652]
[ -8.8 -20.   50. ], [121.78994536399841]
[ -8.6 -20.   50. ], [121.93966937065125]
[ -8.4 -20.   50. ], [122.09436130523682]
[ -8.2 -20.   50. ], [122.24976778030396]
[ -8. -20.  50.], [122.40121459960938]
[ -7.8 -20.   50. ], [122.58587670326233]
[ -7.6 -20.   50. ], [122.76566290855408]
[ -7.4 -20.   50. ], [122.91611170768738]
[ -7.2 -20.   50. ], [123.06544327735901]
[ -7. -20.  50.], [123.21593475341797]
[ -6.8 -20.   50. ], [123.36543107032776]
[ -6.6 -20.   50. ], [123.51574277877808]
[ -6.4 -20.   50. ], [123.6655855178833]
[ -6.2 -20.   50. ], [123.81553244590759]
[ -6. -20.  50.], [123.96415615081787]
[ -5.8 -20.   50. ], [124.11428117752075]
[ -5.6 -20.   50. ], [124.26312398910522]
[ -5.4 -20.   50. ], [124.41347289085388]
[ -5.2 -20.   50. ], [124.56472110748291]
[ -5. -20.  50.], [124.71488308906555]
[ -4.8 -20.   50. ], [124.86389756202698]
[ -4.6 -20.   50. ], [125.0134859085083]
[ -4.4 -20.   50. ], [125.201979637146]
[ -4.2 -20.   50. ], [125.36936235427856]
[ -4. -20.  50.], [125.51949834823608]
[ -3.8 -20.   50. ], [125.66869807243347]
[ -3.6 -20.   50. ], [125.85800957679749]
[ -3.4 -20.   50. ], [126.00733995437622]
[ -3.2 -20.   50. ], [126.15886902809143]
[ -3. -20.  50.], [126.30817461013794]
[ -2.8 -20.   50. ], [126.45698595046997]
[ -2.6 -20.   50. ], [126.60719013214111]
[ -2.4 -20.   50. ], [126.75689220428467]
[ -2.2 -20.   50. ], [126.94859337806702]
[ -2. -20.  50.], [127.09815812110901]
[ -1.8 -20.   50. ], [127.24647331237793]
[ -1.6 -20.   50. ], [127.39633870124817]
[ -1.4 -20.   50. ], [127.54701733589172]
[ -1.2 -20.   50. ], [127.69641733169556]
[ -1. -20.  50.], [127.84532904624939]
[ -0.8 -20.   50. ], [127.9952962398529]
[ -0.6 -20.   50. ], [128.1448736190796]
[ -0.4 -20.   50. ], [128.29401397705078]
[ -0.2 -20.   50. ], [128.4440541267395]
[ 3.76920717e-14 -2.00000000e+01  5.00000000e+01], [128.59405279159546]
[  0.2 -20.   50. ], [128.74722933769226]
[  0.4 -20.   50. ], [128.89685773849487]
[  0.6 -20.   50. ], [129.04793739318848]
[  0.8 -20.   50. ], [129.22893953323364]
[  1. -20.  50.], [129.4087507724762]
[  1.2 -20.   50. ], [129.58878779411316]
[  1.4 -20.   50. ], [129.76830577850342]
[  1.6 -20.   50. ], [129.95920515060425]
[  1.8 -20.   50. ], [130.14732122421265]
[  2. -20.  50.], [130.30726957321167]
[  2.2 -20.   50. ], [130.5048770904541]
[  2.4 -20.   50. ], [130.6754446029663]
[  2.6 -20.   50. ], [130.87691974639893]
[  2.8 -20.   50. ], [131.0608687400818]
[  3. -20.  50.], [131.2565140724182]
[  3.2 -20.   50. ], [131.4516351222992]
[  3.4 -20.   50. ], [131.64743280410767]
[  3.6 -20.   50. ], [131.84450459480286]
[  3.8 -20.   50. ], [132.03655648231506]
[  4. -20.  50.], [132.22183108329773]
[  4.2 -20.   50. ], [132.36934161186218]
[  4.4 -20.   50. ], [132.54989004135132]
[  4.6 -20.   50. ], [132.69858169555664]
[  4.8 -20.   50. ], [132.88914561271667]
[  5. -20.  50.], [133.04218888282776]
[  5.2 -20.   50. ], [133.19214630126953]
[  5.4 -20.   50. ], [133.34097838401794]
[  5.6 -20.   50. ], [133.48984026908875]
[  5.8 -20.   50. ], [133.64237904548645]
[  6. -20.  50.], [133.79002285003662]
[  6.2 -20.   50. ], [133.94593024253845]
[  6.4 -20.   50. ], [134.10043263435364]
[  6.6 -20.   50. ], [134.26236748695374]
[  6.8 -20.   50. ], [134.41866612434387]
[  7. -20.  50.], [134.5745279788971]
[  7.2 -20.   50. ], [134.72703051567078]
[  7.4 -20.   50. ], [134.98335552215576]
[  7.6 -20.   50. ], [135.13258600234985]
[  7.8 -20.   50. ], [135.28130459785461]
[  8. -20.  50.], [135.4311649799347]
[  8.2 -20.   50. ], [135.5819456577301]
[  8.4 -20.   50. ], [135.80368900299072]
[  8.6 -20.   50. ], [135.95523500442505]
[  8.8 -20.   50. ], [136.1476788520813]
[  9. -20.  50.], [136.29828929901123]
[  9.2 -20.   50. ], [136.49070358276367]
[  9.4 -20.   50. ], [136.67497038841248]
[  9.6 -20.   50. ], [136.8254611492157]
[  9.8 -20.   50. ], [136.978209733963]
[ 10. -20.  50.], [137.16344499588013]
[ 10.2 -20.   50. ], [137.31486248970032]
[ 10.4 -20.   50. ], [137.4667673110962]
[ 10.6 -20.   50. ], [137.61743140220642]
[ 10.8 -20.   50. ], [137.76904201507568]
[ 11. -20.  50.], [137.92003273963928]
[ 11.2 -20.   50. ], [138.1061315536499]
[ 11.4 -20.   50. ], [138.2592670917511]
[ 11.6 -20.   50. ], [138.411278963089]
[ 11.8 -20.   50. ], [138.56469011306763]
[ 12. -20.  50.], [138.71616506576538]
[ 12.2 -20.   50. ], [138.86847972869873]
[ 12.4 -20.   50. ], [139.02038621902466]
[ 12.6 -20.   50. ], [139.17684197425842]
[ 12.8 -20.   50. ], [139.32858109474182]
[ 13. -20.  50.], [139.48297691345215]
[ 13.2 -20.   50. ], [139.6313660144806]
[ 13.4 -20.   50. ], [139.78184151649475]
[ 13.6 -20.   50. ], [139.92956113815308]
[ 13.8 -20.   50. ], [140.07874274253845]
[ 14. -20.  50.], [140.22771501541138]
[ 14.2 -20.   50. ], [140.37601327896118]
[ 14.4 -20.   50. ], [140.56723427772522]
[ 14.6 -20.   50. ], [140.7156572341919]
[ 14.8 -20.   50. ], [140.86463284492493]
[ 15. -20.  50.], [141.0121510028839]
[ 15.2 -20.   50. ], [141.16183948516846]
[ 15.4 -20.   50. ], [141.31066584587097]
[ 15.6 -20.   50. ], [141.4655659198761]
[ 15.8 -20.   50. ], [141.64553952217102]
[ 16. -20.  50.], [141.8303415775299]
[ 16.2 -20.   50. ], [142.01884818077087]
[ 16.4 -20.   50. ], [142.20639371871948]
[ 16.6 -20.   50. ], [142.36966824531555]
[ 16.8 -20.   50. ], [142.55740642547607]
[ 17. -20.  50.], [142.74881863594055]
[ 17.2 -20.   50. ], [142.9098997116089]
[ 17.4 -20.   50. ], [143.08458161354065]
[ 17.6 -20.   50. ], [143.25943183898926]
[ 17.8 -20.   50. ], [143.4490144252777]
[ 18. -20.  50.], [143.66353940963745]
[ 18.2 -20.   50. ], [143.85299968719482]
[ 18.4 -20.   50. ], [144.0108630657196]
[ 18.6 -20.   50. ], [144.19026565551758]
[ 18.8 -20.   50. ], [144.34303522109985]
[ 19. -20.  50.], [144.50134468078613]
[ 19.2 -20.   50. ], [144.64915919303894]
[ 19.4 -20.   50. ], [144.7996747493744]
[ 19.6 -20.   50. ], [144.97292828559875]
[ 19.8 -20.   50. ], [145.1280357837677]
[ 20. -20.  50.], [145.28249144554138]
[ 20.  -19.8  50. ], [145.4482982158661]
[ 20.  -19.6  50. ], [145.61555695533752]
[ 20.  -19.4  50. ], [145.77553176879883]
[ 20.  -19.2  50. ], [145.94751524925232]
[ 20. -19.  50.], [146.15785813331604]
[ 20.  -18.8  50. ], [146.3806917667389]
[ 20.  -18.6  50. ], [146.56920790672302]
[ 20.  -18.4  50. ], [146.75096774101257]
[ 20.  -18.2  50. ], [146.95148587226868]
[ 20. -18.  50.], [147.12672972679138]
[ 20.  -17.8  50. ], [147.3057553768158]
[ 20.  -17.6  50. ], [147.509286403656]
[ 20.  -17.4  50. ], [147.7033007144928]
[ 20.  -17.2  50. ], [147.9109194278717]
[ 20. -17.  50.], [148.08488845825195]
[ 20.  -16.8  50. ], [148.2823576927185]
[ 20.  -16.6  50. ], [148.4771535396576]
[ 20.  -16.4  50. ], [148.64341282844543]
[ 20.  -16.2  50. ], [148.84778141975403]
[ 20. -16.  50.], [149.04038977622986]
[ 20.  -15.8  50. ], [149.22613263130188]
[ 20.  -15.6  50. ], [149.42540311813354]
[ 20.  -15.4  50. ], [149.60675954818726]
[ 20.  -15.2  50. ], [149.7905535697937]
[ 20. -15.  50.], [149.95741271972656]
[ 20.  -14.8  50. ], [150.1366446018219]
[ 20.  -14.6  50. ], [150.3305094242096]
[ 20.  -14.4  50. ], [150.54245162010193]
[ 20.  -14.2  50. ], [150.73459148406982]
[ 20. -14.  50.], [150.9454689025879]
[ 20.  -13.8  50. ], [151.13284540176392]
[ 20.  -13.6  50. ], [151.33416175842285]
[ 20.  -13.4  50. ], [151.50785541534424]
[ 20.  -13.2  50. ], [151.69341206550598]
[ 20. -13.  50.], [151.86820268630981]
[ 20.  -12.8  50. ], [152.04331016540527]
[ 20.  -12.6  50. ], [152.21803522109985]
[ 20.  -12.4  50. ], [152.41142988204956]
[ 20.  -12.2  50. ], [152.60436820983887]
[ 20. -12.  50.], [152.76791214942932]
[ 20.  -11.8  50. ], [152.9300835132599]
[ 20.  -11.6  50. ], [153.0977816581726]
[ 20.  -11.4  50. ], [153.26424098014832]
[ 20.  -11.2  50. ], [153.4510142803192]
[ 20. -11.  50.], [153.64779925346375]
[ 20.  -10.8  50. ], [153.84604263305664]
[ 20.  -10.6  50. ], [154.04013204574585]
[ 20.  -10.4  50. ], [154.23256158828735]
[ 20.  -10.2  50. ], [154.3980028629303]
[ 20. -10.  50.], [154.5712068080902]
[20.  -9.8 50. ], [154.72245812416077]
[20.  -9.6 50. ], [154.87086272239685]
[20.  -9.4 50. ], [155.02058935165405]
[20.  -9.2 50. ], [155.1730761528015]
[20. -9. 50.], [155.3258490562439]
[20.  -8.8 50. ], [155.47975516319275]
[20.  -8.6 50. ], [155.6309335231781]
[20.  -8.4 50. ], [155.78383445739746]
[20.  -8.2 50. ], [155.9940083026886]
[20. -8. 50.], [156.23379158973694]
[20.  -7.8 50. ], [156.4151725769043]
[20.  -7.6 50. ], [156.56913471221924]
[20.  -7.4 50. ], [156.72140169143677]
[20.  -7.2 50. ], [156.8733251094818]
[20. -7. 50.], [157.06427121162415]
[20.  -6.8 50. ], [157.21838426589966]
[20.  -6.6 50. ], [157.36984372138977]
[20.  -6.4 50. ], [157.5227119922638]
[20.  -6.2 50. ], [157.6744418144226]
[20. -6. 50.], [157.86278772354126]
[20.  -5.8 50. ], [158.05192041397095]
[20.  -5.6 50. ], [158.20508098602295]
[20.  -5.4 50. ], [158.3546347618103]
[20.  -5.2 50. ], [158.50865602493286]
[20. -5. 50.], [158.66008377075195]
[20.  -4.8 50. ], [158.81575202941895]
[20.  -4.6 50. ], [158.9714925289154]
[20.  -4.4 50. ], [159.1238842010498]
[20.  -4.2 50. ], [159.27875542640686]
[20. -4. 50.], [159.43307209014893]
[20.  -3.8 50. ], [159.58805871009827]
[20.  -3.6 50. ], [159.73599243164062]
[20.  -3.4 50. ], [159.89292812347412]
[20.  -3.2 50. ], [160.04255294799805]
[20. -3. 50.], [160.19973349571228]
[20.  -2.8 50. ], [160.34744596481323]
[20.  -2.6 50. ], [160.49890995025635]
[20.  -2.4 50. ], [160.64720821380615]
[20.  -2.2 50. ], [160.80464625358582]
[20. -2. 50.], [160.95837116241455]
[20.  -1.8 50. ], [161.10814499855042]
[20.  -1.6 50. ], [161.26379871368408]
[20.  -1.4 50. ], [161.4144904613495]
[20.  -1.2 50. ], [161.5649893283844]
[20. -1. 50.], [161.7448329925537]
[20.  -0.8 50. ], [161.92580842971802]
[20.  -0.6 50. ], [162.07428979873657]
[20.  -0.4 50. ], [162.2636363506317]
[20.  -0.2 50. ], [162.41276741027832]
[2.00000000e+01 3.76920717e-14 5.00000000e+01], [162.5627052783966]
[20.   0.2 50. ], [162.71150875091553]
[20.   0.4 50. ], [162.9039568901062]
[20.   0.6 50. ], [163.08694744110107]
[20.   0.8 50. ], [163.26786828041077]
[20.  1. 50.], [163.4164514541626]
[20.   1.2 50. ], [163.56613278388977]
[20.   1.4 50. ], [163.71480298042297]
[20.   1.6 50. ], [163.89678144454956]
[20.   1.8 50. ], [164.07763361930847]
[20.  2. 50.], [164.22831678390503]
[20.   2.2 50. ], [164.37780380249023]
[20.   2.4 50. ], [164.52693033218384]
[20.   2.6 50. ], [164.67606735229492]
[20.   2.8 50. ], [164.82491636276245]
[20.  3. 50.], [164.97515058517456]
[20.   3.2 50. ], [165.12504076957703]
[20.   3.4 50. ], [165.27389812469482]
[20.   3.6 50. ], [165.4226188659668]
[20.   3.8 50. ], [165.57574796676636]
[20.  4. 50.], [165.72426652908325]
[20.   4.2 50. ], [165.87405610084534]
[20.   4.4 50. ], [166.02361464500427]
[20.   4.6 50. ], [166.17388248443604]
[20.   4.8 50. ], [166.35440325737]
[20.  5. 50.], [166.5070812702179]
[20.   5.2 50. ], [166.65677452087402]
[20.   5.4 50. ], [166.80727767944336]
[20.   5.6 50. ], [166.95681428909302]
[20.   5.8 50. ], [167.10721039772034]
[20.  6. 50.], [167.29646563529968]
[20.   6.2 50. ], [167.44567465782166]
[20.   6.4 50. ], [167.59589385986328]
[20.   6.6 50. ], [167.74587535858154]
[20.   6.8 50. ], [167.9346535205841]
[20.  7. 50.], [168.0842080116272]
[20.   7.2 50. ], [168.23480343818665]
[20.   7.4 50. ], [168.38333678245544]
[20.   7.6 50. ], [168.53209972381592]
[20.   7.8 50. ], [168.68090677261353]
[20.  8. 50.], [168.8297905921936]
[20.   8.2 50. ], [168.98029732704163]
[20.   8.4 50. ], [169.12876152992249]
[20.   8.6 50. ], [169.2781856060028]
[20.   8.8 50. ], [169.42615246772766]
[20.  9. 50.], [169.57580590248108]
[20.   9.2 50. ], [169.72381949424744]
[20.   9.4 50. ], [169.87296438217163]
[20.   9.6 50. ], [170.02222800254822]
[20.   9.8 50. ], [170.17123246192932]
[20. 10. 50.], [170.32019662857056]
[20.  10.2 50. ], [170.47079515457153]
[20.  10.4 50. ], [170.62538719177246]
[20.  10.6 50. ], [170.77598404884338]
[20.  10.8 50. ], [170.92730593681335]
[20. 11. 50.], [171.0768506526947]
[20.  11.2 50. ], [171.2303168773651]
[20.  11.4 50. ], [171.37886691093445]
[20.  11.6 50. ], [171.5279896259308]
[20.  11.8 50. ], [171.67597794532776]
[20. 12. 50.], [171.82501125335693]
[20.  12.2 50. ], [171.97318530082703]
[20.  12.4 50. ], [172.12295150756836]
[20.  12.6 50. ], [172.3034164905548]
[20.  12.8 50. ], [172.4839415550232]
[20. 13. 50.], [172.63254117965698]
[20.  13.2 50. ], [172.82151889801025]
[20.  13.4 50. ], [172.96944999694824]
[20.  13.6 50. ], [173.1490342617035]
[20.  13.8 50. ], [173.29976963996887]
[20. 14. 50.], [173.44862508773804]
[20.  14.2 50. ], [173.63315057754517]
[20.  14.4 50. ], [173.7823088169098]
[20.  14.6 50. ], [173.93109726905823]
[20.  14.8 50. ], [174.0827808380127]
[20. 15. 50.], [174.23487329483032]
[20.  15.2 50. ], [174.427255153656]
[20.  15.4 50. ], [174.57896327972412]
[20.  15.6 50. ], [174.75895261764526]
[20.  15.8 50. ], [174.9107482433319]
[20. 16. 50.], [175.06232213974]
[20.  16.2 50. ], [175.21484661102295]
[20.  16.4 50. ], [175.36534214019775]
[20.  16.6 50. ], [175.520605802536]
[20.  16.8 50. ], [175.6722731590271]
[20. 17. 50.], [175.8254735469818]
[20.  17.2 50. ], [175.97726583480835]
[20.  17.4 50. ], [176.13170433044434]
[20.  17.6 50. ], [176.28361892700195]
[20.  17.8 50. ], [176.43500185012817]
[20. 18. 50.], [176.58712077140808]
[20.  18.2 50. ], [176.73952436447144]
[20.  18.4 50. ], [176.92454838752747]
[20.  18.6 50. ], [177.07613611221313]
[20.  18.8 50. ], [177.23128128051758]
[20. 19. 50.], [177.38317394256592]
[20.  19.2 50. ], [177.53699588775635]
[20.  19.4 50. ], [177.72948694229126]
[20.  19.6 50. ], [177.9149227142334]
[20.  19.8 50. ], [178.06662464141846]
[20. 20. 50.], [178.22045969963074]
[19.8 20.  50. ], [178.37141394615173]
[19.6 20.  50. ], [178.56548881530762]
[19.4 20.  50. ], [178.71804976463318]
[19.2 20.  50. ], [178.86898636817932]
[19. 20. 50.], [179.02139472961426]
[18.8 20.  50. ], [179.1730375289917]
[18.6 20.  50. ], [179.32503819465637]
[18.4 20.  50. ], [179.47617292404175]
[18.2 20.  50. ], [179.62732768058777]
[18. 20. 50.], [179.7787709236145]
[17.8 20.  50. ], [179.9310200214386]
[17.6 20.  50. ], [180.08062601089478]
[17.4 20.  50. ], [180.2549991607666]
[17.2 20.  50. ], [180.406268119812]
[17. 20. 50.], [180.55712127685547]
[16.8 20.  50. ], [180.70917463302612]
[16.6 20.  50. ], [180.8592972755432]
[16.4 20.  50. ], [181.01097512245178]
[16.2 20.  50. ], [181.16261458396912]
[16. 20. 50.], [181.31310200691223]
[15.8 20.  50. ], [181.46558666229248]
[15.6 20.  50. ], [181.61551022529602]
[15.4 20.  50. ], [181.7669014930725]
[15.2 20.  50. ], [181.92550468444824]
[15. 20. 50.], [182.0777463912964]
[14.8 20.  50. ], [182.22864198684692]
[14.6 20.  50. ], [182.38705706596375]
[14.4 20.  50. ], [182.53715562820435]
[14.2 20.  50. ], [182.68975353240967]
[14. 20. 50.], [182.84028816223145]
[13.8 20.  50. ], [182.99032616615295]
[13.6 20.  50. ], [183.1424059867859]
[13.4 20.  50. ], [183.30040907859802]
[13.2 20.  50. ], [183.47801756858826]
[13. 20. 50.], [183.634694814682]
[12.8 20.  50. ], [183.7884395122528]
[12.6 20.  50. ], [183.93952131271362]
[12.4 20.  50. ], [184.09626865386963]
[12.2 20.  50. ], [184.2473542690277]
[12. 20. 50.], [184.39862489700317]
[11.8 20.  50. ], [184.54730010032654]
[11.6 20.  50. ], [184.69700622558594]
[11.4 20.  50. ], [184.84541034698486]
[11.2 20.  50. ], [184.99442648887634]
[11. 20. 50.], [185.14220237731934]
[10.8 20.  50. ], [185.2938756942749]
[10.6 20.  50. ], [185.44183349609375]
[10.4 20.  50. ], [185.59493827819824]
[10.2 20.  50. ], [185.7425093650818]
[10. 20. 50.], [185.89227771759033]
[ 9.8 20.  50. ], [186.0399718284607]
[ 9.6 20.  50. ], [186.19048285484314]
[ 9.4 20.  50. ], [186.33957028388977]
[ 9.2 20.  50. ], [186.4887888431549]
[ 9. 20. 50.], [186.63714289665222]
[ 8.8 20.  50. ], [186.78647184371948]
[ 8.6 20.  50. ], [186.93476390838623]
[ 8.4 20.  50. ], [187.0842740535736]
[ 8.2 20.  50. ], [187.23313403129578]
[ 8. 20. 50.], [187.38215160369873]
[ 7.8 20.  50. ], [187.52985644340515]
[ 7.6 20.  50. ], [187.67960715293884]
[ 7.4 20.  50. ], [187.83293533325195]
[ 7.2 20.  50. ], [188.02291464805603]
[ 7. 20. 50.], [188.17224764823914]
[ 6.8 20.  50. ], [188.32093691825867]
[ 6.6 20.  50. ], [188.4721314907074]
[ 6.4 20.  50. ], [188.62106013298035]
[ 6.2 20.  50. ], [188.7706959247589]
[ 6. 20. 50.], [188.91967844963074]
[ 5.8 20.  50. ], [189.1139576435089]
[ 5.6 20.  50. ], [189.2651538848877]
[ 5.4 20.  50. ], [189.4538290500641]
[ 5.2 20.  50. ], [189.6362760066986]
[ 5. 20. 50.], [189.78950262069702]
[ 4.8 20.  50. ], [189.9398910999298]
[ 4.6 20.  50. ], [190.0887815952301]
[ 4.4 20.  50. ], [190.2432222366333]
[ 4.2 20.  50. ], [190.39485836029053]
[ 4. 20. 50.], [190.57454919815063]
[ 3.8 20.  50. ], [190.74862718582153]
[ 3.6 20.  50. ], [190.90292310714722]
[ 3.4 20.  50. ], [191.05425095558167]
[ 3.2 20.  50. ], [191.2063398361206]
[ 3. 20. 50.], [191.35850024223328]
[ 2.8 20.  50. ], [191.5106382369995]
[ 2.6 20.  50. ], [191.66979575157166]
[ 2.4 20.  50. ], [191.82235765457153]
[ 2.2 20.  50. ], [191.9756109714508]
[ 2. 20. 50.], [192.12783646583557]
[ 1.8 20.  50. ], [192.2806327342987]
[ 1.6 20.  50. ], [192.43265676498413]
[ 1.4 20.  50. ], [192.6189169883728]
[ 1.2 20.  50. ], [192.80729007720947]
[ 1. 20. 50.], [192.96002626419067]
[ 0.8 20.  50. ], [193.1152958869934]
[ 0.6 20.  50. ], [193.30181121826172]
[ 0.4 20.  50. ], [193.4543662071228]
[ 0.2 20.  50. ], [193.60788869857788]
[3.75810494e-14 2.00000000e+01 5.00000000e+01], [193.76012802124023]
[-0.2 20.  50. ], [193.9127447605133]
[-0.4 20.  50. ], [194.06387734413147]
[-0.6 20.  50. ], [194.21506905555725]
[-0.8 20.  50. ], [194.36665153503418]
[-1. 20. 50.], [194.5190408229828]
[-1.2 20.  50. ], [194.70540118217468]
[-1.4 20.  50. ], [194.89830327033997]
[-1.6 20.  50. ], [195.0494420528412]
[-1.8 20.  50. ], [195.201101064682]
[-2. 20. 50.], [195.35232496261597]
[-2.2 20.  50. ], [195.5041515827179]
[-2.4 20.  50. ], [195.6558177471161]
[-2.6 20.  50. ], [195.80774998664856]
[-2.8 20.  50. ], [195.96437072753906]
[-3. 20. 50.], [196.11598229408264]
[-3.2 20.  50. ], [196.2693223953247]
[-3.4 20.  50. ], [196.42240166664124]
[-3.6 20.  50. ], [196.57299637794495]
[-3.8 20.  50. ], [196.72441458702087]
[-4. 20. 50.], [196.87422561645508]
[-4.2 20.  50. ], [197.02526783943176]
[-4.4 20.  50. ], [197.17749667167664]
[-4.6 20.  50. ], [197.33023977279663]
[-4.8 20.  50. ], [197.4814534187317]
[-5. 20. 50.], [197.63398218154907]
[-5.2 20.  50. ], [197.78908586502075]
[-5.4 20.  50. ], [197.940767288208]
[-5.6 20.  50. ], [198.13171339035034]
[-5.8 20.  50. ], [198.28609681129456]
[-6. 20. 50.], [198.43724822998047]
[-6.2 20.  50. ], [198.58891010284424]
[-6.4 20.  50. ], [198.73675775527954]
[-6.6 20.  50. ], [198.9198989868164]
[-6.8 20.  50. ], [199.06656551361084]
[-7. 20. 50.], [199.24542450904846]
[-7.2 20.  50. ], [199.42579317092896]
[-7.4 20.  50. ], [199.60065984725952]
[-7.6 20.  50. ], [199.74775791168213]
[-7.8 20.  50. ], [199.8948895931244]
[-8. 20. 50.], [200.04601287841797]
[-8.2 20.  50. ], [200.2017035484314]
[-8.4 20.  50. ], [200.3492395877838]
[-8.6 20.  50. ], [200.53844833374023]
[-8.8 20.  50. ], [200.68694043159485]
[-9. 20. 50.], [200.8349804878235]
[-9.2 20.  50. ], [200.98458623886108]
[-9.4 20.  50. ], [201.13413333892822]
[-9.6 20.  50. ], [201.2866005897522]
[-9.8 20.  50. ], [201.43766260147095]
[-10.  20.  50.], [201.58879232406616]
[-10.2  20.   50. ], [201.7393262386322]
[-10.4  20.   50. ], [201.89080142974854]
[-10.6  20.   50. ], [202.04148316383362]
[-10.8  20.   50. ], [202.1938579082489]
[-11.  20.  50.], [202.34126949310303]
[-11.2  20.   50. ], [202.49252581596375]
[-11.4  20.   50. ], [202.66768097877502]
[-11.6  20.   50. ], [202.85058212280273]
[-11.8  20.   50. ], [203.00037503242493]
[-12.  20.  50.], [203.152508020401]
[-12.2  20.   50. ], [203.34588646888733]
[-12.4  20.   50. ], [203.49447774887085]
[-12.6  20.   50. ], [203.6452305316925]
[-12.8  20.   50. ], [203.7985818386078]
[-13.  20.  50.], [203.94725251197815]
[-13.2  20.   50. ], [204.1368534564972]
[-13.4  20.   50. ], [204.2907567024231]
[-13.6  20.   50. ], [204.4389464855194]
[-13.8  20.   50. ], [204.58936142921448]
[-14.  20.  50.], [204.73838019371033]
[-14.2  20.   50. ], [204.92840194702148]
[-14.4  20.   50. ], [205.0770173072815]
[-14.6  20.   50. ], [205.22607398033142]
[-14.8  20.   50. ], [205.40736508369446]
[-15.  20.  50.], [205.56147527694702]
[-15.2  20.   50. ], [205.71664476394653]
[-15.4  20.   50. ], [205.8720190525055]
[-15.6  20.   50. ], [206.02454042434692]
[-15.8  20.   50. ], [206.18035435676575]
[-16.  20.  50.], [206.33073782920837]
[-16.2  20.   50. ], [206.48375797271729]
[-16.4  20.   50. ], [206.63496661186218]
[-16.6  20.   50. ], [206.78761196136475]
[-16.8  20.   50. ], [206.93781304359436]
[-17.  20.  50.], [207.13156843185425]
[-17.2  20.   50. ], [207.28500938415527]
[-17.4  20.   50. ], [207.43586611747742]
[-17.6  20.   50. ], [207.5891981124878]
[-17.8  20.   50. ], [207.73662304878235]
[-18.  20.  50.], [207.886239528656]
[-18.2  20.   50. ], [208.06892609596252]
[-18.4  20.   50. ], [208.22095894813538]
[-18.6  20.   50. ], [208.4112184047699]
[-18.8  20.   50. ], [208.59491157531738]
[-19.  20.  50.], [208.7456398010254]
[-19.2  20.   50. ], [208.89953112602234]
[-19.4  20.   50. ], [209.04847526550293]
[-19.6  20.   50. ], [209.20302057266235]
[-19.8  20.   50. ], [209.3537073135376]
[-20.  20.  50.], [209.50565195083618]
[-20.   19.8  50. ], [209.65650272369385]
[-20.   19.6  50. ], [209.8135211467743]
[-20.   19.4  50. ], [209.9650022983551]
[-20.   19.2  50. ], [210.15331768989563]
[-20.  19.  50.], [210.30701899528503]
[-20.   18.8  50. ], [210.45995140075684]
[-20.   18.6  50. ], [210.618714094162]
[-20.   18.4  50. ], [210.76935029029846]
[-20.   18.2  50. ], [210.91934204101562]
[-20.  18.  50.], [211.06746292114258]
[-20.   17.8  50. ], [211.21972489356995]
[-20.   17.6  50. ], [211.36690759658813]
[-20.   17.4  50. ], [211.51671314239502]
[-20.   17.2  50. ], [211.66865944862366]
[-20.  17.  50.], [211.82027173042297]
[-20.   16.8  50. ], [211.97063088417053]
[-20.   16.6  50. ], [212.12378406524658]
[-20.   16.4  50. ], [212.2754271030426]
[-20.   16.2  50. ], [212.42636251449585]
[-20.  16.  50.], [212.5954785346985]
[-20.   15.8  50. ], [212.743882894516]
[-20.   15.6  50. ], [212.89214205741882]
[-20.   15.4  50. ], [213.04292798042297]
[-20.   15.2  50. ], [213.23751163482666]
[-20.  15.  50.], [213.3853144645691]
[-20.   14.8  50. ], [213.5355613231659]
[-20.   14.6  50. ], [213.68667721748352]
[-20.   14.4  50. ], [213.83745455741882]
[-20.   14.2  50. ], [213.98563432693481]
[-20.  14.  50.], [214.21436309814453]
[-20.   13.8  50. ], [214.36471319198608]
[-20.   13.6  50. ], [214.51432156562805]
[-20.   13.4  50. ], [214.66525793075562]
[-20.   13.2  50. ], [214.81628036499023]
[-20.  13.  50.], [214.9912588596344]
[-20.   12.8  50. ], [215.14288187026978]
[-20.   12.6  50. ], [215.29528975486755]
[-20.   12.4  50. ], [215.44299459457397]
[-20.   12.2  50. ], [215.5954623222351]
[-20.  12.  50.], [215.74442219734192]
[-20.   11.8  50. ], [215.89622282981873]
[-20.   11.6  50. ], [216.04374599456787]
[-20.   11.4  50. ], [216.22803711891174]
[-20.   11.2  50. ], [216.38154077529907]
[-20.  11.  50.], [216.53336310386658]
[-20.   10.8  50. ], [216.6822805404663]
[-20.   10.6  50. ], [216.83231806755066]
[-20.   10.4  50. ], [216.97989463806152]
[-20.   10.2  50. ], [217.12733697891235]
[-20.  10.  50.], [217.28257203102112]
[-20.    9.8  50. ], [217.42919659614563]
[-20.    9.6  50. ], [217.57837200164795]
[-20.    9.4  50. ], [217.72479462623596]
[-20.    9.2  50. ], [217.90326976776123]
[-20.   9.  50.], [218.05198907852173]
[-20.    8.8  50. ], [218.20289945602417]
[-20.    8.6  50. ], [218.35145115852356]
[-20.    8.4  50. ], [218.49837732315063]
[-20.    8.2  50. ], [218.67707443237305]
[-20.   8.  50.], [218.82394671440125]
[-20.    7.8  50. ], [218.97114944458008]
[-20.    7.6  50. ], [219.1183602809906]
[-20.    7.4  50. ], [219.3068971633911]
[-20.    7.2  50. ], [219.48093152046204]
[-20.   7.  50.], [219.66545176506042]
[-20.    6.8  50. ], [219.84179091453552]
[-20.    6.6  50. ], [219.99015879631042]
[-20.    6.4  50. ], [220.13824844360352]
[-20.    6.2  50. ], [220.29452347755432]
[-20.   6.  50.], [220.44950532913208]
[-20.    5.8  50. ], [220.61861062049866]
[-20.    5.6  50. ], [220.8079764842987]
[-20.    5.4  50. ], [220.95671224594116]
[-20.    5.2  50. ], [221.10429000854492]
[-20.   5.  50.], [221.25231409072876]
[-20.    4.8  50. ], [221.43585300445557]
[-20.    4.6  50. ], [221.585063457489]
[-20.    4.4  50. ], [221.73430681228638]
[-20.    4.2  50. ], [221.88393211364746]
[-20.   4.  50.], [222.03620719909668]
[-20.    3.8  50. ], [222.18857216835022]
[-20.    3.6  50. ], [222.34027671813965]
[-20.    3.4  50. ], [222.488835811615]
[-20.    3.2  50. ], [222.63988757133484]
[-20.   3.  50.], [222.78766226768494]
[-20.    2.8  50. ], [222.9503526687622]
[-20.    2.6  50. ], [223.09839010238647]
[-20.    2.4  50. ], [223.24682211875916]
[-20.    2.2  50. ], [223.39442563056946]
[-20.   2.  50.], [223.5731418132782]
[-20.    1.8  50. ], [223.72041487693787]
[-20.    1.6  50. ], [223.86699414253235]
[-20.    1.4  50. ], [224.01583695411682]
[-20.    1.2  50. ], [224.1953568458557]
[-20.   1.  50.], [224.373304605484]
[-20.    0.8  50. ], [224.52624011039734]
[-20.    0.6  50. ], [224.67640256881714]
[-20.    0.4  50. ], [224.82572746276855]
[-20.    0.2  50. ], [224.97397375106812]
[-2.00000000e+01  3.75810494e-14  5.00000000e+01], [225.16297960281372]
[-20.   -0.2  50. ], [225.3157708644867]
[-20.   -0.4  50. ], [225.49789261817932]
[-20.   -0.6  50. ], [225.6457324028015]
[-20.   -0.8  50. ], [225.79494667053223]
[-20.  -1.  50.], [225.971284866333]
[-20.   -1.2  50. ], [226.12181496620178]
[-20.   -1.4  50. ], [226.27197074890137]
[-20.   -1.6  50. ], [226.45743465423584]
[-20.   -1.8  50. ], [226.64529371261597]
[-20.  -2.  50.], [226.79643964767456]
[-20.   -2.2  50. ], [226.94721150398254]
[-20.   -2.4  50. ], [227.09776639938354]
[-20.   -2.6  50. ], [227.24554586410522]
[-20.   -2.8  50. ], [227.39294290542603]
[-20.  -3.  50.], [227.54190278053284]
[-20.   -3.2  50. ], [227.68982934951782]
[-20.   -3.4  50. ], [227.8395516872406]
[-20.   -3.6  50. ], [227.98651027679443]
[-20.   -3.8  50. ], [228.1354582309723]
[-20.  -4.  50.], [228.2823703289032]
[-20.   -4.2  50. ], [228.43032050132751]
[-20.   -4.4  50. ], [228.57743406295776]
[-20.   -4.6  50. ], [228.75585889816284]
[-20.   -4.8  50. ], [228.93679022789001]
[-20.  -5.  50.], [229.08410239219666]
[-20.   -5.2  50. ], [229.24117374420166]
[-20.   -5.4  50. ], [229.38900303840637]
[-20.   -5.6  50. ], [229.53563857078552]
[-20.   -5.8  50. ], [229.68290519714355]
[-20.  -6.  50.], [229.83285212516785]
[-20.   -6.2  50. ], [230.02225303649902]
[-20.   -6.4  50. ], [230.17410826683044]
[-20.   -6.6  50. ], [230.32670974731445]
[-20.   -6.8  50. ], [230.47429537773132]
[-20.  -7.  50.], [230.62447500228882]
[-20.   -7.2  50. ], [230.7722978591919]
[-20.   -7.4  50. ], [230.92188262939453]
[-20.   -7.6  50. ], [231.06800937652588]
[-20.   -7.8  50. ], [231.22068786621094]
[-20.  -8.  50.], [231.3682165145874]
[-20.   -8.2  50. ], [231.51713705062866]
[-20.   -8.4  50. ], [231.66600012779236]
[-20.   -8.6  50. ], [231.84428071975708]
[-20.   -8.8  50. ], [232.00248765945435]
[-20.  -9.  50.], [232.1517460346222]
[-20.   -9.2  50. ], [232.3036961555481]
[-20.   -9.4  50. ], [232.45511436462402]
[-20.   -9.6  50. ], [232.60604405403137]
[-20.   -9.8  50. ], [232.75681161880493]
[-20. -10.  50.], [232.9094202518463]
[-20.  -10.2  50. ], [233.0596203804016]
[-20.  -10.4  50. ], [233.21302247047424]
[-20.  -10.6  50. ], [233.3637731075287]
[-20.  -10.8  50. ], [233.51580905914307]
[-20. -11.  50.], [233.66618490219116]
[-20.  -11.2  50. ], [233.8189663887024]
[-20.  -11.4  50. ], [233.9729962348938]
[-20.  -11.6  50. ], [234.12500023841858]
[-20.  -11.8  50. ], [234.27834510803223]
[-20. -12.  50.], [234.42907762527466]
[-20.  -12.2  50. ], [234.58076190948486]
[-20.  -12.4  50. ], [234.73168540000916]
[-20.  -12.6  50. ], [234.88413047790527]
[-20.  -12.8  50. ], [235.0354380607605]
[-20. -13.  50.], [235.18515610694885]
[-20.  -13.2  50. ], [235.33334159851074]
[-20.  -13.4  50. ], [235.48331570625305]
[-20.  -13.6  50. ], [235.63216710090637]
[-20.  -13.8  50. ], [235.78428530693054]
[-20. -14.  50.], [235.9355399608612]
[-20.  -14.2  50. ], [236.0881073474884]
[-20.  -14.4  50. ], [236.24644875526428]
[-20.  -14.6  50. ], [236.42532777786255]
[-20.  -14.8  50. ], [236.5751142501831]
[-20. -15.  50.], [236.7218952178955]
[-20.  -15.2  50. ], [236.87176322937012]
[-20.  -15.4  50. ], [237.02042198181152]
[-20.  -15.6  50. ], [237.1694769859314]
[-20.  -15.8  50. ], [237.34573483467102]
[-20. -16.  50.], [237.495258808136]
[-20.  -16.2  50. ], [237.6432158946991]
[-20.  -16.4  50. ], [237.79290437698364]
[-20.  -16.6  50. ], [237.94135332107544]
[-20.  -16.8  50. ], [238.0908181667328]
[-20. -17.  50.], [238.2386598587036]
[-20.  -17.2  50. ], [238.38893747329712]
[-20.  -17.4  50. ], [238.53732109069824]
[-20.  -17.6  50. ], [238.686838388443]
[-20.  -17.8  50. ], [238.83477020263672]
[-20. -18.  50.], [238.98553586006165]
[-20.  -18.2  50. ], [239.17101621627808]
[-20.  -18.4  50. ], [239.31998586654663]
[-20.  -18.6  50. ], [239.469229221344]
[-20.  -18.8  50. ], [239.6303150653839]
[-20. -19.  50.], [239.77851057052612]
[-20.  -19.2  50. ], [239.96386742591858]
[-20.  -19.4  50. ], [240.1140627861023]
[-20.  -19.6  50. ], [240.2630751132965]
[-20.  -19.8  50. ], [240.5098533630371]
[-20. -20.  50.], [240.66076707839966]
[-19.8 -20.   50. ], [240.80899477005005]
[-19.6 -20.   50. ], [240.98823595046997]
[-19.4 -20.   50. ], [241.13465762138367]
[-19.2 -20.   50. ], [241.28251791000366]
[-19. -20.  50.], [241.42981624603271]
[-18.8 -20.   50. ], [241.5792121887207]
[-18.6 -20.   50. ], [241.72750878334045]
[-18.4 -20.   50. ], [241.87624979019165]
[-18.2 -20.   50. ], [242.0239462852478]
[-18. -20.  50.], [242.17241024971008]
[-17.8 -20.   50. ], [242.31988406181335]
[-17.6 -20.   50. ], [242.46802425384521]
[-17.4 -20.   50. ], [242.61567163467407]
[-17.2 -20.   50. ], [242.7632942199707]
[-17. -20.  50.], [242.9110987186432]
[-16.8 -20.   50. ], [243.06108212471008]
[-16.6 -20.   50. ], [243.2104787826538]
[-16.4 -20.   50. ], [243.35865664482117]
[-16.2 -20.   50. ], [243.5066409111023]
[-16. -20.  50.], [243.65497303009033]
[-15.8 -20.   50. ], [243.8028028011322]
[-15.6 -20.   50. ], [243.97733855247498]
[-15.4 -20.   50. ], [244.19531345367432]
[-15.2 -20.   50. ], [244.34312677383423]
[-15. -20.  50.], [244.49489545822144]
[-14.8 -20.   50. ], [244.64481902122498]
[-14.6 -20.   50. ], [244.83439660072327]
[-14.4 -20.   50. ], [245.02019572257996]
[-14.2 -20.   50. ], [245.16844034194946]
[-14. -20.  50.], [245.31760358810425]
[-13.8 -20.   50. ], [245.50843024253845]
[-13.6 -20.   50. ], [245.67385935783386]
[-13.4 -20.   50. ], [245.82312059402466]
[-13.2 -20.   50. ], [245.9719021320343]
[-13. -20.  50.], [246.12064266204834]
[-12.8 -20.   50. ], [246.27071595191956]
[-12.6 -20.   50. ], [246.42001724243164]
[-12.4 -20.   50. ], [246.5694763660431]
[-12.2 -20.   50. ], [246.75974988937378]
[-12. -20.  50.], [246.94400119781494]
[-11.8 -20.   50. ], [247.09672856330872]
[-11.6 -20.   50. ], [247.28808522224426]
[-11.4 -20.   50. ], [247.44187474250793]
[-11.2 -20.   50. ], [247.59594321250916]
[-11. -20.  50.], [247.75004291534424]
[-10.8 -20.   50. ], [247.94362354278564]
[-10.6 -20.   50. ], [248.09567642211914]
[-10.4 -20.   50. ], [248.24763250350952]
[-10.2 -20.   50. ], [248.39860916137695]
[-10. -20.  50.], [248.55015468597412]
[ -9.8 -20.   50. ], [248.70184779167175]
[ -9.6 -20.   50. ], [248.85283422470093]
[ -9.4 -20.   50. ], [249.0050449371338]
[ -9.2 -20.   50. ], [249.16434621810913]
[ -9. -20.  50.], [249.31916403770447]
[ -8.8 -20.   50. ], [249.47325801849365]
[ -8.6 -20.   50. ], [249.62794518470764]
[ -8.4 -20.   50. ], [249.779940366745]
[ -8.2 -20.   50. ], [249.937509059906]
[ -8. -20.  50.], [250.12981176376343]
[ -7.8 -20.   50. ], [250.3087284564972]
[ -7.6 -20.   50. ], [250.46143698692322]
[ -7.4 -20.   50. ], [250.61966252326965]
[ -7.2 -20.   50. ], [250.7746639251709]
[ -7. -20.  50.], [250.92728996276855]
[ -6.8 -20.   50. ], [251.08257627487183]
[ -6.6 -20.   50. ], [251.2655189037323]
[ -6.4 -20.   50. ], [251.42511415481567]
[ -6.2 -20.   50. ], [251.57790994644165]
[ -6. -20.  50.], [251.7346897125244]
[ -5.8 -20.   50. ], [251.88703155517578]
[ -5.6 -20.   50. ], [252.04136085510254]
[ -5.4 -20.   50. ], [252.19478917121887]
[ -5.2 -20.   50. ], [252.34675121307373]
[ -5. -20.  50.], [252.49822330474854]
[ -4.8 -20.   50. ], [252.67724657058716]
[ -4.6 -20.   50. ], [252.85743165016174]
[ -4.4 -20.   50. ], [253.0101180076599]
[ -4.2 -20.   50. ], [253.16039085388184]
[ -4. -20.  50.], [253.31270742416382]
[ -3.8 -20.   50. ], [253.4629237651825]
[ -3.6 -20.   50. ], [253.61522150039673]
[ -3.4 -20.   50. ], [253.76665616035461]
[ -3.2 -20.   50. ], [253.91834807395935]
[ -3. -20.  50.], [254.09444212913513]
[ -2.8 -20.   50. ], [254.2453544139862]
[ -2.6 -20.   50. ], [254.3949270248413]
[ -2.4 -20.   50. ], [254.54244685173035]
[ -2.2 -20.   50. ], [254.69359302520752]
[ -2. -20.  50.], [254.8406183719635]
[ -1.8 -20.   50. ], [254.99035358428955]
[ -1.6 -20.   50. ], [255.13946080207825]
[ -1.4 -20.   50. ], [255.28994750976562]
[ -1.2 -20.   50. ], [255.43792510032654]
[ -1. -20.  50.], [255.61137533187866]
[ -0.8 -20.   50. ], [255.7858579158783]
[ -0.6 -20.   50. ], [255.97065210342407]
[ -0.4 -20.   50. ], [256.2046582698822]
[ -0.2 -20.   50. ], [256.3525106906891]
[ 3.76920717e-14 -2.00000000e+01  5.00000000e+01], [256.5015387535095]
[  0.2 -20.   50. ], [256.64937710762024]
[  0.4 -20.   50. ], [256.8002610206604]
[  0.6 -20.   50. ], [256.94865584373474]
[  0.8 -20.   50. ], [257.09997630119324]
[  1. -20.  50.], [257.255245923996]
[  1.2 -20.   50. ], [257.40444231033325]
[  1.4 -20.   50. ], [257.5538167953491]
[  1.6 -20.   50. ], [257.70283913612366]
[  1.8 -20.   50. ], [257.8524134159088]
[  2. -20.  50.], [258.00809144973755]
[  2.2 -20.   50. ], [258.1602623462677]
[  2.4 -20.   50. ], [258.31100845336914]
[  2.6 -20.   50. ], [258.4584195613861]
[  2.8 -20.   50. ], [258.60797905921936]
[  3. -20.  50.], [258.75508284568787]
[  3.2 -20.   50. ], [258.9054148197174]
[  3.4 -20.   50. ], [259.05343747138977]
[  3.6 -20.   50. ], [259.20215940475464]
[  3.8 -20.   50. ], [259.34941148757935]
[  4. -20.  50.], [259.4983665943146]
[  4.2 -20.   50. ], [259.64550042152405]
[  4.4 -20.   50. ], [259.7942943572998]
[  4.6 -20.   50. ], [259.94118571281433]
[  4.8 -20.   50. ], [260.1209397315979]
[  5. -20.  50.], [260.35309529304504]
[  5.2 -20.   50. ], [260.5038251876831]
[  5.4 -20.   50. ], [260.65932536125183]
[  5.6 -20.   50. ], [260.80794167518616]
[  5.8 -20.   50. ], [260.95628547668457]
[  6. -20.  50.], [261.13601207733154]
[  6.2 -20.   50. ], [261.2933807373047]
[  6.4 -20.   50. ], [261.44354343414307]
[  6.6 -20.   50. ], [261.6273100376129]
[  6.8 -20.   50. ], [261.7792160511017]
[  7. -20.  50.], [261.9258666038513]
[  7.2 -20.   50. ], [262.0763478279114]
[  7.4 -20.   50. ], [262.2258152961731]
[  7.6 -20.   50. ], [262.37539172172546]
[  7.8 -20.   50. ], [262.63233828544617]
[  8. -20.  50.], [262.83108735084534]
[  8.2 -20.   50. ], [262.9795432090759]
[  8.4 -20.   50. ], [263.1294708251953]
[  8.6 -20.   50. ], [263.27763080596924]
[  8.8 -20.   50. ], [263.4253489971161]
[  9. -20.  50.], [263.57431077957153]
[  9.2 -20.   50. ], [263.72377586364746]
[  9.4 -20.   50. ], [263.87624168395996]
[  9.6 -20.   50. ], [264.03202986717224]
[  9.8 -20.   50. ], [264.18622875213623]
[ 10. -20.  50.], [264.334774017334]
[ 10.2 -20.   50. ], [264.483003616333]
[ 10.4 -20.   50. ], [264.63176131248474]
[ 10.6 -20.   50. ], [264.77936935424805]
[ 10.8 -20.   50. ], [264.92865014076233]
[ 11. -20.  50.], [265.07689571380615]
[ 11.2 -20.   50. ], [265.2271590232849]
[ 11.4 -20.   50. ], [265.377934217453]
[ 11.6 -20.   50. ], [265.52728247642517]
[ 11.8 -20.   50. ], [265.69191575050354]
[ 12. -20.  50.], [265.8814306259155]
[ 12.2 -20.   50. ], [266.0594961643219]
[ 12.4 -20.   50. ], [266.21456933021545]
[ 12.6 -20.   50. ], [266.361435174942]
[ 12.8 -20.   50. ], [266.509113073349]
[ 13. -20.  50.], [266.6838946342468]
[ 13.2 -20.   50. ], [266.8338782787323]
[ 13.4 -20.   50. ], [267.0154209136963]
[ 13.6 -20.   50. ], [267.1879665851593]
[ 13.8 -20.   50. ], [267.33611822128296]
[ 14. -20.  50.], [267.4836766719818]
[ 14.2 -20.   50. ], [267.63373160362244]
[ 14.4 -20.   50. ], [267.87002635002136]
[ 14.6 -20.   50. ], [268.02141785621643]
[ 14.8 -20.   50. ], [268.20189356803894]
[ 15. -20.  50.], [268.35117173194885]
[ 15.2 -20.   50. ], [268.50054144859314]
[ 15.4 -20.   50. ], [268.65058398246765]
[ 15.6 -20.   50. ], [268.79809832572937]
[ 15.8 -20.   50. ], [268.9473373889923]
[ 16. -20.  50.], [269.0954866409302]
[ 16.2 -20.   50. ], [269.24589109420776]
[ 16.4 -20.   50. ], [269.39339232444763]
[ 16.6 -20.   50. ], [269.5424339771271]
[ 16.8 -20.   50. ], [269.6906666755676]
[ 17. -20.  50.], [269.840514421463]
[ 17.2 -20.   50. ], [270.0167872905731]
[ 17.4 -20.   50. ], [270.16698718070984]
[ 17.6 -20.   50. ], [270.31947684288025]
[ 17.8 -20.   50. ], [270.4685707092285]
[ 18. -20.  50.], [270.62216663360596]
[ 18.2 -20.   50. ], [270.7708749771118]
[ 18.4 -20.   50. ], [270.92194414138794]
[ 18.6 -20.   50. ], [271.06933641433716]
[ 18.8 -20.   50. ], [271.2192192077637]
[ 19. -20.  50.], [271.36726999282837]
[ 19.2 -20.   50. ], [271.54416155815125]
[ 19.4 -20.   50. ], [271.6968505382538]
[ 19.6 -20.   50. ], [271.84573221206665]
[ 19.8 -20.   50. ], [271.99479031562805]
[ 20. -20.  50.], [272.14402532577515]
[ 20.  -19.8  50. ], [272.2959864139557]
[ 20.  -19.6  50. ], [272.47685503959656]
[ 20.  -19.4  50. ], [272.6525197029114]
[ 20.  -19.2  50. ], [272.7992639541626]
[ 20. -19.  50.], [272.94544792175293]
[ 20.  -18.8  50. ], [273.09416699409485]
[ 20.  -18.6  50. ], [273.27737307548523]
[ 20.  -18.4  50. ], [273.4251158237457]
[ 20.  -18.2  50. ], [273.57525515556335]
[ 20. -18.  50.], [273.7243537902832]
[ 20.  -17.8  50. ], [273.8719005584717]
[ 20.  -17.6  50. ], [274.0199227333069]
[ 20.  -17.4  50. ], [274.1670434474945]
[ 20.  -17.2  50. ], [274.3216733932495]
[ 20. -17.  50.], [274.4689950942993]
[ 20.  -16.8  50. ], [274.62005400657654]
[ 20.  -16.6  50. ], [274.7687735557556]
[ 20.  -16.4  50. ], [274.9158685207367]
[ 20.  -16.2  50. ], [275.06666588783264]
[ 20. -16.  50.], [275.2200708389282]
[ 20.  -15.8  50. ], [275.37089228630066]
[ 20.  -15.6  50. ], [275.56875824928284]
[ 20.  -15.4  50. ], [275.72066044807434]
[ 20.  -15.2  50. ], [275.86761021614075]
[ 20. -15.  50.], [276.01533555984497]
[ 20.  -14.8  50. ], [276.16877007484436]
[ 20.  -14.6  50. ], [276.32592844963074]
[ 20.  -14.4  50. ], [276.47571849823]
[ 20.  -14.2  50. ], [276.62423825263977]
[ 20. -14.  50.], [276.7726843357086]
[ 20.  -13.8  50. ], [276.9219992160797]
[ 20.  -13.6  50. ], [277.07085847854614]
[ 20.  -13.4  50. ], [277.2206745147705]
[ 20.  -13.2  50. ], [277.36913323402405]
[ 20. -13.  50.], [277.5203800201416]
[ 20.  -12.8  50. ], [277.6690456867218]
[ 20.  -12.6  50. ], [277.81871342658997]
[ 20.  -12.4  50. ], [277.9988822937012]
[ 20.  -12.2  50. ], [278.2123267650604]
[ 20. -12.  50.], [278.3619911670685]
[ 20.  -11.8  50. ], [278.5138421058655]
[ 20.  -11.6  50. ], [278.66426181793213]
[ 20.  -11.4  50. ], [278.8152582645416]
[ 20.  -11.2  50. ], [278.96149468421936]
[ 20. -11.  50.], [279.1151249408722]
[ 20.  -10.8  50. ], [279.2644159793854]
[ 20.  -10.6  50. ], [279.4138648509979]
[ 20.  -10.4  50. ], [279.561238527298]
[ 20.  -10.2  50. ], [279.71096110343933]
[ 20. -10.  50.], [279.8581087589264]
[20.  -9.8 50. ], [280.0064857006073]
[20.  -9.6 50. ], [280.1535267829895]
[20.  -9.4 50. ], [280.3027091026306]
[20.  -9.2 50. ], [280.4499542713165]
[20. -9. 50.], [280.6014428138733]
[20.  -8.8 50. ], [280.74956488609314]
[20.  -8.6 50. ], [280.89885902404785]
[20.  -8.4 50. ], [281.0459363460541]
[20.  -8.2 50. ], [281.19625425338745]
[20. -8. 50.], [281.3753569126129]
[20.  -7.8 50. ], [281.54448914527893]
[20.  -7.6 50. ], [281.6928732395172]
[20.  -7.4 50. ], [281.84116220474243]
[20.  -7.2 50. ], [281.9896614551544]
[20. -7. 50.], [282.1376631259918]
[20.  -6.8 50. ], [282.2884328365326]
[20.  -6.6 50. ], [282.43707728385925]
[20.  -6.4 50. ], [282.5874788761139]
[20.  -6.2 50. ], [282.7363908290863]
[20. -6. 50.], [282.884968996048]
[20.  -5.8 50. ], [283.0324866771698]
[20.  -5.6 50. ], [283.1801097393036]
[20.  -5.4 50. ], [283.3424987792969]
[20.  -5.2 50. ], [283.49484848976135]
[20. -5. 50.], [283.68282318115234]
[20.  -4.8 50. ], [283.83574748039246]
[20.  -4.6 50. ], [283.9885137081146]
[20.  -4.4 50. ], [284.14009618759155]
[20.  -4.2 50. ], [284.29370403289795]
[20. -4. 50.], [284.44511222839355]
[20.  -3.8 50. ], [284.59780168533325]
[20.  -3.6 50. ], [284.74849581718445]
[20.  -3.4 50. ], [284.89975571632385]
[20.  -3.2 50. ], [285.05111837387085]
[20. -3. 50.], [285.203227519989]
[20.  -2.8 50. ], [285.3553719520569]
[20.  -2.6 50. ], [285.507221698761]
[20.  -2.4 50. ], [285.69128036499023]
[20.  -2.2 50. ], [285.8428943157196]
[20. -2. 50.], [285.99334716796875]
[20.  -1.8 50. ], [286.14542531967163]
[20.  -1.6 50. ], [286.32454800605774]
[20.  -1.4 50. ], [286.47579312324524]
[20.  -1.2 50. ], [286.6258406639099]
[20. -1. 50.], [286.7757656574249]
[20.  -0.8 50. ], [286.95589089393616]
[20.  -0.6 50. ], [287.1083490848541]
[20.  -0.4 50. ], [287.2622618675232]
[20.  -0.2 50. ], [287.413854598999]
[2.00000000e+01 3.76920717e-14 5.00000000e+01], [287.5641133785248]
[20.   0.2 50. ], [287.74419927597046]
[20.   0.4 50. ], [287.92544865608215]
[20.   0.6 50. ], [288.07741951942444]
[20.   0.8 50. ], [288.2286796569824]
[20.  1. 50.], [288.38068151474]
[20.   1.2 50. ], [288.5326840877533]
[20.   1.4 50. ], [288.6858742237091]
[20.   1.6 50. ], [288.8370780944824]
[20.   1.8 50. ], [288.98515486717224]
[20.  2. 50.], [289.1814486980438]
[20.   2.2 50. ], [289.3306715488434]
[20.   2.4 50. ], [289.4791843891144]
[20.   2.6 50. ], [289.62724804878235]
[20.   2.8 50. ], [289.77457189559937]
[20.  3. 50.], [289.92351055145264]
[20.   3.2 50. ], [290.07296228408813]
[20.   3.4 50. ], [290.2218723297119]
[20.   3.6 50. ], [290.36946201324463]
[20.   3.8 50. ], [290.51797342300415]
[20.  4. 50.], [290.66651225090027]
[20.   4.2 50. ], [290.814665555954]
[20.   4.4 50. ], [290.96271109580994]
[20.   4.6 50. ], [291.11005330085754]
[20.   4.8 50. ], [291.25844836235046]
[20.  5. 50.], [291.43722200393677]
[20.   5.2 50. ], [291.5865659713745]
[20.   5.4 50. ], [291.7769618034363]
[20.   5.6 50. ], [291.9257984161377]
[20.   5.8 50. ], [292.10540437698364]
[20.  6. 50.], [292.25507068634033]
[20.   6.2 50. ], [292.4371123313904]
[20.   6.4 50. ], [292.6183123588562]
[20.   6.6 50. ], [292.80309200286865]
[20.   6.8 50. ], [292.99441599845886]
[20.  7. 50.], [293.14277267456055]
[20.   7.2 50. ], [293.32932591438293]
[20.   7.4 50. ], [293.47758078575134]
[20.   7.6 50. ], [293.6275038719177]
[20.   7.8 50. ], [293.77459383010864]
[20.  8. 50.], [293.9646804332733]
[20.   8.2 50. ], [294.1154088973999]
[20.   8.4 50. ], [294.2623326778412]
[20.   8.6 50. ], [294.4110450744629]
[20.   8.8 50. ], [294.5593886375427]
[20.  9. 50.], [294.70723581314087]
[20.   9.2 50. ], [294.8559305667877]
[20.   9.4 50. ], [295.0053572654724]
[20.   9.6 50. ], [295.1544759273529]
[20.   9.8 50. ], [295.30261158943176]
[20. 10. 50.], [295.4545078277588]
[20.  10.2 50. ], [295.6117465496063]
[20.  10.4 50. ], [295.7608263492584]
[20.  10.6 50. ], [295.945876121521]
[20.  10.8 50. ], [296.09359526634216]
[20. 11. 50.], [296.24324440956116]
[20.  11.2 50. ], [296.39160108566284]
[20.  11.4 50. ], [296.5416610240936]
[20.  11.6 50. ], [296.72090005874634]
[20.  11.8 50. ], [296.8693709373474]
[20. 12. 50.], [297.01864552497864]
[20.  12.2 50. ], [297.16621494293213]
[20.  12.4 50. ], [297.3157823085785]
[20.  12.6 50. ], [297.49582695961]
[20.  12.8 50. ], [297.67536640167236]
[20. 13. 50.], [297.88629937171936]
[20.  13.2 50. ], [298.0360150337219]
[20.  13.4 50. ], [298.1859292984009]
[20.  13.6 50. ], [298.33414459228516]
[20.  13.8 50. ], [298.4820854663849]
[20. 14. 50.], [298.6314468383789]
[20.  14.2 50. ], [298.778431892395]
[20.  14.4 50. ], [298.9277603626251]
[20.  14.6 50. ], [299.0757818222046]
[20.  14.8 50. ], [299.224906206131]
[20. 15. 50.], [299.38610315322876]
[20.  15.2 50. ], [299.5382568836212]
[20.  15.4 50. ], [299.6882562637329]
[20.  15.6 50. ], [299.8359456062317]
[20.  15.8 50. ], [299.98432421684265]
[20. 16. 50.], [300.13298416137695]
[20.  16.2 50. ], [300.2814447879791]
[20.  16.4 50. ], [300.430686712265]
[20.  16.6 50. ], [300.582004070282]
[20.  16.8 50. ], [300.73024678230286]
[20. 17. 50.], [300.87914514541626]
[20.  17.2 50. ], [301.06068778038025]
[20.  17.4 50. ], [301.21076488494873]
[20.  17.6 50. ], [301.3916368484497]
[20.  17.8 50. ], [301.5395565032959]
[20. 18. 50.], [301.68817114830017]
[20.  18.2 50. ], [301.83754658699036]
[20.  18.4 50. ], [301.9891588687897]
[20.  18.6 50. ], [302.1413526535034]
[20.  18.8 50. ], [302.29351234436035]
[20. 19. 50.], [302.4444694519043]
[20.  19.2 50. ], [302.5980565547943]
[20.  19.4 50. ], [302.74936509132385]
[20.  19.6 50. ], [302.9018495082855]
[20.  19.8 50. ], [303.0515339374542]
[20. 20. 50.], [303.20352721214294]
[19.8 20.  50. ], [303.3544957637787]
[19.6 20.  50. ], [303.50627398490906]
[19.4 20.  50. ], [303.65648651123047]
[19.2 20.  50. ], [303.80812644958496]
[19. 20. 50.], [303.9587171077728]
[18.8 20.  50. ], [304.11248803138733]
[18.6 20.  50. ], [304.2626099586487]
[18.4 20.  50. ], [304.41425251960754]
[18.2 20.  50. ], [304.56436347961426]
[18. 20. 50.], [304.75233602523804]
[17.8 20.  50. ], [304.9037392139435]
[17.6 20.  50. ], [305.05368423461914]
[17.4 20.  50. ], [305.2016019821167]
[17.2 20.  50. ], [305.34902119636536]
[17. 20. 50.], [305.49715971946716]
[16.8 20.  50. ], [305.64553213119507]
[16.6 20.  50. ], [305.7950940132141]
[16.4 20.  50. ], [305.94236159324646]
[16.2 20.  50. ], [306.09127974510193]
[16. 20. 50.], [306.24140191078186]
[15.8 20.  50. ], [306.3905098438263]
[15.6 20.  50. ], [306.53926491737366]
[15.4 20.  50. ], [306.6880543231964]
[15.2 20.  50. ], [306.83577394485474]
[15. 20. 50.], [306.98456144332886]
[14.8 20.  50. ], [307.1334958076477]
[14.6 20.  50. ], [307.28344559669495]
[14.4 20.  50. ], [307.4315733909607]
[14.2 20.  50. ], [307.5808148384094]
[14. 20. 50.], [307.77050828933716]
[13.8 20.  50. ], [307.91915822029114]
[13.6 20.  50. ], [308.0674502849579]
[13.4 20.  50. ], [308.21728444099426]
[13.2 20.  50. ], [308.4086880683899]
[13. 20. 50.], [308.55725359916687]
[12.8 20.  50. ], [308.73839592933655]
[12.6 20.  50. ], [308.8995678424835]
[12.4 20.  50. ], [309.09212255477905]
[12.2 20.  50. ], [309.29211163520813]
[12. 20. 50.], [309.4724009037018]
[11.8 20.  50. ], [309.63520073890686]
[11.6 20.  50. ], [309.79217171669006]
[11.4 20.  50. ], [309.9462003707886]
[11.2 20.  50. ], [310.1496903896332]
[11. 20. 50.], [310.31808590888977]
[10.8 20.  50. ], [310.469345331192]
[10.6 20.  50. ], [310.62622117996216]
[10.4 20.  50. ], [310.7793319225311]
[10.2 20.  50. ], [310.9413061141968]
[10. 20. 50.], [311.09357833862305]
[ 9.8 20.  50. ], [311.25167870521545]
[ 9.6 20.  50. ], [311.40463948249817]
[ 9.4 20.  50. ], [311.5602960586548]
