[ 0.  0. 50.], [15.797249555587769]
[ 0.83333333  0.         50.        ], [17.07557725906372]
[ 1.66666667  0.         50.        ], [17.236016988754272]
[ 2.5  0.  50. ], [17.38576054573059]
[ 3.33333333  0.         50.        ], [17.535374879837036]
[ 4.16666667  0.         50.        ], [17.684645175933838]
[ 5.  0. 50.], [17.834015607833862]
[ 5.83333333  0.         50.        ], [17.983428478240967]
[ 6.66666667  0.         50.        ], [18.132840156555176]
[ 7.5  0.  50. ], [18.282877683639526]
[ 8.33333333  0.         50.        ], [18.43215298652649]
[ 9.16666667  0.         50.        ], [18.58230209350586]
[10.  0. 50.], [18.731616258621216]
[10.83333333  0.         50.        ], [18.884698629379272]
[11.66666667  0.         50.        ], [19.03554916381836]
[12.5  0.  50. ], [19.217753171920776]
[13.33333333  0.         50.        ], [19.366963148117065]
[14.16666667  0.         50.        ], [19.5169734954834]
[15.  0. 50.], [19.66774606704712]
[15.83333333  0.         50.        ], [19.82431411743164]
[16.66666667  0.         50.        ], [19.98337960243225]
[17.5  0.  50. ], [20.225432634353638]
[18.33333333  0.         50.        ], [20.39232897758484]
[19.16666667  0.         50.        ], [20.54605793952942]
[20.  0. 50.], [20.7136173248291]
[20.83333333  0.         50.        ], [20.890356063842773]
[21.66666667  0.         50.        ], [21.097713232040405]
[22.5  0.  50. ], [21.27008318901062]
[23.33333333  0.         50.        ], [21.42769765853882]
[24.16666667  0.         50.        ], [21.57717728614807]
[25.  0. 50.], [21.733583211898804]
[24.98766401  0.78526898 50.        ], [21.89094066619873]
[24.97224687  1.17766127 50.        ], [22.040173768997192]
[24.95066821  1.56976299 50.        ], [22.189589262008667]
[24.92293334  1.96147739 50.        ], [22.339491844177246]
[24.88904912  2.35270783 50.        ], [22.488412618637085]
[24.84902389  2.74335778 50.        ], [22.63768744468689]
[24.80286753  3.13333084 50.        ], [22.809351205825806]
[24.75059144  3.5225308  50.        ], [22.959736108779907]
[24.69220851  3.91086163 50.        ], [23.11013150215149]
[24.62773315  4.29822751 50.        ], [23.259894132614136]
[24.55718127  4.68453286 50.        ], [23.4129478931427]
[24.48057027  5.06968238 50.        ], [23.56701898574829]
[24.39791905  5.45358103 50.        ], [23.746321439743042]
[24.30924801  5.8361341  50.        ], [23.91007971763611]
[24.21457903  6.21724718 50.        ], [24.060319900512695]
[24.11393546  6.59682625 50.        ], [24.218695878982544]
[24.00734214  6.97477765 50.        ], [24.405781030654907]
[23.89482537  7.35100813 50.        ], [24.557636976242065]
[23.77641291  7.72542486 50.        ], [24.767483234405518]
[23.65213397  8.09793545 50.        ], [24.933062076568604]
[23.52201922  8.46844801 50.        ], [25.095726251602173]
[23.38610077  8.83687109 50.        ], [25.247780323028564]
[23.24441215  9.20311382 50.        ], [25.39961290359497]
[23.09698831  9.56708581 50.        ], [25.57533073425293]
[22.94386564  9.92869727 50.        ], [25.725497007369995]
[22.78508192 10.28785897 50.        ], [25.882161378860474]
[22.62067631 10.64448229 50.        ], [26.062798976898193]
[22.45068939 10.99847925 50.        ], [26.293574571609497]
[22.2751631  11.34976249 50.        ], [26.4466552734375]
[22.09414075 11.69824536 50.        ], [26.60111975669861]
[21.907667   12.04384185 50.        ], [26.753685474395752]
[21.71578786 12.38646671 50.        ], [26.912150621414185]
[21.51855068 12.72603539 50.        ], [27.101003646850586]
[21.31600411 13.06246412 50.        ], [27.271342039108276]
[21.10819814 13.39566987 50.        ], [27.445045709609985]
[20.89518403 13.72557045 50.        ], [27.606658697128296]
[20.67701436 14.05208445 50.        ], [27.783809661865234]
[20.45374294 14.3751313  50.        ], [27.965503692626953]
[20.22542486 14.69463131 50.        ], [28.144817113876343]
[19.99211646 15.01050563 50.        ], [28.309523344039917]
[19.75387531 15.32267634 50.        ], [28.461825132369995]
[19.51076018 15.63106641 50.        ], [28.616633892059326]
[19.26283107 15.93559974 50.        ], [28.7698495388031]
[19.01014914 16.23620121 50.        ], [28.923810243606567]
[18.75277674 16.53279663 50.        ], [29.07628583908081]
[18.49077737 16.82531284 50.        ], [29.231164693832397]
[18.22421569 17.11367765 50.        ], [29.386695623397827]
[17.95315744 17.39781991 50.        ], [29.57283592224121]
[17.67766953 17.67766953 50.        ], [29.725406646728516]
[17.39781991 17.95315744 50.        ], [29.881866931915283]
[17.11367765 18.22421569 50.        ], [30.032679080963135]
[16.82531284 18.49077737 50.        ], [30.184091567993164]
[16.53279663 18.75277674 50.        ], [30.375022172927856]
[16.23620121 19.01014914 50.        ], [30.52763605117798]
[15.93559974 19.26283107 50.        ], [30.707195281982422]
[15.63106641 19.51076018 50.        ], [30.857625246047974]
[15.32267634 19.75387531 50.        ], [31.00937032699585]
[15.01050563 19.99211646 50.        ], [31.16277027130127]
[14.69463131 20.22542486 50.        ], [31.318970203399658]
[14.3751313  20.45374294 50.        ], [31.47131371498108]
[14.05208445 20.67701436 50.        ], [31.647392988204956]
[13.72557045 20.89518403 50.        ], [31.799392700195312]
[13.39566987 21.10819814 50.        ], [31.952661514282227]
[13.06246412 21.31600411 50.        ], [32.10470366477966]
[12.72603539 21.51855068 50.        ], [32.26023626327515]
[12.38646671 21.71578786 50.        ], [32.41422891616821]
[12.04384185 21.907667   50.        ], [32.56739044189453]
[11.69824536 22.09414075 50.        ], [32.7231183052063]
[11.34976249 22.2751631  50.        ], [32.87904906272888]
[10.99847925 22.45068939 50.        ], [33.035799741744995]
[10.64448229 22.62067631 50.        ], [33.19556927680969]
[10.28785897 22.78508192 50.        ], [33.35105109214783]
[ 9.92869727 22.94386564 50.        ], [33.50251293182373]
[ 9.56708581 23.09698831 50.        ], [33.653526067733765]
[ 9.20311382 23.24441215 50.        ], [33.805710792541504]
[ 8.83687109 23.38610077 50.        ], [33.98721385002136]
[ 8.46844801 23.52201922 50.        ], [34.1734516620636]
[ 8.09793545 23.65213397 50.        ], [34.325841188430786]
[ 7.72542486 23.77641291 50.        ], [34.47723340988159]
[ 7.35100813 23.89482537 50.        ], [34.62767934799194]
[ 6.97477765 24.00734214 50.        ], [34.81325912475586]
[ 6.59682625 24.11393546 50.        ], [34.99517631530762]
[ 6.21724718 24.21457903 50.        ], [35.18849325180054]
[ 5.8361341  24.30924801 50.        ], [35.3421471118927]
[ 5.45358103 24.39791905 50.        ], [35.49750328063965]
[ 5.06968238 24.48057027 50.        ], [35.64888834953308]
[ 4.68453286 24.55718127 50.        ], [35.800811767578125]
[ 4.29822751 24.62773315 50.        ], [35.953015089035034]
[ 3.91086163 24.69220851 50.        ], [36.10671830177307]
[ 3.5225308  24.75059144 50.        ], [36.28549003601074]
[ 3.13333084 24.80286753 50.        ], [36.43600106239319]
[ 2.74335778 24.84902389 50.        ], [36.58679723739624]
[ 2.35270783 24.88904912 50.        ], [36.76699495315552]
[ 1.96147739 24.92293334 50.        ], [36.921210050582886]
[ 1.56976299 24.95066821 50.        ], [37.07141852378845]
[ 1.17766127 24.97224687 50.        ], [37.22534370422363]
[ 0.78526898 24.98766401 50.        ], [37.377663135528564]
[ 0.39268293 24.99691581 50.        ], [37.529057264328]
[1.5308085e-15 2.5000000e+01 5.0000000e+01], [37.68215608596802]
[-0.39268293 24.99691581 50.        ], [37.83317685127258]
[-0.78526898 24.98766401 50.        ], [37.98275589942932]
[-1.17766127 24.97224687 50.        ], [38.13438439369202]
[-1.56976299 24.95066821 50.        ], [38.28953671455383]
[-1.96147739 24.92293334 50.        ], [38.44671440124512]
[-2.35270783 24.88904912 50.        ], [38.66503715515137]
[-2.74335778 24.84902389 50.        ], [38.81994986534119]
[-3.13333084 24.80286753 50.        ], [38.97468829154968]
[-3.5225308  24.75059144 50.        ], [39.15271711349487]
[-3.91086163 24.69220851 50.        ], [39.31235909461975]
[-4.29822751 24.62773315 50.        ], [39.462289810180664]
[-4.68453286 24.55718127 50.        ], [39.61614942550659]
[-5.06968238 24.48057027 50.        ], [39.76891851425171]
[-5.45358103 24.39791905 50.        ], [39.92015838623047]
[-5.8361341  24.30924801 50.        ], [40.06947183609009]
[-6.21724718 24.21457903 50.        ], [40.21953105926514]
[-6.59682625 24.11393546 50.        ], [40.37093472480774]
[-6.97477765 24.00734214 50.        ], [40.52134609222412]
[-7.35100813 23.89482537 50.        ], [40.70480751991272]
[-7.72542486 23.77641291 50.        ], [40.856070041656494]
[-8.09793545 23.65213397 50.        ], [41.02172875404358]
[-8.46844801 23.52201922 50.        ], [41.17136764526367]
[-8.83687109 23.38610077 50.        ], [41.35440278053284]
[-9.20311382 23.24441215 50.        ], [41.505998849868774]
[-9.56708581 23.09698831 50.        ], [41.68558144569397]
[-9.92869727 22.94386564 50.        ], [41.843350887298584]
[-10.28785897  22.78508192  50.        ], [42.0026490688324]
[-10.64448229  22.62067631  50.        ], [42.15281128883362]
[-10.99847925  22.45068939  50.        ], [42.30545163154602]
[-11.34976249  22.2751631   50.        ], [42.456074714660645]
[-11.69824536  22.09414075  50.        ], [42.60783553123474]
[-12.04384185  21.907667    50.        ], [42.76026153564453]
[-12.38646671  21.71578786  50.        ], [42.91370725631714]
[-12.72603539  21.51855068  50.        ], [43.063695192337036]
[-13.06246412  21.31600411  50.        ], [43.21383833885193]
[-13.39566987  21.10819814  50.        ], [43.40752077102661]
[-13.72557045  20.89518403  50.        ], [43.55875301361084]
[-14.05208445  20.67701436  50.        ], [43.7103807926178]
[-14.3751313   20.45374294  50.        ], [43.86036014556885]
[-14.69463131  20.22542486  50.        ], [44.01169538497925]
[-15.01050563  19.99211646  50.        ], [44.16460657119751]
[-15.32267634  19.75387531  50.        ], [44.31902027130127]
[-15.63106641  19.51076018  50.        ], [44.47140288352966]
[-15.93559974  19.26283107  50.        ], [44.63999891281128]
[-16.23620121  19.01014914  50.        ], [44.795214891433716]
[-16.53279663  18.75277674  50.        ], [44.95301699638367]
[-16.82531284  18.49077737  50.        ], [45.10762929916382]
[-17.11367765  18.22421569  50.        ], [45.26075291633606]
[-17.39781991  17.95315744  50.        ], [45.448747634887695]
[-17.67766953  17.67766953  50.        ], [45.60476589202881]
[-17.95315744  17.39781991  50.        ], [45.8003363609314]
[-18.22421569  17.11367765  50.        ], [45.98188018798828]
[-18.49077737  16.82531284  50.        ], [46.18263387680054]
[-18.75277674  16.53279663  50.        ], [46.338977336883545]
[-19.01014914  16.23620121  50.        ], [46.49300813674927]
[-19.26283107  15.93559974  50.        ], [46.671048402786255]
[-19.51076018  15.63106641  50.        ], [46.83267903327942]
[-19.75387531  15.32267634  50.        ], [46.99311852455139]
[-19.99211646  15.01050563  50.        ], [47.149070739746094]
[-20.22542486  14.69463131  50.        ], [47.33228302001953]
[-20.45374294  14.3751313   50.        ], [47.48684549331665]
[-20.67701436  14.05208445  50.        ], [47.637760400772095]
[-20.89518403  13.72557045  50.        ], [47.789204597473145]
[-21.10819814  13.39566987  50.        ], [47.943034172058105]
[-21.31600411  13.06246412  50.        ], [48.093766927719116]
[-21.51855068  12.72603539  50.        ], [48.249248027801514]
[-21.71578786  12.38646671  50.        ], [48.40864706039429]
[-21.907667    12.04384185  50.        ], [48.559489727020264]
[-22.09414075  11.69824536  50.        ], [48.71774673461914]
[-22.2751631   11.34976249  50.        ], [48.87416458129883]
[-22.45068939  10.99847925  50.        ], [49.03891205787659]
[-22.62067631  10.64448229  50.        ], [49.19136428833008]
[-22.78508192  10.28785897  50.        ], [49.35471987724304]
[-22.94386564   9.92869727  50.        ], [49.564297676086426]
[-23.09698831   9.56708581  50.        ], [49.738102197647095]
[-23.24441215   9.20311382  50.        ], [49.9015371799469]
[-23.38610077   8.83687109  50.        ], [50.061551094055176]
[-23.52201922   8.46844801  50.        ], [50.2223858833313]
[-23.65213397   8.09793545  50.        ], [50.378719329833984]
[-23.77641291   7.72542486  50.        ], [50.5305700302124]
[-23.89482537   7.35100813  50.        ], [50.68171668052673]
[-24.00734214   6.97477765  50.        ], [50.859028577804565]
[-24.11393546   6.59682625  50.        ], [51.01325583457947]
[-24.21457903   6.21724718  50.        ], [51.16634202003479]
[-24.30924801   5.8361341   50.        ], [51.317867279052734]
[-24.39791905   5.45358103  50.        ], [51.467960357666016]
[-24.48057027   5.06968238  50.        ], [51.61940622329712]
[-24.55718127   4.68453286  50.        ], [51.77228665351868]
[-24.62773315   4.29822751  50.        ], [51.950982332229614]
[-24.69220851   3.91086163  50.        ], [52.101887464523315]
[-24.75059144   3.5225308   50.        ], [52.25754761695862]
[-24.80286753   3.13333084  50.        ], [52.41188311576843]
[-24.84902389   2.74335778  50.        ], [52.56514620780945]
[-24.88904912   2.35270783  50.        ], [52.719892501831055]
[-24.92293334   1.96147739  50.        ], [52.87415170669556]
[-24.95066821   1.56976299  50.        ], [53.02798008918762]
[-24.97224687   1.17766127  50.        ], [53.17940926551819]
[-24.98766401   0.78526898  50.        ], [53.331785678863525]
[-24.99691581   0.39268293  50.        ], [53.48499393463135]
[-2.500000e+01  3.061617e-15  5.000000e+01], [53.6354775428772]
[-24.99691581  -0.39268293  50.        ], [53.787811279296875]
[-24.98766401  -0.78526898  50.        ], [53.94414019584656]
[-24.97224687  -1.17766127  50.        ], [54.13988208770752]
[-24.95066821  -1.56976299  50.        ], [54.29738712310791]
[-24.92293334  -1.96147739  50.        ], [54.45024347305298]
[-24.88904912  -2.35270783  50.        ], [54.6042218208313]
[-24.84902389  -2.74335778  50.        ], [54.756654262542725]
[-24.80286753  -3.13333084  50.        ], [54.909119606018066]
[-24.75059144  -3.5225308   50.        ], [55.06093764305115]
[-24.69220851  -3.91086163  50.        ], [55.2126669883728]
[-24.62773315  -4.29822751  50.        ], [55.365478515625]
[-24.55718127  -4.68453286  50.        ], [55.5485782623291]
[-24.48057027  -5.06968238  50.        ], [55.720441818237305]
[-24.39791905  -5.45358103  50.        ], [55.87276840209961]
[-24.30924801  -5.8361341   50.        ], [56.026994943618774]
[-24.21457903  -6.21724718  50.        ], [56.17841124534607]
[-24.11393546  -6.59682625  50.        ], [56.33016896247864]
[-24.00734214  -6.97477765  50.        ], [56.51493239402771]
[-23.89482537  -7.35100813  50.        ], [56.66588258743286]
[-23.77641291  -7.72542486  50.        ], [56.835670948028564]
[-23.65213397  -8.09793545  50.        ], [56.98968029022217]
[-23.52201922  -8.46844801  50.        ], [57.14567804336548]
[-23.38610077  -8.83687109  50.        ], [57.29828858375549]
[-23.24441215  -9.20311382  50.        ], [57.44809150695801]
[-23.09698831  -9.56708581  50.        ], [57.59920001029968]
[-22.94386564  -9.92869727  50.        ], [57.75117778778076]
[-22.78508192 -10.28785897  50.        ], [57.903393507003784]
[-22.62067631 -10.64448229  50.        ], [58.05610728263855]
[-22.45068939 -10.99847925  50.        ], [58.20795249938965]
[-22.2751631  -11.34976249  50.        ], [58.39041209220886]
[-22.09414075 -11.69824536  50.        ], [58.56154203414917]
[-21.907667   -12.04384185  50.        ], [58.71263122558594]
[-21.71578786 -12.38646671  50.        ], [58.86494326591492]
[-21.51855068 -12.72603539  50.        ], [59.016377687454224]
[-21.31600411 -13.06246412  50.        ], [59.167556285858154]
[-21.10819814 -13.39566987  50.        ], [59.31982374191284]
[-20.89518403 -13.72557045  50.        ], [59.50321650505066]
[-20.67701436 -14.05208445  50.        ], [59.6900372505188]
[-20.45374294 -14.3751313   50.        ], [59.84234690666199]
[-20.22542486 -14.69463131  50.        ], [59.994977712631226]
[-19.99211646 -15.01050563  50.        ], [60.17902970314026]
[-19.75387531 -15.32267634  50.        ], [60.36575198173523]
[-19.51076018 -15.63106641  50.        ], [60.5197069644928]
[-19.26283107 -15.93559974  50.        ], [60.70679974555969]
[-19.01014914 -16.23620121  50.        ], [60.8587965965271]
[-18.75277674 -16.53279663  50.        ], [61.01279544830322]
[-18.49077737 -16.82531284  50.        ], [61.1644082069397]
[-18.22421569 -17.11367765  50.        ], [61.348623752593994]
[-17.95315744 -17.39781991  50.        ], [61.5359148979187]
[-17.67766953 -17.67766953  50.        ], [61.68884634971619]
[-17.39781991 -17.95315744  50.        ], [61.84016036987305]
[-17.11367765 -18.22421569  50.        ], [61.9924533367157]
[-16.82531284 -18.49077737  50.        ], [62.143983602523804]
[-16.53279663 -18.75277674  50.        ], [62.29704475402832]
[-16.23620121 -19.01014914  50.        ], [62.44821763038635]
[-15.93559974 -19.26283107  50.        ], [62.605905532836914]
