[4.66457151e-310 4.66457209e-310 4.66457457e-310], [25.133819103240967]
[4.66457151e-310 4.66457209e-310 4.66457457e-310], [26.43971872329712]
[4.66457151e-310 4.66457209e-310 4.66457457e-310], [26.60001516342163]
[4.66457151e-310 4.66457209e-310 4.66457457e-310], [26.749463319778442]
[4.66457151e-310 4.66457209e-310 4.66457457e-310], [26.897729635238647]
[4.66457151e-310 4.66457209e-310 4.66457457e-310], [27.050768852233887]
[4.66457151e-310 4.66457209e-310 4.66457457e-310], [27.205967903137207]
[4.66457151e-310 4.66457209e-310 4.66457457e-310], [27.3709876537323]
[4.66457151e-310 4.66457209e-310 4.66457457e-310], [27.535505294799805]
[4.66457151e-310 4.66457209e-310 4.66457457e-310], [27.68344759941101]
[4.66457151e-310 4.66457209e-310 4.66457457e-310], [27.844356536865234]
[4.66457151e-310 4.66457209e-310 4.66457457e-310], [28.02004051208496]
[4.66457151e-310 4.66457209e-310 4.66457457e-310], [28.176696062088013]
[4.66457151e-310 4.66457209e-310 4.66457457e-310], [28.328213453292847]
[4.66457151e-310 4.66457209e-310 4.66457457e-310], [28.477991104125977]
[4.66457151e-310 4.66457209e-310 4.66457457e-310], [28.629242181777954]
[4.66457151e-310 4.66457209e-310 4.66457457e-310], [28.778908252716064]
[4.66457151e-310 4.66457209e-310 4.66457457e-310], [28.92872643470764]
[4.66457151e-310 4.66457209e-310 4.66457457e-310], [29.084099769592285]
[4.66457151e-310 4.66457209e-310 4.66457457e-310], [29.232635736465454]
[4.66457151e-310 4.66457209e-310 4.66457457e-310], [29.38236927986145]
[4.66457151e-310 4.66457209e-310 4.66457457e-310], [29.531478881835938]
[4.66457151e-310 4.66457209e-310 4.66457457e-310], [29.684326171875]
[4.66457151e-310 4.66457209e-310 4.66457457e-310], [29.8624587059021]
[4.66457151e-310 4.66457209e-310 4.66457457e-310], [30.012667179107666]
[4.66457151e-310 4.66457209e-310 4.66457457e-310], [30.162840604782104]
[4.66457151e-310 4.66457209e-310 4.66457457e-310], [30.311277866363525]
[4.66457151e-310 4.66457209e-310 4.66457457e-310], [30.460980892181396]
[4.66457151e-310 4.66457209e-310 4.66457457e-310], [30.609863996505737]
[4.66457151e-310 4.66457209e-310 4.66457457e-310], [30.759304523468018]
[4.66457151e-310 4.66457209e-310 4.66457457e-310], [30.910205841064453]
[4.66457151e-310 4.66457209e-310 4.66457457e-310], [31.060068130493164]
[4.66457151e-310 4.66457209e-310 4.66457457e-310], [31.213688611984253]
[4.66457151e-310 4.66457209e-310 4.66457457e-310], [31.36403751373291]
[4.66457151e-310 4.66457209e-310 4.66457457e-310], [31.51292395591736]
[4.66457151e-310 4.66457209e-310 4.66457457e-310], [31.660432815551758]
[4.66457151e-310 4.66457209e-310 4.66457457e-310], [31.809062480926514]
[4.66457151e-310 4.66457209e-310 4.66457457e-310], [31.961417198181152]
[4.66457151e-310 4.66457209e-310 4.66457457e-310], [32.113858222961426]
[4.66457151e-310 4.66457209e-310 4.66457457e-310], [32.262057304382324]
[4.66457151e-310 4.66457209e-310 4.66457457e-310], [32.411991596221924]
[4.66457151e-310 4.66457209e-310 4.66457457e-310], [32.55934977531433]
[4.66457151e-310 4.66457209e-310 4.66457457e-310], [32.70960211753845]
[4.66457151e-310 4.66457209e-310 4.66457457e-310], [32.8604474067688]
[4.66457151e-310 4.66457209e-310 4.66457457e-310], [33.00886249542236]
[4.66457151e-310 4.66457209e-310 4.66457457e-310], [33.15809440612793]
[4.66457151e-310 4.66457209e-310 4.66457457e-310], [33.33689498901367]
[4.66457151e-310 4.66457209e-310 4.66457457e-310], [33.48459482192993]
[4.66457151e-310 4.66457209e-310 4.66457457e-310], [33.63203954696655]
[4.66457151e-310 4.66457209e-310 4.66457457e-310], [33.780062198638916]
[4.66457151e-310 4.66457209e-310 4.66457457e-310], [33.93595314025879]
[4.66457151e-310 4.66457209e-310 4.66457457e-310], [34.084200859069824]
[4.66457151e-310 4.66457209e-310 4.66457457e-310], [34.23594903945923]
[4.66457151e-310 4.66457209e-310 4.66457457e-310], [34.3841826915741]
[4.66457151e-310 4.66457209e-310 4.66457457e-310], [34.53594613075256]
[4.66457151e-310 4.66457209e-310 4.66457457e-310], [34.68259930610657]
[4.66457151e-310 4.66457209e-310 4.66457457e-310], [34.83215570449829]
[4.66457151e-310 4.66457209e-310 4.66457457e-310], [35.01047325134277]
[4.66457151e-310 4.66457209e-310 4.66457457e-310], [35.15914821624756]
[4.66457151e-310 4.66457209e-310 4.66457457e-310], [35.30729627609253]
[4.66457151e-310 4.66457209e-310 4.66457457e-310], [35.45573687553406]
[4.66457151e-310 4.66457209e-310 4.66457457e-310], [35.605326890945435]
[4.66457151e-310 4.66457209e-310 4.66457457e-310], [35.78581690788269]
[4.66457151e-310 4.66457209e-310 4.66457457e-310], [35.959633111953735]
[4.66457151e-310 4.66457209e-310 4.66457457e-310], [36.11077666282654]
[4.66457151e-310 4.66457209e-310 4.66457457e-310], [36.259154081344604]
[4.66457151e-310 4.66457209e-310 4.66457457e-310], [36.40877866744995]
[4.66457151e-310 4.66457209e-310 4.66457457e-310], [36.55784034729004]
[4.66457151e-310 4.66457209e-310 4.66457457e-310], [36.73805618286133]
[4.66457151e-310 4.66457209e-310 4.66457457e-310], [36.88820505142212]
[4.66457151e-310 4.66457209e-310 4.66457457e-310], [37.03806138038635]
[4.66457151e-310 4.66457209e-310 4.66457457e-310], [37.19307851791382]
[4.66457151e-310 4.66457209e-310 4.66457457e-310], [37.3424870967865]
[4.66457151e-310 4.66457209e-310 4.66457457e-310], [37.49086308479309]
[4.66457151e-310 4.66457209e-310 4.66457457e-310], [37.639960289001465]
[4.66457151e-310 4.66457209e-310 4.66457457e-310], [37.78892493247986]
[4.66457151e-310 4.66457209e-310 4.66457457e-310], [37.93896985054016]
[4.66457151e-310 4.66457209e-310 4.66457457e-310], [38.08809804916382]
[4.66457151e-310 4.66457209e-310 4.66457457e-310], [38.23779106140137]
[4.66457151e-310 4.66457209e-310 4.66457457e-310], [38.38649129867554]
[4.66457151e-310 4.66457209e-310 4.66457457e-310], [38.53503108024597]
[4.66457151e-310 4.66457209e-310 4.66457457e-310], [38.6853301525116]
[4.66457151e-310 4.66457209e-310 4.66457457e-310], [38.83439016342163]
[4.66457151e-310 4.66457209e-310 4.66457457e-310], [38.98310112953186]
[4.66457151e-310 4.66457209e-310 4.66457457e-310], [39.13094782829285]
[4.66457151e-310 4.66457209e-310 4.66457457e-310], [39.278576135635376]
[4.66457151e-310 4.66457209e-310 4.66457457e-310], [39.42928075790405]
[4.66457151e-310 4.66457209e-310 4.66457457e-310], [39.582343101501465]
[4.66457151e-310 4.66457209e-310 4.66457457e-310], [39.74336290359497]
[4.66457151e-310 4.66457209e-310 4.66457457e-310], [39.89450979232788]
[4.66457151e-310 4.66457209e-310 4.66457457e-310], [40.04294943809509]
[4.66457151e-310 4.66457209e-310 4.66457457e-310], [40.194971323013306]
[4.66457151e-310 4.66457209e-310 4.66457457e-310], [40.34448862075806]
[4.66457151e-310 4.66457209e-310 4.66457457e-310], [40.49334931373596]
[4.66457151e-310 4.66457209e-310 4.66457457e-310], [40.67127585411072]
[4.66457151e-310 4.66457209e-310 4.66457457e-310], [40.82074546813965]
[4.66457151e-310 4.66457209e-310 4.66457457e-310], [41.0043683052063]
[4.66457151e-310 4.66457209e-310 4.66457457e-310], [41.15440559387207]
[4.66457151e-310 4.66457209e-310 4.66457457e-310], [41.30346751213074]
[4.66457151e-310 4.66457209e-310 4.66457457e-310], [41.45191049575806]
[4.66457151e-310 4.66457209e-310 4.66457457e-310], [41.600937604904175]
[4.66457151e-310 4.66457209e-310 4.66457457e-310], [41.750585317611694]
[4.66457151e-310 4.66457209e-310 4.66457457e-310], [41.900983572006226]
[4.66457151e-310 4.66457209e-310 4.66457457e-310], [42.049448013305664]
[4.66457151e-310 4.66457209e-310 4.66457457e-310], [42.19645380973816]
[4.66457151e-310 4.66457209e-310 4.66457457e-310], [42.34539246559143]
[4.66457151e-310 4.66457209e-310 4.66457457e-310], [42.49410676956177]
[4.66457151e-310 4.66457209e-310 4.66457457e-310], [42.6416277885437]
[4.66457151e-310 4.66457209e-310 4.66457457e-310], [42.79176354408264]
[4.66457151e-310 4.66457209e-310 4.66457457e-310], [42.940571308135986]
[4.66457151e-310 4.66457209e-310 4.66457457e-310], [43.09081053733826]
[4.66457151e-310 4.66457209e-310 4.66457457e-310], [43.245354652404785]
[4.66457151e-310 4.66457209e-310 4.66457457e-310], [43.39438796043396]
[4.66457151e-310 4.66457209e-310 4.66457457e-310], [43.5448431968689]
[4.66457151e-310 4.66457209e-310 4.66457457e-310], [43.69731545448303]
[4.66457151e-310 4.66457209e-310 4.66457457e-310], [43.870600938797]
[4.66457151e-310 4.66457209e-310 4.66457457e-310], [44.02180075645447]
[4.66457151e-310 4.66457209e-310 4.66457457e-310], [44.17265820503235]
[4.66457151e-310 4.66457209e-310 4.66457457e-310], [44.32272744178772]
[4.66457151e-310 4.66457209e-310 4.66457457e-310], [44.48078989982605]
[4.66457151e-310 4.66457209e-310 4.66457457e-310], [44.6335825920105]
[4.66457151e-310 4.66457209e-310 4.66457457e-310], [44.78192448616028]
[4.66457151e-310 4.66457209e-310 4.66457457e-310], [44.93238806724548]
[4.66457151e-310 4.66457209e-310 4.66457457e-310], [45.080519676208496]
[4.66457151e-310 4.66457209e-310 4.66457457e-310], [45.230544567108154]
[4.66457151e-310 4.66457209e-310 4.66457457e-310], [45.37789487838745]
[4.66457151e-310 4.66457209e-310 4.66457457e-310], [45.52781915664673]
[4.66457151e-310 4.66457209e-310 4.66457457e-310], [45.67666935920715]
[4.66457151e-310 4.66457209e-310 4.66457457e-310], [45.82649612426758]
[4.66457151e-310 4.66457209e-310 4.66457457e-310], [46.01631546020508]
[4.66457151e-310 4.66457209e-310 4.66457457e-310], [46.165714502334595]
[4.66457151e-310 4.66457209e-310 4.66457457e-310], [46.3155472278595]
[4.66457151e-310 4.66457209e-310 4.66457457e-310], [46.4640588760376]
[4.66457151e-310 4.66457209e-310 4.66457457e-310], [46.61288595199585]
[4.66457151e-310 4.66457209e-310 4.66457457e-310], [46.761353731155396]
[4.66457151e-310 4.66457209e-310 4.66457457e-310], [46.945308208465576]
[4.66457151e-310 4.66457209e-310 4.66457457e-310], [47.09594798088074]
[4.66457151e-310 4.66457209e-310 4.66457457e-310], [47.24660015106201]
[4.66457151e-310 4.66457209e-310 4.66457457e-310], [47.39478874206543]
[4.66457151e-310 4.66457209e-310 4.66457457e-310], [47.54637932777405]
[4.66457151e-310 4.66457209e-310 4.66457457e-310], [47.73405575752258]
[4.66457151e-310 4.66457209e-310 4.66457457e-310], [47.88317131996155]
[4.66457151e-310 4.66457209e-310 4.66457457e-310], [48.03386354446411]
[4.66457151e-310 4.66457209e-310 4.66457457e-310], [48.18195295333862]
[4.66457151e-310 4.66457209e-310 4.66457457e-310], [48.33211922645569]
[4.66457151e-310 4.66457209e-310 4.66457457e-310], [48.48243021965027]
[4.66457151e-310 4.66457209e-310 4.66457457e-310], [48.631736755371094]
[4.66457151e-310 4.66457209e-310 4.66457457e-310], [48.78455090522766]
[4.66457151e-310 4.66457209e-310 4.66457457e-310], [48.93550682067871]
[4.66457151e-310 4.66457209e-310 4.66457457e-310], [49.15271711349487]
[4.66457151e-310 4.66457209e-310 4.66457457e-310], [49.36955380439758]
[4.66457151e-310 4.66457209e-310 4.66457457e-310], [49.53013849258423]
[4.66457151e-310 4.66457209e-310 4.66457457e-310], [49.68357992172241]
[4.66457151e-310 4.66457209e-310 4.66457457e-310], [49.83698010444641]
[4.66457151e-310 4.66457209e-310 4.66457457e-310], [49.99033832550049]
[4.66457151e-310 4.66457209e-310 4.66457457e-310], [50.142568588256836]
[4.66457151e-310 4.66457209e-310 4.66457457e-310], [50.29599714279175]
[4.66457151e-310 4.66457209e-310 4.66457457e-310], [50.46861481666565]
[4.66457151e-310 4.66457209e-310 4.66457457e-310], [50.62865471839905]
[4.66457151e-310 4.66457209e-310 4.66457457e-310], [50.77786827087402]
[4.66457151e-310 4.66457209e-310 4.66457457e-310], [50.92757201194763]
[4.66457151e-310 4.66457209e-310 4.66457457e-310], [51.07629728317261]
[4.66457151e-310 4.66457209e-310 4.66457457e-310], [51.22608423233032]
[4.66457151e-310 4.66457209e-310 4.66457457e-310], [51.37488126754761]
[4.66457151e-310 4.66457209e-310 4.66457457e-310], [51.524123191833496]
[4.66457151e-310 4.66457209e-310 4.66457457e-310], [51.67399573326111]
[4.66457151e-310 4.66457209e-310 4.66457457e-310], [51.823790550231934]
[4.66457151e-310 4.66457209e-310 4.66457457e-310], [51.97345471382141]
[4.66457151e-310 4.66457209e-310 4.66457457e-310], [52.13232231140137]
[4.66457151e-310 4.66457209e-310 4.66457457e-310], [52.28111219406128]
[4.66457151e-310 4.66457209e-310 4.66457457e-310], [52.43115568161011]
[4.66457151e-310 4.66457209e-310 4.66457457e-310], [52.584450006484985]
[4.66457151e-310 4.66457209e-310 4.66457457e-310], [52.7344810962677]
[4.66457151e-310 4.66457209e-310 4.66457457e-310], [52.883750677108765]
[4.66457151e-310 4.66457209e-310 4.66457457e-310], [53.03302335739136]
[4.66457151e-310 4.66457209e-310 4.66457457e-310], [53.182066679000854]
[4.66457151e-310 4.66457209e-310 4.66457457e-310], [53.33564114570618]
[4.66457151e-310 4.66457209e-310 4.66457457e-310], [53.48965239524841]
[4.66457151e-310 4.66457209e-310 4.66457457e-310], [53.645065784454346]
[4.66457151e-310 4.66457209e-310 4.66457457e-310], [53.794270038604736]
[4.66457151e-310 4.66457209e-310 4.66457457e-310], [53.943591833114624]
[4.66457151e-310 4.66457209e-310 4.66457457e-310], [54.104803800582886]
[4.66457151e-310 4.66457209e-310 4.66457457e-310], [54.25381398200989]
[4.66457151e-310 4.66457209e-310 4.66457457e-310], [54.40292429924011]
[4.66457151e-310 4.66457209e-310 4.66457457e-310], [54.55601501464844]
[4.66457151e-310 4.66457209e-310 4.66457457e-310], [54.70639753341675]
[4.66457151e-310 4.66457209e-310 4.66457457e-310], [54.85458993911743]
[4.66457151e-310 4.66457209e-310 4.66457457e-310], [55.00347948074341]
[4.66457151e-310 4.66457209e-310 4.66457457e-310], [55.15554332733154]
[4.66457151e-310 4.66457209e-310 4.66457457e-310], [55.30491638183594]
[4.66457151e-310 4.66457209e-310 4.66457457e-310], [55.45387268066406]
[4.66457151e-310 4.66457209e-310 4.66457457e-310], [55.60244822502136]
[4.66457151e-310 4.66457209e-310 4.66457457e-310], [55.78148078918457]
[4.66457151e-310 4.66457209e-310 4.66457457e-310], [55.96069884300232]
[4.66457151e-310 4.66457209e-310 4.66457457e-310], [56.184417486190796]
[4.66457151e-310 4.66457209e-310 4.66457457e-310], [56.33756732940674]
[4.66457151e-310 4.66457209e-310 4.66457457e-310], [56.489447355270386]
[4.66457151e-310 4.66457209e-310 4.66457457e-310], [56.641040086746216]
[4.66457151e-310 4.66457209e-310 4.66457457e-310], [56.79202103614807]
[4.66457151e-310 4.66457209e-310 4.66457457e-310], [56.94333338737488]
[4.66457151e-310 4.66457209e-310 4.66457457e-310], [57.09549427032471]
[4.66457151e-310 4.66457209e-310 4.66457457e-310], [57.24966096878052]
[4.66457151e-310 4.66457209e-310 4.66457457e-310], [57.39926242828369]
[4.66457151e-310 4.66457209e-310 4.66457457e-310], [57.55183291435242]
[4.66457151e-310 4.66457209e-310 4.66457457e-310], [57.73527431488037]
[4.66457151e-310 4.66457209e-310 4.66457457e-310], [57.91702318191528]
[4.66457151e-310 4.66457209e-310 4.66457457e-310], [58.067713260650635]
[4.66457151e-310 4.66457209e-310 4.66457457e-310], [58.21838426589966]
[4.66457151e-310 4.66457209e-310 4.66457457e-310], [58.368977069854736]
[4.66457151e-310 4.66457209e-310 4.66457457e-310], [58.52338624000549]
[4.66457151e-310 4.66457209e-310 4.66457457e-310], [58.68119430541992]
[4.66457151e-310 4.66457209e-310 4.66457457e-310], [58.8327751159668]
[4.66457151e-310 4.66457209e-310 4.66457457e-310], [58.984867572784424]
[4.66457151e-310 4.66457209e-310 4.66457457e-310], [59.13750100135803]
[4.66457151e-310 4.66457209e-310 4.66457457e-310], [59.28500699996948]
[4.66457151e-310 4.66457209e-310 4.66457457e-310], [59.434895038604736]
[4.66457151e-310 4.66457209e-310 4.66457457e-310], [59.588762521743774]
[4.66457151e-310 4.66457209e-310 4.66457457e-310], [59.73900032043457]
[4.66457151e-310 4.66457209e-310 4.66457457e-310], [59.88861107826233]
[4.66457151e-310 4.66457209e-310 4.66457457e-310], [60.04106950759888]
[4.66457151e-310 4.66457209e-310 4.66457457e-310], [60.20205116271973]
[4.66457151e-310 4.66457209e-310 4.66457457e-310], [60.35458445549011]
[4.66457151e-310 4.66457209e-310 4.66457457e-310], [60.506523847579956]
[4.66457151e-310 4.66457209e-310 4.66457457e-310], [60.65613317489624]
[4.66457151e-310 4.66457209e-310 4.66457457e-310], [60.805325746536255]
[4.66457151e-310 4.66457209e-310 4.66457457e-310], [60.954243659973145]
[4.66457151e-310 4.66457209e-310 4.66457457e-310], [61.10314130783081]
[4.66457151e-310 4.66457209e-310 4.66457457e-310], [61.25313401222229]
[4.66457151e-310 4.66457209e-310 4.66457457e-310], [61.40067386627197]
[4.66457151e-310 4.66457209e-310 4.66457457e-310], [61.67162370681763]
[4.66457151e-310 4.66457209e-310 4.66457457e-310], [61.834370613098145]
[4.66457151e-310 4.66457209e-310 4.66457457e-310], [61.98521041870117]
[4.66457151e-310 4.66457209e-310 4.66457457e-310], [62.13531136512756]
[4.66457151e-310 4.66457209e-310 4.66457457e-310], [62.31280016899109]
[4.66457151e-310 4.66457209e-310 4.66457457e-310], [62.469109773635864]
[4.66457151e-310 4.66457209e-310 4.66457457e-310], [62.63802242279053]
[4.66457151e-310 4.66457209e-310 4.66457457e-310], [62.78525257110596]
[4.66457151e-310 4.66457209e-310 4.66457457e-310], [62.933558225631714]
[4.66457151e-310 4.66457209e-310 4.66457457e-310], [63.08388805389404]
[4.66457151e-310 4.66457209e-310 4.66457457e-310], [63.25960874557495]
[4.66457151e-310 4.66457209e-310 4.66457457e-310], [63.4092800617218]
[4.66457151e-310 4.66457209e-310 4.66457457e-310], [63.55940103530884]
[4.66457151e-310 4.66457209e-310 4.66457457e-310], [63.707587003707886]
[4.66457151e-310 4.66457209e-310 4.66457457e-310], [63.8578519821167]
[4.66457151e-310 4.66457209e-310 4.66457457e-310], [64.03971076011658]
[4.66457151e-310 4.66457209e-310 4.66457457e-310], [64.19008946418762]
[4.66457151e-310 4.66457209e-310 4.66457457e-310], [64.3384656906128]
[4.66457151e-310 4.66457209e-310 4.66457457e-310], [64.49063491821289]
[4.66457151e-310 4.66457209e-310 4.66457457e-310], [64.64529728889465]
[4.66457151e-310 4.66457209e-310 4.66457457e-310], [64.7958345413208]
[4.66457151e-310 4.66457209e-310 4.66457457e-310], [64.94769716262817]
[4.66457151e-310 4.66457209e-310 4.66457457e-310], [65.09944725036621]
[4.66457151e-310 4.66457209e-310 4.66457457e-310], [65.25259327888489]
[4.66457151e-310 4.66457209e-310 4.66457457e-310], [65.40178966522217]
[4.66457151e-310 4.66457209e-310 4.66457457e-310], [65.56021070480347]
[4.66457151e-310 4.66457209e-310 4.66457457e-310], [65.71132063865662]
[4.66457151e-310 4.66457209e-310 4.66457457e-310], [65.87005114555359]
[4.66457151e-310 4.66457209e-310 4.66457457e-310], [66.02230715751648]
[4.66457151e-310 4.66457209e-310 4.66457457e-310], [66.17896032333374]
[4.66457151e-310 4.66457209e-310 4.66457457e-310], [66.33454585075378]
[4.66457151e-310 4.66457209e-310 4.66457457e-310], [66.48948621749878]
[4.66457151e-310 4.66457209e-310 4.66457457e-310], [66.64529919624329]
[4.66457151e-310 4.66457209e-310 4.66457457e-310], [66.79495739936829]
[4.66457151e-310 4.66457209e-310 4.66457457e-310], [66.94599342346191]
[4.66457151e-310 4.66457209e-310 4.66457457e-310], [67.0971577167511]
[4.66457151e-310 4.66457209e-310 4.66457457e-310], [67.27327919006348]
[4.66457151e-310 4.66457209e-310 4.66457457e-310], [67.42346811294556]
[4.66457151e-310 4.66457209e-310 4.66457457e-310], [67.57548546791077]
[4.66457151e-310 4.66457209e-310 4.66457457e-310], [67.75681209564209]
[4.66457151e-310 4.66457209e-310 4.66457457e-310], [67.90873146057129]
[4.66457151e-310 4.66457209e-310 4.66457457e-310], [68.0576651096344]
[4.66457151e-310 4.66457209e-310 4.66457457e-310], [68.20619702339172]
[4.66457151e-310 4.66457209e-310 4.66457457e-310], [68.35576915740967]
[4.66457151e-310 4.66457209e-310 4.66457457e-310], [68.53686928749084]
[4.66457151e-310 4.66457209e-310 4.66457457e-310], [68.70581364631653]
[4.66457151e-310 4.66457209e-310 4.66457457e-310], [68.87024116516113]
[4.66457151e-310 4.66457209e-310 4.66457457e-310], [69.02148795127869]
[4.66457151e-310 4.66457209e-310 4.66457457e-310], [69.17459726333618]
[4.66457151e-310 4.66457209e-310 4.66457457e-310], [69.32913851737976]
[4.66457151e-310 4.66457209e-310 4.66457457e-310], [69.48180103302002]
[4.66457151e-310 4.66457209e-310 4.66457457e-310], [69.63487982749939]
[4.66457151e-310 4.66457209e-310 4.66457457e-310], [69.78693723678589]
[4.66457151e-310 4.66457209e-310 4.66457457e-310], [69.9407525062561]
[4.66457151e-310 4.66457209e-310 4.66457457e-310], [70.09154796600342]
[4.66457151e-310 4.66457209e-310 4.66457457e-310], [70.24744701385498]
[4.66457151e-310 4.66457209e-310 4.66457457e-310], [70.40242004394531]
[4.66457151e-310 4.66457209e-310 4.66457457e-310], [70.55502009391785]
[4.66457151e-310 4.66457209e-310 4.66457457e-310], [70.70536661148071]
[4.66457151e-310 4.66457209e-310 4.66457457e-310], [70.85891580581665]
[4.66457151e-310 4.66457209e-310 4.66457457e-310], [71.00883483886719]
[4.66457151e-310 4.66457209e-310 4.66457457e-310], [71.15840601921082]
[4.66457151e-310 4.66457209e-310 4.66457457e-310], [71.35530114173889]
[4.66457151e-310 4.66457209e-310 4.66457457e-310], [71.5053174495697]
[4.66457151e-310 4.66457209e-310 4.66457457e-310], [71.68546175956726]
[4.66457151e-310 4.66457209e-310 4.66457457e-310], [71.8658230304718]
[4.66457151e-310 4.66457209e-310 4.66457457e-310], [72.01438426971436]
[4.66457151e-310 4.66457209e-310 4.66457457e-310], [72.1941089630127]
[4.66457151e-310 4.66457209e-310 4.66457457e-310], [72.34244561195374]
[4.66457151e-310 4.66457209e-310 4.66457457e-310], [72.49039363861084]
[4.66457151e-310 4.66457209e-310 4.66457457e-310], [72.63897967338562]
[4.66457151e-310 4.66457209e-310 4.66457457e-310], [72.78791618347168]
[4.66457151e-310 4.66457209e-310 4.66457457e-310], [72.93878054618835]
[4.66457151e-310 4.66457209e-310 4.66457457e-310], [73.08778667449951]
[4.66457151e-310 4.66457209e-310 4.66457457e-310], [73.23931765556335]
[4.66457151e-310 4.66457209e-310 4.66457457e-310], [73.39196610450745]
[4.66457151e-310 4.66457209e-310 4.66457457e-310], [73.5452811717987]
[4.66457151e-310 4.66457209e-310 4.66457457e-310], [73.70364117622375]
[4.66457151e-310 4.66457209e-310 4.66457457e-310], [73.85428881645203]
[4.66457151e-310 4.66457209e-310 4.66457457e-310], [74.03357195854187]
[4.66457151e-310 4.66457209e-310 4.66457457e-310], [74.18413400650024]
[4.66457151e-310 4.66457209e-310 4.66457457e-310], [74.33533120155334]
[4.66457151e-310 4.66457209e-310 4.66457457e-310], [74.48747873306274]
[4.66457151e-310 4.66457209e-310 4.66457457e-310], [74.64285516738892]
[4.66457151e-310 4.66457209e-310 4.66457457e-310], [74.79434394836426]
[4.66457151e-310 4.66457209e-310 4.66457457e-310], [74.94563603401184]
[4.66457151e-310 4.66457209e-310 4.66457457e-310], [75.09507179260254]
[4.66457151e-310 4.66457209e-310 4.66457457e-310], [75.24738121032715]
[4.66457151e-310 4.66457209e-310 4.66457457e-310], [75.39911079406738]
[4.66457151e-310 4.66457209e-310 4.66457457e-310], [75.55320572853088]
[4.66457151e-310 4.66457209e-310 4.66457457e-310], [75.70512461662292]
[4.66457151e-310 4.66457209e-310 4.66457457e-310], [75.85732364654541]
[4.66457151e-310 4.66457209e-310 4.66457457e-310], [76.0060305595398]
[4.66457151e-310 4.66457209e-310 4.66457457e-310], [76.15843486785889]
[4.66457151e-310 4.66457209e-310 4.66457457e-310], [76.30845189094543]
[4.66457151e-310 4.66457209e-310 4.66457457e-310], [76.45769429206848]
[4.66457151e-310 4.66457209e-310 4.66457457e-310], [76.63777613639832]
[4.66457151e-310 4.66457209e-310 4.66457457e-310], [76.81921863555908]
[4.66457151e-310 4.66457209e-310 4.66457457e-310], [76.96846413612366]
[4.66457151e-310 4.66457209e-310 4.66457457e-310], [77.15443587303162]
[4.66457151e-310 4.66457209e-310 4.66457457e-310], [77.31979441642761]
[4.66457151e-310 4.66457209e-310 4.66457457e-310], [77.4694573879242]
[4.66457151e-310 4.66457209e-310 4.66457457e-310], [77.62383842468262]
[4.66457151e-310 4.66457209e-310 4.66457457e-310], [77.77236795425415]
[4.66457151e-310 4.66457209e-310 4.66457457e-310], [77.92194962501526]
[4.66457151e-310 4.66457209e-310 4.66457457e-310], [78.10485816001892]
[4.66457151e-310 4.66457209e-310 4.66457457e-310], [78.25681614875793]
[4.66457151e-310 4.66457209e-310 4.66457457e-310], [78.40594625473022]
[4.66457151e-310 4.66457209e-310 4.66457457e-310], [78.59071350097656]
[4.66457151e-310 4.66457209e-310 4.66457457e-310], [78.77217054367065]
[4.66457151e-310 4.66457209e-310 4.66457457e-310], [78.92338228225708]
[4.66457151e-310 4.66457209e-310 4.66457457e-310], [79.10523653030396]
[4.66457151e-310 4.66457209e-310 4.66457457e-310], [79.25716090202332]
[4.66457151e-310 4.66457209e-310 4.66457457e-310], [79.40905332565308]
[4.66457151e-310 4.66457209e-310 4.66457457e-310], [79.5598316192627]
[4.66457151e-310 4.66457209e-310 4.66457457e-310], [79.70928001403809]
[4.66457151e-310 4.66457209e-310 4.66457457e-310], [79.86538314819336]
[4.66457151e-310 4.66457209e-310 4.66457457e-310], [80.0142810344696]
[4.66457151e-310 4.66457209e-310 4.66457457e-310], [80.1643238067627]
[4.66457151e-310 4.66457209e-310 4.66457457e-310], [80.31322240829468]
[4.66457151e-310 4.66457209e-310 4.66457457e-310], [80.4616596698761]
[4.66457151e-310 4.66457209e-310 4.66457457e-310], [80.62185645103455]
[4.66457151e-310 4.66457209e-310 4.66457457e-310], [80.77178072929382]
[4.66457151e-310 4.66457209e-310 4.66457457e-310], [80.922199010849]
[4.66457151e-310 4.66457209e-310 4.66457457e-310], [81.07013702392578]
[4.66457151e-310 4.66457209e-310 4.66457457e-310], [81.2204167842865]
[4.66457151e-310 4.66457209e-310 4.66457457e-310], [81.36867356300354]
[4.66457151e-310 4.66457209e-310 4.66457457e-310], [81.5173590183258]
[4.66457151e-310 4.66457209e-310 4.66457457e-310], [81.66572213172913]
[4.66457151e-310 4.66457209e-310 4.66457457e-310], [81.81477069854736]
[4.66457151e-310 4.66457209e-310 4.66457457e-310], [81.96348571777344]
[4.66457151e-310 4.66457209e-310 4.66457457e-310], [82.11765217781067]
[4.66457151e-310 4.66457209e-310 4.66457457e-310], [82.29214811325073]
[4.66457151e-310 4.66457209e-310 4.66457457e-310], [82.44257020950317]
[4.66457151e-310 4.66457209e-310 4.66457457e-310], [82.5922360420227]
[4.66457151e-310 4.66457209e-310 4.66457457e-310], [82.7424066066742]
[4.66457151e-310 4.66457209e-310 4.66457457e-310], [82.89315629005432]
[4.66457151e-310 4.66457209e-310 4.66457457e-310], [83.04383873939514]
[4.66457151e-310 4.66457209e-310 4.66457457e-310], [83.19275116920471]
[4.66457151e-310 4.66457209e-310 4.66457457e-310], [83.39896726608276]
[4.66457151e-310 4.66457209e-310 4.66457457e-310], [83.55011534690857]
[4.66457151e-310 4.66457209e-310 4.66457457e-310], [83.70574426651001]
[4.66457151e-310 4.66457209e-310 4.66457457e-310], [83.85663390159607]
[4.66457151e-310 4.66457209e-310 4.66457457e-310], [84.00709342956543]
[4.66457151e-310 4.66457209e-310 4.66457457e-310], [84.15924501419067]
[4.66457151e-310 4.66457209e-310 4.66457457e-310], [84.30833888053894]
[4.66457151e-310 4.66457209e-310 4.66457457e-310], [84.46013188362122]
[4.66457151e-310 4.66457209e-310 4.66457457e-310], [84.60952949523926]
[4.66457151e-310 4.66457209e-310 4.66457457e-310], [84.75989842414856]
[4.66457151e-310 4.66457209e-310 4.66457457e-310], [84.91041970252991]
[4.66457151e-310 4.66457209e-310 4.66457457e-310], [85.06026673316956]
[4.66457151e-310 4.66457209e-310 4.66457457e-310], [85.21366047859192]
[4.66457151e-310 4.66457209e-310 4.66457457e-310], [85.36534214019775]
[4.66457151e-310 4.66457209e-310 4.66457457e-310], [85.5141806602478]
[4.66457151e-310 4.66457209e-310 4.66457457e-310], [85.6642279624939]
[4.66457151e-310 4.66457209e-310 4.66457457e-310], [85.81249499320984]
[4.66457151e-310 4.66457209e-310 4.66457457e-310], [85.96125912666321]
[4.66457151e-310 4.66457209e-310 4.66457457e-310], [86.14671325683594]
[4.66457151e-310 4.66457209e-310 4.66457457e-310], [86.29401779174805]
[4.66457151e-310 4.66457209e-310 4.66457457e-310], [86.445232629776]
[4.66457151e-310 4.66457209e-310 4.66457457e-310], [86.62828469276428]
[4.66457151e-310 4.66457209e-310 4.66457457e-310], [86.77858710289001]
[4.66457151e-310 4.66457209e-310 4.66457457e-310], [86.92963171005249]
[4.66457151e-310 4.66457209e-310 4.66457457e-310], [87.07952833175659]
[4.66457151e-310 4.66457209e-310 4.66457457e-310], [87.23249888420105]
[4.66457151e-310 4.66457209e-310 4.66457457e-310], [87.37969636917114]
[4.66457151e-310 4.66457209e-310 4.66457457e-310], [87.5290424823761]
[4.66457151e-310 4.66457209e-310 4.66457457e-310], [87.67901039123535]
[4.66457151e-310 4.66457209e-310 4.66457457e-310], [87.82878255844116]
[4.66457151e-310 4.66457209e-310 4.66457457e-310], [87.97769331932068]
[4.66457151e-310 4.66457209e-310 4.66457457e-310], [88.12924838066101]
[4.66457151e-310 4.66457209e-310 4.66457457e-310], [88.29661726951599]
[4.66457151e-310 4.66457209e-310 4.66457457e-310], [88.44673323631287]
[4.66457151e-310 4.66457209e-310 4.66457457e-310], [88.5982780456543]
[4.66457151e-310 4.66457209e-310 4.66457457e-310], [88.77540683746338]
[4.66457151e-310 4.66457209e-310 4.66457457e-310], [88.92772054672241]
[4.66457151e-310 4.66457209e-310 4.66457457e-310], [89.07909417152405]
[4.66457151e-310 4.66457209e-310 4.66457457e-310], [89.23043823242188]
[4.66457151e-310 4.66457209e-310 4.66457457e-310], [89.37943243980408]
[4.66457151e-310 4.66457209e-310 4.66457457e-310], [89.52918601036072]
[4.66457151e-310 4.66457209e-310 4.66457457e-310], [89.67985486984253]
[4.66457151e-310 4.66457209e-310 4.66457457e-310], [89.82933139801025]
[4.66457151e-310 4.66457209e-310 4.66457457e-310], [89.98028421401978]
[4.66457151e-310 4.66457209e-310 4.66457457e-310], [90.13624835014343]
[4.66457151e-310 4.66457209e-310 4.66457457e-310], [90.28564071655273]
[4.66457151e-310 4.66457209e-310 4.66457457e-310], [90.43469095230103]
[4.66457151e-310 4.66457209e-310 4.66457457e-310], [90.58314394950867]
[4.66457151e-310 4.66457209e-310 4.66457457e-310], [90.73401880264282]
[4.66457151e-310 4.66457209e-310 4.66457457e-310], [90.89804911613464]
[4.66457151e-310 4.66457209e-310 4.66457457e-310], [91.05612063407898]
[4.66457151e-310 4.66457209e-310 4.66457457e-310], [91.21012115478516]
[4.66457151e-310 4.66457209e-310 4.66457457e-310], [91.35984134674072]
[4.66457151e-310 4.66457209e-310 4.66457457e-310], [91.50851321220398]
[4.66457151e-310 4.66457209e-310 4.66457457e-310], [91.65793323516846]
[4.66457151e-310 4.66457209e-310 4.66457457e-310], [91.80665612220764]
[4.66457151e-310 4.66457209e-310 4.66457457e-310], [91.95567989349365]
[4.66457151e-310 4.66457209e-310 4.66457457e-310], [92.1080334186554]
[4.66457151e-310 4.66457209e-310 4.66457457e-310], [92.25694632530212]
[4.66457151e-310 4.66457209e-310 4.66457457e-310], [92.4092264175415]
[4.66457151e-310 4.66457209e-310 4.66457457e-310], [92.59173440933228]
[4.66457151e-310 4.66457209e-310 4.66457457e-310], [92.74589848518372]
[4.66457151e-310 4.66457209e-310 4.66457457e-310], [92.89707636833191]
[4.66457151e-310 4.66457209e-310 4.66457457e-310], [93.04907751083374]
[4.66457151e-310 4.66457209e-310 4.66457457e-310], [93.23365831375122]
[4.66457151e-310 4.66457209e-310 4.66457457e-310], [93.38534498214722]
[4.66457151e-310 4.66457209e-310 4.66457457e-310], [93.53636479377747]
[4.66457151e-310 4.66457209e-310 4.66457457e-310], [93.71593475341797]
[4.66457151e-310 4.66457209e-310 4.66457457e-310], [93.8754026889801]
[4.66457151e-310 4.66457209e-310 4.66457457e-310], [94.02750754356384]
[4.66457151e-310 4.66457209e-310 4.66457457e-310], [94.17928957939148]
[4.66457151e-310 4.66457209e-310 4.66457457e-310], [94.33208346366882]
[4.66457151e-310 4.66457209e-310 4.66457457e-310], [94.48480033874512]
[4.66457151e-310 4.66457209e-310 4.66457457e-310], [94.632807970047]
[4.66457151e-310 4.66457209e-310 4.66457457e-310], [94.78112268447876]
[4.66457151e-310 4.66457209e-310 4.66457457e-310], [94.93574380874634]
[4.66457151e-310 4.66457209e-310 4.66457457e-310], [95.0862205028534]
[4.66457151e-310 4.66457209e-310 4.66457457e-310], [95.23871564865112]
[4.66457151e-310 4.66457209e-310 4.66457457e-310], [95.38993167877197]
[4.66457151e-310 4.66457209e-310 4.66457457e-310], [95.54267930984497]
[4.66457151e-310 4.66457209e-310 4.66457457e-310], [95.69994616508484]
[4.66457151e-310 4.66457209e-310 4.66457457e-310], [95.85155534744263]
[4.66457151e-310 4.66457209e-310 4.66457457e-310], [96.00132918357849]
[4.66457151e-310 4.66457209e-310 4.66457457e-310], [96.15167689323425]
[4.66457151e-310 4.66457209e-310 4.66457457e-310], [96.30139064788818]
[4.66457151e-310 4.66457209e-310 4.66457457e-310], [96.45249843597412]
[4.66457151e-310 4.66457209e-310 4.66457457e-310], [96.60424208641052]
[4.66457151e-310 4.66457209e-310 4.66457457e-310], [96.75675129890442]
[4.66457151e-310 4.66457209e-310 4.66457457e-310], [96.90837955474854]
[4.66457151e-310 4.66457209e-310 4.66457457e-310], [97.0596125125885]
[4.66457151e-310 4.66457209e-310 4.66457457e-310], [97.21612668037415]
[4.66457151e-310 4.66457209e-310 4.66457457e-310], [97.3668098449707]
[4.66457151e-310 4.66457209e-310 4.66457457e-310], [97.51813983917236]
[4.66457151e-310 4.66457209e-310 4.66457457e-310], [97.66886591911316]
[4.66457151e-310 4.66457209e-310 4.66457457e-310], [97.820383310318]
[4.66457151e-310 4.66457209e-310 4.66457457e-310], [97.97188091278076]
[4.66457151e-310 4.66457209e-310 4.66457457e-310], [98.12369465827942]
[4.66457151e-310 4.66457209e-310 4.66457457e-310], [98.27739691734314]
[4.66457151e-310 4.66457209e-310 4.66457457e-310], [98.43005537986755]
[4.66457151e-310 4.66457209e-310 4.66457457e-310], [98.6286072731018]
[4.66457151e-310 4.66457209e-310 4.66457457e-310], [98.78176188468933]
[4.66457151e-310 4.66457209e-310 4.66457457e-310], [98.93051314353943]
[4.66457151e-310 4.66457209e-310 4.66457457e-310], [99.07881689071655]
[4.66457151e-310 4.66457209e-310 4.66457457e-310], [99.22810959815979]
[4.66457151e-310 4.66457209e-310 4.66457457e-310], [99.37778377532959]
[4.66457151e-310 4.66457209e-310 4.66457457e-310], [99.53149127960205]
[4.66457151e-310 4.66457209e-310 4.66457457e-310], [99.68045926094055]
[4.66457151e-310 4.66457209e-310 4.66457457e-310], [99.82898020744324]
[4.66457151e-310 4.66457209e-310 4.66457457e-310], [99.97893857955933]
[4.66457151e-310 4.66457209e-310 4.66457457e-310], [100.13475918769836]
[4.66457151e-310 4.66457209e-310 4.66457457e-310], [100.2856867313385]
[4.66457151e-310 4.66457209e-310 4.66457457e-310], [100.46348476409912]
[4.66457151e-310 4.66457209e-310 4.66457457e-310], [100.61684846878052]
[4.66457151e-310 4.66457209e-310 4.66457457e-310], [100.76852035522461]
[4.66457151e-310 4.66457209e-310 4.66457457e-310], [100.9207284450531]
[4.66457151e-310 4.66457209e-310 4.66457457e-310], [101.0755672454834]
[4.66457151e-310 4.66457209e-310 4.66457457e-310], [101.2303307056427]
[4.66457151e-310 4.66457209e-310 4.66457457e-310], [101.3812735080719]
[4.66457151e-310 4.66457209e-310 4.66457457e-310], [101.53410744667053]
[4.66457151e-310 4.66457209e-310 4.66457457e-310], [101.71569108963013]
[4.66457151e-310 4.66457209e-310 4.66457457e-310], [101.86698079109192]
[4.66457151e-310 4.66457209e-310 4.66457457e-310], [102.01854753494263]
[4.66457151e-310 4.66457209e-310 4.66457457e-310], [102.17136025428772]
[4.66457151e-310 4.66457209e-310 4.66457457e-310], [102.32072877883911]
[4.66457151e-310 4.66457209e-310 4.66457457e-310], [102.46956729888916]
[4.66457151e-310 4.66457209e-310 4.66457457e-310], [102.61808729171753]
[4.66457151e-310 4.66457209e-310 4.66457457e-310], [102.76865148544312]
[4.66457151e-310 4.66457209e-310 4.66457457e-310], [102.91874361038208]
[4.66457151e-310 4.66457209e-310 4.66457457e-310], [103.06982755661011]
[4.66457151e-310 4.66457209e-310 4.66457457e-310], [103.22676229476929]
[4.66457151e-310 4.66457209e-310 4.66457457e-310], [103.37742948532104]
[4.66457151e-310 4.66457209e-310 4.66457457e-310], [103.52953600883484]
[4.66457151e-310 4.66457209e-310 4.66457457e-310], [103.68563103675842]
[4.66457151e-310 4.66457209e-310 4.66457457e-310], [103.85083746910095]
[4.66457151e-310 4.66457209e-310 4.66457457e-310], [104.00417399406433]
[4.66457151e-310 4.66457209e-310 4.66457457e-310], [104.15748143196106]
[4.66457151e-310 4.66457209e-310 4.66457457e-310], [104.33600330352783]
[4.66457151e-310 4.66457209e-310 4.66457457e-310], [104.48826193809509]
[4.66457151e-310 4.66457209e-310 4.66457457e-310], [104.64107465744019]
[4.66457151e-310 4.66457209e-310 4.66457457e-310], [104.81808638572693]
[4.66457151e-310 4.66457209e-310 4.66457457e-310], [104.99553871154785]
[4.66457151e-310 4.66457209e-310 4.66457457e-310], [105.14429831504822]
[4.66457151e-310 4.66457209e-310 4.66457457e-310], [105.29398250579834]
[4.66457151e-310 4.66457209e-310 4.66457457e-310], [105.44511103630066]
[4.66457151e-310 4.66457209e-310 4.66457457e-310], [105.59583640098572]
[4.66457151e-310 4.66457209e-310 4.66457457e-310], [105.74623608589172]
[4.66457151e-310 4.66457209e-310 4.66457457e-310], [105.89605474472046]
[4.66457151e-310 4.66457209e-310 4.66457457e-310], [106.04437446594238]
[4.66457151e-310 4.66457209e-310 4.66457457e-310], [106.1969006061554]
[4.66457151e-310 4.66457209e-310 4.66457457e-310], [106.3462643623352]
[4.66457151e-310 4.66457209e-310 4.66457457e-310], [106.49547839164734]
[4.66457151e-310 4.66457209e-310 4.66457457e-310], [106.64418005943298]
[4.66457151e-310 4.66457209e-310 4.66457457e-310], [106.79306387901306]
[4.66457151e-310 4.66457209e-310 4.66457457e-310], [106.97530007362366]
[4.66457151e-310 4.66457209e-310 4.66457457e-310], [107.12485814094543]
[4.66457151e-310 4.66457209e-310 4.66457457e-310], [107.2727689743042]
[4.66457151e-310 4.66457209e-310 4.66457457e-310], [107.42170643806458]
[4.66457151e-310 4.66457209e-310 4.66457457e-310], [107.570148229599]
[4.66457151e-310 4.66457209e-310 4.66457457e-310], [107.72143888473511]
[4.66457151e-310 4.66457209e-310 4.66457457e-310], [107.87085556983948]
[4.66457151e-310 4.66457209e-310 4.66457457e-310], [108.02030992507935]
[4.66457151e-310 4.66457209e-310 4.66457457e-310], [108.19943237304688]
[4.66457151e-310 4.66457209e-310 4.66457457e-310], [108.35784149169922]
[4.66457151e-310 4.66457209e-310 4.66457457e-310], [108.50819683074951]
[4.66457151e-310 4.66457209e-310 4.66457457e-310], [108.66402101516724]
[4.66457151e-310 4.66457209e-310 4.66457457e-310], [108.81352186203003]
[4.66457151e-310 4.66457209e-310 4.66457457e-310], [108.96237397193909]
[4.66457151e-310 4.66457209e-310 4.66457457e-310], [109.11205959320068]
[4.66457151e-310 4.66457209e-310 4.66457457e-310], [109.29102945327759]
[4.66457151e-310 4.66457209e-310 4.66457457e-310], [109.46939277648926]
[4.66457151e-310 4.66457209e-310 4.66457457e-310], [109.64857935905457]
[4.66457151e-310 4.66457209e-310 4.66457457e-310], [109.80354499816895]
[4.66457151e-310 4.66457209e-310 4.66457457e-310], [109.95825576782227]
[4.66457151e-310 4.66457209e-310 4.66457457e-310], [110.10676980018616]
[4.66457151e-310 4.66457209e-310 4.66457457e-310], [110.25539469718933]
[4.66457151e-310 4.66457209e-310 4.66457457e-310], [110.40568399429321]
[4.66457151e-310 4.66457209e-310 4.66457457e-310], [110.55477690696716]
[4.66457151e-310 4.66457209e-310 4.66457457e-310], [110.70945811271667]
[4.66457151e-310 4.66457209e-310 4.66457457e-310], [110.85922241210938]
[4.66457151e-310 4.66457209e-310 4.66457457e-310], [111.00844407081604]
[4.66457151e-310 4.66457209e-310 4.66457457e-310], [111.15821266174316]
[4.66457151e-310 4.66457209e-310 4.66457457e-310], [111.3059709072113]
[4.66457151e-310 4.66457209e-310 4.66457457e-310], [111.45619058609009]
[4.66457151e-310 4.66457209e-310 4.66457457e-310], [111.60601544380188]
[4.66457151e-310 4.66457209e-310 4.66457457e-310], [111.75722551345825]
[4.66457151e-310 4.66457209e-310 4.66457457e-310], [111.93997645378113]
[4.66457151e-310 4.66457209e-310 4.66457457e-310], [112.09070158004761]
[4.66457151e-310 4.66457209e-310 4.66457457e-310], [112.24746561050415]
[4.66457151e-310 4.66457209e-310 4.66457457e-310], [112.39952659606934]
[4.66457151e-310 4.66457209e-310 4.66457457e-310], [112.5703547000885]
[4.66457151e-310 4.66457209e-310 4.66457457e-310], [112.72115874290466]
[4.66457151e-310 4.66457209e-310 4.66457457e-310], [112.87021684646606]
[4.66457151e-310 4.66457209e-310 4.66457457e-310], [113.01860165596008]
[4.66457151e-310 4.66457209e-310 4.66457457e-310], [113.1671826839447]
[4.66457151e-310 4.66457209e-310 4.66457457e-310], [113.31470656394958]
[4.66457151e-310 4.66457209e-310 4.66457457e-310], [113.49473690986633]
[4.66457151e-310 4.66457209e-310 4.66457457e-310], [113.66041588783264]
[4.66457151e-310 4.66457209e-310 4.66457457e-310], [113.80809378623962]
[4.66457151e-310 4.66457209e-310 4.66457457e-310], [113.95798063278198]
[4.66457151e-310 4.66457209e-310 4.66457457e-310], [114.10905385017395]
[4.66457151e-310 4.66457209e-310 4.66457457e-310], [114.26041555404663]
[4.66457151e-310 4.66457209e-310 4.66457457e-310], [114.43446946144104]
[4.66457151e-310 4.66457209e-310 4.66457457e-310], [114.58431363105774]
[4.66457151e-310 4.66457209e-310 4.66457457e-310], [114.75307106971741]
[4.66457151e-310 4.66457209e-310 4.66457457e-310], [114.90272355079651]
[4.66457151e-310 4.66457209e-310 4.66457457e-310], [115.0541889667511]
[4.66457151e-310 4.66457209e-310 4.66457457e-310], [115.20910215377808]
[4.66457151e-310 4.66457209e-310 4.66457457e-310], [115.35868883132935]
[4.66457151e-310 4.66457209e-310 4.66457457e-310], [115.50924253463745]
[4.66457151e-310 4.66457209e-310 4.66457457e-310], [115.66004276275635]
[4.66457151e-310 4.66457209e-310 4.66457457e-310], [115.80982112884521]
[4.66457151e-310 4.66457209e-310 4.66457457e-310], [115.96094036102295]
[4.66457151e-310 4.66457209e-310 4.66457457e-310], [116.11086773872375]
[4.66457151e-310 4.66457209e-310 4.66457457e-310], [116.25998497009277]
[4.66457151e-310 4.66457209e-310 4.66457457e-310], [116.4083821773529]
[4.66457151e-310 4.66457209e-310 4.66457457e-310], [116.55764651298523]
[4.66457151e-310 4.66457209e-310 4.66457457e-310], [116.70674967765808]
[4.66457151e-310 4.66457209e-310 4.66457457e-310], [116.88778567314148]
[4.66457151e-310 4.66457209e-310 4.66457457e-310], [117.03938603401184]
[4.66457151e-310 4.66457209e-310 4.66457457e-310], [117.19355845451355]
[4.66457151e-310 4.66457209e-310 4.66457457e-310], [117.3450825214386]
[4.66457151e-310 4.66457209e-310 4.66457457e-310], [117.49760055541992]
[4.66457151e-310 4.66457209e-310 4.66457457e-310], [117.65123844146729]
[4.66457151e-310 4.66457209e-310 4.66457457e-310], [117.80232882499695]
[4.66457151e-310 4.66457209e-310 4.66457457e-310], [117.95580720901489]
[4.66457151e-310 4.66457209e-310 4.66457457e-310], [118.10821509361267]
[4.66457151e-310 4.66457209e-310 4.66457457e-310], [118.25983619689941]
[4.66457151e-310 4.66457209e-310 4.66457457e-310], [118.41091918945312]
[4.66457151e-310 4.66457209e-310 4.66457457e-310], [118.56169247627258]
[4.66457151e-310 4.66457209e-310 4.66457457e-310], [118.71899509429932]
[4.66457151e-310 4.66457209e-310 4.66457457e-310], [118.87215304374695]
[4.66457151e-310 4.66457209e-310 4.66457457e-310], [119.02539110183716]
[4.66457151e-310 4.66457209e-310 4.66457457e-310], [119.17682313919067]
[4.66457151e-310 4.66457209e-310 4.66457457e-310], [119.35587477684021]
[4.66457151e-310 4.66457209e-310 4.66457457e-310], [119.52550220489502]
[4.66457151e-310 4.66457209e-310 4.66457457e-310], [119.67522501945496]
[4.66457151e-310 4.66457209e-310 4.66457457e-310], [119.82564282417297]
[4.66457151e-310 4.66457209e-310 4.66457457e-310], [119.97590899467468]
[4.66457151e-310 4.66457209e-310 4.66457457e-310], [120.13079905509949]
[4.66457151e-310 4.66457209e-310 4.66457457e-310], [120.28330969810486]
[4.66457151e-310 4.66457209e-310 4.66457457e-310], [120.44408869743347]
[4.66457151e-310 4.66457209e-310 4.66457457e-310], [120.59202075004578]
[4.66457151e-310 4.66457209e-310 4.66457457e-310], [120.74091649055481]
[4.66457151e-310 4.66457209e-310 4.66457457e-310], [120.89027905464172]
[4.66457151e-310 4.66457209e-310 4.66457457e-310], [121.03936982154846]
[4.66457151e-310 4.66457209e-310 4.66457457e-310], [121.18852496147156]
[4.66457151e-310 4.66457209e-310 4.66457457e-310], [121.3383800983429]
[4.66457151e-310 4.66457209e-310 4.66457457e-310], [121.49398016929626]
[4.66457151e-310 4.66457209e-310 4.66457457e-310], [121.64781665802002]
[4.66457151e-310 4.66457209e-310 4.66457457e-310], [121.79814004898071]
[4.66457151e-310 4.66457209e-310 4.66457457e-310], [121.9489119052887]
[4.66457151e-310 4.66457209e-310 4.66457457e-310], [122.1013970375061]
[4.66457151e-310 4.66457209e-310 4.66457457e-310], [122.25280976295471]
[4.66457151e-310 4.66457209e-310 4.66457457e-310], [122.41017413139343]
[4.66457151e-310 4.66457209e-310 4.66457457e-310], [122.5603039264679]
[4.66457151e-310 4.66457209e-310 4.66457457e-310], [122.71234941482544]
[4.66457151e-310 4.66457209e-310 4.66457457e-310], [122.86392068862915]
[4.66457151e-310 4.66457209e-310 4.66457457e-310], [123.01397395133972]
[4.66457151e-310 4.66457209e-310 4.66457457e-310], [123.1653254032135]
[4.66457151e-310 4.66457209e-310 4.66457457e-310], [123.31559419631958]
[4.66457151e-310 4.66457209e-310 4.66457457e-310], [123.46726655960083]
[4.66457151e-310 4.66457209e-310 4.66457457e-310], [123.61741328239441]
[4.66457151e-310 4.66457209e-310 4.66457457e-310], [123.76817417144775]
[4.66457151e-310 4.66457209e-310 4.66457457e-310], [123.9190719127655]
[4.66457151e-310 4.66457209e-310 4.66457457e-310], [124.06988406181335]
[4.66457151e-310 4.66457209e-310 4.66457457e-310], [124.21899366378784]
[4.66457151e-310 4.66457209e-310 4.66457457e-310], [124.36816382408142]
[4.66457151e-310 4.66457209e-310 4.66457457e-310], [124.518315076828]
[4.66457151e-310 4.66457209e-310 4.66457457e-310], [124.67005705833435]
[4.66457151e-310 4.66457209e-310 4.66457457e-310], [124.83527207374573]
[4.66457151e-310 4.66457209e-310 4.66457457e-310], [124.9851746559143]
[4.66457151e-310 4.66457209e-310 4.66457457e-310], [125.1347496509552]
[4.66457151e-310 4.66457209e-310 4.66457457e-310], [125.28727960586548]
[4.66457151e-310 4.66457209e-310 4.66457457e-310], [125.43598055839539]
[4.66457151e-310 4.66457209e-310 4.66457457e-310], [125.58894968032837]
[4.66457151e-310 4.66457209e-310 4.66457457e-310], [125.73923206329346]
[4.66457151e-310 4.66457209e-310 4.66457457e-310], [125.89206528663635]
[4.66457151e-310 4.66457209e-310 4.66457457e-310], [126.04222178459167]
[4.66457151e-310 4.66457209e-310 4.66457457e-310], [126.19151663780212]
[4.66457151e-310 4.66457209e-310 4.66457457e-310], [126.3412733078003]
[4.66457151e-310 4.66457209e-310 4.66457457e-310], [126.493661403656]
[4.66457151e-310 4.66457209e-310 4.66457457e-310], [126.64868545532227]
[4.66457151e-310 4.66457209e-310 4.66457457e-310], [126.797616481781]
[4.66457151e-310 4.66457209e-310 4.66457457e-310], [126.94677138328552]
[4.66457151e-310 4.66457209e-310 4.66457457e-310], [127.09584093093872]
[4.66457151e-310 4.66457209e-310 4.66457457e-310], [127.24784898757935]
[4.66457151e-310 4.66457209e-310 4.66457457e-310], [127.39878678321838]
[4.66457151e-310 4.66457209e-310 4.66457457e-310], [127.55721378326416]
[4.66457151e-310 4.66457209e-310 4.66457457e-310], [127.70823335647583]
[4.66457151e-310 4.66457209e-310 4.66457457e-310], [127.86007761955261]
[4.66457151e-310 4.66457209e-310 4.66457457e-310], [128.01306104660034]
[4.66457151e-310 4.66457209e-310 4.66457457e-310], [128.18497610092163]
[4.66457151e-310 4.66457209e-310 4.66457457e-310], [128.33494687080383]
[4.66457151e-310 4.66457209e-310 4.66457457e-310], [128.48404502868652]
[4.66457151e-310 4.66457209e-310 4.66457457e-310], [128.642915725708]
[4.66457151e-310 4.66457209e-310 4.66457457e-310], [128.79405808448792]
[4.66457151e-310 4.66457209e-310 4.66457457e-310], [128.94440412521362]
[4.66457151e-310 4.66457209e-310 4.66457457e-310], [129.09404587745667]
[4.66457151e-310 4.66457209e-310 4.66457457e-310], [129.24437260627747]
[4.66457151e-310 4.66457209e-310 4.66457457e-310], [129.39442610740662]
[4.66457151e-310 4.66457209e-310 4.66457457e-310], [129.5455915927887]
[4.66457151e-310 4.66457209e-310 4.66457457e-310], [129.69522762298584]
[4.66457151e-310 4.66457209e-310 4.66457457e-310], [129.84498763084412]
[4.66457151e-310 4.66457209e-310 4.66457457e-310], [129.99448370933533]
[4.66457151e-310 4.66457209e-310 4.66457457e-310], [130.1492736339569]
[4.66457151e-310 4.66457209e-310 4.66457457e-310], [130.30172419548035]
[4.66457151e-310 4.66457209e-310 4.66457457e-310], [130.45326781272888]
[4.66457151e-310 4.66457209e-310 4.66457457e-310], [130.60361647605896]
[4.66457151e-310 4.66457209e-310 4.66457457e-310], [130.75501608848572]
[4.66457151e-310 4.66457209e-310 4.66457457e-310], [130.90892028808594]
[4.66457151e-310 4.66457209e-310 4.66457457e-310], [131.06199550628662]
[4.66457151e-310 4.66457209e-310 4.66457457e-310], [131.21332335472107]
[4.66457151e-310 4.66457209e-310 4.66457457e-310], [131.36479949951172]
[4.66457151e-310 4.66457209e-310 4.66457457e-310], [131.51847505569458]
[4.66457151e-310 4.66457209e-310 4.66457457e-310], [131.67286133766174]
[4.66457151e-310 4.66457209e-310 4.66457457e-310], [131.82843112945557]
[4.66457151e-310 4.66457209e-310 4.66457457e-310], [131.98281502723694]
[4.66457151e-310 4.66457209e-310 4.66457457e-310], [132.13730597496033]
[4.66457151e-310 4.66457209e-310 4.66457457e-310], [132.28785586357117]
[4.66457151e-310 4.66457209e-310 4.66457457e-310], [132.43817734718323]
[4.66457151e-310 4.66457209e-310 4.66457457e-310], [132.590083360672]
[4.66457151e-310 4.66457209e-310 4.66457457e-310], [132.74139308929443]
[4.66457151e-310 4.66457209e-310 4.66457457e-310], [132.89657950401306]
[4.66457151e-310 4.66457209e-310 4.66457457e-310], [133.04858994483948]
[4.66457151e-310 4.66457209e-310 4.66457457e-310], [133.2343032360077]
[4.66457151e-310 4.66457209e-310 4.66457457e-310], [133.38605260849]
[4.66457151e-310 4.66457209e-310 4.66457457e-310], [133.54407739639282]
[4.66457151e-310 4.66457209e-310 4.66457457e-310], [133.69585013389587]
[4.66457151e-310 4.66457209e-310 4.66457457e-310], [133.880774974823]
[4.66457151e-310 4.66457209e-310 4.66457457e-310], [134.0306417942047]
[4.66457151e-310 4.66457209e-310 4.66457457e-310], [134.17897844314575]
[4.66457151e-310 4.66457209e-310 4.66457457e-310], [134.36863207817078]
[4.66457151e-310 4.66457209e-310 4.66457457e-310], [134.51937580108643]
[4.66457151e-310 4.66457209e-310 4.66457457e-310], [134.67029213905334]
[4.66457151e-310 4.66457209e-310 4.66457457e-310], [134.85225701332092]
[4.66457151e-310 4.66457209e-310 4.66457457e-310], [135.00016045570374]
[4.66457151e-310 4.66457209e-310 4.66457457e-310], [135.1503391265869]
[4.66457151e-310 4.66457209e-310 4.66457457e-310], [135.2990002632141]
[4.66457151e-310 4.66457209e-310 4.66457457e-310], [135.44830870628357]
[4.66457151e-310 4.66457209e-310 4.66457457e-310], [135.597589969635]
[4.66457151e-310 4.66457209e-310 4.66457457e-310], [135.75022745132446]
[4.66457151e-310 4.66457209e-310 4.66457457e-310], [135.89987182617188]
[4.66457151e-310 4.66457209e-310 4.66457457e-310], [136.05204701423645]
[4.66457151e-310 4.66457209e-310 4.66457457e-310], [136.20937371253967]
[4.66457151e-310 4.66457209e-310 4.66457457e-310], [136.3612380027771]
[4.66457151e-310 4.66457209e-310 4.66457457e-310], [136.51664996147156]
[4.66457151e-310 4.66457209e-310 4.66457457e-310], [136.66739344596863]
[4.66457151e-310 4.66457209e-310 4.66457457e-310], [136.81949496269226]
[4.66457151e-310 4.66457209e-310 4.66457457e-310], [136.9721667766571]
[4.66457151e-310 4.66457209e-310 4.66457457e-310], [137.1254062652588]
[4.66457151e-310 4.66457209e-310 4.66457457e-310], [137.27827095985413]
[4.66457151e-310 4.66457209e-310 4.66457457e-310], [137.42985701560974]
[4.66457151e-310 4.66457209e-310 4.66457457e-310], [137.58662223815918]
[4.66457151e-310 4.66457209e-310 4.66457457e-310], [137.74235558509827]
[4.66457151e-310 4.66457209e-310 4.66457457e-310], [137.89708709716797]
[4.66457151e-310 4.66457209e-310 4.66457457e-310], [138.05003261566162]
[4.66457151e-310 4.66457209e-310 4.66457457e-310], [138.24173188209534]
[4.66457151e-310 4.66457209e-310 4.66457457e-310], [138.39330053329468]
[4.66457151e-310 4.66457209e-310 4.66457457e-310], [138.55267119407654]
[4.66457151e-310 4.66457209e-310 4.66457457e-310], [138.70178127288818]
[4.66457151e-310 4.66457209e-310 4.66457457e-310], [138.85209155082703]
[4.66457151e-310 4.66457209e-310 4.66457457e-310], [139.003084897995]
[4.66457151e-310 4.66457209e-310 4.66457457e-310], [139.1579110622406]
[4.66457151e-310 4.66457209e-310 4.66457457e-310], [139.33889627456665]
[4.66457151e-310 4.66457209e-310 4.66457457e-310], [139.50764203071594]
[4.66457151e-310 4.66457209e-310 4.66457457e-310], [139.6589550971985]
[4.66457151e-310 4.66457209e-310 4.66457457e-310], [139.80976724624634]
[4.66457151e-310 4.66457209e-310 4.66457457e-310], [139.96093821525574]
[4.66457151e-310 4.66457209e-310 4.66457457e-310], [140.11005115509033]
[4.66457151e-310 4.66457209e-310 4.66457457e-310], [140.25912427902222]
[4.66457151e-310 4.66457209e-310 4.66457457e-310], [140.4085021018982]
[4.66457151e-310 4.66457209e-310 4.66457457e-310], [140.56093406677246]
[4.66457151e-310 4.66457209e-310 4.66457457e-310], [140.7195966243744]
[4.66457151e-310 4.66457209e-310 4.66457457e-310], [140.86962485313416]
[4.66457151e-310 4.66457209e-310 4.66457457e-310], [141.0178520679474]
[4.66457151e-310 4.66457209e-310 4.66457457e-310], [141.16605257987976]
[4.66457151e-310 4.66457209e-310 4.66457457e-310], [141.31418085098267]
[4.66457151e-310 4.66457209e-310 4.66457457e-310], [141.4629304409027]
[4.66457151e-310 4.66457209e-310 4.66457457e-310], [141.61147499084473]
[4.66457151e-310 4.66457209e-310 4.66457457e-310], [141.76027488708496]
[4.66457151e-310 4.66457209e-310 4.66457457e-310], [141.90891361236572]
[4.66457151e-310 4.66457209e-310 4.66457457e-310], [142.05887532234192]
[4.66457151e-310 4.66457209e-310 4.66457457e-310], [142.2114896774292]
[4.66457151e-310 4.66457209e-310 4.66457457e-310], [142.36904621124268]
[4.66457151e-310 4.66457209e-310 4.66457457e-310], [142.51801133155823]
[4.66457151e-310 4.66457209e-310 4.66457457e-310], [142.69803476333618]
[4.66457151e-310 4.66457209e-310 4.66457457e-310], [142.87861037254333]
[4.66457151e-310 4.66457209e-310 4.66457457e-310], [143.0280420780182]
[4.66457151e-310 4.66457209e-310 4.66457457e-310], [143.17711687088013]
[4.66457151e-310 4.66457209e-310 4.66457457e-310], [143.3269956111908]
[4.66457151e-310 4.66457209e-310 4.66457457e-310], [143.4758756160736]
[4.66457151e-310 4.66457209e-310 4.66457457e-310], [143.63102054595947]
[4.66457151e-310 4.66457209e-310 4.66457457e-310], [143.7821488380432]
[4.66457151e-310 4.66457209e-310 4.66457457e-310], [143.93192601203918]
[4.66457151e-310 4.66457209e-310 4.66457457e-310], [144.08192348480225]
[4.66457151e-310 4.66457209e-310 4.66457457e-310], [144.2309548854828]
[4.66457151e-310 4.66457209e-310 4.66457457e-310], [144.37917351722717]
[4.66457151e-310 4.66457209e-310 4.66457457e-310], [144.53003549575806]
[4.66457151e-310 4.66457209e-310 4.66457457e-310], [144.68043494224548]
[4.66457151e-310 4.66457209e-310 4.66457457e-310], [144.83369040489197]
[4.66457151e-310 4.66457209e-310 4.66457457e-310], [144.98306798934937]
[4.66457151e-310 4.66457209e-310 4.66457457e-310], [145.16846132278442]
[4.66457151e-310 4.66457209e-310 4.66457457e-310], [145.3188717365265]
[4.66457151e-310 4.66457209e-310 4.66457457e-310], [145.4679536819458]
[4.66457151e-310 4.66457209e-310 4.66457457e-310], [145.6186511516571]
[4.66457151e-310 4.66457209e-310 4.66457457e-310], [145.76803398132324]
[4.66457151e-310 4.66457209e-310 4.66457457e-310], [145.9173686504364]
[4.66457151e-310 4.66457209e-310 4.66457457e-310], [146.12056183815002]
[4.66457151e-310 4.66457209e-310 4.66457457e-310], [146.31004357337952]
[4.66457151e-310 4.66457209e-310 4.66457457e-310], [146.491681098938]
[4.66457151e-310 4.66457209e-310 4.66457457e-310], [146.64746379852295]
[4.66457151e-310 4.66457209e-310 4.66457457e-310], [146.80686855316162]
[4.66457151e-310 4.66457209e-310 4.66457457e-310], [146.96130061149597]
[4.66457151e-310 4.66457209e-310 4.66457457e-310], [147.14949679374695]
[4.66457151e-310 4.66457209e-310 4.66457457e-310], [147.29725313186646]
[4.66457151e-310 4.66457209e-310 4.66457457e-310], [147.4482593536377]
[4.66457151e-310 4.66457209e-310 4.66457457e-310], [147.59870839118958]
[4.66457151e-310 4.66457209e-310 4.66457457e-310], [147.78333163261414]
[4.66457151e-310 4.66457209e-310 4.66457457e-310], [147.93404150009155]
[4.66457151e-310 4.66457209e-310 4.66457457e-310], [148.08563947677612]
[4.66457151e-310 4.66457209e-310 4.66457457e-310], [148.24221539497375]
[4.66457151e-310 4.66457209e-310 4.66457457e-310], [148.3944709300995]
[4.66457151e-310 4.66457209e-310 4.66457457e-310], [148.54675269126892]
[4.66457151e-310 4.66457209e-310 4.66457457e-310], [148.6986038684845]
[4.66457151e-310 4.66457209e-310 4.66457457e-310], [148.8585844039917]
[4.66457151e-310 4.66457209e-310 4.66457457e-310], [149.01086616516113]
[4.66457151e-310 4.66457209e-310 4.66457457e-310], [149.16308641433716]
[4.66457151e-310 4.66457209e-310 4.66457457e-310], [149.3137924671173]
[4.66457151e-310 4.66457209e-310 4.66457457e-310], [149.4651665687561]
[4.66457151e-310 4.66457209e-310 4.66457457e-310], [149.6540172100067]
[4.66457151e-310 4.66457209e-310 4.66457457e-310], [149.85462093353271]
[4.66457151e-310 4.66457209e-310 4.66457457e-310], [150.00568866729736]
[4.66457151e-310 4.66457209e-310 4.66457457e-310], [150.15597939491272]
[4.66457151e-310 4.66457209e-310 4.66457457e-310], [150.30521845817566]
[4.66457151e-310 4.66457209e-310 4.66457457e-310], [150.45551252365112]
[4.66457151e-310 4.66457209e-310 4.66457457e-310], [150.60535264015198]
[4.66457151e-310 4.66457209e-310 4.66457457e-310], [150.7551233768463]
[4.66457151e-310 4.66457209e-310 4.66457457e-310], [150.90447092056274]
[4.66457151e-310 4.66457209e-310 4.66457457e-310], [151.05544519424438]
[4.66457151e-310 4.66457209e-310 4.66457457e-310], [151.20809674263]
[4.66457151e-310 4.66457209e-310 4.66457457e-310], [151.358336687088]
[4.66457151e-310 4.66457209e-310 4.66457457e-310], [151.51175475120544]
[4.66457151e-310 4.66457209e-310 4.66457457e-310], [151.66318607330322]
[4.66457151e-310 4.66457209e-310 4.66457457e-310], [151.8133704662323]
[4.66457151e-310 4.66457209e-310 4.66457457e-310], [151.96550011634827]
[4.66457151e-310 4.66457209e-310 4.66457457e-310], [152.11648201942444]
[4.66457151e-310 4.66457209e-310 4.66457457e-310], [152.27332472801208]
[4.66457151e-310 4.66457209e-310 4.66457457e-310], [152.42476344108582]
[4.66457151e-310 4.66457209e-310 4.66457457e-310], [152.5750069618225]
[4.66457151e-310 4.66457209e-310 4.66457457e-310], [152.72685074806213]
[4.66457151e-310 4.66457209e-310 4.66457457e-310], [152.87883520126343]
[4.66457151e-310 4.66457209e-310 4.66457457e-310], [153.02845811843872]
[4.66457151e-310 4.66457209e-310 4.66457457e-310], [153.17827701568604]
[4.66457151e-310 4.66457209e-310 4.66457457e-310], [153.33165955543518]
[4.66457151e-310 4.66457209e-310 4.66457457e-310], [153.48281383514404]
[4.66457151e-310 4.66457209e-310 4.66457457e-310], [153.63347911834717]
[4.66457151e-310 4.66457209e-310 4.66457457e-310], [153.78222846984863]
[4.66457151e-310 4.66457209e-310 4.66457457e-310], [153.93084907531738]
[4.66457151e-310 4.66457209e-310 4.66457457e-310], [154.09094738960266]
[4.66457151e-310 4.66457209e-310 4.66457457e-310], [154.25039792060852]
[4.66457151e-310 4.66457209e-310 4.66457457e-310], [154.40363955497742]
[4.66457151e-310 4.66457209e-310 4.66457457e-310], [154.56112384796143]
[4.66457151e-310 4.66457209e-310 4.66457457e-310], [154.71243381500244]
[4.66457151e-310 4.66457209e-310 4.66457457e-310], [154.86315655708313]
[4.66457151e-310 4.66457209e-310 4.66457457e-310], [155.05539751052856]
[4.66457151e-310 4.66457209e-310 4.66457457e-310], [155.20567083358765]
[4.66457151e-310 4.66457209e-310 4.66457457e-310], [155.35761094093323]
[4.66457151e-310 4.66457209e-310 4.66457457e-310], [155.51438975334167]
[4.66457151e-310 4.66457209e-310 4.66457457e-310], [155.6686191558838]
[4.66457151e-310 4.66457209e-310 4.66457457e-310], [155.82120871543884]
[4.66457151e-310 4.66457209e-310 4.66457457e-310], [155.97384428977966]
[4.66457151e-310 4.66457209e-310 4.66457457e-310], [156.12606930732727]
[4.66457151e-310 4.66457209e-310 4.66457457e-310], [156.2765142917633]
[4.66457151e-310 4.66457209e-310 4.66457457e-310], [156.43001627922058]
[4.66457151e-310 4.66457209e-310 4.66457457e-310], [156.5850908756256]
[4.66457151e-310 4.66457209e-310 4.66457457e-310], [156.73814749717712]
[4.66457151e-310 4.66457209e-310 4.66457457e-310], [156.88986945152283]
[4.66457151e-310 4.66457209e-310 4.66457457e-310], [157.04332447052002]
[4.66457151e-310 4.66457209e-310 4.66457457e-310], [157.19479703903198]
[4.66457151e-310 4.66457209e-310 4.66457457e-310], [157.34438800811768]
[4.66457151e-310 4.66457209e-310 4.66457457e-310], [157.49417281150818]
[4.66457151e-310 4.66457209e-310 4.66457457e-310], [157.64367532730103]
[4.66457151e-310 4.66457209e-310 4.66457457e-310], [157.7927656173706]
[4.66457151e-310 4.66457209e-310 4.66457457e-310], [157.9414780139923]
[4.66457151e-310 4.66457209e-310 4.66457457e-310], [158.0932264328003]
[4.66457151e-310 4.66457209e-310 4.66457457e-310], [158.26553463935852]
[4.66457151e-310 4.66457209e-310 4.66457457e-310], [158.4370665550232]
[4.66457151e-310 4.66457209e-310 4.66457457e-310], [158.60655117034912]
[4.66457151e-310 4.66457209e-310 4.66457457e-310], [158.78138518333435]
[4.66457151e-310 4.66457209e-310 4.66457457e-310], [158.94525933265686]
[4.66457151e-310 4.66457209e-310 4.66457457e-310], [159.09473824501038]
[4.66457151e-310 4.66457209e-310 4.66457457e-310], [159.24501609802246]
[4.66457151e-310 4.66457209e-310 4.66457457e-310], [159.3937029838562]
[4.66457151e-310 4.66457209e-310 4.66457457e-310], [159.5735683441162]
[4.66457151e-310 4.66457209e-310 4.66457457e-310], [159.72707343101501]
[4.66457151e-310 4.66457209e-310 4.66457457e-310], [159.87851119041443]
[4.66457151e-310 4.66457209e-310 4.66457457e-310], [160.0325050354004]
[4.66457151e-310 4.66457209e-310 4.66457457e-310], [160.1845920085907]
[4.66457151e-310 4.66457209e-310 4.66457457e-310], [160.3371319770813]
[4.66457151e-310 4.66457209e-310 4.66457457e-310], [160.4904818534851]
[4.66457151e-310 4.66457209e-310 4.66457457e-310], [160.64427375793457]
[4.66457151e-310 4.66457209e-310 4.66457457e-310], [160.79437589645386]
[4.66457151e-310 4.66457209e-310 4.66457457e-310], [160.94448733329773]
[4.66457151e-310 4.66457209e-310 4.66457457e-310], [161.09347534179688]
[4.66457151e-310 4.66457209e-310 4.66457457e-310], [161.24360823631287]
[4.66457151e-310 4.66457209e-310 4.66457457e-310], [161.39290308952332]
[4.66457151e-310 4.66457209e-310 4.66457457e-310], [161.54641771316528]
[4.66457151e-310 4.66457209e-310 4.66457457e-310], [161.69845151901245]
[4.66457151e-310 4.66457209e-310 4.66457457e-310], [161.85279655456543]
[4.66457151e-310 4.66457209e-310 4.66457457e-310], [162.004741191864]
[4.66457151e-310 4.66457209e-310 4.66457457e-310], [162.15733551979065]
[4.66457151e-310 4.66457209e-310 4.66457457e-310], [162.30901193618774]
[4.66457151e-310 4.66457209e-310 4.66457457e-310], [162.4912612438202]
[4.66457151e-310 4.66457209e-310 4.66457457e-310], [162.64088582992554]
[4.66457151e-310 4.66457209e-310 4.66457457e-310], [162.8443250656128]
[4.66457151e-310 4.66457209e-310 4.66457457e-310], [162.99300575256348]
[4.66457151e-310 4.66457209e-310 4.66457457e-310], [163.14379739761353]
[4.66457151e-310 4.66457209e-310 4.66457457e-310], [163.29207825660706]
[4.66457151e-310 4.66457209e-310 4.66457457e-310], [163.4427363872528]
[4.66457151e-310 4.66457209e-310 4.66457457e-310], [163.62636303901672]
[4.66457151e-310 4.66457209e-310 4.66457457e-310], [163.77664065361023]
[4.66457151e-310 4.66457209e-310 4.66457457e-310], [163.93051052093506]
[4.66457151e-310 4.66457209e-310 4.66457457e-310], [164.08505082130432]
[4.66457151e-310 4.66457209e-310 4.66457457e-310], [164.2372817993164]
[4.66457151e-310 4.66457209e-310 4.66457457e-310], [164.3889446258545]
[4.66457151e-310 4.66457209e-310 4.66457457e-310], [164.5406014919281]
[4.66457151e-310 4.66457209e-310 4.66457457e-310], [164.69322228431702]
[4.66457151e-310 4.66457209e-310 4.66457457e-310], [164.87750124931335]
[4.66457151e-310 4.66457209e-310 4.66457457e-310], [165.02935886383057]
[4.66457151e-310 4.66457209e-310 4.66457457e-310], [165.1819190979004]
[4.66457151e-310 4.66457209e-310 4.66457457e-310], [165.3352735042572]
[4.66457151e-310 4.66457209e-310 4.66457457e-310], [165.4865367412567]
[4.66457151e-310 4.66457209e-310 4.66457457e-310], [165.6404745578766]
[4.66457151e-310 4.66457209e-310 4.66457457e-310], [165.79193949699402]
[4.66457151e-310 4.66457209e-310 4.66457457e-310], [165.94408106803894]
[4.66457151e-310 4.66457209e-310 4.66457457e-310], [166.0954189300537]
[4.66457151e-310 4.66457209e-310 4.66457457e-310], [166.25232887268066]
[4.66457151e-310 4.66457209e-310 4.66457457e-310], [166.40757298469543]
[4.66457151e-310 4.66457209e-310 4.66457457e-310], [166.56390190124512]
[4.66457151e-310 4.66457209e-310 4.66457457e-310], [166.71602845191956]
[4.66457151e-310 4.66457209e-310 4.66457457e-310], [166.86773657798767]
[4.66457151e-310 4.66457209e-310 4.66457457e-310], [167.02142643928528]
[4.66457151e-310 4.66457209e-310 4.66457457e-310], [167.17522382736206]
[4.66457151e-310 4.66457209e-310 4.66457457e-310], [167.32769536972046]
[4.66457151e-310 4.66457209e-310 4.66457457e-310], [167.47869777679443]
[4.66457151e-310 4.66457209e-310 4.66457457e-310], [167.63761138916016]
[4.66457151e-310 4.66457209e-310 4.66457457e-310], [167.7900197505951]
[4.66457151e-310 4.66457209e-310 4.66457457e-310], [167.94057512283325]
[4.66457151e-310 4.66457209e-310 4.66457457e-310], [168.12629914283752]
[4.66457151e-310 4.66457209e-310 4.66457457e-310], [168.27812218666077]
[4.66457151e-310 4.66457209e-310 4.66457457e-310], [168.4275348186493]
[4.66457151e-310 4.66457209e-310 4.66457457e-310], [168.57896447181702]
[4.66457151e-310 4.66457209e-310 4.66457457e-310], [168.7333414554596]
[4.66457151e-310 4.66457209e-310 4.66457457e-310], [168.88394594192505]
[4.66457151e-310 4.66457209e-310 4.66457457e-310], [169.03493213653564]
[4.66457151e-310 4.66457209e-310 4.66457457e-310], [169.18900394439697]
[4.66457151e-310 4.66457209e-310 4.66457457e-310], [169.3425793647766]
[4.66457151e-310 4.66457209e-310 4.66457457e-310], [169.49213480949402]
[4.66457151e-310 4.66457209e-310 4.66457457e-310], [169.6432240009308]
[4.66457151e-310 4.66457209e-310 4.66457457e-310], [169.791766166687]
[4.66457151e-310 4.66457209e-310 4.66457457e-310], [169.94631171226501]
[4.66457151e-310 4.66457209e-310 4.66457457e-310], [170.1076123714447]
[4.66457151e-310 4.66457209e-310 4.66457457e-310], [170.26581478118896]
[4.66457151e-310 4.66457209e-310 4.66457457e-310], [170.47746014595032]
[4.66457151e-310 4.66457209e-310 4.66457457e-310], [170.64787411689758]
[4.66457151e-310 4.66457209e-310 4.66457457e-310], [170.83465361595154]
[4.66457151e-310 4.66457209e-310 4.66457457e-310], [170.99776577949524]
[4.66457151e-310 4.66457209e-310 4.66457457e-310], [171.15486764907837]
[4.66457151e-310 4.66457209e-310 4.66457457e-310], [171.30731225013733]
