[0.00000000e+000 0.00000000e+000 6.49474475e-307], [16.439817905426025]
[0.00000000e+000 0.00000000e+000 6.49474475e-307], [17.788891553878784]
[0.00000000e+000 0.00000000e+000 6.49474475e-307], [17.979009866714478]
[0.00000000e+000 0.00000000e+000 6.49474475e-307], [18.129626035690308]
[0.00000000e+000 0.00000000e+000 6.49474475e-307], [18.281179189682007]
[0.00000000e+000 0.00000000e+000 6.49474475e-307], [18.43537211418152]
[0.00000000e+000 0.00000000e+000 6.49474475e-307], [18.589221239089966]
[0.00000000e+000 0.00000000e+000 6.49474475e-307], [18.746739387512207]
[0.00000000e+000 0.00000000e+000 6.49474475e-307], [18.8995304107666]
[0.00000000e+000 0.00000000e+000 6.49474475e-307], [19.051454782485962]
[0.00000000e+000 0.00000000e+000 6.49474475e-307], [19.23964500427246]
[0.00000000e+000 0.00000000e+000 6.49474475e-307], [19.394773721694946]
[0.00000000e+000 0.00000000e+000 6.49474475e-307], [19.550413131713867]
[0.00000000e+000 0.00000000e+000 6.49474475e-307], [19.70438003540039]
[0.00000000e+000 0.00000000e+000 6.49474475e-307], [19.856318712234497]
[0.00000000e+000 0.00000000e+000 6.49474475e-307], [20.04276752471924]
[0.00000000e+000 0.00000000e+000 6.49474475e-307], [20.194100618362427]
[0.00000000e+000 0.00000000e+000 6.49474475e-307], [20.3516948223114]
[0.00000000e+000 0.00000000e+000 6.49474475e-307], [20.50498628616333]
[0.00000000e+000 0.00000000e+000 6.49474475e-307], [20.660372018814087]
[0.00000000e+000 0.00000000e+000 6.49474475e-307], [20.81283974647522]
[0.00000000e+000 0.00000000e+000 6.49474475e-307], [20.964879989624023]
[0.00000000e+000 0.00000000e+000 6.49474475e-307], [21.11827325820923]
[0.00000000e+000 0.00000000e+000 6.49474475e-307], [21.27082633972168]
[0.00000000e+000 0.00000000e+000 6.49474475e-307], [21.430053234100342]
[0.00000000e+000 0.00000000e+000 6.49474475e-307], [21.585418462753296]
[0.00000000e+000 0.00000000e+000 6.49474475e-307], [21.741307497024536]
[0.00000000e+000 0.00000000e+000 6.49474475e-307], [21.894821405410767]
[0.00000000e+000 0.00000000e+000 6.49474475e-307], [22.065274238586426]
[0.00000000e+000 0.00000000e+000 6.49474475e-307], [22.227025270462036]
[0.00000000e+000 0.00000000e+000 6.49474475e-307], [22.384624242782593]
[0.00000000e+000 0.00000000e+000 6.49474475e-307], [22.540629625320435]
[0.00000000e+000 0.00000000e+000 6.49474475e-307], [22.702587366104126]
[0.00000000e+000 0.00000000e+000 6.49474475e-307], [22.855844497680664]
[0.00000000e+000 0.00000000e+000 6.49474475e-307], [23.011763334274292]
[0.00000000e+000 0.00000000e+000 6.49474475e-307], [23.167103052139282]
[0.00000000e+000 0.00000000e+000 6.49474475e-307], [23.32486319541931]
[0.00000000e+000 0.00000000e+000 6.49474475e-307], [23.477967739105225]
[0.00000000e+000 0.00000000e+000 6.49474475e-307], [23.63944125175476]
[0.00000000e+000 0.00000000e+000 6.49474475e-307], [23.794106245040894]
[0.00000000e+000 0.00000000e+000 6.49474475e-307], [23.95004677772522]
[0.00000000e+000 0.00000000e+000 6.49474475e-307], [24.102764129638672]
[0.00000000e+000 0.00000000e+000 6.49474475e-307], [24.25518536567688]
[0.00000000e+000 0.00000000e+000 6.49474475e-307], [24.406067848205566]
[0.00000000e+000 0.00000000e+000 6.49474475e-307], [24.556888103485107]
[0.00000000e+000 0.00000000e+000 6.49474475e-307], [24.71083402633667]
[0.00000000e+000 0.00000000e+000 6.49474475e-307], [24.866835832595825]
[0.00000000e+000 0.00000000e+000 6.49474475e-307], [25.036020278930664]
[0.00000000e+000 0.00000000e+000 6.49474475e-307], [25.187373161315918]
[0.00000000e+000 0.00000000e+000 6.49474475e-307], [25.339418411254883]
[0.00000000e+000 0.00000000e+000 6.49474475e-307], [25.492232084274292]
[0.00000000e+000 0.00000000e+000 6.49474475e-307], [25.646271467208862]
[0.00000000e+000 0.00000000e+000 6.49474475e-307], [25.79955220222473]
[0.00000000e+000 0.00000000e+000 6.49474475e-307], [25.952549934387207]
[0.00000000e+000 0.00000000e+000 6.49474475e-307], [26.103167295455933]
[0.00000000e+000 0.00000000e+000 6.49474475e-307], [26.25420594215393]
[0.00000000e+000 0.00000000e+000 6.49474475e-307], [26.441783666610718]
[0.00000000e+000 0.00000000e+000 6.49474475e-307], [26.595909118652344]
[0.00000000e+000 0.00000000e+000 6.49474475e-307], [26.75022864341736]
[0.00000000e+000 0.00000000e+000 6.49474475e-307], [26.90560293197632]
[0.00000000e+000 0.00000000e+000 6.49474475e-307], [27.056326627731323]
[0.00000000e+000 0.00000000e+000 6.49474475e-307], [27.206241846084595]
[0.00000000e+000 0.00000000e+000 6.49474475e-307], [27.362993001937866]
[0.00000000e+000 0.00000000e+000 6.49474475e-307], [27.52978491783142]
[0.00000000e+000 0.00000000e+000 6.49474475e-307], [27.684980392456055]
[0.00000000e+000 0.00000000e+000 6.49474475e-307], [27.852672815322876]
[0.00000000e+000 0.00000000e+000 6.49474475e-307], [28.011602878570557]
[0.00000000e+000 0.00000000e+000 6.49474475e-307], [28.174919366836548]
[0.00000000e+000 0.00000000e+000 6.49474475e-307], [28.343140602111816]
[0.00000000e+000 0.00000000e+000 6.49474475e-307], [28.505446195602417]
[0.00000000e+000 0.00000000e+000 6.49474475e-307], [28.65791153907776]
[0.00000000e+000 0.00000000e+000 6.49474475e-307], [28.81049132347107]
[0.00000000e+000 0.00000000e+000 6.49474475e-307], [28.967008590698242]
[0.00000000e+000 0.00000000e+000 6.49474475e-307], [29.121746063232422]
[0.00000000e+000 0.00000000e+000 6.49474475e-307], [29.273507118225098]
[0.00000000e+000 0.00000000e+000 6.49474475e-307], [29.429845571517944]
[0.00000000e+000 0.00000000e+000 6.49474475e-307], [29.583394289016724]
[0.00000000e+000 0.00000000e+000 6.49474475e-307], [29.813748836517334]
[0.00000000e+000 0.00000000e+000 6.49474475e-307], [29.966767072677612]
[0.00000000e+000 0.00000000e+000 6.49474475e-307], [30.118639945983887]
[0.00000000e+000 0.00000000e+000 6.49474475e-307], [30.27140164375305]
[0.00000000e+000 0.00000000e+000 6.49474475e-307], [30.426692485809326]
[0.00000000e+000 0.00000000e+000 6.49474475e-307], [30.584475994110107]
[0.00000000e+000 0.00000000e+000 6.49474475e-307], [30.74098038673401]
[0.00000000e+000 0.00000000e+000 6.49474475e-307], [30.896403789520264]
[0.00000000e+000 0.00000000e+000 6.49474475e-307], [31.05421757698059]
[0.00000000e+000 0.00000000e+000 6.49474475e-307], [31.209370613098145]
[0.00000000e+000 0.00000000e+000 6.49474475e-307], [31.39007019996643]
[0.00000000e+000 0.00000000e+000 6.49474475e-307], [31.546865701675415]
[0.00000000e+000 0.00000000e+000 6.49474475e-307], [31.700862646102905]
[0.00000000e+000 0.00000000e+000 6.49474475e-307], [31.853768825531006]
[0.00000000e+000 0.00000000e+000 6.49474475e-307], [32.00870394706726]
[0.00000000e+000 0.00000000e+000 6.49474475e-307], [32.166396141052246]
[0.00000000e+000 0.00000000e+000 6.49474475e-307], [32.31729030609131]
[0.00000000e+000 0.00000000e+000 6.49474475e-307], [32.47214937210083]
[0.00000000e+000 0.00000000e+000 6.49474475e-307], [32.62577557563782]
[0.00000000e+000 0.00000000e+000 6.49474475e-307], [32.80896067619324]
[0.00000000e+000 0.00000000e+000 6.49474475e-307], [32.96235513687134]
[0.00000000e+000 0.00000000e+000 6.49474475e-307], [33.11363196372986]
[0.00000000e+000 0.00000000e+000 6.49474475e-307], [33.26783061027527]
[0.00000000e+000 0.00000000e+000 6.49474475e-307], [33.4259889125824]
[0.00000000e+000 0.00000000e+000 6.49474475e-307], [33.57995319366455]
[0.00000000e+000 0.00000000e+000 6.49474475e-307], [33.73875594139099]
[0.00000000e+000 0.00000000e+000 6.49474475e-307], [33.89643216133118]
[0.00000000e+000 0.00000000e+000 6.49474475e-307], [34.052236795425415]
[0.00000000e+000 0.00000000e+000 6.49474475e-307], [34.20358896255493]
[0.00000000e+000 0.00000000e+000 6.49474475e-307], [34.390560150146484]
[0.00000000e+000 0.00000000e+000 6.49474475e-307], [34.54723143577576]
[0.00000000e+000 0.00000000e+000 6.49474475e-307], [34.70167946815491]
[0.00000000e+000 0.00000000e+000 6.49474475e-307], [34.860469579696655]
[0.00000000e+000 0.00000000e+000 6.49474475e-307], [35.01588678359985]
[0.00000000e+000 0.00000000e+000 6.49474475e-307], [35.1708447933197]
[0.00000000e+000 0.00000000e+000 6.49474475e-307], [35.32525038719177]
[0.00000000e+000 0.00000000e+000 6.49474475e-307], [35.479928970336914]
[0.00000000e+000 0.00000000e+000 6.49474475e-307], [35.68517470359802]
[0.00000000e+000 0.00000000e+000 6.49474475e-307], [35.84328007698059]
[0.00000000e+000 0.00000000e+000 6.49474475e-307], [36.00052309036255]
[0.00000000e+000 0.00000000e+000 6.49474475e-307], [36.15547323226929]
[0.00000000e+000 0.00000000e+000 6.49474475e-307], [36.31030058860779]
[0.00000000e+000 0.00000000e+000 6.49474475e-307], [36.478652238845825]
[0.00000000e+000 0.00000000e+000 6.49474475e-307], [36.63540434837341]
[0.00000000e+000 0.00000000e+000 6.49474475e-307], [36.78678798675537]
[0.00000000e+000 0.00000000e+000 6.49474475e-307], [36.93806028366089]
[0.00000000e+000 0.00000000e+000 6.49474475e-307], [37.09225797653198]
[0.00000000e+000 0.00000000e+000 6.49474475e-307], [37.24688935279846]
[0.00000000e+000 0.00000000e+000 6.49474475e-307], [37.40379571914673]
[0.00000000e+000 0.00000000e+000 6.49474475e-307], [37.557594776153564]
[0.00000000e+000 0.00000000e+000 6.49474475e-307], [37.710546016693115]
[0.00000000e+000 0.00000000e+000 6.49474475e-307], [37.86379098892212]
[0.00000000e+000 0.00000000e+000 6.49474475e-307], [38.01903963088989]
[0.00000000e+000 0.00000000e+000 6.49474475e-307], [38.17109394073486]
[0.00000000e+000 0.00000000e+000 6.49474475e-307], [38.32427787780762]
[0.00000000e+000 0.00000000e+000 6.49474475e-307], [38.4770143032074]
[0.00000000e+000 0.00000000e+000 6.49474475e-307], [38.630942583084106]
[0.00000000e+000 0.00000000e+000 6.49474475e-307], [38.78137803077698]
[0.00000000e+000 0.00000000e+000 6.49474475e-307], [38.93331742286682]
[0.00000000e+000 0.00000000e+000 6.49474475e-307], [39.08401966094971]
[0.00000000e+000 0.00000000e+000 6.49474475e-307], [39.234944581985474]
[0.00000000e+000 0.00000000e+000 6.49474475e-307], [39.39055299758911]
[0.00000000e+000 0.00000000e+000 6.49474475e-307], [39.54587697982788]
[0.00000000e+000 0.00000000e+000 6.49474475e-307], [39.6988365650177]
[0.00000000e+000 0.00000000e+000 6.49474475e-307], [39.853092193603516]
[0.00000000e+000 0.00000000e+000 6.49474475e-307], [40.00542140007019]
[0.00000000e+000 0.00000000e+000 6.49474475e-307], [40.183958768844604]
[0.00000000e+000 0.00000000e+000 6.49474475e-307], [40.34121632575989]
[0.00000000e+000 0.00000000e+000 6.49474475e-307], [40.495441198349]
[0.00000000e+000 0.00000000e+000 6.49474475e-307], [40.64905786514282]
[0.00000000e+000 0.00000000e+000 6.49474475e-307], [40.7991669178009]
[0.00000000e+000 0.00000000e+000 6.49474475e-307], [40.98170471191406]
[0.00000000e+000 0.00000000e+000 6.49474475e-307], [41.13736581802368]
[0.00000000e+000 0.00000000e+000 6.49474475e-307], [41.28904724121094]
[0.00000000e+000 0.00000000e+000 6.49474475e-307], [41.44374489784241]
[0.00000000e+000 0.00000000e+000 6.49474475e-307], [41.59644627571106]
[0.00000000e+000 0.00000000e+000 6.49474475e-307], [41.750701904296875]
[0.00000000e+000 0.00000000e+000 6.49474475e-307], [41.95852279663086]
[0.00000000e+000 0.00000000e+000 6.49474475e-307], [42.1798141002655]
[0.00000000e+000 0.00000000e+000 6.49474475e-307], [42.33692526817322]
[0.00000000e+000 0.00000000e+000 6.49474475e-307], [42.517539501190186]
[0.00000000e+000 0.00000000e+000 6.49474475e-307], [42.670466899871826]
[0.00000000e+000 0.00000000e+000 6.49474475e-307], [42.82263445854187]
[0.00000000e+000 0.00000000e+000 6.49474475e-307], [42.97942113876343]
[0.00000000e+000 0.00000000e+000 6.49474475e-307], [43.13311839103699]
[0.00000000e+000 0.00000000e+000 6.49474475e-307], [43.287264585494995]
[0.00000000e+000 0.00000000e+000 6.49474475e-307], [43.442302942276]
[0.00000000e+000 0.00000000e+000 6.49474475e-307], [43.60126280784607]
[0.00000000e+000 0.00000000e+000 6.49474475e-307], [43.75703978538513]
[0.00000000e+000 0.00000000e+000 6.49474475e-307], [43.91091299057007]
[0.00000000e+000 0.00000000e+000 6.49474475e-307], [44.06362581253052]
[0.00000000e+000 0.00000000e+000 6.49474475e-307], [44.217926263809204]
[0.00000000e+000 0.00000000e+000 6.49474475e-307], [44.373640298843384]
[0.00000000e+000 0.00000000e+000 6.49474475e-307], [44.53154158592224]
[0.00000000e+000 0.00000000e+000 6.49474475e-307], [44.685559034347534]
[0.00000000e+000 0.00000000e+000 6.49474475e-307], [44.8404176235199]
[0.00000000e+000 0.00000000e+000 6.49474475e-307], [44.99504613876343]
[0.00000000e+000 0.00000000e+000 6.49474475e-307], [45.149932622909546]
[0.00000000e+000 0.00000000e+000 6.49474475e-307], [45.306785106658936]
[0.00000000e+000 0.00000000e+000 6.49474475e-307], [45.46345782279968]
[0.00000000e+000 0.00000000e+000 6.49474475e-307], [45.61441254615784]
[0.00000000e+000 0.00000000e+000 6.49474475e-307], [45.765779972076416]
[0.00000000e+000 0.00000000e+000 6.49474475e-307], [45.91905879974365]
[0.00000000e+000 0.00000000e+000 6.49474475e-307], [46.07117295265198]
[0.00000000e+000 0.00000000e+000 6.49474475e-307], [46.250192165374756]
[0.00000000e+000 0.00000000e+000 6.49474475e-307], [46.42452692985535]
[0.00000000e+000 0.00000000e+000 6.49474475e-307], [46.613463401794434]
[0.00000000e+000 0.00000000e+000 6.49474475e-307], [46.76743507385254]
[0.00000000e+000 0.00000000e+000 6.49474475e-307], [46.920668601989746]
[0.00000000e+000 0.00000000e+000 6.49474475e-307], [47.083979845047]
[0.00000000e+000 0.00000000e+000 6.49474475e-307], [47.23998045921326]
[0.00000000e+000 0.00000000e+000 6.49474475e-307], [47.435003995895386]
[0.00000000e+000 0.00000000e+000 6.49474475e-307], [47.60486459732056]
[0.00000000e+000 0.00000000e+000 6.49474475e-307], [47.76064133644104]
[0.00000000e+000 0.00000000e+000 6.49474475e-307], [47.92240333557129]
[0.00000000e+000 0.00000000e+000 6.49474475e-307], [48.07737159729004]
[0.00000000e+000 0.00000000e+000 6.49474475e-307], [48.231815338134766]
[0.00000000e+000 0.00000000e+000 6.49474475e-307], [48.38847470283508]
[0.00000000e+000 0.00000000e+000 6.49474475e-307], [48.545926332473755]
[0.00000000e+000 0.00000000e+000 6.49474475e-307], [48.69897937774658]
[0.00000000e+000 0.00000000e+000 6.49474475e-307], [48.8603572845459]
[0.00000000e+000 0.00000000e+000 6.49474475e-307], [49.011225938797]
[0.00000000e+000 0.00000000e+000 6.49474475e-307], [49.1645188331604]
[0.00000000e+000 0.00000000e+000 6.49474475e-307], [49.3189799785614]
[0.00000000e+000 0.00000000e+000 6.49474475e-307], [49.47505855560303]
[0.00000000e+000 0.00000000e+000 6.49474475e-307], [49.63337254524231]
[0.00000000e+000 0.00000000e+000 6.49474475e-307], [49.78660821914673]
[0.00000000e+000 0.00000000e+000 6.49474475e-307], [49.94460463523865]
[0.00000000e+000 0.00000000e+000 6.49474475e-307], [50.098265409469604]
[0.00000000e+000 0.00000000e+000 6.49474475e-307], [50.25318694114685]
[0.00000000e+000 0.00000000e+000 6.49474475e-307], [50.406773805618286]
[0.00000000e+000 0.00000000e+000 6.49474475e-307], [50.56233358383179]
[0.00000000e+000 0.00000000e+000 6.49474475e-307], [50.716399908065796]
[0.00000000e+000 0.00000000e+000 6.49474475e-307], [50.90343427658081]
[0.00000000e+000 0.00000000e+000 6.49474475e-307], [51.077433347702026]
[0.00000000e+000 0.00000000e+000 6.49474475e-307], [51.228195905685425]
[0.00000000e+000 0.00000000e+000 6.49474475e-307], [51.412877321243286]
[0.00000000e+000 0.00000000e+000 6.49474475e-307], [51.566835165023804]
[0.00000000e+000 0.00000000e+000 6.49474475e-307], [51.71949815750122]
[0.00000000e+000 0.00000000e+000 6.49474475e-307], [51.873281955718994]
[0.00000000e+000 0.00000000e+000 6.49474475e-307], [52.110984802246094]
[0.00000000e+000 0.00000000e+000 6.49474475e-307], [52.341145753860474]
[0.00000000e+000 0.00000000e+000 6.49474475e-307], [52.52755808830261]
[0.00000000e+000 0.00000000e+000 6.49474475e-307], [52.67949914932251]
[0.00000000e+000 0.00000000e+000 6.49474475e-307], [52.8308539390564]
[0.00000000e+000 0.00000000e+000 6.49474475e-307], [53.0143506526947]
[0.00000000e+000 0.00000000e+000 6.49474475e-307], [53.16699528694153]
[0.00000000e+000 0.00000000e+000 6.49474475e-307], [53.320072650909424]
[0.00000000e+000 0.00000000e+000 6.49474475e-307], [53.47543716430664]
[0.00000000e+000 0.00000000e+000 6.49474475e-307], [53.669060468673706]
[0.00000000e+000 0.00000000e+000 6.49474475e-307], [53.821290731430054]
[0.00000000e+000 0.00000000e+000 6.49474475e-307], [53.97908639907837]
[0.00000000e+000 0.00000000e+000 6.49474475e-307], [54.13168239593506]
[0.00000000e+000 0.00000000e+000 6.49474475e-307], [54.2837700843811]
[0.00000000e+000 0.00000000e+000 6.49474475e-307], [54.43650221824646]
[0.00000000e+000 0.00000000e+000 6.49474475e-307], [54.59218955039978]
[0.00000000e+000 0.00000000e+000 6.49474475e-307], [54.743613481521606]
[0.00000000e+000 0.00000000e+000 6.49474475e-307], [54.89987301826477]
[0.00000000e+000 0.00000000e+000 6.49474475e-307], [55.05996918678284]
[0.00000000e+000 0.00000000e+000 6.49474475e-307], [55.214409828186035]
[0.00000000e+000 0.00000000e+000 6.49474475e-307], [55.37193036079407]
[0.00000000e+000 0.00000000e+000 6.49474475e-307], [55.533064126968384]
[0.00000000e+000 0.00000000e+000 6.49474475e-307], [55.68792748451233]
[0.00000000e+000 0.00000000e+000 6.49474475e-307], [55.841137409210205]
[0.00000000e+000 0.00000000e+000 6.49474475e-307], [55.99502921104431]
[0.00000000e+000 0.00000000e+000 6.49474475e-307], [56.14648175239563]
[0.00000000e+000 0.00000000e+000 6.49474475e-307], [56.3015992641449]
[0.00000000e+000 0.00000000e+000 6.49474475e-307], [56.45704531669617]
[0.00000000e+000 0.00000000e+000 6.49474475e-307], [56.6108500957489]
[0.00000000e+000 0.00000000e+000 6.49474475e-307], [56.76423478126526]
[0.00000000e+000 0.00000000e+000 6.49474475e-307], [56.92012906074524]
[0.00000000e+000 0.00000000e+000 6.49474475e-307], [57.07420754432678]
[0.00000000e+000 0.00000000e+000 6.49474475e-307], [57.22728490829468]
[0.00000000e+000 0.00000000e+000 6.49474475e-307], [57.37860131263733]
[0.00000000e+000 0.00000000e+000 6.49474475e-307], [57.53101921081543]
[0.00000000e+000 0.00000000e+000 6.49474475e-307], [57.68192100524902]
[0.00000000e+000 0.00000000e+000 6.49474475e-307], [57.83392882347107]
[0.00000000e+000 0.00000000e+000 6.49474475e-307], [58.02177953720093]
[0.00000000e+000 0.00000000e+000 6.49474475e-307], [58.17485475540161]
[0.00000000e+000 0.00000000e+000 6.49474475e-307], [58.33047413825989]
[0.00000000e+000 0.00000000e+000 6.49474475e-307], [58.51134538650513]
[0.00000000e+000 0.00000000e+000 6.49474475e-307], [58.67562389373779]
[0.00000000e+000 0.00000000e+000 6.49474475e-307], [58.82690167427063]
[0.00000000e+000 0.00000000e+000 6.49474475e-307], [58.97970962524414]
[0.00000000e+000 0.00000000e+000 6.49474475e-307], [59.13039016723633]
[0.00000000e+000 0.00000000e+000 6.49474475e-307], [59.28178787231445]
[0.00000000e+000 0.00000000e+000 6.49474475e-307], [59.435481786727905]
[0.00000000e+000 0.00000000e+000 6.49474475e-307], [59.591323375701904]
[0.00000000e+000 0.00000000e+000 6.49474475e-307], [59.743709564208984]
[0.00000000e+000 0.00000000e+000 6.49474475e-307], [59.89605689048767]
[0.00000000e+000 0.00000000e+000 6.49474475e-307], [60.08003878593445]
[0.00000000e+000 0.00000000e+000 6.49474475e-307], [60.23334813117981]
[0.00000000e+000 0.00000000e+000 6.49474475e-307], [60.38765740394592]
[0.00000000e+000 0.00000000e+000 6.49474475e-307], [60.5496780872345]
[0.00000000e+000 0.00000000e+000 6.49474475e-307], [60.70519018173218]
[0.00000000e+000 0.00000000e+000 6.49474475e-307], [60.858540534973145]
[0.00000000e+000 0.00000000e+000 6.49474475e-307], [61.01279091835022]
[0.00000000e+000 0.00000000e+000 6.49474475e-307], [61.16630840301514]
[0.00000000e+000 0.00000000e+000 6.49474475e-307], [61.32043433189392]
[0.00000000e+000 0.00000000e+000 6.49474475e-307], [61.507832765579224]
[0.00000000e+000 0.00000000e+000 6.49474475e-307], [61.72952914237976]
[0.00000000e+000 0.00000000e+000 6.49474475e-307], [61.88530969619751]
[0.00000000e+000 0.00000000e+000 6.49474475e-307], [62.061880350112915]
[0.00000000e+000 0.00000000e+000 6.49474475e-307], [62.242955923080444]
[0.00000000e+000 0.00000000e+000 6.49474475e-307], [62.40177917480469]
[0.00000000e+000 0.00000000e+000 6.49474475e-307], [62.57004737854004]
[0.00000000e+000 0.00000000e+000 6.49474475e-307], [62.721723794937134]
[0.00000000e+000 0.00000000e+000 6.49474475e-307], [62.95321321487427]
[0.00000000e+000 0.00000000e+000 6.49474475e-307], [63.10736632347107]
[0.00000000e+000 0.00000000e+000 6.49474475e-307], [63.26153326034546]
[0.00000000e+000 0.00000000e+000 6.49474475e-307], [63.41554355621338]
[0.00000000e+000 0.00000000e+000 6.49474475e-307], [63.57076859474182]
[0.00000000e+000 0.00000000e+000 6.49474475e-307], [63.722026109695435]
[0.00000000e+000 0.00000000e+000 6.49474475e-307], [63.87567901611328]
[0.00000000e+000 0.00000000e+000 6.49474475e-307], [64.02928566932678]
[0.00000000e+000 0.00000000e+000 6.49474475e-307], [64.18318510055542]
[0.00000000e+000 0.00000000e+000 6.49474475e-307], [64.33688712120056]
[0.00000000e+000 0.00000000e+000 6.49474475e-307], [64.49465227127075]
[0.00000000e+000 0.00000000e+000 6.49474475e-307], [64.64631152153015]
[0.00000000e+000 0.00000000e+000 6.49474475e-307], [64.79929828643799]
[0.00000000e+000 0.00000000e+000 6.49474475e-307], [64.95306396484375]
[0.00000000e+000 0.00000000e+000 6.49474475e-307], [65.10613584518433]
[0.00000000e+000 0.00000000e+000 6.49474475e-307], [65.26153135299683]
[0.00000000e+000 0.00000000e+000 6.49474475e-307], [65.42077660560608]
[0.00000000e+000 0.00000000e+000 6.49474475e-307], [65.57847499847412]
[0.00000000e+000 0.00000000e+000 6.49474475e-307], [65.73180055618286]
[0.00000000e+000 0.00000000e+000 6.49474475e-307], [65.89284682273865]
[0.00000000e+000 0.00000000e+000 6.49474475e-307], [66.04414224624634]
[0.00000000e+000 0.00000000e+000 6.49474475e-307], [66.19687366485596]
[0.00000000e+000 0.00000000e+000 6.49474475e-307], [66.35111975669861]
[0.00000000e+000 0.00000000e+000 6.49474475e-307], [66.51066017150879]
[0.00000000e+000 0.00000000e+000 6.49474475e-307], [66.6659038066864]
[0.00000000e+000 0.00000000e+000 6.49474475e-307], [66.82204818725586]
[0.00000000e+000 0.00000000e+000 6.49474475e-307], [66.9776258468628]
[0.00000000e+000 0.00000000e+000 6.49474475e-307], [67.16765832901001]
[0.00000000e+000 0.00000000e+000 6.49474475e-307], [67.32238554954529]
[0.00000000e+000 0.00000000e+000 6.49474475e-307], [67.47898483276367]
[0.00000000e+000 0.00000000e+000 6.49474475e-307], [67.63420343399048]
[0.00000000e+000 0.00000000e+000 6.49474475e-307], [67.78742790222168]
[0.00000000e+000 0.00000000e+000 6.49474475e-307], [67.94092106819153]
[0.00000000e+000 0.00000000e+000 6.49474475e-307], [68.1113383769989]
[0.00000000e+000 0.00000000e+000 6.49474475e-307], [68.3171112537384]
[0.00000000e+000 0.00000000e+000 6.49474475e-307], [68.50155401229858]
[0.00000000e+000 0.00000000e+000 6.49474475e-307], [68.65957164764404]
[0.00000000e+000 0.00000000e+000 6.49474475e-307], [68.81094360351562]
[0.00000000e+000 0.00000000e+000 6.49474475e-307], [68.96878576278687]
[0.00000000e+000 0.00000000e+000 6.49474475e-307], [69.12181544303894]
[0.00000000e+000 0.00000000e+000 6.49474475e-307], [69.27538871765137]
[0.00000000e+000 0.00000000e+000 6.49474475e-307], [69.42983317375183]
[0.00000000e+000 0.00000000e+000 6.49474475e-307], [69.58582544326782]
[0.00000000e+000 0.00000000e+000 6.49474475e-307], [69.73830986022949]
[0.00000000e+000 0.00000000e+000 6.49474475e-307], [69.89478826522827]
[0.00000000e+000 0.00000000e+000 6.49474475e-307], [70.05121660232544]
[0.00000000e+000 0.00000000e+000 6.49474475e-307], [70.20770359039307]
[0.00000000e+000 0.00000000e+000 6.49474475e-307], [70.36313509941101]
[0.00000000e+000 0.00000000e+000 6.49474475e-307], [70.51876258850098]
[0.00000000e+000 0.00000000e+000 6.49474475e-307], [70.6751618385315]
[0.00000000e+000 0.00000000e+000 6.49474475e-307], [70.8624894618988]
[0.00000000e+000 0.00000000e+000 6.49474475e-307], [71.04043102264404]
[0.00000000e+000 0.00000000e+000 6.49474475e-307], [71.23003053665161]
[0.00000000e+000 0.00000000e+000 6.49474475e-307], [71.39225769042969]
[0.00000000e+000 0.00000000e+000 6.49474475e-307], [71.54750299453735]
[0.00000000e+000 0.00000000e+000 6.49474475e-307], [71.72559070587158]
[0.00000000e+000 0.00000000e+000 6.49474475e-307], [71.9144937992096]
[0.00000000e+000 0.00000000e+000 6.49474475e-307], [72.07201313972473]
[0.00000000e+000 0.00000000e+000 6.49474475e-307], [72.22663831710815]
[0.00000000e+000 0.00000000e+000 6.49474475e-307], [72.38377666473389]
[0.00000000e+000 0.00000000e+000 6.49474475e-307], [72.53743267059326]
[0.00000000e+000 0.00000000e+000 6.49474475e-307], [72.69370555877686]
[0.00000000e+000 0.00000000e+000 6.49474475e-307], [72.84782242774963]
[0.00000000e+000 0.00000000e+000 6.49474475e-307], [73.00216436386108]
[0.00000000e+000 0.00000000e+000 6.49474475e-307], [73.15665531158447]
[0.00000000e+000 0.00000000e+000 6.49474475e-307], [73.30933880805969]
[0.00000000e+000 0.00000000e+000 6.49474475e-307], [73.4645140171051]
[0.00000000e+000 0.00000000e+000 6.49474475e-307], [73.6240496635437]
[0.00000000e+000 0.00000000e+000 6.49474475e-307], [73.77731394767761]
[0.00000000e+000 0.00000000e+000 6.49474475e-307], [73.95335626602173]
[0.00000000e+000 0.00000000e+000 6.49474475e-307], [74.1376895904541]
[0.00000000e+000 0.00000000e+000 6.49474475e-307], [74.29030132293701]
[0.00000000e+000 0.00000000e+000 6.49474475e-307], [74.44347834587097]
[0.00000000e+000 0.00000000e+000 6.49474475e-307], [74.59731769561768]
[0.00000000e+000 0.00000000e+000 6.49474475e-307], [74.75204086303711]
[0.00000000e+000 0.00000000e+000 6.49474475e-307], [74.9069185256958]
[0.00000000e+000 0.00000000e+000 6.49474475e-307], [75.0636670589447]
[0.00000000e+000 0.00000000e+000 6.49474475e-307], [75.21756076812744]
[0.00000000e+000 0.00000000e+000 6.49474475e-307], [75.3708336353302]
[0.00000000e+000 0.00000000e+000 6.49474475e-307], [75.52198767662048]
[0.00000000e+000 0.00000000e+000 6.49474475e-307], [75.67436361312866]
[0.00000000e+000 0.00000000e+000 6.49474475e-307], [75.86042928695679]
[0.00000000e+000 0.00000000e+000 6.49474475e-307], [76.0130262374878]
[0.00000000e+000 0.00000000e+000 6.49474475e-307], [76.19900608062744]
[0.00000000e+000 0.00000000e+000 6.49474475e-307], [76.35436153411865]
[0.00000000e+000 0.00000000e+000 6.49474475e-307], [76.50608277320862]
[0.00000000e+000 0.00000000e+000 6.49474475e-307], [76.65859699249268]
[0.00000000e+000 0.00000000e+000 6.49474475e-307], [76.85535597801208]
[0.00000000e+000 0.00000000e+000 6.49474475e-307], [77.01547360420227]
[0.00000000e+000 0.00000000e+000 6.49474475e-307], [77.18821668624878]
[0.00000000e+000 0.00000000e+000 6.49474475e-307], [77.37950253486633]
[0.00000000e+000 0.00000000e+000 6.49474475e-307], [77.55201816558838]
[0.00000000e+000 0.00000000e+000 6.49474475e-307], [77.70679903030396]
[0.00000000e+000 0.00000000e+000 6.49474475e-307], [77.86491274833679]
[0.00000000e+000 0.00000000e+000 6.49474475e-307], [78.05460691452026]
[0.00000000e+000 0.00000000e+000 6.49474475e-307], [78.20752596855164]
[0.00000000e+000 0.00000000e+000 6.49474475e-307], [78.36720728874207]
