[1.11022302e-14 0.00000000e+00 5.00000000e+01], [16.437376022338867]
[1.50452435e-14 1.26021230e-14 5.00000000e+01], [17.788095712661743]
[ 6.46327233e-03 -1.00872405e-03  5.00032934e+01], [17.978464365005493]
[ 2.37453287e-02 -3.03461518e-03  5.00101355e+01], [18.129085063934326]
[ 5.26981644e-02 -6.07258000e-03  5.00199401e+01], [18.280543088912964]
[ 9.28618144e-02 -9.12530587e-03  5.00317118e+01], [18.43466877937317]
[ 1.45422514e-01 -1.21969275e-02  5.00461951e+01], [18.588159561157227]
[ 2.10111422e-01 -1.42878584e-02  5.00628010e+01], [18.746323823928833]
[ 2.87357787e-01 -1.63862373e-02  5.00817998e+01], [18.898918628692627]
[ 3.77261834e-01 -1.85052927e-02  5.01030197e+01], [19.05081558227539]
[ 4.79900852e-01 -2.06374735e-02  5.01263726e+01], [19.238844633102417]
[ 5.93388860e-01 -2.17876568e-02  5.01507953e+01], [19.394171953201294]
[ 7.18725481e-01 -2.39489493e-02  5.01772080e+01], [19.54949164390564]
[ 8.55300475e-01 -2.71360794e-02  5.02049786e+01], [19.703869819641113]
[ 1.00663977e+00 -3.13476391e-02  5.02358820e+01], [19.855611562728882]
[ 1.12872835e+00 -3.74513311e-02  5.02472607e+01], [20.042104721069336]
[ 1.25825662e+00 -4.27329163e-02  5.02695762e+01], [20.193652391433716]
[ 1.39690896e+00 -4.70244995e-02  5.02944607e+01], [20.351032972335815]
[ 1.54650349e+00 -4.93390127e-02  5.03213628e+01], [20.504273414611816]
[ 1.70388471 -0.05265093 50.34797281], [20.65980815887451]
[ 1.86990996 -0.05600674 50.37543765], [20.81213688850403]
[ 2.04430202 -0.05838978 50.40336054], [20.96414017677307]
[ 2.21494021e+00 -2.58779886e-02  5.04262541e+01], [21.11765956878662]
[ 2.37951107e+00 -7.67420577e-03  5.04459245e+01], [21.269702196121216]
[2.52859716e+00 8.28165326e-03 5.04595134e+01], [21.429492712020874]
[2.68365493e+00 2.41967444e-02 5.04797083e+01], [21.584681272506714]
[2.83196737e+00 5.01186273e-02 5.04950131e+01], [21.740532398223877]
[ 2.98896248  0.07028938 50.51526703], [21.894172430038452]
[ 3.14660421  0.09334679 50.53294018], [22.06481409072876]
[ 3.30570558  0.11353751 50.5500964 ], [22.226401805877686]
[ 3.44872621  0.14464742 50.55902581], [22.383864402770996]
[ 3.59076163  0.17514607 50.57120938], [22.54003071784973]
[ 3.737846    0.20666557 50.58576852], [22.701826572418213]
[ 3.87259303  0.23330816 50.59307787], [22.854536056518555]
[ 4.01355898  0.25687927 50.60580906], [23.01125741004944]
[ 4.14719959  0.29434445 50.61357141], [23.1664080619812]
[ 4.29146002  0.32542098 50.62702637], [23.32425045967102]
[ 4.4422427   0.35929498 50.64001383], [23.477359533309937]
[ 4.5957576   0.39137113 50.6513927 ], [23.638567447662354]
[ 4.75739104  0.42645237 50.6644496 ], [23.79335594177246]
[ 4.92635357  0.46571942 50.67738357], [23.949081420898438]
[ 5.09980695  0.51121817 50.68897634], [24.10217046737671]
[ 5.27290289  0.55210405 50.69801117], [24.254456996917725]
[ 5.45005864  0.59188678 50.70771445], [24.40552282333374]
[ 5.63346557  0.63372954 50.71784686], [24.556133270263672]
[ 5.81310003  0.66976277 50.72378477], [24.710097312927246]
[ 5.98050358  0.70160672 50.72495645], [24.866154670715332]
[ 6.1593454   0.73043849 50.73301121], [25.035541772842407]
[ 6.33609131  0.77406688 50.73674757], [25.186700344085693]
[ 6.52541833  0.81769503 50.74433639], [25.338785409927368]
[ 6.69175303  0.86318008 50.7392853 ], [25.491665601730347]
[ 6.85979221  0.90503322 50.73952079], [25.645487308502197]
[ 7.01627661  0.9427207  50.73524612], [25.79892897605896]
[ 7.18211791  0.97837378 50.73672402], [25.951988458633423]
[ 7.31375448  1.01177719 50.7236871 ], [26.10263180732727]
[ 7.4593577   1.04044058 50.72352502], [26.253324031829834]
[ 7.61069012  1.06583968 50.7227279 ], [26.44103693962097]
[ 7.75779736  1.09299434 50.71837486], [26.595203399658203]
[ 7.88354108  1.10534873 50.70751   ], [26.7496600151062]
[ 8.00619369  1.12373823 50.70077115], [26.905007123947144]
[ 8.12164828  1.12273191 50.69332532], [27.055689334869385]
[ 8.24110156  1.13334199 50.68908216], [27.205567121505737]
[ 8.37271739  1.14296397 50.68788398], [27.362399578094482]
[ 8.48288319  1.15503817 50.67661815], [27.529244661331177]
[ 8.60343688  1.17163114 50.6731035 ], [27.684511184692383]
[ 8.72234466  1.21330912 50.66653134], [27.852143049240112]
[ 8.82678221  1.25180015 50.65517301], [28.011053323745728]
[ 8.93915856  1.28712457 50.64965134], [28.174537658691406]
[ 9.03137563  1.30004322 50.6370913 ], [28.34271264076233]
[ 9.12913269  1.31442858 50.630995  ], [28.50499200820923]
[ 9.22906514  1.35196623 50.62436898], [28.657382011413574]
[ 9.33940481  1.39048027 50.61987672], [28.80990505218506]
[ 9.44313817  1.40970638 50.61131574], [28.96647548675537]
[ 9.55336728  1.44144082 50.60560146], [29.121068716049194]
[ 9.61830057  1.47569945 50.58512262], [29.272735357284546]
[ 9.70328837  1.5167581  50.58031396], [29.428961753845215]
[ 9.77319647  1.53489639 50.56879993], [29.58275008201599]
[ 9.84371466  1.574541   50.56028853], [29.81294012069702]
[ 9.91179007  1.62747357 50.5508596 ], [29.966095209121704]
[ 9.97694301  1.69466669 50.54065789], [30.118063926696777]
[10.03807884  1.77615368 50.52943944], [30.27073383331299]
[10.07077796  1.84565853 50.51166639], [30.42587399482727]
[10.09923757  1.94165455 50.49856875], [30.583904266357422]
[10.13243865  2.05135002 50.48786765], [30.740318775177002]
[10.16748296  2.17926065 50.47593359], [30.89561128616333]
[10.1727741   2.30256381 50.45534864], [31.053573608398438]
[10.18101394  2.44682962 50.44105629], [31.208802700042725]
[10.19710905  2.60124977 50.42813741], [31.389543771743774]
[10.21928015  2.76855102 50.41394629], [31.545846939086914]
[10.23143794  2.91684961 50.39603864], [31.70010733604431]
[10.23473543  3.06268713 50.37795562], [31.8530216217041]
[10.208831    3.16554805 50.35731738], [32.00801348686218]
[10.19173622  3.29552966 50.3446982 ], [32.16589403152466]
[10.17824152  3.43225839 50.3311619 ], [32.3165488243103]
[10.16914598  3.57969276 50.31675238], [32.47150182723999]
[10.1648916   3.73817585 50.30111964], [32.62513756752014]
[10.1800793   3.88217477 50.28991174], [32.808337688446045]
[10.20315094  4.03084166 50.27574484], [32.96166372299194]
[10.20535954  4.1707937  50.25404751], [33.11298108100891]
[10.2013931   4.31189159 50.23451225], [33.26705765724182]
[10.19752768  4.46256473 50.21550171], [33.42541527748108]
[10.19148919  4.61785634 50.19501491], [33.578965187072754]
[10.18663047  4.77948269 50.17401906], [33.73814249038696]
[10.18710463  4.94890372 50.15260044], [33.89591193199158]
[10.18703258  5.12838243 50.12780538], [34.05142426490784]
[10.16185974  5.25393918 50.10221032], [34.20250058174133]
[10.13345633  5.41601914 50.07749083], [34.39006805419922]
[10.11103267  5.58402308 50.05378982], [34.546555519104004]
[10.09574435  5.76515818 50.02828491], [34.70103144645691]
[10.08336511  5.95873552 49.99902401], [34.85974645614624]
[10.04787471  6.13602827 49.96412025], [35.01520824432373]
[10.01465606  6.32705311 49.93225889], [35.17022156715393]
[ 9.98194947  6.52203061 49.89900353], [35.32430458068848]
[ 9.95705803  6.7136676  49.86725762], [35.479289531707764]
[ 9.89805856  6.85867139 49.83206288], [35.684438705444336]
[ 9.84959672  7.04405523 49.80064737], [35.84255075454712]
[ 9.80472755  7.23033384 49.76707748], [35.999356746673584]
[ 9.76450451  7.42679745 49.73102811], [36.1547167301178]
[ 9.7264476   7.63277186 49.69142741], [36.30956268310547]
[ 9.68885481  7.84690682 49.64839159], [36.478193283081055]
[ 9.61944561  8.02359937 49.60282529], [36.63473176956177]
[ 9.57447753  8.19301255 49.57234254], [36.78612542152405]
[ 9.53526646  8.37877452 49.53530344], [36.937297344207764]
[ 9.5152926   8.55627831 49.50196643], [37.09177756309509]
[ 9.49338606  8.74786722 49.45991432], [37.24611139297485]
[ 9.47769899  8.94252211 49.41712067], [37.40325427055359]
[ 9.44219263  9.07589844 49.38046053], [37.55712842941284]
[ 9.40974197  9.2378267  49.34324396], [37.70967483520508]
[ 9.34539715  9.35908611 49.305557  ], [37.863043785095215]
[ 9.29093815  9.50844126 49.27132794], [38.01797819137573]
[ 9.25529559  9.64437058 49.24302995], [38.170615911483765]
[ 9.22298142  9.79654371 49.20716897], [38.32370924949646]
[ 9.21542199  9.93757125 49.17846279], [38.47607612609863]
[ 9.21696061 10.08511763 49.14465458], [38.63039422035217]
[ 9.20213874 10.2127796  49.10782589], [38.78076243400574]
[ 9.18935631 10.36527216 49.06798069], [38.93271064758301]
[ 9.18449643 10.52691474 49.02624805], [39.08339786529541]
[ 9.18726343 10.69759996 48.9811482 ], [39.23429799079895]
[ 9.16671737 10.81826518 48.94044017], [39.38979411125183]
[ 9.15590755 10.96320438 48.90135264], [39.54519081115723]
[ 9.12706533 11.06485826 48.86696579], [39.69780373573303]
[ 9.11238924 11.19077611 48.83411139], [39.8525869846344]
[ 9.10023552 11.32494141 48.79577396], [40.004692792892456]
[ 9.06879475 11.47943193 48.81697477], [40.183122873306274]
[ 9.03060928 11.64825629 48.89966679], [40.34060859680176]
[ 8.99745863 11.82333214 48.98048554], [40.494630336761475]
[ 8.93952204 11.98185023 49.06965777], [40.64834213256836]
[ 8.83392588 12.10190377 49.17897668], [40.798492431640625]
[ 8.73369164 12.14698833 49.29422299], [40.98101329803467]
[ 8.57153482 12.21616164 49.42544645], [41.136441707611084]
[ 8.37854019 12.23644736 49.58685062], [41.288455963134766]
[ 8.21586485 12.23374862 49.72930789], [41.44315505027771]
[ 8.00358673 12.09402959 49.87858585], [41.59578824043274]
[ 7.81221421 11.98980919 50.02428042], [41.75001406669617]
[ 7.58365824 11.8391516  50.17758902], [41.958057165145874]
[ 7.36148767 11.71439866 50.31922186], [42.17888164520264]
[ 7.11611106 11.56717996 50.45353143], [42.33647966384888]
[ 6.89601241 11.42293897 50.5803979 ], [42.51677703857422]
[ 6.70829471 11.27216333 50.68668264], [42.66986536979675]
[ 6.5358026  11.12551297 50.78334411], [42.82197666168213]
[ 6.37270632 10.98405044 50.86679105], [42.97875165939331]
[ 6.20297707 10.84260284 50.94934438], [43.131882429122925]
[ 6.06267744 10.69549658 51.0139839 ], [43.286710023880005]
[ 5.90763411 10.58323686 51.07252797], [43.44158983230591]
[ 5.79680637 10.45585629 51.12811391], [43.600367307662964]
[ 5.67542609 10.33004526 51.16731897], [43.75639533996582]
[ 5.55250347 10.2102748  51.19699663], [43.91018271446228]
[ 5.43499533 10.11057169 51.21237935], [44.06290793418884]
[ 5.31180672 10.02469107 51.22576231], [44.21734571456909]
[ 5.19299301  9.94181514 51.23444788], [44.373133182525635]
[ 5.07747418  9.86591226 51.24019287], [44.530794620513916]
[ 4.96029122  9.79598201 51.24309055], [44.68496322631836]
[ 4.85043217  9.73901559 51.23920178], [44.83998370170593]
[ 4.74687439  9.68605105 51.23063559], [44.99436950683594]
[ 4.65363456  9.64515253 51.21161687], [45.149293422698975]
[ 4.56765806  9.61219556 51.18874108], [45.30615830421448]
[ 4.50289288  9.60610695 51.15595976], [45.462886571884155]
[ 4.44338605  9.59899386 51.1214849 ], [45.613821268081665]
[ 4.40113767  9.61384557 51.07718533], [45.76524901390076]
[ 4.36122251  9.63376022 51.02554539], [45.918373823165894]
[ 4.32358573  9.66055553 50.97555324], [46.070634603500366]
[ 4.28134804  9.69243933 50.92002977], [46.249610900878906]
[ 4.22749698  9.74022882 50.86242848], [46.423842906951904]
[ 4.16897391  9.79781695 50.8083588 ], [46.612772703170776]
[ 4.11374244  9.86031263 50.75602889], [46.766709089279175]
[ 4.0827334   9.90892163 50.70287068], [46.91993761062622]
[ 4.04796525  9.96049375 50.65336035], [47.08330059051514]
[ 4.04243779  9.99419538 50.60209693], [47.239296674728394]
[ 4.03517027 10.03392161 50.55073747], [47.43426251411438]
[ 4.02625256 10.07460534 50.49934858], [47.604053020477295]
[ 4.05741439 10.13798996 50.44619564], [47.760053396224976]
[ 4.08788228 10.2024659  50.38954552], [47.921751260757446]
[ 4.10873763 10.27986701 50.33079045], [48.07695007324219]
[ 4.14680652 10.35109793 50.27936435], [48.23103976249695]
[ 4.18319244 10.42038809 50.2289601 ], [48.38791465759277]
[ 4.22588006 10.48068118 50.18140418], [48.54543614387512]
[ 4.27386437 10.53898884 50.13474752], [48.69835305213928]
[ 4.33214056 10.59034486 50.08813436], [48.859774112701416]
[ 4.38575222 10.64467851 50.04240533], [49.01052904129028]
[ 4.43073061 10.70691171 49.99747446], [49.16379427909851]
[ 4.46605585 10.77100851 49.95811439], [49.318516969680786]
[ 4.49075989 10.83606171 49.92158943], [49.47435212135315]
[ 4.50182818 10.91196322 49.88769331], [49.63271689414978]
[ 4.51024428 10.9937903  49.8536909 ], [49.78593420982361]
[ 4.51303937 11.08164428 49.81685846], [49.9434711933136]
[ 4.50618695 11.17938141 49.78079404], [50.09753227233887]
[ 4.51751553 11.23111356 49.76404511], [50.2526216506958]
[ 4.53409347 11.26493504 49.75499467], [50.40587329864502]
[ 4.5479844  11.30168603 49.7467696 ], [50.56176018714905]
[ 4.55525536 11.33745222 49.73863487], [50.715967416763306]
[ 4.55987809 11.37121915 49.73147105], [50.90273427963257]
[ 4.52112996 11.36441911 49.73306856], [51.076775312423706]
[ 4.48066411 11.36634589 49.7397286 ], [51.227604150772095]
[ 4.4405545  11.36933572 49.74368919], [51.41230607032776]
[ 4.39679236 11.37531711 49.74668341], [51.5663423538208]
[ 4.35137435 11.3842819  49.74869262], [51.71878671646118]
[ 4.30329653 11.39920475 49.74966658], [51.87243676185608]
[ 4.25356083 11.41810081 49.74964684], [52.11041450500488]
[ 4.20118075 11.44100304 49.74771797], [52.340522050857544]
[ 4.13916206 11.46385592 49.74864013], [52.52634263038635]
[ 4.07352754 11.48478303 49.74777083], [52.6785352230072]
[ 4.00524565 11.50971762 49.7449655 ], [52.830124378204346]
[ 3.93232672 11.53566773 49.74125037], [53.01333236694336]
[ 3.85377499 11.56063957 49.73758658], [53.16645860671997]
[ 3.76958176 11.5846087  49.73488788], [53.319568157196045]
[ 3.67975743 11.60959878 49.73126378], [53.47480583190918]
[ 3.58429582 11.63459382 49.72766003], [53.668254137039185]
[ 3.50561197 11.65625849 49.72625111], [53.82071399688721]
[ 3.43005947 11.67540414 49.73577761], [53.97834801673889]
[ 3.35502844 11.69783667 49.74756288], [54.13092494010925]
[ 3.27913095 11.72380527 49.75969826], [54.283146381378174]
[ 3.19830939 11.75234223 49.77299441], [54.435856103897095]
[ 3.11879249 11.77842718 49.78395677], [54.59163951873779]
[ 3.04427161 11.7997603  49.7925353 ], [54.743058919906616]
[ 2.96235686 11.81842004 49.80469839], [54.89927077293396]
[ 2.87819061 11.83679254 49.81738393], [55.05907893180847]
[ 2.78123577 11.85314665 49.83380252], [55.2135865688324]
[ 2.66422038 11.85083679 49.85272683], [55.3711473941803]
[ 2.54391685 11.84655287 49.8735471 ], [55.53235650062561]
[ 2.42385183 11.83583185 49.89280562], [55.68715691566467]
[ 2.30458    11.82667395 49.91294461], [55.84038424491882]
[ 2.18975615 11.81835778 49.93118594], [55.99434185028076]
[ 2.09402423 11.80480183 49.94203128], [56.14579367637634]
[ 1.99723827 11.79284939 49.95649623], [56.300979137420654]
[ 1.89802246 11.78403002 49.97219058], [56.45631694793701]
[ 1.79202998 11.77512851 49.98903068], [56.61018943786621]
[ 1.68148951 11.76496535 50.0060767 ], [56.763609409332275]
[ 1.56274659 11.75530046 50.02517981], [56.91946053504944]
[ 1.43926024 11.74442942 50.04413235], [57.073588848114014]
[ 1.33437315 11.71331789 50.05281805], [57.226738691329956]
[ 1.21447123 11.68693356 50.07277171], [57.37795424461365]
[ 1.11883844 11.65357107 50.08194718], [57.530426263809204]
[ 1.0149702  11.61796377 50.09689263], [57.68124485015869]
[ 0.90919465 11.58439779 50.11279125], [57.833314180374146]
[ 0.80208319 11.55239428 50.12858597], [58.02107787132263]
[ 0.69403436 11.52462422 50.14469148], [58.17414426803589]
[ 0.58530421 11.50157644 50.16057144], [58.329742431640625]
[ 0.47421372 11.48208666 50.17633176], [58.51067042350769]
[ 0.36227648 11.46639329 50.19156131], [58.675034523010254]
[ 0.25531975 11.45468381 50.20471847], [58.826318979263306]
[ 0.15152627 11.44602876 50.21679024], [58.978844165802]
[4.55241386e-02 1.14389551e+01 5.02291225e+01], [59.129807233810425]
[-3.54643896e-02  1.14246976e+01  5.02323500e+01], [59.28128409385681]
[-0.12457231 11.41181559 50.24194636], [59.43494534492493]
[-0.21926046 11.39729917 50.25207548], [59.59022831916809]
[-0.31667708 11.38335603 50.26252686], [59.742863178253174]
[-0.39832515 11.3570983  50.26590181], [59.895078897476196]
[-0.47862621 11.33218528 50.27317552], [60.07929253578186]
[-0.56520663 11.30705035 50.28246175], [60.23290801048279]
[-0.66098465 11.27676051 50.29257827], [60.38696575164795]
[-0.7594711  11.24661352 50.30323504], [60.549206495285034]
[-0.83531748 11.20821224 50.30610401], [60.70455026626587]
[-0.91516926 11.1642417  50.31294229], [60.857768058776855]
[-0.99989547 11.12077671 50.32233006], [61.01217818260193]
[-1.0867323  11.07705417 50.33169547], [61.165629863739014]
[-1.17684677 11.03548009 50.34196429], [61.31973218917847]
[-1.23708346 10.9906506  50.34349448], [61.50671029090881]
[-1.30375723 10.94642372 50.35049545], [61.72866368293762]
[-1.37513411 10.90221231 50.35841343], [61.88459372520447]
[-1.44784854 10.86005292 50.36649772], [62.06129336357117]
[-1.52141245 10.82158473 50.37483373], [62.24239683151245]
[-1.59628728 10.78844124 50.38351271], [62.40118908882141]
[-1.67335826 10.76237386 50.39261727], [62.569519996643066]
[-1.7562596  10.73623154 50.40104762], [62.72124195098877]
[-1.84348101 10.70893523 50.40909924], [62.952720403671265]
[-1.89887266 10.67740204 50.4086229 ], [63.106619358062744]
[-1.96088094 10.65024703 50.41457331], [63.2608437538147]
[-2.02246861 10.62777226 50.42030402], [63.4149374961853]
[-2.0912986  10.60780755 50.42703648], [63.57017922401428]
[-2.16983482 10.58288456 50.4333678 ], [63.72142505645752]
[-2.25213677 10.55548594 50.43952288], [63.87504243850708]
[-2.3033921  10.52550309 50.43835543], [64.02866816520691]
[-2.36493452 10.49714141 50.44349666], [64.18241286277771]
[-2.43331916 10.46116142 50.44762085], [64.33628463745117]
[-2.50794447 10.42413457 50.45336695], [64.49397683143616]
[-2.58586715 10.3894913  50.45972796], [64.64575815200806]
[-2.66658225 10.35926812 50.46648659], [64.79862141609192]
[-2.74536378 10.32993609 50.47153551], [64.95248556137085]
[-2.81981516 10.30143227 50.47553562], [65.1054368019104]
[-2.89248807 10.27457862 50.47961479], [65.2606348991394]
[-2.96161567 10.25226797 50.48366642], [65.42003893852234]
[-3.02821007 10.23211696 50.4870104 ], [65.57780694961548]
[-3.08495191 10.20463047 50.48662546], [65.73115968704224]
[-3.121197   10.16551528 50.48238147], [65.89174723625183]
[-3.15086284 10.11774883 50.48006321], [66.04359316825867]
[-3.17507216 10.06341218 50.47866033], [66.196284532547]
[-3.19444185 10.00429203 50.47797008], [66.35024833679199]
[-3.20918132  9.94064589 50.47760586], [66.50966167449951]
[-3.22091026  9.87315216 50.47787294], [66.66543483734131]
[-3.22956466  9.79955532 50.4779443 ], [66.82138562202454]
[-3.23596614  9.72239785 50.47888813], [66.9770941734314]
[-3.23827253  9.6420135  50.47984802], [67.16696405410767]
[-3.23564695  9.55778251 50.48067158], [67.32170557975769]
[-3.23197824  9.47163036 50.4826157 ], [67.47835731506348]
[-3.22504417  9.38390377 50.48455222], [67.63336968421936]
[-3.21431768  9.29454647 50.48642519], [67.78668975830078]
[-3.2075467   9.20432372 50.48984624], [67.9402105808258]
[-3.20378005  9.117843   50.49458902], [68.11059355735779]
[-3.19215472  9.0402009  50.49884435], [68.31624484062195]
[-3.17861563  8.97383651 50.50430526], [68.50079894065857]
[-3.16419174  8.92099763 50.51049649], [68.6586594581604]
[-3.14617333  8.86951224 50.51346636], [68.81036233901978]
[-3.12475514  8.81753863 50.51542927], [68.96807956695557]
[-3.0980517   8.76406345 50.51646859], [69.12124943733215]
[-3.07429788  8.70953365 50.51868875], [69.27471828460693]
[-3.05858945  8.6572082  50.52280627], [69.4292266368866]
[-3.0423833   8.60527279 50.52549596], [69.58535766601562]
[-3.02457192  8.55114833 50.5271158 ], [69.73751378059387]
[-3.01100685  8.49531207 50.52962198], [69.89425325393677]
[-3.00856186  8.44028804 50.53418303], [70.05030727386475]
[-3.00543991  8.38540811 50.53709855], [70.20698189735413]
[-2.99753051  8.33236889 50.53932503], [70.3625419139862]
[-2.98796161  8.27831992 50.54106661], [70.51812529563904]
[-2.9751948   8.22325359 50.54230659], [70.67410278320312]
[-2.95816003  8.16472868 50.54249223], [70.86192011833191]
[-2.93430578  8.10482225 50.54231447], [71.03973698616028]
[-2.90704829  8.05067742 50.54408933], [71.22934770584106]
[-2.88638231  8.00290855 50.54797251], [71.39125633239746]
[-2.86227109  7.95627166 50.54933232], [71.54693984985352]
[-2.83633762  7.90827905 50.54987654], [71.72446322441101]
[-2.81298855  7.85821366 50.55079773], [71.91390681266785]
[-2.7989742   7.81145296 50.55436972], [72.07124447822571]
[-2.7858155   7.76293929 50.55585014], [72.22581219673157]
[-2.76984356  7.71143387 50.55602536], [72.38289260864258]
[-2.75164797  7.65724105 50.55597351], [72.53658413887024]
[-2.73031025  7.59922115 50.55523233], [72.69301390647888]
[-2.71195855  7.54028037 50.55602893], [72.84728360176086]
[-2.70006399  7.48370315 50.55857292], [73.00149726867676]
[-2.69002654  7.42794267 50.56036971], [73.1556236743927]
[-2.68100227  7.36998371 50.56118843], [73.3086519241333]
[-2.66809265  7.30838569 50.56053054], [73.4638340473175]
[-2.64445823  7.25054352 50.55998731], [73.62300205230713]
[-2.61862954  7.19671313 50.56066032], [73.77654719352722]
[-2.59833517  7.14883545 50.5633922 ], [73.95273327827454]
[-2.57945642  7.10113759 50.56444297], [74.13695883750916]
[-2.55804269  7.05179748 50.56407691], [74.28923749923706]
[-2.5340321   6.99858363 50.56270946], [74.4427843093872]
[-2.50855811  6.94000834 50.56076134], [74.5967218875885]
[-2.48551282  6.87704293 50.55948311], [74.75130772590637]
[-2.47216122  6.81597778 50.56130079], [74.9061827659607]
[-2.45615702  6.75462956 50.56101504], [75.06295561790466]
[-2.43105801  6.70027141 50.56100481], [75.21698546409607]
[-2.40117043  6.65131745 50.56112706], [75.3701982498169]
[-2.36878896  6.60079183 50.5596923 ], [75.52127718925476]
[-2.3389128   6.54820864 50.55867709], [75.67364525794983]
[-2.30697322  6.49428675 50.55702184], [75.85975575447083]
[-2.27146396  6.43859092 50.55467325], [76.01243495941162]
[-2.2330334   6.38006334 50.55178088], [76.19850707054138]
[-2.19216108  6.31768936 50.54833768], [76.35330843925476]
[-2.149664    6.25269696 50.54501787], [76.50534343719482]
[-2.1026468   6.18524343 50.54095324], [76.65787768363953]
[-2.04916942  6.11852054 50.53692023], [76.85463762283325]
[-1.99515745  6.05299377 50.5338166 ], [77.01483988761902]
[-1.94095456  5.98690529 50.5303489 ], [77.18732762336731]
[-1.88656622  5.91777256 50.526032  ], [77.37890958786011]
[-1.83393379  5.8517165  50.52353619], [77.55140423774719]
[-1.78066343  5.78868395 50.52088831], [77.7061996459961]
[-1.72608216  5.72397736 50.51673078], [77.86398816108704]
[-1.67109155  5.65513612 50.51161508], [78.0538604259491]
[-1.61527191  5.57972635 50.50527003], [78.20682430267334]
[-1.55739531  5.49987283 50.49867388], [78.36636590957642]
