[5.981, 5.853, 2.983]::[0, 0, 0]
[5.984, 5.84, 2.956]::[0, 0, 0]
[5.984, 5.84, 2.956]::[-1.04, 0.26, 0.0]
[5.984, 5.84, 2.956]::[-1.3, 0.0, 0.26]
[5.984, 5.84, 2.956]::[-1.04, 0.26, 0.0]
[5.984, 5.84, 2.956]::[-1.04, 0.0, 0.0]
[5.984, 5.84, 2.956]::[-1.04, 0.0, 0.0]
[5.984, 5.84, 2.956]::[0.0, 0.0, 0.52]
[5.983, 5.841, 2.956]::[0.0, 0.26, 0.0]
[5.984, 5.84, 2.956]::[0.0, 0.0, 0.52]
[5.984, 5.84, 2.956]::[0.26, 0.26, 0.26]
[5.984, 5.841, 2.956]::[1.82, 0.26, 0.78]
[5.99, 5.844, 2.964]::[4.69, 0.26, 0.78]
[6.158, 5.834, 3.04]::[6.52, 0.0, 0.26]
[6.273, 5.82, 3.09]::[8.34, -0.26, 0.0]
[6.375, 5.802, 3.121]::[10.16, 0.0, 0.26]
[6.454, 5.789, 3.141]::[11.99, -0.26, 0.0]
[6.515, 5.781, 3.155]::[13.55, -0.52, 0.0]
[6.568, 5.773, 3.163]::[14.86, -0.26, 0.26]
[6.608, 5.767, 3.168]::[15.9, -0.26, -0.26]
[6.64, 5.762, 3.169]::[17.72, -0.52, 0.26]
[6.679, 5.756, 3.17]::[19.03, -0.26, 0.0]
[6.711, 5.75, 3.169]::[20.59, -0.52, 0.0]
[6.742, 5.744, 3.167]::[20.33, -0.52, -0.26]
[6.747, 5.743, 3.166]::[19.81, -0.52, 0.0]
[6.739, 5.744, 3.166]::[14.86, -0.52, 0.52]
[6.661, 5.757, 3.167]::[11.21, 0.0, 0.0]
[6.583, 5.768, 3.161]::[8.86, -0.26, 0.0]
[6.512, 5.778, 3.148]::[6.52, 0.0, 0.26]
[6.428, 5.79, 3.128]::[4.43, 0.0, 0.26]
[6.307, 5.812, 3.096]::[2.61, 0.0, 0.52]
[6.121, 5.844, 3.035]::[1.04, 0.26, 0.78]
[5.997, 5.845, 2.978]::[-0.78, 0.26, 0.52]
[5.984, 5.841, 2.966]::[-1.82, 0.0, 0.26]
[5.981, 5.838, 2.959]::[-1.82, 0.26, 0.52]
[5.98, 5.837, 2.956]::[-1.56, 0.0, 0.26]
[5.98, 5.837, 2.956]::[0.52, 0.26, 0.0]
[5.987, 5.842, 2.966]::[14.34, -0.26, -0.26]
[6.594, 5.767, 3.162]::[15.9, -0.52, 0.26]
[6.639, 5.761, 3.166]::[16.16, -0.26, 0.0]
[6.654, 5.759, 3.167]::[16.42, -0.26, 0.52]
[6.659, 5.758, 3.167]::[10.69, -0.26, -0.26]
[6.56, 5.773, 3.158]::[-1.3, 0.0, 0.78]
[5.982, 5.841, 2.967]::[8.34, 0.0, 0.52]
[6.399, 5.797, 3.123]::[17.46, 0.0, 0.26]
[6.672, 5.756, 3.167]::[21.63, -0.26, 0.26]
[6.754, 5.741, 3.164]::[21.37, -0.52, -0.26]
[6.762, 5.74, 3.163]::[18.51, -0.52, -0.26]
[6.731, 5.746, 3.164]::[16.16, -0.52, 0.26]
[6.695, 5.752, 3.165]::[11.47, 0.0, 0.52]
[6.6, 5.766, 3.161]::[6.52, 0.26, 0.26]
[6.434, 5.791, 3.131]::[3.39, 0.26, 0.52]
[6.224, 5.831, 3.073]::[5.47, 0.52, 0.78]
[6.322, 5.81, 3.101]::[29.97, -0.52, 0.0]
[6.868, 5.71, 3.147]::[30.76, -0.52, 0.0]
[6.898, 5.702, 3.138]::[29.45, -0.26, 0.0]
[6.894, 5.703, 3.139]::[28.67, -0.52, 0.78]
[6.893, 5.704, 3.139]::[27.89, -0.52, -0.52]
[6.893, 5.704, 3.139]::[27.63, -0.52, 0.0]
[6.891, 5.704, 3.139]::[26.59, -0.52, -0.52]
[6.875, 5.71, 3.142]::[8.34, -0.26, 0.26]
[6.561, 5.769, 3.156]::[2.87, 0.0, 0.26]
[6.245, 5.828, 3.089]::[0.52, 0.26, 0.78]
[5.997, 5.849, 2.993]::[1.56, 0.26, 0.78]
[5.996, 5.849, 2.99]::[5.47, 0.0, 0.52]
[6.289, 5.817, 3.096]::[15.9, 0.26, 0.26]
[6.658, 5.756, 3.163]::[22.15, -0.26, 0.26]
[6.773, 5.736, 3.159]::[23.72, -0.52, 0.0]
[6.816, 5.725, 3.155]::[24.24, -0.52, -0.26]
[6.829, 5.721, 3.153]::[24.5, -0.26, 0.0]
[6.84, 5.718, 3.151]::[25.02, -0.26, -0.26]
[6.845, 5.717, 3.15]::[25.02, -0.26, 0.26]
[6.848, 5.716, 3.149]::[24.76, -0.52, 0.26]
[6.849, 5.716, 3.149]::[24.76, -0.52, 0.52]
[6.85, 5.715, 3.149]::[19.81, -0.26, 0.0]
[6.787, 5.732, 3.156]::[11.21, 0.0, 0.78]
[6.638, 5.757, 3.163]::[6.78, 0.26, 0.52]
[6.491, 5.782, 3.145]::[3.65, 0.26, 0.52]
[6.305, 5.818, 3.106]::[1.56, 0.52, 1.04]
[6.007, 5.854, 3.005]::[-0.78, 0.26, 0.52]
[5.988, 5.846, 2.983]::[-2.09, 0.26, 0.78]
[5.98, 5.84, 2.97]::[-3.13, 0.52, 0.52]
[5.978, 5.837, 2.962]::[-3.65, 0.52, 0.26]
[5.978, 5.834, 2.956]::[-3.65, 0.26, 0.78]
[5.979, 5.833, 2.952]::[-3.91, 0.0, 0.26]
[5.979, 5.832, 2.95]::[-3.91, 0.52, 0.26]
[5.979, 5.831, 2.949]::[-0.52, 0.26, 0.52]
[5.982, 5.839, 2.963]::[7.3, 0.26, 0.26]
[6.351, 5.808, 3.116]::[11.73, -0.26, 0.26]
[6.543, 5.774, 3.151]::[15.12, -0.26, -0.26]
[6.636, 5.761, 3.161]::[17.72, 0.0, 0.0]
[6.696, 5.751, 3.163]::[19.03, 0.0, 0.0]
[6.73, 5.746, 3.162]::[12.77, 0.0, 0.78]
[6.627, 5.762, 3.161]::[5.73, 0.0, 0.26]
[6.424, 5.796, 3.13]::[2.09, 0.26, 0.0]
[6.104, 5.853, 3.042]::[1.04, 0.78, 0.26]
[6.0, 5.85, 2.989]::[1.56, 0.26, 0.78]
[6.002, 5.851, 2.991]::[1.82, 0.26, 0.52]
[6.004, 5.852, 2.991]::[1.82, 0.0, 0.0]
[6.005, 5.852, 2.992]::[2.09, 0.26, 0.52]
