[ 0.  0. 50.], [15.919113397598267]
[-0.4 -0.4 50. ], [17.20046615600586]
[-0.8 -0.8 50. ], [17.360053300857544]
[-1.2 -1.2 50. ], [17.51614737510681]
[-1.6 -1.6 50. ], [17.668581008911133]
[-2. -2. 50.], [17.81994605064392]
[-2.4 -2.4 50. ], [17.97258496284485]
[-2.8 -2.8 50. ], [18.13025712966919]
[-3.2 -3.2 50. ], [18.373276472091675]
[-3.6 -3.6 50. ], [18.524975061416626]
[-4. -4. 50.], [18.677140951156616]
[-4.4 -4.4 50. ], [18.83043599128723]
[-4.8 -4.8 50. ], [18.989852905273438]
[-5.2 -5.2 50. ], [19.1419837474823]
[-5.6 -5.6 50. ], [19.29399800300598]
[-6. -6. 50.], [19.44843029975891]
[-6.4 -6.4 50. ], [19.600070238113403]
[-6.8 -6.8 50. ], [19.755420446395874]
[-7.2 -7.2 50. ], [19.909135580062866]
[-7.6 -7.6 50. ], [20.061147928237915]
[-8. -8. 50.], [20.218917846679688]
[-8.4 -8.4 50. ], [20.378391981124878]
[-8.8 -8.8 50. ], [20.53701114654541]
[-9.2 -9.2 50. ], [20.700164794921875]
[-9.6 -9.6 50. ], [20.853060483932495]
[-10. -10.  50.], [21.009838819503784]
[-10.4 -10.4  50. ], [21.164264678955078]
[-10.8 -10.8  50. ], [21.34223771095276]
[-11.2 -11.2  50. ], [21.498633861541748]
[-11.6 -11.6  50. ], [21.65429997444153]
[-12. -12.  50.], [21.805742263793945]
[-12.4 -12.4  50. ], [21.961355686187744]
[-12.8 -12.8  50. ], [22.117441415786743]
[-13.2 -13.2  50. ], [22.271482229232788]
[-13.6 -13.6  50. ], [22.42525315284729]
[-14. -14.  50.], [22.611512422561646]
[-14.4 -14.4  50. ], [22.762543201446533]
[-14.8 -14.8  50. ], [22.914674758911133]
[-15.2 -15.2  50. ], [23.069982528686523]
[-15.6 -15.6  50. ], [23.22907853126526]
[-16. -16.  50.], [23.396762132644653]
[-16.4 -16.4  50. ], [23.560086727142334]
[-16.8 -16.8  50. ], [23.716922998428345]
[-17.2 -17.2  50. ], [23.890539407730103]
[-17.6 -17.6  50. ], [24.057013750076294]
[-18. -18.  50.], [24.209568738937378]
[-18.4 -18.4  50. ], [24.369746208190918]
