[1.11022302e-14 0.00000000e+00 5.00000000e+01], [91.4130482673645]
[1.50452435e-14 1.26021230e-14 5.00000000e+01], [92.8077917098999]
[1.93853249e-02 1.69009428e-02 5.00099552e+01], [93.00075197219849]
[6.68235227e-02 3.68059558e-02 5.00286631e+01], [93.17077970504761]
[ 0.14136153  0.05472875 50.05262292], [93.35322666168213]
[ 0.24232522  0.0726485  50.08125967], [93.51848530769348]
[ 0.37210433  0.09157186 50.11576936], [93.68183660507202]
[ 0.52804035  0.11050988 50.15386218], [93.85437726974487]
[ 0.71157282  0.12946295 50.19665026], [94.01198196411133]
[ 0.92385453  0.14843276 50.24400797], [94.17631912231445]
[ 1.13068186  0.14851642 50.27837904], [94.33971548080444]
[ 1.34280436  0.15239612 50.31482685], [94.52587080001831]
[ 1.57886135  0.17522185 50.36006615], [94.68768334388733]
[ 1.8424327   0.19331634 50.40988479], [94.85022592544556]
[ 2.1268233   0.20737615 50.45926245], [95.01001906394958]
[ 2.41188786  0.22736123 50.5001196 ], [95.1697645187378]
[ 2.69324054  0.24947484 50.53616461], [95.33027482032776]
[ 2.97009399  0.27763562 50.56895433], [95.49047493934631]
[ 3.26571319  0.30299424 50.60947118], [95.65244626998901]
[ 3.54396231  0.32335014 50.63490331], [95.81030631065369]
[ 3.83502367  0.36059181 50.66820127], [95.96867656707764]
[ 4.10238646  0.39035247 50.68572431], [96.13019466400146]
[ 4.38969949  0.43593738 50.71608389], [96.29376673698425]
[ 4.70236204  0.48109745 50.75007479], [96.47452425956726]
[ 5.01789497  0.53425422 50.77520351], [96.66179966926575]
[ 5.34003475  0.58983462 50.79860697], [96.83098888397217]
[ 5.67735266  0.64664013 50.82333125], [96.99372482299805]
[ 6.00461419  0.70056019 50.83669807], [97.18423295021057]
[ 6.3482641   0.76746965 50.85560278], [97.35318112373352]
[ 6.68891525  0.82799584 50.8660476 ], [97.51574301719666]
[ 7.01171461  0.87738959 50.8670498 ], [97.69752359390259]
[ 7.31888027  0.91648016 50.86430082], [97.88313031196594]
[ 7.57186266  0.96490338 50.84383303], [98.0460033416748]
[ 7.83527886  1.01213097 50.8396878 ], [98.20826959609985]
[ 8.08603552  1.06014665 50.82892849], [98.3701856136322]
[ 8.35312897  1.12626729 50.82525574], [98.53633785247803]
[ 8.5895325   1.19881776 50.80567187], [98.69772720336914]
[ 8.83485502  1.26985239 50.79471008], [98.87898230552673]
[ 9.05951743  1.33934996 50.77466246], [99.10242581367493]
[ 9.27806709  1.40189827 50.75664649], [99.2630832195282]
[ 9.49431471  1.48376795 50.738871  ], [99.4499192237854]
[ 9.72753803  1.56163087 50.72626705], [99.60649824142456]
[ 9.93087307  1.65228661 50.69945809], [99.76690626144409]
[10.1540308   1.73089199 50.68426418], [99.94826436042786]
[10.3398602   1.79677902 50.65430003], [100.11740899085999]
[10.54482868  1.88219555 50.63679372], [100.27883315086365]
[10.73624323  1.99236623 50.6105404 ], [100.44136571884155]
[10.92122122  2.07210407 50.58515227], [100.60697960853577]
[11.10832692  2.137967   50.56275646], [100.80068254470825]
[11.28880621  2.24324769 50.53659389], [100.99687695503235]
[11.45777532  2.33031572 50.50848045], [101.18378591537476]
[11.63649918  2.394107   50.48662263], [101.37331819534302]
[11.74212893  2.50536267 50.44218864], [101.53988599777222]
[11.83578226  2.64279029 50.40781582], [101.73729920387268]
[11.89456459  2.77530013 50.36975163], [101.92243194580078]
[11.95420606  2.94152518 50.33882884], [102.11083722114563]
[11.99201027  3.11751524 50.30315619], [102.27833533287048]
[12.01744297  3.30240308 50.26899184], [102.44766354560852]
[12.02777676  3.50254128 50.26797371], [102.61551642417908]
[12.00326218  3.7273902  50.39171693], [102.78326344490051]
[11.94186465  3.87875714 50.52732481], [102.94758033752441]
[11.88263023  4.07732273 50.65951858], [103.11017870903015]
[11.74866667  4.21305275 50.81722098], [103.27678728103638]
[11.68079162  4.3125054  50.92673538], [103.44250988960266]
[11.44361028  4.34544047 51.10167618], [103.61527848243713]
[11.24781728  4.44130223 51.23751625], [103.77603220939636]
[10.97857876  4.52075566 51.39384117], [103.94813895225525]
[10.76583894  4.6420171  51.50223103], [104.11778116226196]
[10.55003376  4.71814467 51.59782721], [104.28980708122253]
[10.34562313  4.7812273  51.68182145], [104.4637200832367]
[10.06842242  4.78806305 51.79088498], [104.64009928703308]
[ 9.7901674   4.89507913 51.87965497], [104.80805087089539]
[ 9.54724897  4.99384757 51.94776293], [104.97056913375854]
[ 9.36851183  5.08530135 51.96511276], [105.13732481002808]
[ 9.17087043  5.18865922 51.99116597], [105.30248236656189]
[ 9.00254193  5.28290184 52.00085302], [105.47367072105408]
[ 8.83606122  5.39098707 51.99852581], [105.64983010292053]
[ 8.66497487  5.51143073 51.99787831], [105.82096123695374]
[ 8.48910259  5.63722409 51.99537828], [105.98809218406677]
[ 8.32207401  5.76130106 51.98621376], [106.15027499198914]
[ 8.16838017  5.8844858  51.97404162], [106.31951451301575]
[ 8.00964731  6.02642969 51.96633043], [106.48507595062256]
[ 7.86972135  6.16406875 51.95189389], [106.64757013320923]
[ 7.75209926  6.29536998 51.93260159], [106.80814242362976]
[ 7.6744218   6.43212482 51.89973611], [106.96882939338684]
[ 7.58166631  6.57320805 51.8589586 ], [107.1265857219696]
[ 7.52632401  6.67242841 51.81698815], [107.29260063171387]
[ 7.45411153  6.76973403 51.77812527], [107.460604429245]
[ 7.38772985  6.89236459 51.73954806], [107.63381314277649]
[ 7.30802094  7.03222774 51.7001867 ], [107.80065679550171]
[ 7.24250509  7.17807231 51.66227849], [107.99704599380493]
[ 7.18801422  7.33696261 51.61216263], [108.19353795051575]
[ 7.10825959  7.48257593 51.57090554], [108.36405110359192]
[ 7.04470393  7.63050324 51.539229  ], [108.52888298034668]
[ 6.96028343  7.7866673  51.51155895], [108.71272087097168]
[ 6.88667131  7.94473475 51.48447202], [108.90155220031738]
[ 6.8116084   8.05586688 51.46559037], [109.07893085479736]
[ 6.73365571  8.2083719  51.44763393], [109.23767375946045]
[ 6.64278251  8.36792375 51.43176007], [109.39963436126709]
[ 6.52486325  8.50864734 51.42203817], [109.56168413162231]
[ 6.41641579  8.67206596 51.40691741], [109.74646162986755]
[ 6.30229569  8.83211767 51.38472165], [109.93136072158813]
[ 6.17198393  9.00806451 51.37608876], [110.09302926063538]
[ 6.0574045   9.17500613 51.36465301], [110.25292348861694]
[ 5.91013179  9.3672892  51.36785582], [110.41654396057129]
[ 5.71555448  9.50827493 51.38179152], [110.5826849937439]
[ 5.56507412  9.65684087 51.37145994], [110.76699495315552]
[ 5.36733223  9.74255723 51.38335937], [110.94256567955017]
[ 5.19403781  9.84874999 51.39201838], [111.10671257972717]
[ 4.99799037  9.95012117 51.40868437], [111.26534128189087]
[ 4.84310125 10.04785389 51.40267026], [111.42667293548584]
[ 4.65777323 10.14788363 51.41906716], [111.58842253684998]
[ 4.49339293 10.22990156 51.41155712], [111.75390839576721]
[ 4.31435546 10.32700769 51.40189521], [111.91499423980713]
[ 4.14261153 10.42093309 51.38574503], [112.0798647403717]
[ 3.9498691  10.5201975  51.37605386], [112.24452686309814]
[ 3.79396691 10.6148536  51.35132493], [112.40720963478088]
[ 3.62257308 10.72532645 51.3236285 ], [112.56864643096924]
[ 3.44473876 10.85021069 51.28916383], [112.72779512405396]
[ 3.24622687 10.97607429 51.26312289], [112.93276047706604]
[ 3.08881683 11.09024358 51.21943533], [113.09699440002441]
[ 2.90120876 11.18496125 51.18920029], [113.25953531265259]
[ 2.72540658 11.29377251 51.15457962], [113.4694755077362]
[ 2.53319352 11.39933003 51.1266962 ], [113.6336898803711]
[ 2.36244462 11.49966511 51.08853037], [113.8019950389862]
[ 2.19487914 11.59429587 51.0494967 ], [113.97397875785828]
[ 2.01843425 11.69347011 51.01948029], [114.13658547401428]
[ 1.84202163 11.7829993  50.99890312], [114.34379553794861]
[ 1.70438529 11.85918024 50.96456922], [114.5084159374237]
[ 1.5553847  11.95309259 50.9260483 ], [114.6945915222168]
[ 1.38716131 12.05326188 50.88931568], [114.88222289085388]
[ 1.22155272 12.1238127  50.85604203], [115.07281970977783]
[ 1.02941855 12.19585942 50.83452238], [115.25872468948364]
[ 0.8934679  12.23954151 50.8144612 ], [115.42918872833252]
[ 0.73857741 12.29123394 50.79593887], [115.6003954410553]
[ 0.5779249  12.34836403 50.78003004], [115.79172015190125]
[ 0.39743588 12.37294904 50.77607755], [115.9806752204895]
[ 0.24385957 12.40040418 50.77448377], [116.16822171211243]
[ 0.07413846 12.43155223 50.76827884], [116.3552565574646]
[-0.08573257 12.46901296 50.75354469], [116.54365587234497]
[-0.25484531 12.50727247 50.74065391], [116.72950577735901]
[-0.4281986  12.54293223 50.73145861], [116.94728636741638]
[-0.61582011 12.57769045 50.72408002], [117.11307764053345]
[-0.80675903 12.61803864 50.71926248], [117.30942273139954]
[-0.96529833 12.64329597 50.70382451], [117.47231721878052]
[-1.13837128 12.66946859 50.69182571], [117.65825867652893]
[-1.26412756 12.68072487 50.67196658], [117.83869576454163]
[-1.41944173 12.6890695  50.66118015], [118.01217126846313]
[-1.59405102 12.69208463 50.6596509 ], [118.19438195228577]
[-1.79204577 12.69381718 50.65346441], [118.37941980361938]
[-1.99249521 12.69366794 50.64909714], [118.6043529510498]
[-2.19449648 12.69234506 50.64470775], [118.76855611801147]
[-2.39705099 12.69148491 50.63838955], [118.93595719337463]
[-2.61310103 12.68878307 50.6283079 ], [119.09712314605713]
[-2.78885692 12.6770727  50.61396109], [119.2647476196289]
[-2.9612915  12.66468693 50.60040288], [119.45674228668213]
[-3.12515243 12.6110566  50.61372351], [119.62785005569458]
[-3.27443098 12.52789824 50.65064806], [119.79454064369202]
[-3.38837994 12.42543975 50.68532003], [119.95854020118713]
[-3.52664498 12.32371026 50.72235492], [120.11971044540405]
[-3.71896865 12.28163869 50.71881412], [120.28523588180542]
[-3.90742603 12.21491012 50.71452328], [120.4459216594696]
[-4.11504744 12.16507046 50.69736835], [120.60654783248901]
[-4.28291452 12.09868354 50.68747946], [120.77721786499023]
[-4.47781908 12.0272762  50.68000093], [120.9609124660492]
[-4.6378302  11.94687688 50.66747316], [121.12081289291382]
[-4.81874865 11.86677976 50.65271239], [121.28278422355652]
[-5.01431444 11.78765675 50.63314579], [121.44477868080139]
[-5.20549493 11.73990231 50.60731185], [121.60560154914856]
[-5.38920762 11.66116672 50.60274098], [121.76940250396729]
[-5.53555118 11.55150534 50.61379196], [121.95834803581238]
[-5.70016649 11.43026759 50.63381874], [122.12060976028442]
[-5.86001703 11.34324457 50.63737125], [122.29798150062561]
[-5.98531253 11.23933926 50.64006537], [122.48672604560852]
[-6.12652113 11.1457067  50.64387483], [122.68544888496399]
[-6.28247376 11.04630005 50.64404706], [122.84851336479187]
[-6.44797218 10.94863587 50.64492552], [123.01184892654419]
[-6.57923784 10.84263599 50.64736165], [123.18707513809204]
[-6.73483816 10.72868387 50.65220484], [123.35710883140564]
[-6.90552019 10.61656671 50.65217144], [123.52094984054565]
[-7.08846717 10.62483021 50.59680492], [123.691401720047]
[-7.25772596 10.58752889 50.53863634], [123.85500574111938]
[-7.44648441 10.57078346 50.48106223], [124.01681232452393]
[-7.62860927 10.50345506 50.44974146], [124.17698931694031]
[-7.81893121 10.42227811 50.42837263], [124.34087419509888]
[-8.00437776 10.33195348 50.41274166], [124.50578784942627]
[-8.20775546 10.22823439 50.39606303], [124.67262387275696]
[-8.42483323 10.12082255 50.37452832], [124.85889744758606]
[-8.61063081 10.01136742 50.35812295], [125.02125906944275]
[-8.79090996  9.92137058 50.33844813], [125.18480968475342]
[-8.90775019  9.83766968 50.32718788], [125.34415483474731]
[-9.0454958   9.75177103 50.31810776], [125.50255250930786]
[-9.19888278  9.65073138 50.30540292], [125.66372084617615]
[-9.3646306   9.54416269 50.29158616], [125.85154390335083]
[-9.48796014  9.42594173 50.28338556], [126.01211738586426]
[-9.63322844  9.29449794 50.27749112], [126.17319083213806]
[-9.77813331  9.18746307 50.26836236], [126.33083701133728]
[-9.93859209  9.05282107 50.25954398], [126.49183392524719]
[-10.04763085   8.91138843  50.26004073], [126.65282607078552]
[-10.17657383   8.7665243   50.26358157], [126.81837224960327]
[-10.32024358   8.60427859  50.26348882], [126.98162651062012]
[-10.47135609   8.44131036  50.26039979], [127.14921140670776]
[-10.6007296    8.27822581  50.26604519], [127.31551265716553]
[-10.71612795   8.11774053  50.27825743], [127.48184776306152]
[-10.81431564   7.98453997  50.29029862], [127.64652895927429]
[-10.92439002   7.95532583  50.25792309], [127.80739092826843]
[-11.01899061   7.86324921  50.23192684], [127.9700334072113]
[-11.13629371   7.76306412  50.20327614], [128.1331503391266]
[-11.26303561   7.64746932  50.17563583], [128.29515862464905]
[-11.39905447   7.5212543   50.14511251], [128.45622372627258]
[-11.54299181   7.37916346  50.11551312], [128.6215114593506]
[-11.69356601   7.22597344  50.08583666], [128.8061273097992]
[-11.84647613   7.07239672  50.05602908], [128.97265315055847]
[-11.94251787   6.9409837   50.04753203], [129.13338804244995]
[-12.0375606    6.82265867  50.03402747], [129.30161571502686]
[-12.14016988   6.68446175  50.01600465], [129.46311140060425]
[-12.24284727   6.54213202  49.99980034], [129.62538838386536]
[-12.34432447   6.40140775  49.98447138], [129.7883722782135]
[-12.44426679   6.25709513  49.97196029], [129.9596893787384]
[-12.55135244   6.09910403  49.95938587], [130.1233355998993]
[-12.65524491   5.94221325  49.94867281], [130.2869234085083]
[-12.73770696   5.83000668  49.93975308], [130.45883560180664]
[-12.78386421   5.69763121  49.93660798], [130.6450731754303]
[-12.82967946   5.56278531  49.94244854], [130.82981944084167]
[-12.88206243   5.40853274  49.94556178], [131.0276336669922]
[-12.93652856   5.24066981  49.95246051], [131.21481680870056]
[-12.99385957   5.0640645   49.95943617], [131.40113639831543]
[-13.0547092    4.87855886  49.96452955], [131.58876395225525]
[-13.08088879   4.68899521  49.98069188], [131.77360582351685]
[-13.10215182   4.53609796  49.98619873], [131.94816088676453]
[-13.12876276   4.36079713  49.9925726 ], [132.1263678073883]
[-13.1386848    4.22297813  49.99630552], [132.2898359298706]
[-13.15925501   4.06055305  49.99884004], [132.4499752521515]
[-13.17820906   3.88756371  50.00436315], [132.6145007610321]
[-13.20021676   3.69791792  50.00895839], [132.7811930179596]
[-13.22590253   3.48753661  50.01359731], [132.9447557926178]
[-13.25796388   3.26731926  50.01348323], [133.11366534233093]
[-13.28705629   3.04012545  50.01159152], [133.2767162322998]
[-13.32179046   2.80586386  50.00485574], [133.43739581108093]
[-13.34883016   2.58039231  49.99727834], [133.60003781318665]
[-13.37171534   2.34665353  49.99153236], [133.76602387428284]
[-13.39117754   2.10565635  49.98489338], [133.92981052398682]
[-13.40779301   1.85733937  49.97824518], [134.09451508522034]
[-13.42320665   1.61858061  49.96963478], [134.25550651550293]
[-13.45387183   1.36040869  49.95683546], [134.42528223991394]
[-13.47963813   1.10478924  49.94325923], [134.58862972259521]
[-13.47402943   0.88446887  49.94415027], [134.7487494945526]
[-13.4796941    0.6346392   49.93890874], [134.91309142112732]
[-13.48228394   0.43710695  49.93469045], [135.0738832950592]
[-13.48730597   0.20403305  49.92829209], [135.23711800575256]
[-1.34796093e+01 -2.05611377e-02  4.99278951e+01], [135.39740896224976]
[-13.46268663  -0.25469252  49.93123537], [135.5609266757965]
[-13.41818861  -0.4634754   49.95007099], [135.7205832004547]
[-13.36289332  -0.67584636  49.96796365], [135.88028812408447]
[-13.33391919  -0.86282742  49.98603922], [136.04710745811462]
[-13.29411136  -1.09615556  50.00984555], [136.21041083335876]
[-13.24649084  -1.32883994  50.03490139], [136.37331295013428]
[-13.19442155  -1.57488372  50.06077855], [136.54076147079468]
[-13.13764326  -1.83523073  50.08669428], [136.71669793128967]
[-13.0797415   -2.10384442  50.11159439], [136.88842248916626]
[-13.0034024   -2.35181532  50.14343645], [137.05852484703064]
[-12.92504411  -2.59107547  50.17968577], [137.22276616096497]
[-12.84447406  -2.85242616  50.21297061], [137.39645266532898]
[-12.7564577   -3.11183031  50.24552974], [137.56680417060852]
[-12.66144471  -3.38218874  50.27984712], [137.73534393310547]
[-12.55012891  -3.62156264  50.32488489], [137.9016923904419]
[-12.43413208  -3.83795084  50.37073281], [138.06909680366516]
[-12.3080312   -4.04515936  50.42221543], [138.2304539680481]
[-12.18745451  -4.2370694   50.47537418], [138.39682793617249]
[-12.06114776  -4.40566734  50.5305743 ], [138.5619502067566]
[-11.92676285  -4.60662512  50.58266311], [138.72259378433228]
[-11.7910586   -4.78690436  50.63792143], [138.883145570755]
[-11.65735275  -4.94347649  50.69564485], [139.04770970344543]
[-11.54766921  -5.11526099  50.73124267], [139.21190571784973]
[-11.42434395  -5.28688033  50.77748482], [139.37405467033386]
[-11.30423856  -5.43043324  50.82565959], [139.53214645385742]
[-11.17591224  -5.6016166   50.87166698], [139.69290399551392]
[-11.06744964  -5.76744213  50.89801697], [139.85875344276428]
[-10.96478333  -5.89470917  50.93567034], [140.0204017162323]
[-10.85484933  -6.02330612  50.97697298], [140.18244791030884]
[-10.73158428  -6.17290662  51.01555079], [140.34113001823425]
[-10.60851166  -6.30536249  51.05803838], [140.50231957435608]
[-10.4944673   -6.48157441  51.07648136], [140.6616189479828]
[-10.37694665  -6.63227876  51.10208829], [140.82184767723083]
[-10.25352385  -6.77044796  51.13130891], [140.98216652870178]
[-10.12098004  -6.91976862  51.16232691], [141.14072942733765]
[-9.98996397 -7.04407984 51.20012397], [141.30092549324036]
[-9.84625534 -7.17428371 51.23507892], [141.4607708454132]
[-9.69047153 -7.33581753 51.2725726 ], [141.62460231781006]
[-9.55875572 -7.45711189 51.28997731], [141.7830832004547]
[-9.42383594 -7.57348307 51.32097964], [141.94600296020508]
[-9.2811266  -7.6570642  51.35638223], [142.12891221046448]
[-9.12608055 -7.76031433 51.39226009], [142.29322862625122]
[-8.95857631 -7.88385908 51.43006514], [142.45342540740967]
[-8.83350108 -7.99796659 51.43865666], [142.61266326904297]
[-8.68091069 -8.1467861  51.45635308], [142.77280068397522]
[-8.52819081 -8.25752253 51.4794731 ], [142.93202185630798]
[-8.35290708 -8.3710592  51.49502196], [143.0925841331482]
[-8.18259161 -8.43793687 51.52784541], [143.25139260292053]
[-8.01480758 -8.46907236 51.57094367], [143.41004943847656]
[-7.87173667 -8.51745416 51.58367125], [143.57785367965698]
[-7.73773961 -8.59814173 51.58668486], [143.7463583946228]
[-7.62072849 -8.65020409 51.58835959], [143.9242742061615]
[-7.50703932 -8.70907657 51.59972516], [144.09040760993958]
[-7.37101543 -8.79763702 51.6046296 ], [144.25452780723572]
[-7.21539503 -8.90539379 51.61049289], [144.41852450370789]
[-7.08084871 -9.0233142  51.60294704], [144.58031749725342]
[-6.95280113 -9.142966   51.59807785], [144.75435256958008]
[-6.82127971 -9.23438357 51.59837557], [144.91922211647034]
[-6.69405996 -9.33923443 51.58788565], [145.09498167037964]
[-6.5915788  -9.38798882 51.60132844], [145.26566338539124]
[-6.45495805 -9.46960597 51.60585629], [145.45254182815552]
[-6.3092524  -9.56047324 51.61062256], [145.6363341808319]
[-6.20091265 -9.65052095 51.60101437], [145.81750631332397]
[-6.07957641 -9.70342944 51.60709053], [145.9767129421234]
[-5.92843035 -9.78683086 51.60792769], [146.13728284835815]
[-5.7653101 -9.8732017 51.6127627], [146.3047013282776]
[-5.60479098 -9.92544256 51.62920495], [146.4693582057953]
[-5.42573344 -9.99224487 51.64338381], [146.63600969314575]
[ -5.28712446 -10.06957677  51.62937811], [146.7971658706665]
[ -5.15105281 -10.10329985  51.65222068], [146.98609280586243]
[ -5.02905535 -10.15610187  51.64841331], [147.14472913742065]
[ -4.88891837 -10.22410336  51.63543427], [147.31553769111633]
[ -4.73544412 -10.30563985  51.62968292], [147.48562908172607]
[ -4.59729266 -10.31965676  51.65385215], [147.64931297302246]
[ -4.47346867 -10.35751647  51.64452204], [147.81268572807312]
[ -4.33268347 -10.41069535  51.64913372], [147.99318766593933]
[ -4.16423427 -10.46352217  51.64946949], [148.15420937538147]
[ -4.05063612 -10.52165493  51.63344046], [148.32633256912231]
[ -3.90363009 -10.58550451  51.61942243], [148.49606800079346]
[ -3.81116225 -10.58387048  51.62947016], [148.66269612312317]
[ -3.70095613 -10.60643699  51.63117858], [148.82218217849731]
[ -3.57037693 -10.62953024  51.64448574], [148.98845148086548]
[ -3.41639081 -10.65522132  51.64859025], [149.15360951423645]
[ -3.24181774 -10.68986557  51.65257973], [149.31562757492065]
[ -3.05551041 -10.73010187  51.65651434], [149.47502827644348]
[ -2.87236427 -10.77790982  51.64456326], [149.63976383209229]
[ -2.74289541 -10.78575456  51.64143843], [149.80757403373718]
[ -2.58211711 -10.79717948  51.64261616], [149.97145748138428]
[ -2.45031177 -10.80916529  51.62995299], [150.15137696266174]
[ -2.30905386 -10.82664283  51.62724305], [150.31604719161987]
[ -2.13870442 -10.85162087  51.62460539], [150.47941780090332]
[ -1.95121613 -10.87970374  51.6210432 ], [150.63967442512512]
[ -1.75241447 -10.91435517  51.62193175], [150.80701327323914]
[ -1.54429268 -10.93367122  51.61859276], [150.98093628883362]
[ -1.38449625 -10.91814097  51.62486449], [151.1584939956665]
[ -1.20801398 -10.91339901  51.62321612], [151.3433563709259]
[ -1.04804326 -10.91183746  51.62439371], [151.53235530853271]
[ -0.86552693 -10.90115152  51.6303778 ], [151.7004475593567]
[ -0.68757228 -10.89919771  51.62687579], [151.88888931274414]
[ -0.48809977 -10.89429777  51.62713489], [152.0741994380951]
[ -0.28817964 -10.88534687  51.62467046], [152.23902416229248]
[ -0.10361189 -10.87574608  51.62486138], [152.40471148490906]
[ 4.97107683e-02 -1.08111420e+01  5.16538890e+01], [152.57446932792664]
[  0.22759393 -10.75160316  51.67125085], [152.73832726478577]
[  0.40882849 -10.70261313  51.6766901 ], [152.90213537216187]
[  0.58954478 -10.65749323  51.68113614], [153.09646940231323]
[  0.77470022 -10.6201002   51.67522772], [153.35551619529724]
[  0.99110663 -10.57588966  51.67121559], [153.54316568374634]
[  1.19078624 -10.5105354   51.68064245], [153.71557426452637]
[  1.40082199 -10.45464095  51.68678057], [153.90401124954224]
[  1.549363   -10.41710971  51.67625446], [154.08237171173096]
[  1.70434352 -10.38203641  51.66617446], [154.24647855758667]
[  1.87633924 -10.35663796  51.64114027], [154.40558099746704]
[  2.0751752  -10.31917362  51.62275328], [154.5676407814026]
[  2.25593136 -10.2714588   51.61115388], [154.75128054618835]
[  2.42270436 -10.21998214  51.6040984 ], [154.94495224952698]
[  2.58827685 -10.17031468  51.60244163], [155.13290357589722]
[  2.75951496 -10.14319825  51.59199735], [155.37580060958862]
[  2.96220895 -10.13131315  51.56917446], [155.538471698761]
[  3.13333082 -10.10418914  51.56178388], [155.72540140151978]
[  3.31385368 -10.05553025  51.565478  ], [155.9107151031494]
[ 3.40874758 -9.93400997 51.61923372], [156.0928599834442]
[ 3.55593906 -9.83962609 51.64532046], [156.28213691711426]
[ 3.73573473 -9.73686846 51.66828948], [156.46334290504456]
[ 3.89430189 -9.63820191 51.69198898], [156.62328577041626]
[ 4.0367892  -9.55137675 51.70516998], [156.7881109714508]
[ 4.20077396 -9.4509968  51.72022853], [156.9483997821808]
[ 4.36113448 -9.36893584 51.72299932], [157.1166000366211]
[ 4.52175949 -9.2756015  51.72974602], [157.30313229560852]
[ 4.67352353 -9.18087958 51.73274907], [157.49564242362976]
[ 4.84213979 -9.06034419 51.74053108], [157.6947319507599]
[ 4.98832512 -8.93943418 51.76592568], [157.8717303276062]
[ 5.13129105 -8.82415016 51.77909057], [158.03822660446167]
[ 5.29056312 -8.69409342 51.79234701], [158.22719717025757]
[ 5.40917589 -8.58497156 51.80103344], [158.39368057250977]
[ 5.53590968 -8.45428363 51.81347281], [158.5615520477295]
[ 5.65237402 -8.32490149 51.82866003], [158.729341506958]
[ 5.79838923 -8.19147029 51.8361081 ], [158.89436674118042]
[ 5.90899907 -8.11273448 51.82395393], [159.08295011520386]
[ 6.04285671 -8.00310566 51.81574052], [159.25958442687988]
[ 6.15461988 -7.90862078 51.80648161], [159.43253254890442]
[ 6.30011164 -7.8037835  51.79034838], [159.60454630851746]
[ 6.46382928 -7.67850252 51.7790781 ], [159.7824833393097]
[ 6.6356825  -7.53544601 51.77153158], [159.94848561286926]
[ 6.79156623 -7.39422946 51.7686642 ], [160.1120617389679]
[ 6.92351885 -7.30141639 51.75326761], [160.2979907989502]
[ 7.08211136 -7.18883322 51.73046184], [160.49675798416138]
[ 7.21111329 -7.07252067 51.70724207], [160.66452479362488]
[ 7.34112624 -6.94178545 51.69396491], [160.82278561592102]
[ 7.49081767 -6.80462686 51.67864886], [160.97961378097534]
[ 7.6388551  -6.67256905 51.66979446], [161.14274859428406]
[ 7.79019732 -6.53747721 51.65812676], [161.3056719303131]
[ 7.91269601 -6.42105834 51.64570127], [161.49314546585083]
[ 8.08088543 -6.29406322 51.62047905], [161.6731400489807]
[ 8.27424333 -6.17336453 51.58855789], [161.83532404899597]
[ 8.4259845  -6.05962112 51.55914214], [162.0022041797638]
[ 8.58366161 -5.92158358 51.53317185], [162.19707798957825]
[ 8.75476946 -5.76222339 51.50994495], [162.36727738380432]
[ 8.89243057 -5.61425155 51.48437277], [162.52634692192078]
[ 9.03310288 -5.44823239 51.46322618], [162.69294047355652]
[ 9.19525205 -5.29203826 51.43968282], [162.88679122924805]
[ 9.32768387 -5.11439576 51.43646304], [163.04962515830994]
[ 9.47531055 -4.93828704 51.42239853], [163.2100338935852]
[ 9.64272612 -4.75548115 51.39705735], [163.3747160434723]
[ 9.74164604 -4.60546136 51.39394455], [163.53490042686462]
[ 9.8001778  -4.46503976 51.39568707], [163.7013237476349]
[ 9.88858756 -4.30833993 51.38663356], [163.87935972213745]
[10.00124666 -4.1432058  51.37460786], [164.04876279830933]
[10.05543594 -4.00331347 51.36920584], [164.23673391342163]
[10.14354138 -3.83548313 51.35360288], [164.39544081687927]
[10.23698565 -3.65678861 51.34006601], [164.55382132530212]
[10.34449219 -3.47086948 51.32526129], [164.72023105621338]
[10.45084723 -3.29554646 51.30860379], [164.88074922561646]
[10.57963877 -3.10667069 51.28594696], [165.0471649169922]
[10.65484509 -2.95801062 51.27257404], [165.2196717262268]
[10.72903428 -2.77243959 51.26178093], [165.3891212940216]
[10.7737511  -2.61297154 51.25972333], [165.59142780303955]
[10.82478101 -2.4223912  51.25383301], [165.782559633255]
[10.90136864 -2.23273492 51.24270971], [165.98006916046143]
[10.9903412  -2.04171141 51.22688496], [166.17287683486938]
[11.05561504 -1.8482659  51.21252102], [166.36656880378723]
[11.13052694 -1.64724946 51.19855747], [166.55034947395325]
[11.12613844 -1.47445996 51.20853464], [166.7327926158905]
[11.1437555  -1.27484761 51.21556801], [166.9007842540741]
[11.12829221 -1.08949429 51.22637939], [167.065584897995]
[11.14101943 -0.89213194 51.23067696], [167.22980284690857]
[11.16556588 -0.68785439 51.23220387], [167.40854787826538]
[11.19269216 -0.46258224 51.23184866], [167.57602524757385]
[11.20626896 -0.27307211 51.22705412], [167.74625635147095]
[11.23456784 -0.07118385 51.22177778], [167.91062211990356]
[11.21779039  0.09407255 51.21948374], [168.07283687591553]
[11.22002598  0.28077253 51.21537085], [168.2352101802826]
[11.18719739  0.43786829 51.21965949], [168.39357805252075]
[11.17561243  0.618448   51.22217802], [168.55264520645142]
[11.17891256  0.80632304 51.22085583], [168.7146098613739]
[11.18192909  1.01162045 51.21587947], [168.8788139820099]
[11.1862276   1.22731965 51.20888283], [169.04279208183289]
[11.13661311  1.38279932 51.22257738], [169.20465731620789]
[11.12070081  1.57395683 51.21746138], [169.4023756980896]
[11.06289841  1.73458675 51.23210724], [169.56384444236755]
[11.04705595  1.90492119 51.22417256], [169.74898719787598]
[11.04253722  2.09566846 51.2097861 ], [169.9210765361786]
[11.04797516  2.28189516 51.19327668], [170.0908396244049]
[11.05713155  2.49259268 51.1719823 ], [170.27984309196472]
[11.03180758  2.69274269 51.15882979], [170.43926668167114]
[11.01945145  2.90735706 51.14034147], [170.59905099868774]
[10.95075374  3.06059027 51.14941116], [170.76162123680115]
[10.91542633  3.24836235 51.14055795], [170.92254543304443]
[10.89776438  3.44127542 51.12601467], [171.1080710887909]
[10.8913715   3.64740466 51.11107411], [171.26949954032898]
[10.88619949  3.84878152 51.09062302], [171.4349799156189]
[10.84002717  4.02252042 51.0822902 ], [171.59680914878845]
[10.79628231  4.22929017 51.07046657], [171.7601671218872]
[10.70175919  4.38316335 51.08057847], [171.9197814464569]
[10.61891647  4.57700319 51.08405702], [172.08257818222046]
[10.55528885  4.76752329 51.08085068], [172.2479157447815]
[10.49077859  4.94303786 51.07142776], [172.41092038154602]
[10.44569303  5.12222916 51.05769132], [172.57246732711792]
[10.34397244  5.2501779  51.07070956], [172.73239541053772]
[10.26024595  5.41063064 51.07044301], [172.92437171936035]
[10.18491922  5.59016523 51.06725322], [173.1203203201294]
[10.12382866  5.76993815 51.05456924], [173.2963888645172]
[10.06264041  5.92699946 51.04031731], [173.45845365524292]
[10.00976463  6.11093094 51.02449987], [173.62514662742615]
[ 9.91720993  6.21095747 51.03275399], [173.80178117752075]
[ 9.86754504  6.33601333 51.01530703], [173.96166920661926]
[ 9.8201726   6.47739859 50.99611302], [174.12356042861938]
[ 9.76995265  6.63505169 50.97489037], [174.2806613445282]
[ 9.70963804  6.80486555 50.95184694], [174.4373755455017]
[ 9.63972007  6.99154222 50.93421056], [174.59624910354614]
[ 9.59393777  7.159203   50.90986476], [174.7584421634674]
[ 9.52293929  7.32966595 50.89433425], [174.92364239692688]
[ 9.41564079  7.4647723  50.89456544], [175.08266925811768]
[ 9.33336094  7.62316955 50.88807217], [175.27268481254578]
[ 9.25290494  7.78569133 50.87805472], [175.43635606765747]
[ 9.16597502  7.92726317 50.87487634], [175.59836602210999]
[ 9.08924795  8.0856446  50.86369574], [175.76001071929932]
[ 8.98532449  8.22644681 50.87277187], [175.92142534255981]
[ 8.86941572  8.33307477 50.87776705], [176.0812795162201]
[ 8.75266863  8.46572808 50.88300988], [176.2669174671173]
[ 8.627981    8.61713    50.88541197], [176.4450969696045]
[ 8.50116086  8.7583544  50.88431787], [176.61064553260803]
[ 8.37748796  8.91779519 50.89009206], [176.77208828926086]
[ 8.24618777  9.05474978 50.89188011], [176.9300138950348]
[ 8.13169812  9.2058015  50.88272777], [177.09145998954773]
[ 7.94088139  9.30065668 50.9138415 ], [177.25850296020508]
[ 7.7794209   9.40909314 50.9332903 ], [177.42226219177246]
[ 7.60802275  9.53684756 50.94455096], [177.58960390090942]
[ 7.45544631  9.66668958 50.94245882], [177.75380730628967]
[ 7.28849609  9.77764575 50.93823007], [177.91671514511108]
[ 7.12452981  9.919714   50.93763596], [178.08489871025085]
[ 6.94339453 10.05865239 50.95507208], [178.2508373260498]
[ 6.78438815 10.18031614 50.9428778 ], [178.41277694702148]
[ 6.6186392  10.32751423 50.93012183], [178.57733249664307]
[ 6.39042421 10.40536356 50.9464501 ], [178.74375820159912]
[ 6.16416224 10.51213946 50.96411842], [178.90290784835815]
[ 5.9386999  10.6267586  50.97447683], [179.09146285057068]
[ 5.7136859  10.74981808 50.98456648], [179.25481748580933]
[ 5.50291058 10.88513273 50.98587652], [179.41995573043823]
[ 5.32714343 11.01376682 50.96942871], [179.58940482139587]
[ 5.1611921  11.11066431 50.9442903 ], [179.76303958892822]
[ 4.97639875 11.24385923 50.950484  ], [179.93975234031677]
[ 4.78348155 11.37568331 50.93213844], [180.10471558570862]
[ 4.58085164 11.51531458 50.90889594], [180.27668023109436]
[ 4.41127497 11.62991546 50.87106388], [180.4632773399353]
[ 4.25333562 11.71205624 50.83554185], [180.6422414779663]
[ 4.0869414  11.81988666 50.79551143], [180.82560014724731]
[ 3.90604077 11.92100951 50.76511036], [180.99586272239685]
[ 3.72545196 12.00544046 50.73866033], [181.17368340492249]
[ 3.5299159  12.09551122 50.7203414 ], [181.33609437942505]
[ 3.33632846 12.18103941 50.7048555 ], [181.4966127872467]
[ 3.13951633 12.2817921  50.68156872], [181.66240334510803]
[ 2.97220512 12.36651718 50.656645  ], [181.82397150993347]
[ 2.78630256 12.41999287 50.64266179], [181.9900496006012]
[ 2.60870647 12.48259372 50.6252866 ], [182.15304160118103]
[ 2.4412035  12.5341205  50.60914629], [182.31436944007874]
[ 2.25969984 12.59391588 50.59828254], [182.50325322151184]
[ 2.0771493  12.6647523  50.58437909], [182.6896767616272]
[ 1.91928279 12.73649579 50.56391482], [182.87338066101074]
[ 1.76893386 12.799745   50.54546562], [183.0367181301117]
[ 1.601145   12.86789283 50.53238322], [183.19971370697021]
[ 1.45781177 12.90444339 50.50986479], [183.36182498931885]
[ 1.2937317  12.95395392 50.49881388], [183.5304799079895]
[ 1.12298298 12.98939212 50.49652044], [183.69466423988342]
[ 0.93448413 13.02470411 50.48954548], [183.8568696975708]
[ 0.79687134 13.03155228 50.48589489], [184.0183620452881]
[ 0.63610981 13.04414772 50.49028448], [184.18299102783203]
[ 0.48630182 13.06043705 50.48623142], [184.3437168598175]
[ 0.30939792 13.07789308 50.48498012], [184.50792050361633]
[ 0.11244695 13.09519938 50.48274813], [184.77206587791443]
[-0.05685655 13.10528255 50.47418558], [184.9699468612671]
[-0.23359779 13.12536945 50.46526941], [185.13144063949585]
[-0.38581503 13.1252559  50.46336758], [185.2941119670868]
[-0.55349393 13.12961718 50.45841169], [185.45480680465698]
[-0.74149367 13.13303616 50.45066521], [185.62015867233276]
[-0.94286318 13.14111654 50.43994954], [185.78245186805725]
[-1.15865708 13.15645702 50.42529872], [185.94331574440002]
[-1.35302774 13.14360312 50.42804004], [186.10568118095398]
[-1.50521502 13.09244901 50.44828787], [186.27171087265015]
[-1.64414835 13.03740831 50.47482973], [186.43663120269775]
[-1.80157211 12.97811869 50.50416237], [186.5994029045105]
[-1.96942017 12.92633806 50.52675146], [186.7651047706604]
[-2.09799837 12.86801633 50.54046631], [186.9282145500183]
[-2.25309946 12.81019591 50.55946938], [187.0966281890869]
[-2.47632665 12.86347012 50.52635961], [187.26702427864075]
[-2.70785478 12.85127383 50.49752319], [187.44702196121216]
[-2.9536806  12.86539335 50.46816246], [187.63045716285706]
[-3.15304697 12.81875468 50.46944484], [187.78879523277283]
[-3.33399754 12.74715496 50.48201267], [187.95470881462097]
[-3.52822661 12.66907489 50.49535264], [188.12360548973083]
[-3.68388337 12.58046626 50.50454615], [188.29408311843872]
[-3.86768089 12.4904657  50.51708135], [188.46435952186584]
[-4.0624221  12.40385939 50.52573207], [188.6267786026001]
[-4.2183908  12.31050526 50.53394847], [188.78687405586243]
[-4.40128418 12.21368052 50.54554125], [188.95104789733887]
[-4.59290829 12.11623302 50.55334883], [189.1131091117859]
[-4.76441837 12.01690236 50.55858323], [189.27675008773804]
[-4.93964964 11.92607552 50.56160535], [189.43791937828064]
[-5.0797102  11.81681503 50.56451587], [189.59786677360535]
[-5.23718749 11.71822095 50.56856317], [189.76004791259766]
[-5.40889863 11.61618785 50.56985834], [189.9208025932312]
[-5.58277088 11.54222292 50.56211321], [190.11870336532593]
[-5.76677774 11.47512171 50.54593345], [190.28373789787292]
[-5.92089919 11.39860181 50.53398145], [190.44703364372253]
[-6.09393843 11.31638001 50.5162157 ], [190.60982537269592]
[-6.28353539 11.23597454 50.49351924], [190.76888465881348]
[-6.4855752  11.15503065 50.46882306], [190.93094611167908]
[-6.65323551 11.06839845 50.4446556 ], [191.0904576778412]
[-6.817104   11.02108522 50.42036671], [191.25091981887817]
[-6.99611568 10.97130409 50.38782867], [191.41641306877136]
[-7.19293047 10.90876644 50.35340688], [191.57687520980835]
[-7.39925359 10.83872876 50.32683094], [191.733704328537]
[-7.60596823 10.75840153 50.31100286], [191.8956151008606]
[-7.82409501 10.67286975 50.29695588], [192.06083464622498]
[-7.99175537 10.61562575 50.2835765 ], [192.22685980796814]
[-8.17458204 10.55975997 50.27136461], [192.39373421669006]
[-8.34866415 10.49238128 50.25352078], [192.55956387519836]
[-8.54368562 10.4127698  50.23617112], [192.72145223617554]
[-8.70134305 10.32823712 50.21459798], [192.91296768188477]
[-8.88002352 10.22980187 50.19539484], [193.08129858970642]
[-9.01300711 10.12569021 50.1726718 ], [193.2588176727295]
[-9.1673704  10.00589065 50.1532933 ], [193.42136812210083]
[-9.33405082  9.8807902  50.13427408], [193.5872609615326]
[-9.48132268  9.79216266 50.12214894], [193.7458791732788]
[-9.65693356  9.67576024 50.1001443 ], [193.91915678977966]
[-9.83835951  9.5622625  50.07931489], [194.08925533294678]
[-9.97421461  9.45200784 50.05598509], [194.25248193740845]
[-10.13321437   9.32368264  50.03275063], [194.43519067764282]
[-10.30322596   9.18988564  50.00882218], [194.60370922088623]
[-10.48200416   9.05089095  49.98267763], [194.7935037612915]
[-10.62226531   8.95007665  49.96465685], [194.96516180038452]
[-10.75996643   8.83368433  49.94004022], [195.15717673301697]
[-10.90760321   8.70429362  49.91428607], [195.34485411643982]
[-11.05489778   8.57537065  49.88929577], [195.55556464195251]
[-11.18253172   8.47239493  49.87065747], [195.7433385848999]
[-11.3271646    8.35786165  49.84616824], [195.93093395233154]
[-11.44472349   8.25662252  49.82465452], [196.09540724754333]
[-11.55087289   8.13838815  49.7990676 ], [196.2904245853424]
[-11.67111929   8.00349486  49.77257636], [196.45420813560486]
[-11.79819696   7.8608221   49.74497341], [196.61861491203308]
[-11.92174591   7.72060144  49.718322  ], [196.78142285346985]
[-12.05542311   7.57089396  49.6882414 ], [196.94107842445374]
[-12.16103508   7.46159806  49.67043815], [197.1020336151123]
[-12.27629864   7.34449031  49.64613979], [197.2635419368744]
[-12.40599752   7.20525266  49.62720811], [197.44664454460144]
[-12.5370488    7.05662566  49.62260807], [197.63256001472473]
[-12.65095193   6.93748883  49.61982545], [197.79654574394226]
[-12.77829548   6.79180714  49.61890655], [197.95543909072876]
[-12.89072898   6.642413    49.62761566], [198.11702466011047]
[-13.00904323   6.47124587  49.63634036], [198.281494140625]
[-13.07406489   6.30701099  49.66292871], [198.4441261291504]
[-13.14532898   6.12258871  49.69023039], [198.60866737365723]
[-13.16476144   5.92792261  49.73380353], [198.7690291404724]
[-13.19167649   5.7257225   49.77981129], [198.98669981956482]
[-13.20335404   5.60672196  49.79936189], [199.20388221740723]
[-13.21876624   5.45373922  49.82175623], [199.3753900527954]
[-13.24081227   5.289004    49.83951203], [199.53773975372314]
[-13.26885108   5.10327576  49.8610136 ], [199.71921157836914]
[-13.27397275   4.91744559  49.88498771], [199.88180565834045]
[-13.2905077    4.70535781  49.90777836], [200.0716872215271]
[-13.29932782   4.5218127   49.92406093], [200.23037242889404]
[-13.31687724   4.31072488  49.93741844], [200.39187479019165]
[-13.32187102   4.13288395  49.95176614], [200.55859899520874]
[-13.339966     3.92333916  49.95843506], [200.72497987747192]
[-13.35476815   3.70206906  49.96719361], [200.890043258667]
[-13.37896605   3.4729433   49.9682527 ], [201.077942609787]
[-13.39822429   3.24579788  49.96662008], [201.24258089065552]
[-13.41900442   3.00156946  49.96676262], [201.4022719860077]
[-13.42015152   2.80698172  49.96800243], [201.56652450561523]
[-13.40931991   2.60404233  49.96745642], [201.72948813438416]
[-13.41394294   2.37691017  49.9628343 ], [201.90431928634644]
[-13.41970155   2.13456217  49.95737734], [202.07045340538025]
[-13.42427314   1.8798919   49.95101182], [202.23348426818848]
[-13.43416537   1.60785145  49.94447154], [202.39670610427856]
[-13.44207407   1.37219271  49.9368843 ], [202.557199716568]
[-13.48138784   1.13590185  49.91805168], [202.7167603969574]
[-13.50196023   0.89408307  49.90814018], [202.88147401809692]
[-13.53746001   0.6338092   49.89120745], [203.04590773582458]
[-13.54555647   0.4048706   49.88516454], [203.21525239944458]
[-13.54581583   0.1553644   49.88179004], [203.3781840801239]
[-13.52505606  -0.05582969  49.88449649], [203.5453450679779]
[-13.49156853  -0.27264972  49.89553337], [203.70743322372437]
[-13.46308375  -0.51090945  49.90730278], [203.87330412864685]
[-13.42629973  -0.75261636  49.92301037], [204.03595852851868]
[-13.38076415  -0.99281645  49.94530752], [204.19938254356384]
[-13.3341522   -1.24144947  49.96841237], [204.36673665046692]
[-13.2711368   -1.45961639  50.0002932 ], [204.52492380142212]
[-13.21021009  -1.70511144  50.0317354 ], [204.6995449066162]
[-13.1412133   -1.95983518  50.06621794], [204.88088726997375]
[-13.06769115  -2.21878418  50.10251979], [205.03786087036133]
[-12.99032901  -2.47894391  50.13880526], [205.20629405975342]
[-12.90875729  -2.73627105  50.17507372], [205.4139907360077]
[-12.80280295  -2.96185277  50.21660257], [205.5797884464264]
[-12.69466254  -3.21136908  50.26226407], [205.7664611339569]
[-12.58032184  -3.46971983  50.30810315], [205.9269781112671]
[-12.49635577  -3.69307087  50.33942173], [206.08977270126343]
[-12.41487605  -3.90721977  50.37978891], [206.25217533111572]
[-12.32789227  -4.15585509  50.42367799], [206.41129684448242]
[-12.2366105   -4.34628618  50.46367026], [206.57669711112976]
[-12.14595933  -4.5223145   50.50596015], [206.73892402648926]
[-12.05772881  -4.68472531  50.55382069], [206.90331840515137]
[-11.96166291  -4.87323547  50.60150805], [207.06839418411255]
[-11.86150731  -5.06271446  50.65212712], [207.22730588912964]
[-11.70013372  -5.21528601  50.72373521], [207.39047932624817]
[-11.57847375  -5.36104727  50.75777889], [207.56822109222412]
[-11.44033501  -5.50342697  50.80437221], [207.73271417617798]
[-11.31574366  -5.6334228   50.84698629], [207.9017493724823]
[-11.17723139  -5.79268061  50.89045138], [208.06831073760986]
[-11.03568869  -5.93514756  50.93706092], [208.2280993461609]
[-10.88547099  -6.10352425  50.98605756], [208.39573574066162]
[-10.73457767  -6.2279342   51.04037073], [208.55918908119202]
[-10.61482777  -6.38537361  51.05341026], [208.73023462295532]
[-10.48634312  -6.530189    51.08102863], [208.9019227027893]
[-10.3649319   -6.64547873  51.11417514], [209.1006155014038]
[-10.23037291  -6.79789445  51.14325025], [209.2733130455017]
[-10.0954918   -6.91132174  51.18046544], [209.44651174545288]
[-9.94672853 -7.05646353 51.21615982], [209.61434364318848]
[-9.78423184 -7.20915034 51.24855953], [209.77756214141846]
[-9.62260517 -7.38024712 51.26382332], [209.9424889087677]
[-9.46204988 -7.51242628 51.29722302], [210.10999631881714]
[-9.30640027 -7.61380964 51.33430951], [210.274836063385]
[-9.14058735 -7.70616939 51.36878219], [210.44419312477112]
[-8.96204865 -7.81974383 51.41317847], [210.60937070846558]
[-8.78784668 -7.89276353 51.46011505], [210.77333664894104]
[-8.64685729 -8.028229   51.45152165], [210.9413251876831]
[-8.52004443 -8.09531391 51.46929528], [211.20048999786377]
[-8.41745085 -8.19327624 51.46059804], [211.36312890052795]
[-8.30480484 -8.26547971 51.46588927], [211.52837753295898]
[-8.19378712 -8.34566697 51.47343231], [211.6941900253296]
[-8.05932625 -8.44947863 51.48388667], [211.8546187877655]
[-7.90744626 -8.55388008 51.48911809], [212.01611161231995]
[-7.77253092 -8.67349999 51.48347183], [212.18377137184143]
[-7.65105317 -8.74711882 51.49332037], [212.34721302986145]
[-7.50495486 -8.85940303 51.50063269], [212.51414108276367]
[-7.37341776 -8.96428033 51.49526588], [212.70323872566223]
[-7.21962582 -9.09498332 51.49690521], [212.86345171928406]
[-7.06766091 -9.18956869 51.51228658], [213.06113409996033]
[-6.95714675 -9.29209373 51.5016042 ], [213.2255802154541]
[-6.82859184 -9.37868711 51.51197903], [213.39388465881348]
[-6.68131526 -9.47138517 51.52044398], [213.55832934379578]
[-6.51901663 -9.57567366 51.52885937], [213.71936535835266]
[-6.41433247 -9.6377354  51.52628817], [213.88869452476501]
[-6.29159275 -9.71070145 51.53448137], [214.08636569976807]
[-6.17112919 -9.734508   51.5641239 ], [214.2763340473175]
[-6.01770942 -9.79870487 51.58827106], [214.4646611213684]
[-5.85052237 -9.86408847 51.6083622 ], [214.65892052650452]
[-5.70510034 -9.95649666 51.59976907], [214.83127117156982]
[ -5.55893352 -10.0173004   51.60678304], [215.00759029388428]
[ -5.39705622 -10.10526636  51.60843015], [215.18015456199646]
[ -5.25831181 -10.13329468  51.62237926], [215.36241006851196]
[ -5.09832607 -10.1798613   51.63554248], [215.53126764297485]
[ -4.97325468 -10.2188823   51.6358881 ], [215.69476008415222]
[ -4.83961648 -10.28168933  51.62737359], [215.87493252754211]
[ -4.72829061 -10.27197483  51.65083222], [216.05220127105713]
[ -4.5743641  -10.30572621  51.65465354], [216.22991394996643]
[ -4.4280824  -10.34864872  51.63470508], [216.4141914844513]
[ -4.27748467 -10.38739837  51.64051816], [216.59078884124756]
[ -4.11785738 -10.42236348  51.65022681], [216.76719641685486]
[ -3.97807313 -10.47239421  51.63909948], [216.9334545135498]
[ -3.799031   -10.53982941  51.62243757], [217.10432839393616]
[ -3.6556243  -10.59749757  51.59928503], [217.26489305496216]
[ -3.52122655 -10.60173561  51.60653283], [217.42713069915771]
[ -3.37924493 -10.62284531  51.59465712], [217.59468698501587]
[ -3.22250526 -10.6555566   51.59385327], [217.76396131515503]
[ -3.0939306  -10.68717618  51.58100687], [217.93690133094788]
[ -2.94625071 -10.72781433  51.57628593], [218.10305881500244]
[ -2.82065158 -10.75878286  51.55977585], [218.27235507965088]
[ -2.67680429 -10.80798626  51.54921189], [218.47705721855164]
[ -2.51104834 -10.85562641  51.53254804], [218.63860368728638]
[ -2.32517796 -10.89202007  51.52528105], [218.80316543579102]
[ -2.11618618 -10.93993621  51.51402795], [218.97204160690308]
[ -1.93779227 -10.98392436  51.50370447], [219.13090014457703]
[ -1.80359011 -10.97465527  51.51643179], [219.29630827903748]
[ -1.62495922 -10.98604031  51.51642424], [219.46050572395325]
[ -1.44913106 -10.99567043  51.50749275], [219.6230173110962]
[ -1.30262835 -11.03195507  51.48203982], [219.78796339035034]
[ -1.13254516 -11.05634525  51.46721288], [219.9491925239563]
[ -0.96701891 -11.08375     51.44940405], [220.11421942710876]
[ -0.77400775 -11.11762696  51.43053996], [220.27598094940186]
[ -0.59848143 -11.14669085  51.41364003], [220.44056677818298]
[ -0.40934705 -11.18171889  51.38632606], [220.60196495056152]
[ -0.2366338  -11.16794867  51.39147435], [220.7624430656433]
[ -0.06229373 -11.16433628  51.39227702], [220.9241588115692]
[  0.13644251 -11.15735727  51.39700513], [221.08936285972595]
[  0.32262726 -11.1478447   51.39806113], [221.25352931022644]
[  0.51732579 -11.1293578   51.40118737], [221.44326376914978]
[  0.68253735 -11.09242047  51.41766503], [221.632887840271]
[  0.87617318 -11.07385713  51.41770688], [221.79445886611938]
[  1.06602386 -11.04906201  51.42460115], [221.95944595336914]
[  1.26022339 -11.04198502  51.41247007], [222.12886309623718]
[  1.43865394 -10.96972837  51.44155968], [222.30413055419922]
[  1.60637666 -10.89952373  51.46550586], [222.4912760257721]
[  1.78318049 -10.81660838  51.49803209], [222.68045020103455]
[  1.97793094 -10.74007831  51.51461358], [222.86711502075195]
[  2.13968598 -10.66310395  51.53693452], [223.04387998580933]
[  2.33036629 -10.5915426   51.54673379], [223.22558999061584]
[  2.50473084 -10.50995602  51.56344714], [223.39352345466614]
[  2.70475186 -10.42301019  51.57710754], [223.58107590675354]
[  2.87739593 -10.36047311  51.5776052 ], [223.74798393249512]
[  3.06654454 -10.28460089  51.58365127], [223.93513703346252]
[  3.24699885 -10.200455    51.5908324 ], [224.11816120147705]
[  3.44464907 -10.10450914  51.59980595], [224.2921495437622]
[ 3.66415874 -9.99833244 51.61806485], [224.4558675289154]
[ 3.84474196 -9.90669495 51.63453589], [224.61806225776672]
[ 4.03920869 -9.79698969 51.65431203], [224.78736519813538]
[ 4.19050311 -9.70723877 51.66847962], [224.97466158866882]
[ 4.29648683 -9.53260544 51.73429891], [225.16499853134155]
[ 4.41411118 -9.39769645 51.76124193], [225.35745429992676]
[ 4.5548884 -9.2416449 51.7871076], [225.51882457733154]
[ 4.63995917 -9.13119099 51.79874592], [225.68662095069885]
[ 4.77406854 -9.03266773 51.79394733], [225.8511345386505]
[ 4.90173854 -8.92813465 51.79174228], [226.0476622581482]
[ 5.0519436  -8.81912528 51.78359911], [226.2386577129364]
[ 5.22433348 -8.70137889 51.77457912], [226.43068480491638]
[ 5.39081453 -8.57846156 51.77125026], [226.61417365074158]
[ 5.58315059 -8.44302858 51.7704189 ], [226.7986433506012]
[ 5.72150424 -8.35184563 51.76030698], [226.9651219844818]
[ 5.887578   -8.25729017 51.74309176], [227.13530015945435]
[ 6.00609143 -8.17736518 51.73193636], [227.3024342060089]
[ 6.13392535 -8.07565893 51.72343832], [227.46308159828186]
[ 6.2655258  -7.96601181 51.72334296], [227.63115906715393]
[ 6.41284864 -7.84422645 51.71766683], [227.79798460006714]
[ 6.57350535 -7.70892161 51.71476664], [227.99494695663452]
[ 6.76221977 -7.57872233 51.70763857], [228.16037034988403]
[ 6.92510776 -7.46441899 51.69432929], [228.3238868713379]
[ 7.09378034 -7.31460009 51.69133634], [228.4862720966339]
[ 7.23516773 -7.20018948 51.67977579], [228.64953470230103]
[ 7.40089377 -7.07064079 51.66428605], [228.8149275779724]
[ 7.48492366 -6.97282774 51.65890599], [228.9784801006317]
[ 7.59396931 -6.84636441 51.65024108], [229.1429259777069]
[ 7.74123083 -6.71933318 51.63471128], [229.3152892589569]
[ 7.90056799 -6.5782903  51.62027807], [229.48363399505615]
[ 8.02599277 -6.44495552 51.61172591], [229.6670548915863]
[ 8.17919757 -6.2950967  51.59526195], [229.84838390350342]
[ 8.34763134 -6.14055335 51.57779589], [230.01757550239563]
[ 8.48259131 -6.02896604 51.54651701], [230.18584322929382]
[ 8.6474071  -5.8989255  51.51103363], [230.35292673110962]
[ 8.76395523 -5.78747435 51.48185717], [230.52945613861084]
[ 8.89390603 -5.64126751 51.45335375], [230.69868779182434]
[ 9.04464247 -5.48929641 51.42269189], [230.87123274803162]
[ 9.2188043  -5.34005836 51.39161322], [231.03861331939697]
[ 9.36235876 -5.18441451 51.37329081], [231.2174153327942]
[ 9.5308818  -5.02811668 51.35134431], [231.3926329612732]
[ 9.66823071 -4.86109168 51.34048217], [231.55786085128784]
[ 9.81704727 -4.6811234  51.3272563 ], [231.72283458709717]
[ 9.9032257  -4.55379056 51.32499202], [231.88659358024597]
[10.01147797 -4.39400587 51.31299103], [232.0528826713562]
[10.10503817 -4.22087419 51.31350558], [232.2276692390442]
[10.21880779 -4.03111794 51.3061398 ], [232.38868045806885]
[10.2966459  -3.87842146 51.29931747], [232.54995560646057]
[10.40510899 -3.70357669 51.2797531 ], [232.70909976959229]
[10.51463501 -3.5117162  51.26230422], [232.87127351760864]
[10.64183559 -3.30452324 51.24439985], [233.03533744812012]
[10.73543563 -3.09279637 51.2457544 ], [233.1985640525818]
[10.79555433 -2.9062787  51.24918069], [233.39332461357117]
[10.89153748 -2.69593638 51.23883136], [233.55511093139648]
[10.93829351 -2.51268817 51.23427546], [233.8312976360321]
[11.00229752 -2.31721554 51.22150971], [233.99578619003296]
[11.0119819  -2.14742892 51.23582469], [234.1603229045868]
[11.03824438 -1.96620879 51.24295069], [234.32299828529358]
[11.02684079 -1.79062169 51.25664993], [234.51224541664124]
[11.03114368 -1.58552859 51.26785832], [234.70016837120056]
[11.02967176 -1.39085401 51.28572736], [234.8879680633545]
[11.03441605 -1.20233033 51.29416897], [235.0740180015564]
[11.04087051 -1.01194547 51.29889481], [235.23726320266724]
[11.06354794 -0.81664076 51.29858261], [235.39984250068665]
[11.01640285 -0.66910649 51.32014652], [235.56481170654297]
[11.02218011 -0.50433772 51.30955848], [235.75252962112427]
[11.04400065 -0.33056174 51.29260529], [235.94312977790833]
[11.0874093  -0.14659524 51.27418948], [236.1139087677002]
[1.11048214e+01 2.07015393e-02 5.12463543e+01], [236.28132963180542]
[11.13302585  0.19044683 51.22709773], [236.4562554359436]
[11.16402456  0.3844573  51.20515685], [236.63535904884338]
[11.20738186  0.57383188 51.17730421], [236.80841612815857]
[11.26165475  0.77766824 51.14737687], [236.9789617061615]
[11.2559428   0.93118528 51.1318184 ], [237.153329372406]
[11.2754502   1.10536342 51.11049614], [237.32400560379028]
[11.30471579  1.28393187 51.08827468], [237.5001983642578]
[11.34837887  1.47699231 51.06383082], [237.68375945091248]
[11.34255594  1.64568747 51.04989277], [237.8507673740387]
[11.35340666  1.85285692 51.03402796], [238.01963686943054]
[11.36562039  2.07234151 51.01826005], [238.1941225528717]
[11.37693026  2.3102758  51.00052462], [238.36154913902283]
[11.35019053  2.5048799  50.99300935], [238.5280351638794]
[11.34266977  2.72603524 50.98085795], [238.6905198097229]
[11.30217946  2.90669942 50.98277994], [238.8531563282013]
[11.25646676  3.08401806 50.98267612], [239.01992297172546]
[11.22787434  3.2855902  50.97551804], [239.19233679771423]
[11.1941619   3.4675192  50.97256177], [239.35918998718262]
[11.15709217  3.67675865 50.96292579], [239.52178716659546]
[11.13597749  3.87213401 50.95296831], [239.6897678375244]
[11.10860385  4.08967942 50.94301786], [239.8515248298645]
[11.0577568   4.28531586 50.93908   ], [240.01059699058533]
[11.01787219  4.5009654  50.93169024], [240.18036675453186]
[10.93076584  4.67661761 50.94610763], [240.34739112854004]
[10.83700887  4.86617018 50.96376695], [240.51286578178406]
[10.7651544   5.05839231 50.9725992 ], [240.67553734779358]
[10.72102226  5.23749681 50.96262098], [240.837810754776]
[10.64933163  5.38944317 50.95726943], [241.00213050842285]
[10.57553895  5.55384227 50.95145259], [241.1644434928894]
[10.42644014  5.65968971 50.98392502], [241.33115148544312]
[10.303665    5.80978413 50.99710133], [241.49614000320435]
[10.19160755  5.96675023 51.00663366], [241.65813612937927]
[10.10803522  6.1247678  51.00171955], [241.82536959648132]
[10.05348024  6.27373021 50.98626881], [241.98696303367615]
[ 9.99292662  6.37083485 50.9698273 ], [242.14836883544922]
[ 9.93868268  6.50941866 50.9487368 ], [242.33015131950378]
[ 9.88862477  6.67114446 50.91910435], [242.4922480583191]
[ 9.82934639  6.84197854 50.89325813], [242.65470814704895]
[ 9.76649362  7.02674469 50.86904424], [242.81635069847107]
[ 9.71075528  7.20042623 50.84482929], [242.97899317741394]
[ 9.66382457  7.38988791 50.81187027], [243.1386649608612]
[ 9.59819884  7.57568498 50.79503969], [243.30182003974915]
[ 9.49415737  7.69829729 50.79177195], [243.46356749534607]
[ 9.40977224  7.84704634 50.78351452], [243.63465476036072]
[ 9.33282428  8.00363051 50.77247882], [243.80399990081787]
[ 9.26307679  8.15305018 50.75957546], [243.97807669639587]
[ 9.17019968  8.2960211  50.75917387], [244.14925336837769]
[ 9.08396509  8.45329999 50.75266881], [244.3116054534912]
[ 8.93943841  8.55410638 50.76585107], [244.47493290901184]
[ 8.81175415  8.69761259 50.77269106], [244.64272046089172]
[ 8.67787592  8.8517447  50.77428682], [244.82302451133728]
[ 8.55136707  8.99834457 50.77670105], [244.9864363670349]
[ 8.39896468  9.12722601 50.79462297], [245.14650654792786]
[ 8.27745869  9.25728557 50.79693372], [245.31784844398499]
[ 8.16456075  9.39832729 50.78428682], [245.48830318450928]
[ 7.9741281   9.49790216 50.80599743], [245.6541006565094]
[ 7.78364488  9.63334307 50.83185946], [245.864408493042]
[ 7.60105736  9.76691405 50.84776429], [246.0383322238922]
[ 7.40789792  9.91913536 50.86337728], [246.2121331691742]
[ 7.21102008 10.06581877 50.88003134], [246.38562607765198]
[ 7.05021022 10.21613461 50.87102525], [246.55207777023315]
[ 6.88806012 10.33871994 50.86267078], [246.71674489974976]
[ 6.67265384 10.42238985 50.8684965 ], [246.90632486343384]
[ 6.46831882 10.54402242 50.87464618], [247.10317993164062]
[ 6.24891833 10.64963608 50.89458826], [247.26516270637512]
[ 6.01838497 10.76518145 50.90957891], [247.42714190483093]
[ 5.80233667 10.89022604 50.91765832], [247.59248161315918]
[ 5.60555704 11.01479803 50.91170381], [247.76170802116394]
[ 5.44380547 11.13582231 50.88227761], [247.92670893669128]
[ 5.24079368 11.24737002 50.87101817], [248.08991885185242]
[ 5.08249719 11.36058555 50.83861563], [248.25230145454407]
[ 4.90741228 11.48471461 50.81273477], [248.41459202766418]
[ 4.71666686 11.61949245 50.78481318], [248.57897305488586]
[ 4.51798774 11.73870151 50.76560179], [248.7649667263031]
[ 4.30093759 11.87132843 50.77095879], [248.92361783981323]
[ 4.11967216 11.95954736 50.76233567], [249.1126971244812]
[ 3.91882249 12.05459376 50.74509427], [249.30402064323425]
[ 3.74132165 12.09236355 50.72799354], [249.48707151412964]
[ 3.55868457 12.15967936 50.71442952], [249.65276527404785]
[ 3.39573388 12.21182754 50.72710988], [249.81534838676453]
[ 3.20785008 12.26219477 50.70955826], [249.97842383384705]
[ 3.01064976 12.32516571 50.69150894], [250.14292192459106]
[ 2.82891352 12.39583401 50.66122242], [250.3051416873932]
[ 2.65335854 12.45864822 50.63478511], [250.48805904388428]
[ 2.46793896 12.54009    50.60782511], [250.65429759025574]
[ 2.27658423 12.6218448  50.58556602], [250.82199597358704]
[ 2.10803576 12.69279973 50.56525031], [250.9853618144989]
[ 1.9660611  12.74879788 50.54327068], [251.14597868919373]
[ 1.82661569 12.80226997 50.52214553], [251.30913615226746]
[ 1.67575466 12.86381112 50.4980344 ], [251.47200918197632]
[ 1.51041351 12.92394702 50.47955411], [251.63479280471802]
[ 1.33747735 12.9565925  50.47099157], [251.80170917510986]
[ 1.16477963 12.99333788 50.45931653], [251.97214221954346]
[ 0.98023333 13.03241509 50.45777536], [252.13760995864868]
[ 0.79378402 13.06771276 50.4609351 ], [252.2998390197754]
[ 0.65114488 13.08859239 50.44864194], [252.4627707004547]
[ 0.47038108 13.10679693 50.44834662], [252.62578105926514]
[ 0.2905936  13.12532511 50.4423932 ], [252.79118061065674]
[ 0.09562355 13.15163421 50.43623966], [252.95299530029297]
[-0.06076648 13.16466924 50.4267048 ], [253.11869597434998]
[-0.23756734 13.18572064 50.41869808], [253.307434797287]
[-0.43160447 13.21144972 50.40869577], [253.49359560012817]
[-0.60112987 13.22871994 50.39800078], [253.6802704334259]
[-0.74832804 13.21216553 50.40013457], [253.8644561767578]
[-0.86721975 13.16923346 50.41842361], [254.03113627433777]
[-1.0205529  13.10948365 50.44986942], [254.1939299106598]
[-1.19020176 13.06261895 50.47526564], [254.35883688926697]
[-1.37725573 13.01427349 50.50169294], [254.54705786705017]
[-1.6085873  13.06254891 50.49677547], [254.70993185043335]
[-1.81752527 13.08341701 50.47301247], [254.89508032798767]
[-2.01523263 13.07929285 50.44398979], [255.08228135108948]
[-2.1836409  13.03423852 50.43616247], [255.24729323387146]
[-2.36951402 12.97651341 50.4485728 ], [255.40916895866394]
[-2.57270811 12.91106368 50.46564876], [255.5725257396698]
[-2.79121171 12.84550796 50.4844284 ], [255.7400186061859]
[-3.02502258 12.78651648 50.49922089], [255.90632796287537]
[-3.22437529 12.7189801  50.51165822], [256.07904386520386]
[-3.40136117 12.6335892  50.52452048], [256.24220061302185]
[-3.5578175  12.54276645 50.53833513], [256.40259075164795]
[-3.73148807 12.44705758 50.55297423], [256.56561756134033]
[-3.91918928 12.35708809 50.56360736], [256.72922801971436]
[-4.12186864 12.27047034 50.57221357], [256.8919439315796]
[-4.2877445  12.18203839 50.57930113], [257.0597274303436]
[-4.47657662 12.08521145 50.5899587 ], [257.2260591983795]
[-4.62248654 11.98206224 50.59460927], [257.3933653831482]
[-4.78120512 11.90458277 50.59556846], [257.5588493347168]
[-4.95250997 11.83164105 50.59184153], [257.7235345840454]
[-5.13931383 11.75108559 50.58445508], [257.8934953212738]
[-5.29071102 11.66949748 50.57920149], [258.0743191242218]
[-5.46349248 11.58045269 50.57377588], [258.2515733242035]
[-5.63941663 11.51453172 50.55846957], [258.43824768066406]
[-5.78865406 11.43562136 50.54481491], [258.6257061958313]
[-5.95090909 11.36319938 50.52601409], [258.8153500556946]
[-6.12790569 11.28694985 50.50437902], [259.0074255466461]
[-6.31746655 11.21345185 50.48154867], [259.1952815055847]
[-6.52046045 11.14135924 50.45758072], [259.3940284252167]
[-6.7039221  11.06841996 50.43570406], [259.57120752334595]
[-6.88086562 11.00942509 50.40148599], [259.7462270259857]
[-7.07583192 10.94485207 50.36526663], [259.91174030303955]
[-7.24669666 10.9021857  50.33728254], [260.0751383304596]
[-7.40815664 10.84237252 50.32078349], [260.2370309829712]
[-7.59309127 10.77173137 50.30925313], [260.4321277141571]
[-7.79219069 10.69851044 50.29756972], [260.62056827545166]
[-8.00349352 10.62161459 50.28391886], [260.807559967041]
[-8.18313684 10.5485221  50.26656597], [260.9962148666382]
[-8.3755146  10.46002604 50.24841813], [261.1856617927551]
[-8.57963346 10.36636729 50.23060717], [261.3599145412445]
[-8.75260815 10.27087132 50.20916937], [261.52340173721313]
[-8.93956448 10.16112757 50.1882637 ], [261.68785309791565]
[-9.06571747 10.07936076 50.17126   ], [261.85400438308716]
[-9.2092591   9.98639287 50.1544427 ], [262.02058506011963]
[-9.37058034  9.8806161  50.13571393], [262.1819221973419]
[-9.54314641  9.77037381 50.11607984], [262.34730887413025]
[-9.72595532  9.65553986 50.09453246], [262.5127520561218]
[-9.85156255  9.55129595 50.07247721], [262.67696237564087]
[-9.99607679  9.4467002  50.05500326], [262.83817195892334]
[-10.15816886   9.32366404  50.031713  ], [263.0030560493469]
[-10.33332023   9.19151847  50.00665341], [263.16555523872375]
[-10.5173129    9.05129685  49.97892473], [263.3271415233612]
[-10.65747626   8.90455136  49.94854909], [263.50099658966064]
[-10.78431167   8.78681618  49.93106034], [263.65764832496643]
[-10.91297955   8.67552323  49.91241653], [263.8159701824188]
[-11.06234832   8.54449461  49.88663922], [263.9747188091278]
[-11.21813516   8.40987444  49.85983381], [264.222407579422]
[-11.37897728   8.27614185  49.83218766], [264.3866322040558]
[-11.53872055   8.15031064  49.80493736], [264.5492367744446]
[-11.65210516   8.03110229  49.77822535], [264.73189663887024]
[-11.750524     7.93318386  49.76134999], [264.8947696685791]
[-11.86971557   7.81043302  49.73543883], [265.0833749771118]
[-11.9964358    7.68110997  49.70850123], [265.27598214149475]
[-12.12536956   7.5479997   49.68009467], [265.4591774940491]
[-12.25730592   7.41283736  49.65069898], [265.6459906101227]
[-12.3868418    7.28291957  49.62221673], [265.8310627937317]
[-12.52359183   7.14871371  49.5908383 ], [266.00751209259033]
[-12.65320097   7.02118342  49.5607504 ], [266.19569206237793]
[-12.72319847   6.91067101  49.53821182], [266.38655734062195]
[-12.81077186   6.76590725  49.55001266], [266.5700297355652]
[-12.88552249   6.64140403  49.5637626 ], [266.7544059753418]
[-12.97113158   6.49208762  49.576617  ], [266.9349834918976]
[-13.0621966    6.33279006  49.58940472], [267.1188039779663]
[-13.14638319   6.17823428  49.60596366], [267.3023889064789]
[-13.23136017   6.0132775   49.62627632], [267.4916069507599]
[-13.2799577    5.84081526  49.66239472], [267.66373324394226]
[-13.33586355   5.6448259   49.69755479], [267.8273181915283]
[-13.3975741    5.43016691  49.73276608], [267.9947075843811]
[-13.38065757   5.32533715  49.76142411], [268.1586878299713]
[-13.39388998   5.15433665  49.78194952], [268.3219327926636]
[-13.40488931   4.97335184  49.80750409], [268.4819755554199]
[-13.42530414   4.77615984  49.83010362], [268.64065766334534]
[-13.4488577    4.56860246  49.85088812], [268.8021891117096]
[-13.48028614   4.35359321  49.86314205], [268.9741497039795]
[-13.51318547   4.13695452  49.87069789], [269.14068818092346]
[-13.54412768   3.91455688  49.87825959], [269.3130533695221]
[-13.57286459   3.69331804  49.88207393], [269.47415590286255]
[-13.60388773   3.45617017  49.88582667], [269.6442050933838]
[-13.64490903   3.2041072   49.88380293], [269.8101923465729]
[-13.63389534   2.99182304  49.89121548], [269.97046303749084]
[-13.62527315   2.80511849  49.88867398], [270.15074348449707]
[-13.62445145   2.58422584  49.8841821 ], [270.31296372413635]
[-13.61913436   2.34719129  49.88365116], [270.4935965538025]
[-13.61590823   2.09190546  49.88398344], [270.6856806278229]
[-13.61250636   1.82629503  49.88246492], [270.84499883651733]
[-13.63427001   1.57516471  49.8736236 ], [271.00477623939514]
[-13.6360283    1.322494    49.87270479], [271.16746068000793]
[-13.62362529   1.11610833  49.87185048], [271.32850790023804]
[-13.61942029   0.86923598  49.86686034], [271.487535238266]
[-13.61021334   0.66472875  49.86297336], [271.6536235809326]
[-13.60233285   0.42967883  49.86159021], [271.83511090278625]
[-13.58473938   0.19213835  49.8642626 ], [272.0043559074402]
[-13.55689686  -0.04993875  49.87260418], [272.16669058799744]
[-13.50457583  -0.26568795  49.89075674], [272.3330924510956]
[-13.4879734   -0.48801165  49.90025169], [272.5126814842224]
[-13.44997262  -0.70386879  49.9225134 ], [272.6814913749695]
[-13.41925074  -0.94312639  49.94250158], [272.8525104522705]
[-13.38157079  -1.18876516  49.963649  ], [273.04330706596375]
[-13.33951625  -1.44278014  49.98476553], [273.2339677810669]
[-13.27975258  -1.68222813  50.01278138], [273.42246079444885]
[-13.22069435  -1.93597044  50.04325111], [273.60646653175354]
[-13.15517005  -2.19294653  50.07572585], [273.7966070175171]
[-13.08584927  -2.44914561  50.10630711], [273.98322677612305]
[-13.00835777  -2.7085016   50.13694034], [274.148442029953]
[-12.91724132  -2.94601287  50.17623188], [274.30660033226013]
[-12.82400824  -3.20247246  50.21795526], [274.4665517807007]
[-12.71957712  -3.4647918   50.26180741], [274.6279385089874]
[-12.61540033  -3.73586496  50.3063555 ], [274.80537939071655]
[-12.510287    -3.95888905  50.35214763], [274.9753258228302]
[-12.39671706  -4.1846731   50.39673366], [275.13694047927856]
[-12.28251225  -4.38014361  50.44246201], [275.305344581604]
[-12.17194574  -4.56310717  50.49251353], [275.46525287628174]
[-12.05203242  -4.72753404  50.54474009], [275.6248610019684]
[-11.93009275  -4.91302146  50.60015821], [275.7845809459686]
[-11.80020411  -5.10054828  50.65397426], [275.94595861434937]
[-11.66881812  -5.26110087  50.71163614], [276.1067605018616]
[-11.57288157  -5.41080148  50.73969421], [276.26820850372314]
[-11.462354    -5.57201274  50.78376762], [276.43105840682983]
[-11.35054684  -5.71087062  50.82720503], [276.5936255455017]
[-11.22780614  -5.87501535  50.87128541], [276.78015065193176]
[-11.10924941  -6.02450835  50.90539983], [276.93449091911316]
[-10.97431408  -6.16023455  50.9379366 ], [277.1007685661316]
[-10.84436736  -6.27289847  50.97970081], [277.2668182849884]
[-10.70109309  -6.42609541  51.02387811], [277.43073201179504]
[-10.56054131  -6.53095071  51.07349671], [277.606160402298]
[-10.41835416  -6.69525104  51.09599101], [277.78713870048523]
[-10.27303979  -6.85048818  51.12836132], [277.9585876464844]
[-10.13515965  -6.95391616  51.16745246], [278.1181728839874]
[-9.98440571 -7.0891493  51.20511368], [278.27943444252014]
[-9.82178797 -7.23780577 51.24304062], [278.4350583553314]
[-9.66910941 -7.40890285 51.25723176], [278.6090588569641]
[-9.52445751 -7.54606207 51.2857114 ], [278.77887988090515]
[-9.37577348 -7.65344551 51.31809603], [278.94380378723145]
[-9.21783987 -7.742739   51.35532378], [279.10179901123047]
[-9.04062694 -7.84667922 51.38324599], [279.3203673362732]
[-8.86840448 -7.91675818 51.42822671], [279.483704328537]
[-8.71311051 -8.0310056  51.44606683], [279.6559946537018]
[-8.56532252 -8.12693756 51.46914343], [279.821959733963]
[-8.39696924 -8.24451866 51.48269943], [279.98732471466064]
[-8.290697   -8.29878137 51.48621169], [280.1624538898468]
[-8.16039606 -8.39170461 51.50749565], [280.3298978805542]
[-8.01416206 -8.4885578  51.52116306], [280.51669812202454]
[-7.85021915 -8.59679664 51.53464316], [280.70642375946045]
[-7.77648735 -8.68395026 51.50282503], [280.89415526390076]
[-7.66470997 -8.80359645 51.4912428 ], [281.0655744075775]
[-7.56073771 -8.88414831 51.48606147], [281.22766184806824]
[-7.43587509 -9.00103816 51.47543889], [281.3964092731476]
[-7.32710781 -9.08713759 51.47010673], [281.5638885498047]
[-7.18815489 -9.2022238  51.45321633], [281.72851634025574]
[-7.03580629 -9.33554239 51.44466311], [281.8912715911865]
[-6.9198552  -9.46739943 51.41346123], [282.06231236457825]
[-6.80732825 -9.56486381 51.41606864], [282.2489957809448]
[-6.70965114 -9.67426666 51.40603801], [282.42645502090454]
[-6.57668921 -9.80192902 51.39812281], [282.5908167362213]
[-6.44835651 -9.86197071 51.40440321], [282.7498359680176]
[-6.30402536 -9.95464162 51.41045649], [282.9152719974518]
[ -6.13606994 -10.05184974  51.41344392], [283.0761811733246]
[ -5.9441166  -10.15215203  51.4173723 ], [283.24432253837585]
[ -5.76067242 -10.22507404  51.44105346], [283.414183139801]
[ -5.61662683 -10.30990687  51.43795944], [283.59425592422485]
[ -5.49144884 -10.34284837  51.45807169], [283.7529139518738]
[ -5.35935428 -10.41779834  51.45941465], [283.9446153640747]
[ -5.22027943 -10.44226979  51.48173296], [284.13185358047485]
[ -5.05609702 -10.48511048  51.49501736], [284.2959952354431]
[ -4.88361719 -10.51859177  51.52170474], [284.45592999458313]
[ -4.73360948 -10.55979774  51.53309232], [284.6146831512451]
[ -4.5708088  -10.58612475  51.5542246 ], [284.77818059921265]
[ -4.42745466 -10.61305959  51.54177654], [284.93923687934875]
[ -4.32572572 -10.64422161  51.5306289 ], [285.100474357605]
[ -4.19484156 -10.69250421  51.51670716], [285.2846109867096]
[ -4.0439323  -10.74934886  51.51024522], [285.4417235851288]
[ -3.89576535 -10.81165033  51.49901751], [285.60310649871826]
[ -3.72914575 -10.88090288  51.49145049], [285.762216091156]
[ -3.58303888 -10.95213652  51.47077704], [285.9212906360626]
[ -3.4697761  -10.94243991  51.49680043], [286.11756110191345]
[ -3.34174236 -10.95836417  51.49774854], [286.27584433555603]
[ -3.19402141 -10.97677458  51.50463605], [286.43661856651306]
[ -3.02056321 -10.99852826  51.50968765], [286.6027002334595]
[ -2.82626508 -11.02814555  51.51557184], [286.7640097141266]
[ -2.65891415 -11.05668996  51.50473066], [286.9340181350708]
[ -2.52706456 -11.065549    51.49494649], [287.0949983596802]
[ -2.36392154 -11.08425397  51.48489459], [287.2565357685089]
[ -2.17974304 -11.10242801  51.47782495], [287.4143579006195]
[ -2.01123885 -11.11886531  51.46418769], [287.5992877483368]
[ -1.82426047 -11.14870631  51.4585272 ], [287.7606453895569]
[ -1.64296001 -11.17619759  51.44381734], [287.92634177207947]
[ -1.4909805  -11.18964293  51.4356425 ], [288.08910059928894]
[ -1.32040942 -11.21553871  51.43169943], [288.2513029575348]
[ -1.16239545 -11.2409387   51.41960501], [288.4136543273926]
[ -0.97190565 -11.2693278   51.4018387 ], [288.5715003013611]
[ -0.81980805 -11.24799828  51.4183496 ], [288.7647895812988]
[ -0.66096537 -11.1979737   51.44706251], [288.9189143180847]
[ -0.48571233 -11.17200101  51.45946002], [289.10563945770264]
[ -0.32094335 -11.16356559  51.45597741], [289.2807776927948]
[ -0.12570133 -11.14317758  51.45554053], [289.43723011016846]
[  0.08684959 -11.1295281   51.45203525], [289.61387610435486]
[  0.31877231 -11.1114103   51.44130231], [289.7826702594757]
[  0.55209688 -11.0940716   51.44081334], [289.9461781978607]
[  0.77592673 -11.07743904  51.43473235], [290.10985803604126]
[  0.9693474  -11.07494852  51.42362308], [290.2690405845642]
[  1.10346917 -11.01000849  51.45174332], [290.46507024765015]
[  1.2799467  -10.94583874  51.47074061], [290.62684512138367]
[  1.40763628 -10.86884486  51.50068932], [290.78385305404663]
[  1.54871206 -10.80374816  51.51424089], [290.944299697876]
[  1.70870226 -10.73697357  51.53162606], [291.11124062538147]
[  1.86168215 -10.67029241  51.54816229], [291.2756836414337]
[  2.04053719 -10.59331312  51.56565014], [291.4354581832886]
[  2.23305055 -10.50167683  51.59173907], [291.62548422813416]
[  2.42436377 -10.4203303   51.60095878], [291.8171617984772]
[  2.63826513 -10.3324974   51.61104464], [292.0085680484772]
[  2.86367817 -10.26818363  51.59935562], [292.16980600357056]
[  3.06561683 -10.19159821  51.59639584], [292.328736782074]
[  3.28891529 -10.09860786  51.59511952], [292.4945876598358]
[  3.48139934 -10.0086405   51.60691877], [292.6537809371948]
[ 3.63029381 -9.91737664 51.62531319], [292.816447019577]
[ 3.80519386 -9.8056431  51.6434709 ], [292.9738006591797]
[ 4.0006199  -9.68903127 51.66598484], [293.1599519252777]
[ 4.15590737 -9.59533615 51.67925619], [293.34836411476135]
[ 4.31386231 -9.48193375 51.70100935], [293.53718543052673]
[ 4.47222646 -9.37590905 51.71230805], [293.72433948516846]
[ 4.66076844 -9.27674319 51.71123674], [293.919424533844]
[ 4.82938248 -9.17514055 51.71158757], [294.1019458770752]
[ 4.98800479 -9.05862505 51.71649675], [294.2885465621948]
[ 5.10052977 -8.9428789  51.73187326], [294.46868348121643]
[ 5.27165316 -8.8257597  51.72792689], [294.6562612056732]
[ 5.36915493 -8.72375452 51.73690748], [294.8420193195343]
[ 5.47807309 -8.58747148 51.75319309], [295.0024747848511]
[ 5.6227437  -8.47986159 51.75467098], [295.1738452911377]
[ 5.80007689 -8.3765293  51.74331917], [295.36467361450195]
[ 5.93709436 -8.28810994 51.73033263], [295.5438106060028]
[ 6.09255983 -8.19113681 51.71690608], [295.70582127571106]
[ 6.21527858 -8.09659108 51.70675231], [295.8934495449066]
[ 6.32599614 -7.98684492 51.7105185 ], [296.0824987888336]
[ 6.45035258 -7.85293147 51.72088748], [296.3344233036041]
[ 6.61008628 -7.7276275  51.71586016], [296.51999258995056]
[ 6.81089567 -7.61847645 51.69269193], [296.6771683692932]
[ 6.9648418  -7.50217319 51.67784817], [296.8375210762024]
[ 7.15457843 -7.37937466 51.65648126], [297.0221526622772]
[ 7.24819953 -7.27291922 51.64856365], [297.18785881996155]
[ 7.38428736 -7.14234326 51.63406595], [297.34392070770264]
[ 7.50412328 -6.99064799 51.63892655], [297.50461411476135]
[ 7.65671976 -6.84148296 51.63185072], [297.6646537780762]
[ 7.78982768 -6.7224321  51.62308231], [297.82473945617676]
[ 7.93830668 -6.59028737 51.60766251], [297.9901514053345]
[ 8.08080713 -6.45899772 51.58864286], [298.1503164768219]
[ 8.24393087 -6.30617726 51.56939184], [298.31275486946106]
[ 8.4261744  -6.15455286 51.55348068], [298.46940183639526]
[ 8.54310184 -6.0628153  51.52790703], [298.64828634262085]
[ 8.67905496 -5.93561093 51.50204296], [298.80730628967285]
[ 8.77572246 -5.80818373 51.48247343], [298.97181820869446]
[ 8.90171866 -5.67198741 51.45377776], [299.1339735984802]
[ 9.03749859 -5.51496932 51.42999219], [299.2996835708618]
[ 9.18779555 -5.34584061 51.40778788], [299.4668641090393]
[ 9.33645108 -5.16442026 51.38760023], [299.64264583587646]
[ 9.49999733 -4.99629908 51.36680306], [299.8019278049469]
[ 9.63930028 -4.83225801 51.35671175], [299.96270656585693]
[ 9.78514465 -4.66920976 51.34160584], [300.12109303474426]
[ 9.9152454  -4.52791753 51.3247943 ], [300.3094618320465]
[10.04928056 -4.36028712 51.30616806], [300.48808097839355]
[10.14798682 -4.20718532 51.29263874], [300.72078371047974]
[10.2449089  -4.03029736 51.28458346], [300.8940906524658]
[10.34289532 -3.8746283  51.26336882], [301.0835530757904]
[10.44231099 -3.70875885 51.24681548], [301.256893157959]
[10.52777509 -3.52771432 51.24352828], [301.41724395751953]
[10.62813981 -3.33241028 51.23339129], [301.5823383331299]
[10.71704709 -3.13861488 51.22538717], [301.7488000392914]
[10.75829137 -2.96895408 51.2319348 ], [301.9316132068634]
[10.81460061 -2.76553308 51.22880948], [302.0978696346283]
[10.82229456 -2.59211797 51.24784565], [302.2610900402069]
[10.85732147 -2.39655616 51.25315265], [302.4183237552643]
[10.90091386 -2.18098824 51.26133331], [302.57984924316406]
[10.95884643 -1.96812047 51.2654181 ], [302.76500129699707]
[10.96020382 -1.79760035 51.27990847], [302.94989562034607]
[10.97360335 -1.61438926 51.28172135], [303.1368284225464]
[11.00816847 -1.41666328 51.28042786], [303.30221915245056]
[11.04069043 -1.21821679 51.28111616], [303.4623963832855]
[11.02310282 -1.05871906 51.29565702], [303.6259698867798]
[11.03398764 -0.87421305 51.2954074 ], [303.79218101501465]
[11.0069834  -0.71572197 51.30265213], [303.9514989852905]
[11.04571322 -0.54803223 51.27578712], [304.110933303833]
[11.09433314 -0.3692756  51.25103923], [304.27132296562195]
[11.13387396 -0.16840102 51.22733916], [304.43234872817993]
[1.11868160e+01 2.47274077e-02 5.12003516e+01], [304.59426069259644]
[11.19214813  0.18343163 51.18562924], [304.77828550338745]
[11.22523827  0.36757045 51.1606016 ], [304.93668508529663]
[11.25362758  0.57192374 51.13866453], [305.09474539756775]
[11.27892861  0.78962923 51.12214608], [305.2729926109314]
[11.31183992  1.0157575  51.10352398], [305.4799828529358]
[11.31321326  1.17271052 51.09407021], [305.6511447429657]
[11.33948116  1.35539837 51.0754186 ], [305.84298181533813]
[11.32743227  1.50662122 51.06806809], [306.0037317276001]
[11.34754377  1.68743089 51.04752137], [306.25163316726685]
[11.37145328  1.88658267 51.02154821], [306.4113836288452]
[11.39569472  2.07030184 50.99919765], [306.57053542137146]
[11.40892285  2.29643295 50.98335863], [306.7637550830841]
[11.36414231  2.48108086 50.98644689], [306.92190074920654]
[11.33266382  2.7052251  50.98578947], [307.0801887512207]
[11.30397585  2.90770692 50.98994372], [307.2431707382202]
[11.27602992  3.11078803 50.9885446 ], [307.43096137046814]
[11.26015479  3.33312257 50.98387847], [307.5888593196869]
[11.20453892  3.52892543 50.98702729], [307.7484965324402]
[11.17234421  3.72511149 50.98369529], [307.92833161354065]
[11.12346297  3.88077272 50.98213132], [308.09246349334717]
[11.08328329  4.06363195 50.97423907], [308.2619376182556]
[11.0184594   4.24242652 50.97801898], [308.43963170051575]
[10.97065426  4.45412195 50.97259736], [308.61788988113403]
[10.89476045  4.65275525 50.97084467], [308.7851734161377]
[10.81735428  4.80855011 50.96918798], [308.97250413894653]
[10.74977596  4.99910946 50.9622593 ], [309.1693489551544]
[10.70973657  5.18223916 50.94379494], [309.3620743751526]
[10.65986143  5.38491528 50.92822371], [309.5430166721344]
[10.59996276  5.55310847 50.91863037], [309.70289635658264]
[10.52268593  5.71782174 50.9148241 ], [309.86504673957825]
[10.45654402  5.89067328 50.90681376], [310.02617144584656]
[10.38127736  6.08154092 50.89795526], [310.1841011047363]
[10.25366816  6.2214708  50.91564432], [310.3448836803436]
[10.15316923  6.37930384 50.92278526], [310.53060507774353]
[10.05540688  6.55169499 50.92626617], [310.7016682624817]
[ 9.98517784  6.67093231 50.92244954], [310.8620414733887]
[ 9.92196062  6.8137193  50.91167754], [311.0202751159668]
[ 9.87751236  6.96958729 50.88929481], [311.1843204498291]
[ 9.82049132  7.14439816 50.86978177], [311.3452923297882]
[ 9.71801949  7.26937243 50.86379956], [311.50521540641785]
[ 9.62223664  7.43095362 50.85572055], [311.66815996170044]
[ 9.53685396  7.58992037 50.84675822], [311.8307161331177]
[ 9.43761495  7.77116502 50.83958467], [311.9923758506775]
[ 9.25143237  8.01303056 50.85246411], [312.15694880485535]
[ 9.18507477  8.15049661 50.82833413], [312.3207607269287]
[ 9.07858177  8.23551933 50.83198796], [312.4857521057129]
[ 9.01592202  8.30923057 50.82048555], [312.64962935447693]
[ 8.93565243  8.40516256 50.81848502], [312.8323564529419]
[ 8.84574406  8.51599648 50.81723169], [313.01965594291687]
[ 8.74999851  8.6357903  50.81135339], [313.2018928527832]
[ 8.64389222  8.76411587 50.81192801], [313.38514256477356]
[ 8.52934335  8.9009417  50.80878364], [313.56904220581055]
[ 8.39996149  9.04890577 50.80841503], [313.75994062423706]
[ 8.25842052  9.20968794 50.81256133], [313.9217722415924]
[ 8.11245868  9.37116038 50.81949784], [314.0900208950043]
[ 7.966834    9.53920109 50.82162189], [314.2556366920471]
[ 7.77255082  9.6867466  50.83228719], [314.41391229629517]
[ 7.60653543  9.84470401 50.85932629], [314.57378482818604]
[ 7.42942184 10.00202592 50.86378882], [314.7572569847107]
[ 7.25655147 10.15787771 50.86331668], [314.96935176849365]
[ 7.04774173 10.27612645 50.88162375], [315.13305282592773]
[ 6.85382638 10.37874682 50.88846279], [315.31825375556946]
[ 6.64824169 10.49793446 50.89783092], [315.4984407424927]
[ 6.43201566 10.62451191 50.90253182], [315.6819443702698]
[ 6.21476353 10.73324166 50.91398965], [315.86562490463257]
[ 6.01719411 10.83502868 50.91868483], [316.0498299598694]
[ 5.79621571 10.91565803 50.92686745], [316.23101687431335]
[ 5.57853743 11.0154704  50.92869039], [316.41293716430664]
[ 5.37395626 11.09652555 50.92442218], [316.59951615333557]
[ 5.16405549 11.20204114 50.92038993], [316.785432100296]
[ 4.98582155 11.30420292 50.89864166], [316.9689667224884]
[ 4.80587213 11.42544064 50.86999515], [317.15913438796997]
[ 4.65311622 11.53666217 50.83022661], [317.341237783432]
[ 4.4693673  11.63544664 50.79928535], [317.52455496788025]
[ 4.2845184  11.74826904 50.7640478 ], [317.709201335907]
[ 4.07538218 11.86883298 50.73076476], [317.89022850990295]
[ 3.88566559 11.97491001 50.69937453], [318.05076813697815]
[ 3.70902827 12.07520475 50.6706978 ], [318.21623039245605]
[ 3.56135048 12.16860031 50.63265145], [318.37864899635315]
[ 3.39749046 12.27828705 50.59797317], [318.5352234840393]
[ 3.22747996 12.4050109  50.55829745], [318.7265269756317]
[ 3.06503195 12.52051548 50.5253536 ], [318.88728404045105]
[ 2.91393704 12.60371321 50.50226215], [319.05202412605286]
[ 2.73417143 12.68698564 50.48742174], [319.21422719955444]
[ 2.59652079 12.73837306 50.47305861], [319.3937408924103]
[ 2.4169185  12.76451337 50.46960037], [319.5572648048401]
[ 2.23926417 12.81724204 50.46971754], [319.7199685573578]
[ 2.04049858 12.87482049 50.46731431], [319.8891792297363]
[ 1.88129778 12.91300907 50.46420624], [320.0487051010132]
[ 1.713487   12.96312625 50.46442973], [320.2115201950073]
[ 1.56713134 12.99063765 50.44948182], [320.3710596561432]
[ 1.39706594 13.0321079  50.44512469], [320.55468797683716]
[ 1.26520021 13.06605231 50.42519594], [320.71857619285583]
[ 1.11437457 13.10737342 50.41431576], [320.8796167373657]
[ 0.95769617 13.14393584 50.40632635], [321.0467553138733]
[ 0.78109293 13.17943467 50.40113705], [321.2131886482239]
[ 0.5924985  13.21341433 50.39962901], [321.3742005825043]
[ 0.39082246 13.2485321  50.40083503], [321.6003119945526]
[ 0.22380633 13.25602581 50.39715216], [321.7623710632324]
[4.14172797e-02 1.32819194e+01 5.03890535e+01], [321.92184615135193]
[-0.10741083 13.29134852 50.37221262], [322.0884072780609]
[-0.2876222  13.30922781 50.36329841], [322.25573897361755]
[-0.46517027 13.32473968 50.34521059], [322.4503939151764]
[-0.65512828 13.30081841 50.36321265], [322.63480591773987]
[-0.82760712 13.24262089 50.39847919], [322.82091784477234]
[-1.01359899 13.18173352 50.43634179], [323.0067095756531]
[-1.20006691 13.12381817 50.46945046], [323.187833070755]
[-1.36419716 13.06370866 50.49526905], [323.37408924102783]
[-1.54388643 13.00369748 50.52280652], [323.55917716026306]
[-1.73412274 13.00609746 50.49693718], [323.7444453239441]
[-1.92585887 13.01456453 50.47491785], [323.9070062637329]
[-2.11318973 13.00732423 50.4532781 ], [324.0790784358978]
[-2.28908984 12.96975039 50.4489015 ], [324.251136302948]
[-2.45952475 12.91944428 50.4547827 ], [324.4103162288666]
[-2.64735385 12.86905343 50.46140051], [324.57602643966675]
[-2.84947035 12.82415893 50.46685006], [324.74884009361267]
[-3.06586007 12.78442876 50.47024721], [324.9096188545227]
[-3.26167498 12.7446774  50.47005868], [325.0697009563446]
[-3.47876341 12.70039311 50.47068328], [325.23036527633667]
[-3.66224643 12.64859342 50.46425125], [325.42411494255066]
[-3.81524271 12.57190997 50.46036142], [325.585684299469]
[-3.9982153  12.49831672 50.46231822], [325.78314185142517]
[-4.19603863 12.42477749 50.46144142], [325.9412009716034]
[-4.40370702 12.35387429 50.45946491], [326.1003510951996]
[-4.57749465 12.27565956 50.45055752], [326.25890278816223]
[-4.76906149 12.20325117 50.44114669], [326.4632468223572]
[-4.95328124 12.12546101 50.43286997], [326.62739086151123]
[-5.15999783 12.04493463 50.4224909 ], [326.78696179389954]
[-5.38201443 11.96624637 50.41000553], [326.9453980922699]
[-5.56858201 11.87832066 50.39810213], [327.10877203941345]
[-5.75746484 11.82833394 50.37580383], [327.2673017978668]
[-5.95283681 11.78221911 50.35289687], [327.4287929534912]
[-6.11845646 11.72287682 50.34033647], [327.5888829231262]
[-6.30708555 11.64873479 50.33423827], [327.7493271827698]
[-6.49174478 11.59676249 50.33227899], [327.9136552810669]
[-6.69187132 11.54814846 50.328599  ], [328.0800082683563]
[-6.86185389 11.48315841 50.31479359], [328.2366030216217]
[-7.02471459 11.413901   50.30404303], [328.3987729549408]
[-7.1919161  11.33315844 50.29314689], [328.55643343925476]
[-7.34224715 11.24551851 50.28057983], [328.71778321266174]
[-7.48787702 11.14960191 50.26881751], [328.87813925743103]
[-7.6526804  11.04230895 50.25870575], [329.0374712944031]
[-7.83080133 10.93075038 50.24876681], [329.20050406455994]
[-8.02202614 10.81548472 50.23781363], [329.37281227111816]
[-8.22740975 10.69572633 50.22520779], [329.5415503978729]
[-8.42200206 10.61168517 50.21734454], [329.73359537124634]
[-8.62716276 10.52599361 50.20360437], [329.9181897640228]
[-8.81255779 10.42942704 50.18350794], [330.0999948978424]
[-9.00767006 10.32043876 50.16365804], [330.2973563671112]
[-9.16129317 10.20447989 50.14055462], [330.48993039131165]
[-9.3168926  10.09310449 50.12377596], [330.67616415023804]
[-9.44291948  9.98128952 50.10512611], [330.86785984039307]
[-9.55868764  9.88297952 50.09234199], [331.07028126716614]
[-9.69424702  9.7686958  50.0758429 ], [331.26923513412476]
[-9.83960143  9.64996309 50.05875968], [331.4634921550751]
[-9.99260542  9.52778141 50.04019604], [331.6453411579132]
[-10.15499573   9.40074429  50.01967425], [331.8125479221344]
[-10.32857191   9.26744846  49.99667939], [332.0082483291626]
[-10.51398672   9.12752216  49.97089761], [332.2030656337738]
[-10.6614777    8.99286375  49.94465574], [332.39486479759216]
[-10.79876138   8.87452412  49.92506103], [332.567911863327]
[-10.95096691   8.74215994  49.90022686], [332.7353208065033]
[-11.1049585    8.61216764  49.8757366 ], [332.90581464767456]
[-11.26733606   8.47762356  49.84851992], [333.0651388168335]
[-11.40192531   8.36008787  49.82489418], [333.2307403087616]
[-11.51013608   8.25495626  49.80463318], [333.41274213790894]
[-11.63477406   8.12376076  49.7776495 ], [333.584547996521]
[-11.76080139   7.9916508   49.75239608], [333.7658836841583]
[-11.8856732    7.86545792  49.72844042], [333.932245016098]
[-12.01707868   7.73472666  49.70158664], [334.1099591255188]
[-12.14769337   7.60555397  49.67436653], [334.2709000110626]
[-12.28115378   7.47281397  49.64508172], [334.43179512023926]
[-12.41519242   7.34163981  49.61565888], [334.60698795318604]
[-12.49252731   7.2257716   49.59224961], [334.794634103775]
[-12.58748767   7.09140896  49.56642816], [334.99053835868835]
[-12.68714337   6.94896751  49.539154  ], [335.19123816490173]
[-12.77700679   6.81450845  49.51533505], [335.3796262741089]
[-12.86967183   6.67455872  49.48927855], [335.57785725593567]
[-12.9559742    6.53889126  49.46508992], [335.7629141807556]
[-13.04696026   6.39230594  49.44986639], [335.95655250549316]
[-13.13515771   6.23567359  49.4644593 ], [336.142324924469]
[-13.22818188   6.06871905  49.47996863], [336.3280394077301]
[-13.31866919   5.8992356   49.49832967], [336.5145015716553]
[-13.41334934   5.71714064  49.51771749], [336.69795989990234]
[-13.50183677   5.53323577  49.54095885], [336.8817961215973]
[-13.59674799   5.33242841  49.56504262], [337.04840326309204]
[-13.65893674   5.11763447  49.6030995 ], [337.21751165390015]
[-13.72103236   4.8807732   49.64111955], [337.3847723007202]
[-13.71848384   4.73346057  49.66975682], [337.54812240600586]
[-13.73086914   4.55348839  49.69678636], [337.7030699253082]
[-13.74609028   4.35217063  49.72314467], [337.85499119758606]
[-13.76269451   4.13534341  49.7495439 ], [338.00480365753174]
[-13.78641337   3.90985092  49.7702215 ], [338.1556513309479]
[-13.79095744   3.69648294  49.79313194], [338.31305027008057]
[-13.79799559   3.4672247   49.80938515], [338.4787931442261]
[-13.80605844   3.22803148  49.82285026], [338.66937160491943]
[-13.81282093   2.9937534   49.83159776], [338.83571004867554]
[-13.80695074   2.77122942  49.83956775], [338.997522354126]
[-13.80994158   2.53547133  49.84254778], [339.15064120292664]
[-13.81054982   2.29946007  49.8418833 ], [339.3108286857605]
[-13.80926885   2.04913657  49.84213139], [339.4680140018463]
[-13.80784484   1.78948262  49.83957117], [339.6279492378235]
[-13.79883711   1.5264034   49.83897347], [339.7946493625641]
[-13.76500134   1.3126177   49.84338044], [339.9528830051422]
[-13.7198423    1.09020822  49.84960206], [340.1123514175415]
[-13.69090662   0.85035327  49.85072456], [340.2780272960663]
[-13.63590535   0.6408577   49.86272188], [340.49733686447144]
[-13.61515679   0.43170686  49.86515934], [340.6816029548645]
[-13.59644875   0.19908453  49.86955079], [340.85944867134094]
[-1.36211224e+01 -3.30445037e-02  4.98672363e+01], [341.0129599571228]
[-13.63438642  -0.28365126  49.86256951], [341.16873264312744]
[-13.63161396  -0.52779053  49.87120718], [341.343186378479]
[-13.61965034  -0.77047575  49.87990142], [341.52434396743774]
[-13.59493392  -1.01166628  49.89714153], [341.68487334251404]
[-13.5721781   -1.27024768  49.91229644], [341.8709523677826]
[-13.52416802  -1.49138004  49.93654279], [342.02744245529175]
[-13.47620565  -1.73786355  49.96216629], [342.17836356163025]
